{"result":true,"data":[{"id":45305,"title":"Beers of Joy","kp_id":"1243140","imdb_id":"tt7661396","world_art_id":null,"type":"movie","add":"2020-11-14 17:26:59","orig_title":"Beers of Joy","year":"2019-03-01","translations":["Original (English)"],"quality":"webdl","translation":"Original (English)","update":"2020-11-15 07:29:00","iframe_src":"//8332.svetacdn.in/71tsRs29n5tZ/movie/45305"},{"id":45302,"title":"Шутки в сторону","kp_id":"1245990","imdb_id":"tt8906524","world_art_id":null,"type":"movie","add":"2020-11-14 10:31:08","orig_title":"All Joking Aside","year":"2020-08-14","translations":["Любительский (многоголосый закадровый) (@MUZOBOZ@)"],"quality":"webdl","translation":"Любительский (многоголосый закадровый) (@MUZOBOZ@)","update":"2020-11-14 15:16:18","iframe_src":"//8332.svetacdn.in/71tsRs29n5tZ/movie/45302"},{"id":45300,"title":"Вся жизнь впереди","kp_id":"1284542","imdb_id":"tt10627584","world_art_id":null,"type":"movie","add":"2020-11-13 23:46:51","orig_title":"La vita davanti a sé","year":"2020-11-06","translations":["Любительский (многоголосый закадровый) (@MUZOBOZ@)"],"quality":"webdl","translation":"Любительский (многоголосый закадровый) (@MUZOBOZ@)","update":"2020-11-14 15:15:45","iframe_src":"//8332.svetacdn.in/71tsRs29n5tZ/movie/45300"},{"id":45280,"title":"Домашний режим","kp_id":"1152620","imdb_id":"tt8473642","world_art_id":null,"type":"movie","add":"2020-11-13 18:44:29","orig_title":"Domestik","year":"2018-07-03","translations":["Любительский (многоголосый закадровый) (Синема УС)"],"quality":"webdl","translation":"Любительский (многоголосый закадровый) (Синема УС)","update":"2020-11-14 12:15:11","iframe_src":"//8332.svetacdn.in/71tsRs29n5tZ/movie/45280"},{"id":45279,"title":"Голубой Голливуд","kp_id":"976057","imdb_id":"tt5588118","world_art_id":null,"type":"movie","add":"2020-11-13 18:41:12","orig_title":"Blue Hollywood","year":"2017-09-08","translations":["Любительский (многоголосый закадровый) (Синема УС)"],"quality":"webdl","translation":"Любительский (многоголосый закадровый) (Синема УС)","update":"2020-11-14 12:15:41","iframe_src":"//8332.svetacdn.in/71tsRs29n5tZ/movie/45279"},{"id":45278,"title":"Непокорный","kp_id":"1127089","imdb_id":"tt8364418","world_art_id":null,"type":"movie","add":"2020-11-13 18:39:27","orig_title":"Adanga Maru","year":"2018-12-20","translations":["Любительский (многоголосый закадровый) (Синема УС)"],"quality":"webdl","translation":"Любительский (многоголосый закадровый) (Синема УС)","update":"2020-11-14 12:16:07","iframe_src":"//8332.svetacdn.in/71tsRs29n5tZ/movie/45278"},{"id":45277,"title":"На краю ринга","kp_id":"1237982","imdb_id":"tt9780822","world_art_id":null,"type":"movie","add":"2020-11-13 18:38:03","orig_title":"Ringside","year":"2019-02-10","translations":["Любительский (многоголосый закадровый) (Синема УС)"],"quality":"webdl","translation":"Любительский (многоголосый закадровый) (Синема УС)","update":"2020-11-14 12:16:27","iframe_src":"//8332.svetacdn.in/71tsRs29n5tZ/movie/45277"},{"id":45276,"title":"Готовы на всё. Экстерминатор","kp_id":"1063728","imdb_id":"tt6947528","world_art_id":null,"type":"movie","add":"2020-11-13 18:36:46","orig_title":"Gotowi na wszystko. Exterminator","year":"2018-01-04","translations":["Любительский (многоголосый закадровый) (Синема УС)"],"quality":"webdl","translation":"Любительский (многоголосый закадровый) (Синема УС)","update":"2020-11-14 12:16:58","iframe_src":"//8332.svetacdn.in/71tsRs29n5tZ/movie/45276"},{"id":45275,"title":"Моя возлюбленная незнакомка","kp_id":"1298931","imdb_id":"tt10873326","world_art_id":null,"type":"movie","add":"2020-11-13 18:34:52","orig_title":"Nguoi La Oi","year":"2019-09-09","translations":["Любительский (многоголосый закадровый) (Синема УС)"],"quality":"webdl","translation":"Любительский (многоголосый закадровый) (Синема УС)","update":"2020-11-14 12:17:22","iframe_src":"//8332.svetacdn.in/71tsRs29n5tZ/movie/45275"},{"id":45273,"title":"Сила привычки","kp_id":"1231821","imdb_id":"tt9624686","world_art_id":null,"type":"movie","add":"2020-11-13 18:30:08","orig_title":"Tottumiskysymys","year":"2019-09-13","translations":["Любительский (многоголосый закадровый) (Синема УС)"],"quality":"hdtv","translation":"Любительский (многоголосый закадровый) (Синема УС)","update":"2020-11-14 12:17:47","iframe_src":"//8332.svetacdn.in/71tsRs29n5tZ/movie/45273"},{"id":45270,"title":"История Марии","kp_id":"1195910","imdb_id":"tt7742072","world_art_id":null,"type":"movie","add":"2020-11-13 18:22:07","orig_title":"Maria's Tale","year":"2018-11-12","translations":["Любительский (многоголосый закадровый) (Синема УС)"],"quality":"webdl","translation":"Любительский (многоголосый закадровый) (Синема УС)","update":"2020-11-14 12:18:13","iframe_src":"//8332.svetacdn.in/71tsRs29n5tZ/movie/45270"},{"id":45267,"title":"Дева","kp_id":"1185623","imdb_id":"tt8898164","world_art_id":null,"type":"movie","add":"2020-11-13 18:17:23","orig_title":"Deva","year":"2018-08-31","translations":["Любительский (многоголосый закадровый) (AlphaProject)"],"quality":"webdl","translation":"Любительский (многоголосый закадровый) (AlphaProject)","update":"2020-11-14 12:18:43","iframe_src":"//8332.svetacdn.in/71tsRs29n5tZ/movie/45267"},{"id":45266,"title":"Приговорённая к смерти","kp_id":"1205082","imdb_id":"tt9177626","world_art_id":null,"type":"movie","add":"2020-11-13 18:15:56","orig_title":"Left for Dead","year":"2018-10-19","translations":["Любительский (многоголосый закадровый) (Синема УС)"],"quality":"webdl","translation":"Любительский (многоголосый закадровый) (Синема УС)","update":"2020-11-14 12:19:06","iframe_src":"//8332.svetacdn.in/71tsRs29n5tZ/movie/45266"},{"id":45264,"title":"Позорные фотографии из семейного альбома, или разрушенная печень и разбитое сердце","kp_id":"1164863","imdb_id":"tt8512676","world_art_id":null,"type":"movie","add":"2020-11-13 18:10:35","orig_title":"Krepujace zdjecia z rodzinnego albumu, czyli zniszczona watroba i zlamane serce","year":"2018-01-01","translations":["Любительский (многоголосый закадровый) (Синема УС)"],"quality":"hdtv","translation":"Любительский (многоголосый закадровый) (Синема УС)","update":"2020-11-14 12:19:30","iframe_src":"//8332.svetacdn.in/71tsRs29n5tZ/movie/45264"},{"id":45085,"title":"Жилет","kp_id":null,"imdb_id":"tt9419976","world_art_id":null,"type":"movie","add":"2020-11-07 14:26:27","orig_title":"Triggered","year":"2020-08-28","translations":["Любительский (многоголосый закадровый) (@MUZOBOZ@)","Original (English)"],"quality":"webdl","translation":"Любительский (многоголосый закадровый) (@MUZOBOZ@)","update":"2020-11-15 17:17:08","iframe_src":"//8332.svetacdn.in/71tsRs29n5tZ/movie/45085"},{"id":43810,"title":"Легенда о Пяти","kp_id":"1200087","imdb_id":"tt9010360","world_art_id":null,"type":"movie","add":"2020-09-23 22:23:16","orig_title":"The Legend of the Five","year":"2020-06-25","translations":["Любительский (многоголосый закадровый) (@MUZOBOZ@)","Original (English)"],"quality":"webdl","translation":"Любительский (многоголосый закадровый) (@MUZOBOZ@)","update":"2020-11-16 10:00:13","iframe_src":"//8332.svetacdn.in/71tsRs29n5tZ/movie/43810"},{"id":37701,"title":"Грекзит","kp_id":"1092651","imdb_id":"tt7493370","world_art_id":null,"type":"movie","add":"2020-03-10 13:49:40","orig_title":"Adults in the Room","year":"2019-08-31","translations":["Любительский (многоголосый закадровый) (Синема УС)","Профессиональный (многоголосый закадровый) (iTunes)"],"quality":"webdl","translation":"Любительский (многоголосый закадровый) (Синема УС)","update":"2020-11-14 21:38:12","iframe_src":"//8332.svetacdn.in/71tsRs29n5tZ/movie/37701"},{"id":23299,"title":"Экстремальная работа","kp_id":"1108600","imdb_id":"tt9541602","world_art_id":null,"type":"movie","add":"2019-03-20 11:19:05","orig_title":"Geukhanjikeop","year":"2019-01-23","translations":["Любительский (многоголосый закадровый) (Колобок)","Любительский (многоголосый закадровый) (Синема УС)","Любительский (многоголосый закадровый) (Mallorn Studio)","Профессиональный (многоголосый закадровый)","Профессиональный (многоголосый закадровый) (iTunes)"],"quality":"webdl","translation":"Любительский (многоголосый закадровый) (Колобок)","update":"2020-11-16 10:41:39","iframe_src":"//8332.svetacdn.in/71tsRs29n5tZ/movie/23299"},{"id":3218,"title":"Близкие друзья","kp_id":"262973","imdb_id":"tt0262985","world_art_id":null,"type":"serial","add":"2018-09-25 08:34:30","orig_title":"Queer as Folk","year":"2000-12-03","translations":["Любительский (двухголосый закадровый) (GoldTeam)"],"seasons_count":5,"episodes_count":82,"episodes":13,"update":"2018-09-26 23:52:05","iframe_src":"//8332.svetacdn.in/71tsRs29n5tZ/tv-series/3218"},{"id":3217,"title":"Сватьи","kp_id":"838927","imdb_id":null,"world_art_id":null,"type":"serial","add":"2018-09-25 05:47:09","orig_title":"Сватьи","year":"2014-04-14","translations":["Оригинальная дорожка"],"seasons_count":1,"episodes_count":12,"episodes":12,"update":"2018-09-25 19:41:38","iframe_src":"//8332.svetacdn.in/71tsRs29n5tZ/tv-series/3217"},{"id":3213,"title":"Красавчик","kp_id":"774514","imdb_id":"tt3350766","world_art_id":null,"type":"serial","add":"2018-09-24 11:49:14","orig_title":"Yebbeun namja","year":"2013-11-20","translations":["Любительский (двухголосый закадровый) (GREEN TEA)"],"seasons_count":1,"episodes_count":16,"episodes":16,"update":"2018-09-27 07:39:02","iframe_src":"//8332.svetacdn.in/71tsRs29n5tZ/tv-series/3213"},{"id":3212,"title":"Наследство","kp_id":"1162500","imdb_id":null,"world_art_id":null,"type":"serial","add":"2018-09-24 11:25:46","orig_title":"Наследство","year":"2018-09-01","translations":["Оригинальная дорожка"],"seasons_count":1,"episodes_count":2,"episodes":2,"update":"2018-09-25 10:00:39","iframe_src":"//8332.svetacdn.in/71tsRs29n5tZ/tv-series/3212"},{"id":3211,"title":"Хорошая игра","kp_id":"1083754","imdb_id":"tt6533132","world_art_id":null,"type":"serial","add":"2018-09-24 11:02:58","orig_title":"Good Game","year":"2017-08-30","translations":["Любительский (двухголосый закадровый) (GoldTeam)"],"seasons_count":1,"episodes_count":6,"episodes":6,"update":"2018-09-25 10:02:35","iframe_src":"//8332.svetacdn.in/71tsRs29n5tZ/tv-series/3211"},{"id":3210,"title":"Обитатели больницы","kp_id":"1108392","imdb_id":"tt6819788","world_art_id":null,"type":"serial","add":"2018-09-24 10:54:25","orig_title":"Hospital People","year":"2017-04-21","translations":["Любительский (двухголосый закадровый) (SNK-TV)"],"seasons_count":1,"episodes_count":6,"episodes":6,"update":"2018-09-25 10:07:02","iframe_src":"//8332.svetacdn.in/71tsRs29n5tZ/tv-series/3210"},{"id":3209,"title":"Мое сердце с тобой","kp_id":"1189793","imdb_id":null,"world_art_id":null,"type":"serial","add":"2018-09-24 10:29:13","orig_title":"Мое сердце с тобой","year":"2018-09-22","translations":["Оригинальная дорожка"],"seasons_count":1,"episodes_count":2,"episodes":2,"update":"2018-09-25 10:11:22","iframe_src":"//8332.svetacdn.in/71tsRs29n5tZ/tv-series/3209"},{"id":3208,"title":"Вегас","kp_id":"669598","imdb_id":"tt2262383","world_art_id":null,"type":"serial","add":"2018-09-24 10:18:03","orig_title":"Vegas","year":"2012-09-25","translations":["Профессиональный (многоголосый закадровый)"],"seasons_count":1,"episodes_count":21,"episodes":21,"update":"2018-09-25 10:17:38","iframe_src":"//8332.svetacdn.in/71tsRs29n5tZ/tv-series/3208"},{"id":3206,"title":"Биобаба","kp_id":"278076","imdb_id":"tt0880557","world_art_id":null,"type":"serial","add":"2018-09-23 10:42:06","orig_title":"Bionic Woman","year":"2007-09-26","translations":["Любительский (двухголосый закадровый)"],"seasons_count":1,"episodes_count":8,"episodes":8,"update":"2018-09-25 11:01:09","iframe_src":"//8332.svetacdn.in/71tsRs29n5tZ/tv-series/3206"},{"id":3205,"title":"Дети Дюны","kp_id":"77218","imdb_id":"tt0287839","world_art_id":null,"type":"serial","add":"2018-09-23 10:31:23","orig_title":"Children of Dune","year":"2003-03-16","translations":["Профессиональный (многоголосый закадровый)"],"seasons_count":1,"episodes_count":3,"episodes":3,"update":"2018-09-26 13:54:49","iframe_src":"//8332.svetacdn.in/71tsRs29n5tZ/tv-series/3205"},{"id":3204,"title":"Дюна","kp_id":"229087","imdb_id":"tt0142032","world_art_id":null,"type":"serial","add":"2018-09-23 10:29:08","orig_title":"Dune","year":"2000-12-03","translations":["Профессиональный (многоголосый закадровый)"],"seasons_count":1,"episodes_count":3,"episodes":3,"update":"2018-09-26 13:51:23","iframe_src":"//8332.svetacdn.in/71tsRs29n5tZ/tv-series/3204"},{"id":3194,"title":"Лучший выстрел","kp_id":null,"imdb_id":"tt7661234","world_art_id":null,"type":"serial","add":"2018-09-20 08:28:53","orig_title":"Best Shot","year":"2018-07-18","translations":["Любительский (двухголосый закадровый) (GoldTeam)"],"seasons_count":1,"episodes_count":1,"episodes":1,"update":"2018-09-21 09:38:44","iframe_src":"//8332.svetacdn.in/71tsRs29n5tZ/tv-series/3194"},{"id":3162,"title":"Зона","kp_id":"1046219","imdb_id":"tt6693154","world_art_id":null,"type":"serial","add":"2018-09-12 20:37:03","orig_title":"La zona","year":"2017-10-27","translations":["Профессиональный (многоголосый закадровый) (GreenРай Studio)"],"seasons_count":1,"episodes_count":8,"episodes":8,"update":"2018-09-20 20:09:01","iframe_src":"//8332.svetacdn.in/71tsRs29n5tZ/tv-series/3162"},{"id":3095,"title":"Банкротство","kp_id":"972891","imdb_id":"tt4117294","world_art_id":null,"type":"serial","add":"2018-08-28 16:18:37","orig_title":"Bankerot","year":"2014-10-16","translations":["Любительский (двухголосый закадровый) (GoldTeam)"],"seasons_count":2,"episodes_count":16,"episodes":8,"update":"2018-09-20 20:25:39","iframe_src":"//8332.svetacdn.in/71tsRs29n5tZ/tv-series/3095"},{"id":3074,"title":"Невинные","kp_id":"1117959","imdb_id":"tt8021824","world_art_id":null,"type":"serial","add":"2018-08-24 12:05:22","orig_title":"The Innocents","year":"2018-08-24","translations":["Любительский (двухголосый закадровый) (Sunshine Studio)","Профессиональный (многоголосый закадровый) (LostFilm)"],"seasons_count":1,"episodes_count":8,"episodes":8,"update":"2018-09-20 19:59:03","iframe_src":"//8332.svetacdn.in/71tsRs29n5tZ/tv-series/3074"},{"id":2962,"title":"30, но 17","kp_id":"1115103","imdb_id":"tt8648696","world_art_id":null,"type":"serial","add":"2018-07-25 07:19:28","orig_title":"Seoreunijiman Yeolilgobibmida","year":"2018-07-23","translations":["Любительский (двухголосый закадровый) (HighHopes)","Любительский (двухголосый закадровый) (SoftBox)"],"seasons_count":1,"episodes_count":48,"episodes":48,"update":"2018-09-22 06:46:42","iframe_src":"//8332.svetacdn.in/71tsRs29n5tZ/tv-series/2962"},{"id":17827,"title":"Гномы Драконьей горы","kp_id":"1016644","imdb_id":"tt4836580","world_art_id":null,"type":"movie","add":"2018-07-22 15:48:45","orig_title":"The Dwarves of Demrel","year":"2018-05-14","translations":["Любительский (многоголосый закадровый) (Синема УС)","Любительский (двухголосый закадровый) (HiWayGrope)","Профессиональный (многоголосый закадровый) (HDrezka Studio)","Профессиональный (многоголосый закадровый) (HDrezka Studio)"],"quality":"dvdrip","translation":"Любительский (многоголосый закадровый) (Синема УС)","update":"2020-11-15 15:54:15","iframe_src":"//8332.svetacdn.in/71tsRs29n5tZ/movie/17827"},{"id":2669,"title":"Беззаконный адвокат","kp_id":"1112576","imdb_id":"tt8160178","world_art_id":null,"type":"serial","add":"2018-05-28 05:09:55","orig_title":"Mubeop Byeonhosa","year":"2018-05-13","translations":["Любительский (двухголосый закадровый)","Любительский (двухголосый закадровый) (SoftBox)"],"seasons_count":1,"episodes_count":16,"episodes":16,"update":"2018-09-24 14:48:14","iframe_src":"//8332.svetacdn.in/71tsRs29n5tZ/tv-series/2669"},{"id":2415,"title":"Приключения Электроника","kp_id":"77284","imdb_id":"tt0078673","world_art_id":null,"type":"serial","add":"2018-04-16 23:10:23","orig_title":"Priklyucheniya Elektronika","year":"1980-05-02","translations":["Оригинальная дорожка"],"seasons_count":1,"episodes_count":3,"episodes":3,"update":"2018-09-24 10:09:49","iframe_src":"//8332.svetacdn.in/71tsRs29n5tZ/tv-series/2415"},{"id":1784,"title":"Ментовские войны 11","kp_id":"1101300","imdb_id":null,"world_art_id":null,"type":"serial","add":"2017-11-30 06:32:31","orig_title":"Ментовские войны 11","year":"2017-11-27","translations":["Оригинальная дорожка"],"seasons_count":1,"episodes_count":16,"episodes":16,"update":"2018-09-21 07:16:07","iframe_src":"//8332.svetacdn.in/71tsRs29n5tZ/tv-series/1784"},{"id":7199,"title":"Мышиная охота","kp_id":"6898","imdb_id":"tt0119715","world_art_id":null,"type":"movie","add":"2016-11-08 15:13:17","orig_title":"Mousehunt","year":"1997-12-19","translations":["Полное дублирование","Профессиональный (многоголосый закадровый) (Премьер Видео Фильм)","Original (English)","Полное дублирование (Ист-Вест)","Авторский (одноголосый закадровый) (Котов Вячеслав)","Авторский (одноголосый закадровый) (Кашкин Александр | Первомайский)","Авторский (одноголосый закадровый) (Гаврилов Андрей)"],"quality":"webdl","translation":"Полное дублирование","update":"2020-11-16 08:07:01","iframe_src":"//8332.svetacdn.in/71tsRs29n5tZ/movie/7199"},{"id":536,"title":"Универ. Новая общага","kp_id":"630165","imdb_id":"tt3752220","world_art_id":null,"type":"serial","add":"2016-10-18 18:34:35","orig_title":"Univer. Novaya obschaga","year":"2016-10-10","translations":["Оригинальная дорожка"],"seasons_count":15,"episodes_count":294,"episodes":19,"update":"2018-09-25 20:05:48","iframe_src":"//8332.svetacdn.in/71tsRs29n5tZ/tv-series/536"}],"current_page":422,"first_page_url":"https://videocdn.tv/api/short?limit=100&api_token=EnbO9h8pv1VyjbCJhg0WM9nG259n7mtz&cache3422=3422&page=1","from":42101,"last_page":634,"last_page_url":"https://videocdn.tv/api/short?limit=100&api_token=EnbO9h8pv1VyjbCJhg0WM9nG259n7mtz&cache3422=3422&page=634","next_page_url":"https://videocdn.tv/api/short?limit=100&api_token=EnbO9h8pv1VyjbCJhg0WM9nG259n7mtz&cache3422=3422&page=423","path":"https://videocdn.tv/api/short","per_page":100,"prev_page_url":"https://videocdn.tv/api/short?limit=100&api_token=EnbO9h8pv1VyjbCJhg0WM9nG259n7mtz&cache3422=3422&page=421","to":42140,"total":63367}