{"result":true,"data":[{"id":44877,"title":"23 прогулки","kp_id":"1257258","imdb_id":"tt9699620","world_art_id":null,"type":"movie","add":"2020-10-28 17:23:01","orig_title":"23 Walks","year":"2020-07-08","translations":["Любительский (многоголосый закадровый) (@MUZOBOZ@)"],"quality":"webdl","translation":"Любительский (многоголосый закадровый) (@MUZOBOZ@)","update":"2020-10-29 06:23:15","iframe_src":"//5322.svetacdn.in/IAF0wWTdNYZm/movie/44877"},{"id":44876,"title":"Рождество в Миддлтоне","kp_id":"1307779","imdb_id":"tt10993786","world_art_id":null,"type":"movie","add":"2020-10-28 17:21:20","orig_title":"Middleton Christmas","year":"2020-10-28","translations":["Любительский (многоголосый закадровый) (@MUZOBOZ@)"],"quality":"webdl","translation":"Любительский (многоголосый закадровый) (@MUZOBOZ@)","update":"2020-10-29 06:24:05","iframe_src":"//5322.svetacdn.in/IAF0wWTdNYZm/movie/44876"},{"id":44874,"title":"Ловкач","kp_id":"451354","imdb_id":"tt1104126","world_art_id":null,"type":"movie","add":"2020-10-28 16:45:42","orig_title":"Shifty","year":"2008-10-24","translations":["Профессиональный (одноголосый закадровый)"],"quality":"hdrip","translation":"Профессиональный (одноголосый закадровый)","update":"2020-10-29 06:22:07","iframe_src":"//5322.svetacdn.in/IAF0wWTdNYZm/movie/44874"},{"id":44873,"title":"Когда спадёт жар","kp_id":"855359","imdb_id":"tt3633598","world_art_id":null,"type":"movie","add":"2020-10-28 12:20:24","orig_title":"When the Fever Breaks","year":"2019-10-20","translations":["Любительский (многоголосый закадровый) (@MUZOBOZ@)"],"quality":"webdl","translation":"Любительский (многоголосый закадровый) (@MUZOBOZ@)","update":"2020-10-28 17:31:38","iframe_src":"//5322.svetacdn.in/IAF0wWTdNYZm/movie/44873"},{"id":44872,"title":"Вирусный","kp_id":"1244248","imdb_id":"tt9546330","world_art_id":null,"type":"movie","add":"2020-10-28 12:15:27","orig_title":"Phee Toh Ra Sap","year":"2018-11-08","translations":["Любительский (двухголосый закадровый) (Колобок)"],"quality":"webdl","translation":"Любительский (двухголосый закадровый) (Колобок)","update":"2020-10-28 22:00:24","iframe_src":"//5322.svetacdn.in/IAF0wWTdNYZm/movie/44872"},{"id":44870,"title":"Террор Нуллиус","kp_id":"1200414","imdb_id":"tt9014996","world_art_id":null,"type":"movie","add":"2020-10-28 12:11:42","orig_title":"Terror Nullius","year":"2018-03-20","translations":["Любительский (многоголосый закадровый) (Синема УС)"],"quality":"webdl","translation":"Любительский (многоголосый закадровый) (Синема УС)","update":"2020-10-28 21:59:38","iframe_src":"//5322.svetacdn.in/IAF0wWTdNYZm/movie/44870"},{"id":44869,"title":"Митра","kp_id":"1208290","imdb_id":"tt9030752","world_art_id":null,"type":"movie","add":"2020-10-28 12:07:24","orig_title":"Mitra","year":"2018-07-13","translations":["Любительский (многоголосый закадровый) (Синема УС)"],"quality":"webdl","translation":"Любительский (многоголосый закадровый) (Синема УС)","update":"2020-10-28 17:32:06","iframe_src":"//5322.svetacdn.in/IAF0wWTdNYZm/movie/44869"},{"id":44868,"title":"Летний дом","kp_id":"1167226","imdb_id":"tt8628960","world_art_id":null,"type":"movie","add":"2020-10-28 12:05:32","orig_title":"Ljetnikovac","year":"2018-07-11","translations":["Любительский (многоголосый закадровый) (Синема УС)"],"quality":"webdl","translation":"Любительский (многоголосый закадровый) (Синема УС)","update":"2020-10-28 21:58:54","iframe_src":"//5322.svetacdn.in/IAF0wWTdNYZm/movie/44868"},{"id":44642,"title":"Непослушный козленок","kp_id":"542344","imdb_id":"tt0781091","world_art_id":null,"type":"movie","add":"2020-10-20 18:04:48","orig_title":"Urchi tikani","year":"1953-11-30","translations":["Оригинальная дорожка"],"quality":"dvdrip","translation":"Оригинальная дорожка","update":"2020-10-29 07:47:53","iframe_src":"//5322.svetacdn.in/IAF0wWTdNYZm/movie/44642"},{"id":44639,"title":"Нарисовать начало","kp_id":"732219","imdb_id":null,"world_art_id":null,"type":"movie","add":"2020-10-20 17:58:28","orig_title":"Нарисовать начало","year":"1975-01-01","translations":["Оригинальная дорожка"],"quality":"dvdrip","translation":"Оригинальная дорожка","update":"2020-10-29 07:47:05","iframe_src":"//5322.svetacdn.in/IAF0wWTdNYZm/movie/44639"},{"id":44632,"title":"Не хочу и не буду!","kp_id":"648071","imdb_id":"tt8152604","world_art_id":null,"type":"movie","add":"2020-10-20 15:54:35","orig_title":"Ne khochu i ne budu!","year":"1984-01-01","translations":["Оригинальная дорожка"],"quality":"dvdrip","translation":"Оригинальная дорожка","update":"2020-10-29 07:45:41","iframe_src":"//5322.svetacdn.in/IAF0wWTdNYZm/movie/44632"},{"id":44593,"title":"Муму","kp_id":"469597","imdb_id":"tt2296863","world_art_id":null,"type":"movie","add":"2020-10-19 16:24:47","orig_title":"Mumu","year":"1987-01-01","translations":["Оригинальная дорожка"],"quality":"dvdrip","translation":"Оригинальная дорожка","update":"2020-10-29 07:42:46","iframe_src":"//5322.svetacdn.in/IAF0wWTdNYZm/movie/44593"},{"id":44592,"title":"Мир дому твоему","kp_id":"818469","imdb_id":null,"world_art_id":null,"type":"movie","add":"2020-10-19 16:20:20","orig_title":"Мир дому твоему","year":"1962-01-01","translations":["Оригинальная дорожка"],"quality":"sat","translation":"Оригинальная дорожка","update":"2020-10-29 07:42:07","iframe_src":"//5322.svetacdn.in/IAF0wWTdNYZm/movie/44592"},{"id":44590,"title":"Капля меда","kp_id":"417708","imdb_id":"tt0428822","world_art_id":null,"type":"movie","add":"2020-10-19 16:15:09","orig_title":"Mi katil meghr","year":"1968-01-01","translations":["Оригинальная дорожка"],"quality":"tv","translation":"Оригинальная дорожка","update":"2020-10-29 07:40:58","iframe_src":"//5322.svetacdn.in/IAF0wWTdNYZm/movie/44590"},{"id":44587,"title":"Я к вам лечу воспоминаньем","kp_id":"183511","imdb_id":"tt0485356","world_art_id":null,"type":"movie","add":"2020-10-19 16:01:08","orig_title":"Ya k vam lechu vospominanem","year":"1977-01-01","translations":["Оригинальная дорожка"],"quality":"tv","translation":"Оригинальная дорожка","update":"2020-10-29 07:35:04","iframe_src":"//5322.svetacdn.in/IAF0wWTdNYZm/movie/44587"},{"id":44586,"title":"Филипок","kp_id":"602317","imdb_id":"tt1997360","world_art_id":null,"type":"movie","add":"2020-10-19 15:58:31","orig_title":"Filipok","year":"1982-01-01","translations":["Оригинальная дорожка"],"quality":"dvdrip","translation":"Оригинальная дорожка","update":"2020-10-29 07:34:05","iframe_src":"//5322.svetacdn.in/IAF0wWTdNYZm/movie/44586"},{"id":44585,"title":"Джордано Бруно","kp_id":"678711","imdb_id":null,"world_art_id":null,"type":"movie","add":"2020-10-19 15:54:31","orig_title":"Джордано Бруно","year":"1984-01-01","translations":["Оригинальная дорожка"],"quality":"dvdrip","translation":"Оригинальная дорожка","update":"2020-10-29 07:32:20","iframe_src":"//5322.svetacdn.in/IAF0wWTdNYZm/movie/44585"},{"id":44584,"title":"До свидания, овраг","kp_id":"632476","imdb_id":"tt2582074","world_art_id":null,"type":"movie","add":"2020-10-19 15:39:38","orig_title":"Do svidaniya, ovrag","year":"1981-01-01","translations":["Оригинальная дорожка"],"quality":"tv","translation":"Оригинальная дорожка","update":"2020-10-28 15:58:12","iframe_src":"//5322.svetacdn.in/IAF0wWTdNYZm/movie/44584"},{"id":44583,"title":"Дарю тебе звезду","kp_id":"44103","imdb_id":"tt0260840","world_art_id":null,"type":"movie","add":"2020-10-19 15:37:18","orig_title":"Daryu tebe zvezdu","year":"1974-10-19","translations":["Оригинальная дорожка"],"quality":"tv","translation":"Оригинальная дорожка","update":"2020-10-28 15:57:14","iframe_src":"//5322.svetacdn.in/IAF0wWTdNYZm/movie/44583"},{"id":43994,"title":"Сезон дождей","kp_id":"1296645","imdb_id":"tt9822706","world_art_id":null,"type":"movie","add":"2020-09-30 06:16:12","orig_title":"Wet Season","year":"2019-09-08","translations":["Любительский (двухголосый закадровый) (RealFake)","Любительский (многоголосый закадровый) (Синема УС)"],"quality":"bd","translation":"Любительский (двухголосый закадровый) (RealFake)","update":"2020-10-28 22:00:56","iframe_src":"//5322.svetacdn.in/IAF0wWTdNYZm/movie/43994"},{"id":3432,"title":"Перезапуск любви","kp_id":"1165540","imdb_id":"tt8499118","world_art_id":null,"type":"serial","add":"2018-11-02 02:27:38","orig_title":"Rabu Riran","year":"2018-04-05","translations":["Любительский (двухголосый закадровый) (HighHopes)"],"seasons_count":1,"episodes_count":10,"episodes":10,"update":"2018-11-02 12:32:47","iframe_src":"//5322.svetacdn.in/IAF0wWTdNYZm/tv-series/3432"},{"id":3431,"title":"Амбициозный босс","kp_id":"1048287","imdb_id":null,"world_art_id":null,"type":"serial","add":"2018-11-02 02:18:57","orig_title":"U-Prince: The Ambitious Boss","year":"2017-07-04","translations":["Любительский (двухголосый закадровый) (HighHopes)"],"seasons_count":1,"episodes_count":5,"episodes":5,"update":"2018-11-02 09:07:47","iframe_src":"//5322.svetacdn.in/IAF0wWTdNYZm/tv-series/3431"},{"id":3430,"title":"Суждено любить тебя","kp_id":null,"imdb_id":"tt5870910","world_art_id":null,"type":"serial","add":"2018-11-02 01:35:00","orig_title":"Destined to Love You","year":"2015-06-16","translations":["Любительский (двухголосый закадровый)"],"seasons_count":1,"episodes_count":41,"episodes":41,"update":"2018-11-02 09:01:33","iframe_src":"//5322.svetacdn.in/IAF0wWTdNYZm/tv-series/3430"},{"id":3429,"title":"Шип Алисы","kp_id":"840498","imdb_id":"tt3557604","world_art_id":null,"type":"serial","add":"2018-11-02 01:07:42","orig_title":"Arisu no toge","year":"2014-04-11","translations":["Любительский (двухголосый закадровый) (XDUB Dorama)"],"seasons_count":1,"episodes_count":10,"episodes":10,"update":"2018-11-02 06:55:25","iframe_src":"//5322.svetacdn.in/IAF0wWTdNYZm/tv-series/3429"},{"id":3426,"title":"Царевны","kp_id":"1177496","imdb_id":null,"world_art_id":null,"type":"serial","add":"2018-11-01 07:21:23","orig_title":"Царевны","year":"2018-09-01","translations":["Оригинальная дорожка"],"seasons_count":1,"episodes_count":20,"episodes":20,"update":"2018-11-01 23:32:47","iframe_src":"//5322.svetacdn.in/IAF0wWTdNYZm/tv-series/3426"},{"id":3425,"title":"Токко: Перемотка","kp_id":"1115473","imdb_id":null,"world_art_id":null,"type":"serial","add":"2018-11-01 00:40:50","orig_title":"Dokgo riwaindeu","year":"2018-09-07","translations":["Любительский (двухголосый закадровый) (SoftBox)"],"seasons_count":1,"episodes_count":15,"episodes":15,"update":"2018-11-01 06:55:36","iframe_src":"//5322.svetacdn.in/IAF0wWTdNYZm/tv-series/3425"},{"id":3424,"title":"Чучело","kp_id":"45524","imdb_id":"tt0085335","world_art_id":null,"type":"serial","add":"2018-10-31 11:54:32","orig_title":"Chuchelo","year":"1984-09-14","translations":["Оригинальная дорожка"],"seasons_count":1,"episodes_count":2,"episodes":2,"update":"2018-11-01 12:17:23","iframe_src":"//5322.svetacdn.in/IAF0wWTdNYZm/tv-series/3424"},{"id":3423,"title":"Любовь с привилегиями","kp_id":"45156","imdb_id":"tt0097797","world_art_id":null,"type":"serial","add":"2018-10-31 11:50:00","orig_title":"Lyubov s privilegiyami","year":"1990-11-01","translations":["Оригинальная дорожка"],"seasons_count":1,"episodes_count":2,"episodes":2,"update":"2018-11-01 12:19:40","iframe_src":"//5322.svetacdn.in/IAF0wWTdNYZm/tv-series/3423"},{"id":3422,"title":"Адъютант его превосходительства","kp_id":"77247","imdb_id":"tt0128915","world_art_id":null,"type":"serial","add":"2018-10-31 11:47:20","orig_title":"Adyutant ego prevoskhoditelstva","year":"1970-04-07","translations":["Оригинальная дорожка"],"seasons_count":1,"episodes_count":5,"episodes":5,"update":"2018-11-01 12:25:26","iframe_src":"//5322.svetacdn.in/IAF0wWTdNYZm/tv-series/3422"},{"id":3418,"title":"Богиня прайм-тайма","kp_id":"384371","imdb_id":"tt6398144","world_art_id":null,"type":"serial","add":"2018-10-31 09:07:35","orig_title":"Boginya praym-tayma","year":"2010-04-22","translations":["Оригинальная дорожка"],"seasons_count":1,"episodes_count":8,"episodes":8,"update":"2018-10-31 23:59:44","iframe_src":"//5322.svetacdn.in/IAF0wWTdNYZm/tv-series/3418"},{"id":3417,"title":"Мой личный враг","kp_id":"152833","imdb_id":"tt0467473","world_art_id":null,"type":"serial","add":"2018-10-31 08:52:09","orig_title":"Moy lichnyy vrag","year":"2005-04-24","translations":["Оригинальная дорожка"],"seasons_count":1,"episodes_count":4,"episodes":4,"update":"2018-11-01 00:04:08","iframe_src":"//5322.svetacdn.in/IAF0wWTdNYZm/tv-series/3417"},{"id":3414,"title":"Неформат","kp_id":"629093","imdb_id":"tt4763350","world_art_id":null,"type":"serial","add":"2018-10-30 08:20:10","orig_title":"Neformat","year":"2014-03-03","translations":["Оригинальная дорожка"],"seasons_count":1,"episodes_count":20,"episodes":20,"update":"2018-10-31 07:14:59","iframe_src":"//5322.svetacdn.in/IAF0wWTdNYZm/tv-series/3414"},{"id":3413,"title":"Могучие рейнджеры. Сталь Ниндзя","kp_id":"957474","imdb_id":"tt5335606","world_art_id":null,"type":"serial","add":"2018-10-30 08:04:12","orig_title":"Power Rangers Ninja Steel","year":"2017-01-21","translations":["Любительский (многоголосый закадровый) (ColdFilm)"],"seasons_count":1,"episodes_count":19,"episodes":19,"update":"2018-11-01 23:19:56","iframe_src":"//5322.svetacdn.in/IAF0wWTdNYZm/tv-series/3413"},{"id":3407,"title":"Корона Российской империи, или Снова неуловимые","kp_id":"44932","imdb_id":"tt0067313","world_art_id":null,"type":"serial","add":"2018-10-28 15:13:25","orig_title":"Korona Rossiyskoy Imperii, ili Snova Neulovimye","year":"1971-12-13","translations":["Оригинальная дорожка"],"seasons_count":1,"episodes_count":2,"episodes":2,"update":"2018-10-31 08:02:05","iframe_src":"//5322.svetacdn.in/IAF0wWTdNYZm/tv-series/3407"},{"id":3388,"title":"Лермонтов","kp_id":"843686","imdb_id":"tt6248372","world_art_id":null,"type":"serial","add":"2018-10-25 13:36:30","orig_title":"Lermontov","year":"2014-11-03","translations":["Оригинальная дорожка"],"seasons_count":1,"episodes_count":2,"episodes":2,"update":"2018-11-01 09:24:46","iframe_src":"//5322.svetacdn.in/IAF0wWTdNYZm/tv-series/3388"},{"id":3387,"title":"Легенды о Круге","kp_id":"690738","imdb_id":"tt4760646","world_art_id":null,"type":"serial","add":"2018-10-25 13:32:43","orig_title":"Legendy o Kruge","year":"2013-04-22","translations":["Оригинальная дорожка"],"seasons_count":1,"episodes_count":4,"episodes":4,"update":"2018-10-31 10:28:32","iframe_src":"//5322.svetacdn.in/IAF0wWTdNYZm/tv-series/3387"},{"id":3300,"title":"Конг – король обезьян","kp_id":"1004930","imdb_id":"tt5462936","world_art_id":null,"type":"serial","add":"2018-10-14 09:42:20","orig_title":"Kong: King of the Apes","year":"2016-04-15","translations":["Полное дублирование"],"seasons_count":2,"episodes_count":23,"episodes":10,"update":"2018-10-31 10:40:46","iframe_src":"//5322.svetacdn.in/IAF0wWTdNYZm/tv-series/3300"},{"id":3224,"title":"Звездный путь: Дальний космос 9","kp_id":"229226","imdb_id":"tt0106145","world_art_id":null,"type":"serial","add":"2018-09-26 16:55:36","orig_title":"Star Trek: Deep Space Nine","year":"1993-01-03","translations":["Профессиональный (многоголосый закадровый) (SDI Media)","Любительский (одноголосый закадровый)"],"seasons_count":7,"episodes_count":173,"episodes":25,"update":"2018-10-31 17:29:04","iframe_src":"//5322.svetacdn.in/IAF0wWTdNYZm/tv-series/3224"},{"id":3175,"title":"Спасая жизни","kp_id":"1010368","imdb_id":"tt6099652","world_art_id":null,"type":"serial","add":"2018-09-17 09:08:01","orig_title":"Syrror","year":"2016-10-19","translations":["Любительский (двухголосый закадровый) (GoldTeam)"],"seasons_count":2,"episodes_count":20,"episodes":10,"update":"2018-11-03 08:07:28","iframe_src":"//5322.svetacdn.in/IAF0wWTdNYZm/tv-series/3175"},{"id":453,"title":"Без обид","kp_id":"843139","imdb_id":"tt3922704","world_art_id":null,"type":"serial","add":"2016-09-19 05:08:16","orig_title":"No Offence","year":"2015-05-05","translations":["Профессиональный (многоголосый закадровый) (ViruseProject)","Профессиональный (многоголосый закадровый) (TVShows)","Профессиональный (двухголосый закадровый) (ViruseProject)"],"seasons_count":3,"episodes_count":21,"episodes":6,"update":"2018-11-01 06:26:04","iframe_src":"//5322.svetacdn.in/IAF0wWTdNYZm/tv-series/453"}],"current_page":406,"first_page_url":"https://videocdn.tv/api/short?limit=100&api_token=6Onb1W1alEUrBcKJZD3GoKBbWyAl2uG2&cache3406=3406&page=1","from":40501,"last_page":626,"last_page_url":"https://videocdn.tv/api/short?limit=100&api_token=6Onb1W1alEUrBcKJZD3GoKBbWyAl2uG2&cache3406=3406&page=626","next_page_url":"https://videocdn.tv/api/short?limit=100&api_token=6Onb1W1alEUrBcKJZD3GoKBbWyAl2uG2&cache3406=3406&page=407","path":"https://videocdn.tv/api/short","per_page":100,"prev_page_url":"https://videocdn.tv/api/short?limit=100&api_token=6Onb1W1alEUrBcKJZD3GoKBbWyAl2uG2&cache3406=3406&page=405","to":40540,"total":62523}