{"result":true,"data":[{"id":43580,"title":"Поющая в Хоре","kp_id":"1012142","imdb_id":"tt6069908","world_art_id":null,"type":"movie","add":"2020-09-15 20:08:50","orig_title":"Choir Girl","year":"2019-12-05","translations":["Любительский (многоголосый закадровый) (Синема УС)"],"quality":"webdl","translation":"Любительский (многоголосый закадровый) (Синема УС)","update":"2020-09-16 06:19:55","iframe_src":"//7741.svetacdn.in/IAF0wWTdNYZm/movie/43580"},{"id":43579,"title":"Битва на рельсах","kp_id":"25604","imdb_id":"tt0038334","world_art_id":null,"type":"movie","add":"2020-09-15 19:43:45","orig_title":"Bataille du rail","year":"1946-02-27","translations":["Авторский (одноголосый закадровый) (Рябов Сергей)"],"quality":"bd","translation":"Авторский (одноголосый закадровый) (Рябов Сергей)","update":"2020-09-16 06:46:31","iframe_src":"//7741.svetacdn.in/IAF0wWTdNYZm/movie/43579"},{"id":43577,"title":"Финальный Смех","kp_id":null,"imdb_id":"tt8333418","world_art_id":null,"type":"movie","add":"2020-09-15 19:12:13","orig_title":"The Last Laugh","year":"2020-09-15","translations":["Любительский (многоголосый закадровый) (AlphaProject)"],"quality":"webdl","translation":"Любительский (многоголосый закадровый) (AlphaProject)","update":"2020-09-16 06:23:14","iframe_src":"//7741.svetacdn.in/IAF0wWTdNYZm/movie/43577"},{"id":43576,"title":"Явление зла","kp_id":"1144877","imdb_id":"tt7904362","world_art_id":null,"type":"movie","add":"2020-09-15 19:08:39","orig_title":"Demon Nun","year":"2020-05-14","translations":["Любительский (многоголосый закадровый) (Синема УС)"],"quality":"webdl","translation":"Любительский (многоголосый закадровый) (Синема УС)","update":"2020-09-16 06:36:11","iframe_src":"//7741.svetacdn.in/IAF0wWTdNYZm/movie/43576"},{"id":43575,"title":"Культистки","kp_id":"967118","imdb_id":"tt5533938","world_art_id":null,"type":"movie","add":"2020-09-15 19:05:35","orig_title":"Cult Girls","year":"2019-10-11","translations":["Любительский (многоголосый закадровый) (Синема УС)"],"quality":"webdl","translation":"Любительский (многоголосый закадровый) (Синема УС)","update":"2020-09-16 06:21:29","iframe_src":"//7741.svetacdn.in/IAF0wWTdNYZm/movie/43575"},{"id":43574,"title":"Зло пускает корни","kp_id":"1118035","imdb_id":"tt7830416","world_art_id":null,"type":"movie","add":"2020-09-15 19:03:02","orig_title":"Evil Takes Root","year":"2020-09-15","translations":["Любительский (многоголосый закадровый) (@MUZOBOZ@)"],"quality":"webdl","translation":"Любительский (многоголосый закадровый) (@MUZOBOZ@)","update":"2020-09-16 06:13:01","iframe_src":"//7741.svetacdn.in/IAF0wWTdNYZm/movie/43574"},{"id":43573,"title":"Ферма страха","kp_id":"1206210","imdb_id":"tt9191844","world_art_id":null,"type":"movie","add":"2020-09-15 19:00:41","orig_title":"Fear Pharm","year":"2020-09-11","translations":["Любительский (многоголосый закадровый) (@MUZOBOZ@)"],"quality":"webdl","translation":"Любительский (многоголосый закадровый) (@MUZOBOZ@)","update":"2020-09-16 06:28:51","iframe_src":"//7741.svetacdn.in/IAF0wWTdNYZm/movie/43573"},{"id":43571,"title":"Терапия для убийцы","kp_id":"1194432","imdb_id":"tt9029572","world_art_id":null,"type":"movie","add":"2020-09-15 18:56:12","orig_title":"Killer Therapy","year":"2019-12-06","translations":["Любительский (многоголосый закадровый) (AlphaProject)"],"quality":"webdl","translation":"Любительский (многоголосый закадровый) (AlphaProject)","update":"2020-09-16 06:24:37","iframe_src":"//7741.svetacdn.in/IAF0wWTdNYZm/movie/43571"},{"id":43555,"title":"1906","kp_id":"1111743","imdb_id":"tt9420024","world_art_id":null,"type":"movie","add":"2020-09-15 09:35:15","orig_title":"1906","year":"2019-03-14","translations":["Любительский (многоголосый закадровый) (@MUZOBOZ@)"],"quality":"webdl","translation":"Любительский (многоголосый закадровый) (@MUZOBOZ@)","update":"2020-09-15 20:31:19","iframe_src":"//7741.svetacdn.in/IAF0wWTdNYZm/movie/43555"},{"id":43554,"title":"Невеста была в красном","kp_id":"13807","imdb_id":"tt0028661","world_art_id":null,"type":"movie","add":"2020-09-15 09:29:23","orig_title":"The Bride Wore Red","year":"1937-10-08","translations":["Профессиональный (многоголосый закадровый)"],"quality":"dvdrip","translation":"Профессиональный (многоголосый закадровый)","update":"2020-09-15 20:35:04","iframe_src":"//7741.svetacdn.in/IAF0wWTdNYZm/movie/43554"},{"id":43553,"title":"Колокола для босых","kp_id":"428104","imdb_id":"tt0124222","world_art_id":null,"type":"movie","add":"2020-09-15 09:15:30","orig_title":"Zvony pre bosých","year":"1965-12-24","translations":["Авторский (одноголосый закадровый) (Данилов Владислав | Kenum)"],"quality":"hdtv","translation":"Авторский (одноголосый закадровый) (Данилов Владислав | Kenum)","update":"2020-09-15 20:37:45","iframe_src":"//7741.svetacdn.in/IAF0wWTdNYZm/movie/43553"},{"id":43552,"title":"Наблюдающий","kp_id":"1242908","imdb_id":"tt12998268","world_art_id":null,"type":"movie","add":"2020-09-15 07:01:14","orig_title":"Watching","year":"2019-04-17","translations":["Любительский (двухголосый закадровый) (Колобок)"],"quality":"webdl","translation":"Любительский (двухголосый закадровый) (Колобок)","update":"2020-09-15 19:21:01","iframe_src":"//7741.svetacdn.in/IAF0wWTdNYZm/movie/43552"},{"id":43551,"title":"Файтер","kp_id":"1264612","imdb_id":"tt10340366","world_art_id":null,"type":"movie","add":"2020-09-15 06:58:51","orig_title":"Fighter","year":"2019-07-15","translations":["Любительский (многоголосый закадровый) (AlphaProject)"],"quality":"webdl","translation":"Любительский (многоголосый закадровый) (AlphaProject)","update":"2020-09-15 19:21:41","iframe_src":"//7741.svetacdn.in/IAF0wWTdNYZm/movie/43551"},{"id":43549,"title":"Мужской взгляд: Нападающие и защитники","kp_id":"1396218","imdb_id":"tt12784260","world_art_id":null,"type":"movie","add":"2020-09-14 21:25:03","orig_title":"The Male Gaze: Strikers & Defenders","year":"2020-07-27","translations":["Любительский (многоголосый закадровый) (Синема УС)"],"quality":"webdl","translation":"Любительский (многоголосый закадровый) (Синема УС)","update":"2020-09-15 17:44:43","iframe_src":"//7741.svetacdn.in/IAF0wWTdNYZm/movie/43549"},{"id":43409,"title":"Дивизия","kp_id":"1282704","imdb_id":"tt10648192","world_art_id":null,"type":"movie","add":"2020-09-11 04:43:05","orig_title":"A Divisão","year":"2020-01-23","translations":["Любительский (многоголосый закадровый) (@MUZOBOZ@)"],"quality":"bd","translation":"Любительский (многоголосый закадровый) (@MUZOBOZ@)","update":"2020-09-15 20:33:30","iframe_src":"//7741.svetacdn.in/IAF0wWTdNYZm/movie/43409"},{"id":43390,"title":"Старт","kp_id":"494804","imdb_id":null,"world_art_id":null,"type":"movie","add":"2020-09-10 17:59:06","orig_title":"Старт","year":"1977-01-01","translations":["Оригинальная дорожка"],"quality":"sat","translation":"Оригинальная дорожка","update":"2020-09-15 14:18:54","iframe_src":"//7741.svetacdn.in/IAF0wWTdNYZm/movie/43390"},{"id":43389,"title":"Солнечное зернышко","kp_id":"474355","imdb_id":"tt9013438","world_art_id":null,"type":"movie","add":"2020-09-10 17:53:01","orig_title":"Solnechnoe zyornyshko","year":"1969-01-01","translations":["Оригинальная дорожка"],"quality":"sat","translation":"Оригинальная дорожка","update":"2020-09-15 14:17:14","iframe_src":"//7741.svetacdn.in/IAF0wWTdNYZm/movie/43389"},{"id":43388,"title":"Сновидения поздней осени","kp_id":"991692","imdb_id":null,"world_art_id":null,"type":"movie","add":"2020-09-10 17:48:55","orig_title":"Сновидения поздней осени","year":"1988-01-01","translations":["Оригинальная дорожка"],"quality":"tv","translation":"Оригинальная дорожка","update":"2020-09-15 14:16:19","iframe_src":"//7741.svetacdn.in/IAF0wWTdNYZm/movie/43388"},{"id":43387,"title":"Снежная мельница","kp_id":"137821","imdb_id":"tt0452313","world_art_id":null,"type":"movie","add":"2020-09-10 17:35:41","orig_title":"Lumeveski","year":"1970-01-01","translations":["Любительский (двухголосый закадровый)"],"quality":"vhs","translation":"Любительский (двухголосый закадровый)","update":"2020-09-15 14:14:56","iframe_src":"//7741.svetacdn.in/IAF0wWTdNYZm/movie/43387"},{"id":43386,"title":"Слушается дело о... Не очень комическая опера","kp_id":"477534","imdb_id":null,"world_art_id":null,"type":"movie","add":"2020-09-10 17:31:59","orig_title":"Слушается дело о... Не очень комическая опера","year":"1976-01-01","translations":["Оригинальная дорожка"],"quality":"sat","translation":"Оригинальная дорожка","update":"2020-09-15 14:13:26","iframe_src":"//7741.svetacdn.in/IAF0wWTdNYZm/movie/43386"}],"current_page":938,"first_page_url":"https://videocdn.tv/api/short?limit=100&api_token=6Onb1W1alEUrBcKJZD3GoKBbWyAl2uG2&cache3938=3938&page=1","from":93701,"last_page":707,"last_page_url":"https://videocdn.tv/api/short?limit=100&api_token=6Onb1W1alEUrBcKJZD3GoKBbWyAl2uG2&cache3938=3938&page=707","next_page_url":null,"path":"https://videocdn.tv/api/short","per_page":100,"prev_page_url":"https://videocdn.tv/api/short?limit=100&api_token=6Onb1W1alEUrBcKJZD3GoKBbWyAl2uG2&cache3938=3938&page=937","to":93720,"total":70662}