{"result":true,"data":[{"id":27882,"title":"Сюрпризам нет конца","kp_id":"24735","imdb_id":"tt0185591","world_art_id":null,"type":"movie","add":"2019-06-17 08:09:31","orig_title":"Pai an jing ji","year":"1975-12-05","translations":["Любительский (одноголосый закадровый)"],"quality":"vhs","translation":"Любительский (одноголосый закадровый)","update":"2019-06-18 07:42:16","iframe_src":"//5322.svetacdn.in/71tsRs29n5tZ/movie/27882"},{"id":27881,"title":"Клинтон-роуд","kp_id":"504746","imdb_id":"tt1604560","world_art_id":null,"type":"movie","add":"2019-06-17 08:02:07","orig_title":"Clinton Road","year":"2019-06-14","translations":["Любительский (многоголосый закадровый) (Синема УС)"],"quality":"webdl","translation":"Любительский (многоголосый закадровый) (Синема УС)","update":"2019-06-18 07:41:44","iframe_src":"//5322.svetacdn.in/71tsRs29n5tZ/movie/27881"},{"id":27843,"title":"Был месяц май","kp_id":"77254","imdb_id":"tt0065507","world_art_id":null,"type":"movie","add":"2019-06-16 16:19:00","orig_title":"Byl mesyats may","year":"1970-05-10","translations":["Оригинальная дорожка"],"quality":"dvdrip","translation":"Оригинальная дорожка","update":"2019-06-18 08:21:10","iframe_src":"//5322.svetacdn.in/71tsRs29n5tZ/movie/27843"},{"id":27842,"title":"Бешеные деньги","kp_id":"46097","imdb_id":"tt0082061","world_art_id":null,"type":"movie","add":"2019-06-16 16:16:19","orig_title":"Beshenye dengi","year":"1982-03-29","translations":["Оригинальная дорожка"],"quality":"dvdrip","translation":"Оригинальная дорожка","update":"2019-06-18 08:20:21","iframe_src":"//5322.svetacdn.in/71tsRs29n5tZ/movie/27842"},{"id":27841,"title":"Ад, или Досье на самого себя","kp_id":"43405","imdb_id":"tt0149585","world_art_id":null,"type":"movie","add":"2019-06-16 16:13:00","orig_title":"Ad, ili Dose na samogo sebya","year":"1989-01-01","translations":["Оригинальная дорожка"],"quality":"dvdrip","translation":"Оригинальная дорожка","update":"2019-06-18 08:18:56","iframe_src":"//5322.svetacdn.in/71tsRs29n5tZ/movie/27841"},{"id":27840,"title":"Донецкие шахтеры","kp_id":"44277","imdb_id":"tt0042407","world_art_id":null,"type":"movie","add":"2019-06-16 16:10:01","orig_title":"Donetskie shakhtyory","year":"1951-05-16","translations":["Оригинальная дорожка"],"quality":"dvdrip","translation":"Оригинальная дорожка","update":"2019-06-18 07:55:43","iframe_src":"//5322.svetacdn.in/71tsRs29n5tZ/movie/27840"},{"id":27839,"title":"Космический рейс","kp_id":"44941","imdb_id":"tt0252612","world_art_id":null,"type":"movie","add":"2019-06-16 16:00:13","orig_title":"Kosmicheskiy reys: Fantasticheskaya novella","year":"1936-01-21","translations":["Оригинальная дорожка"],"quality":"dvdrip","translation":"Оригинальная дорожка","update":"2019-06-18 07:54:51","iframe_src":"//5322.svetacdn.in/71tsRs29n5tZ/movie/27839"},{"id":27838,"title":"Цветные киноновеллы","kp_id":"470328","imdb_id":"tt0250788","world_art_id":null,"type":"movie","add":"2019-06-16 12:48:40","orig_title":"Tsvetnye kinonovelly","year":"1941-08-22","translations":["Оригинальная дорожка"],"quality":"dvdrip","translation":"Оригинальная дорожка","update":"2019-06-18 07:53:44","iframe_src":"//5322.svetacdn.in/71tsRs29n5tZ/movie/27838"},{"id":27837,"title":"Душа моя, Мария","kp_id":"1008077","imdb_id":"tt6141288","world_art_id":null,"type":"movie","add":"2019-06-16 12:41:50","orig_title":"Dusha moya, Mariya","year":"1993-06-26","translations":["Оригинальная дорожка"],"quality":"sat","translation":"Оригинальная дорожка","update":"2019-06-18 07:52:35","iframe_src":"//5322.svetacdn.in/71tsRs29n5tZ/movie/27837"},{"id":27836,"title":"Гарем Степана Гуслякова","kp_id":"44468","imdb_id":"tt0336492","world_art_id":null,"type":"movie","add":"2019-06-16 12:37:02","orig_title":"Garem Stepana Guslyakova","year":"1990-01-01","translations":["Оригинальная дорожка"],"quality":"dvdrip","translation":"Оригинальная дорожка","update":"2019-06-18 07:51:12","iframe_src":"//5322.svetacdn.in/71tsRs29n5tZ/movie/27836"},{"id":27835,"title":"Комета","kp_id":"44875","imdb_id":"tt0160436","world_art_id":null,"type":"movie","add":"2019-06-16 12:33:41","orig_title":"Kometa","year":"1984-05-28","translations":["Оригинальная дорожка"],"quality":"dvdrip","translation":"Оригинальная дорожка","update":"2019-06-18 07:50:16","iframe_src":"//5322.svetacdn.in/71tsRs29n5tZ/movie/27835"},{"id":27834,"title":"Марк Твен против","kp_id":"94974","imdb_id":"tt0266749","world_art_id":null,"type":"movie","add":"2019-06-16 12:29:21","orig_title":"Mark Tven-protiv","year":"1975-07-02","translations":["Оригинальная дорожка"],"quality":"sat","translation":"Оригинальная дорожка","update":"2019-06-18 07:49:14","iframe_src":"//5322.svetacdn.in/71tsRs29n5tZ/movie/27834"},{"id":27833,"title":"Механика счастья","kp_id":"171496","imdb_id":"tt0407335","world_art_id":null,"type":"movie","add":"2019-06-16 12:24:36","orig_title":"Yerjankutyan mekhanika","year":"1982-06-11","translations":["Оригинальная дорожка"],"quality":"dvdrip","translation":"Оригинальная дорожка","update":"2019-06-18 07:48:34","iframe_src":"//5322.svetacdn.in/71tsRs29n5tZ/movie/27833"},{"id":27832,"title":"Охота на сутенера","kp_id":"42756","imdb_id":"tt0102580","world_art_id":null,"type":"movie","add":"2019-06-16 12:21:26","orig_title":"Okhota na sutenyora","year":"1991-01-01","translations":["Оригинальная дорожка"],"quality":"dvdrip","translation":"Оригинальная дорожка","update":"2019-06-18 07:47:50","iframe_src":"//5322.svetacdn.in/71tsRs29n5tZ/movie/27832"},{"id":27831,"title":"Подарки по телефону","kp_id":"468016","imdb_id":"tt2396425","world_art_id":null,"type":"movie","add":"2019-06-16 12:15:22","orig_title":"Davanas pa telefonu","year":"1977-08-14","translations":["Оригинальная дорожка"],"quality":"dvdrip","translation":"Оригинальная дорожка","update":"2019-06-18 07:45:46","iframe_src":"//5322.svetacdn.in/71tsRs29n5tZ/movie/27831"},{"id":27830,"title":"Похитители книг","kp_id":"254807","imdb_id":"tt2460110","world_art_id":null,"type":"movie","add":"2019-06-16 12:12:04","orig_title":"Pokhititeli knig","year":"2004-03-25","translations":["Оригинальная дорожка"],"quality":"dvdrip","translation":"Оригинальная дорожка","update":"2019-06-18 07:45:05","iframe_src":"//5322.svetacdn.in/71tsRs29n5tZ/movie/27830"},{"id":27829,"title":"Шахтеры","kp_id":"43719","imdb_id":"tt0029545","world_art_id":null,"type":"movie","add":"2019-06-16 12:08:49","orig_title":"Shakhtyory","year":"1937-08-23","translations":["Оригинальная дорожка"],"quality":"dvdrip","translation":"Оригинальная дорожка","update":"2019-06-18 07:44:08","iframe_src":"//5322.svetacdn.in/71tsRs29n5tZ/movie/27829"},{"id":27828,"title":"Шестое июля","kp_id":"43746","imdb_id":"tt0173192","world_art_id":null,"type":"movie","add":"2019-06-16 12:06:20","orig_title":"Shestoe iyulya","year":"1968-05-30","translations":["Оригинальная дорожка"],"quality":"dvdrip","translation":"Оригинальная дорожка","update":"2019-06-18 07:43:08","iframe_src":"//5322.svetacdn.in/71tsRs29n5tZ/movie/27828"},{"id":27827,"title":"Снайпер","kp_id":"41073","imdb_id":"tt0105433","world_art_id":null,"type":"movie","add":"2019-06-16 12:03:01","orig_title":"Snayper","year":"1992-07-02","translations":["Оригинальная дорожка"],"quality":"dvdrip","translation":"Оригинальная дорожка","update":"2019-06-18 07:41:22","iframe_src":"//5322.svetacdn.in/71tsRs29n5tZ/movie/27827"},{"id":27255,"title":"Пельмени","kp_id":"780170","imdb_id":"tt3124124","world_art_id":null,"type":"movie","add":"2019-05-30 13:58:38","orig_title":"Pelmeni","year":"2013-08-29","translations":["Оригинальная дорожка"],"quality":"hdtv","translation":"Оригинальная дорожка","update":"2019-06-18 07:46:40","iframe_src":"//5322.svetacdn.in/71tsRs29n5tZ/movie/27255"}],"current_page":1307,"first_page_url":"https://videocdn.tv/api/short?limit=100&api_token=EnbO9h8pv1VyjbCJhg0WM9nG259n7mtz&cache31307=31307&page=1","from":130601,"last_page":621,"last_page_url":"https://videocdn.tv/api/short?limit=100&api_token=EnbO9h8pv1VyjbCJhg0WM9nG259n7mtz&cache31307=31307&page=621","next_page_url":null,"path":"https://videocdn.tv/api/short","per_page":100,"prev_page_url":"https://videocdn.tv/api/short?limit=100&api_token=EnbO9h8pv1VyjbCJhg0WM9nG259n7mtz&cache31307=31307&page=1306","to":130620,"total":62040}