{"result":true,"data":[{"id":53464,"title":"Обнаженная шпора","kp_id":"8465","imdb_id":"tt0044953","world_art_id":null,"type":"movie","add":"2021-09-28 06:34:20","orig_title":"The Naked Spur","year":"1953-01-30","translations":["Профессиональный (многоголосый закадровый) (Светла)","[EN] Original (English)"],"quality":"bd","translation":"Профессиональный (многоголосый закадровый) (Светла)","update":"2021-09-28 11:32:00","iframe_src":"//2413.svetacdn.in/71tsRs29n5tZ/movie/53464"},{"id":53463,"title":"Дзокки","kp_id":"4477983","imdb_id":"tt14444620","world_art_id":null,"type":"movie","add":"2021-09-28 05:36:45","orig_title":"Zokki","year":"2020-11-04","translations":["Любительский (двухголосый закадровый) (АрхиAsia)"],"quality":"webdl","translation":"Любительский (двухголосый закадровый) (АрхиAsia)","update":"2021-09-28 09:26:04","iframe_src":"//2413.svetacdn.in/71tsRs29n5tZ/movie/53463"},{"id":53460,"title":"Нежный капкан","kp_id":null,"imdb_id":"tt14128824","world_art_id":null,"type":"movie","add":"2021-09-27 18:36:50","orig_title":"The Tender Trap","year":"2021-01-01","translations":["Любительский (многоголосый закадровый) (Синема УС)"],"quality":"webdl","translation":"Любительский (многоголосый закадровый) (Синема УС)","update":"2021-09-28 08:22:24","iframe_src":"//2413.svetacdn.in/71tsRs29n5tZ/movie/53460"},{"id":53459,"title":"Цена адаптации","kp_id":"4480377","imdb_id":"tt14758576","world_art_id":null,"type":"movie","add":"2021-09-27 18:35:23","orig_title":"Trouble in Suburbia","year":"2021-09-18","translations":["Любительский (многоголосый закадровый) (Синема УС)"],"quality":"webdl","translation":"Любительский (многоголосый закадровый) (Синема УС)","update":"2021-09-28 08:42:24","iframe_src":"//2413.svetacdn.in/71tsRs29n5tZ/movie/53459"},{"id":53458,"title":"Тайна ветра","kp_id":"1329092","imdb_id":"tt11101894","world_art_id":null,"type":"movie","add":"2021-09-27 18:33:36","orig_title":"Bí Mât Cua Gió","year":"2019-10-04","translations":["Любительский (многоголосый закадровый) (Синема УС)"],"quality":"webdl","translation":"Любительский (многоголосый закадровый) (Синема УС)","update":"2021-09-28 08:43:30","iframe_src":"//2413.svetacdn.in/71tsRs29n5tZ/movie/53458"},{"id":53457,"title":"Паника. Часть первая","kp_id":"1431593","imdb_id":"tt12833810","world_art_id":null,"type":"movie","add":"2021-09-27 18:30:47","orig_title":"Pánico Volumen 1","year":"2020-10-12","translations":["Любительский (многоголосый закадровый) (AlphaProject)"],"quality":"webdl","translation":"Любительский (многоголосый закадровый) (AlphaProject)","update":"2021-09-28 08:44:18","iframe_src":"//2413.svetacdn.in/71tsRs29n5tZ/movie/53457"},{"id":53455,"title":"Ты должен умереть","kp_id":"1275449","imdb_id":"tt10122486","world_art_id":null,"type":"movie","add":"2021-09-27 18:26:32","orig_title":"I Need You Dead!","year":"2020-03-13","translations":["Любительский (многоголосый закадровый) (Синема УС)"],"quality":"webdl","translation":"Любительский (многоголосый закадровый) (Синема УС)","update":"2021-09-28 08:38:06","iframe_src":"//2413.svetacdn.in/71tsRs29n5tZ/movie/53455"},{"id":53454,"title":"Прилив","kp_id":"1343306","imdb_id":"tt11394284","world_art_id":null,"type":"movie","add":"2021-09-27 18:24:39","orig_title":"High Tide","year":"2020-01-27","translations":["Любительский (многоголосый закадровый) (AlphaProject)"],"quality":"webdl","translation":"Любительский (многоголосый закадровый) (AlphaProject)","update":"2021-09-28 08:35:42","iframe_src":"//2413.svetacdn.in/71tsRs29n5tZ/movie/53454"},{"id":53453,"title":"Свадьба Дианы","kp_id":"1404901","imdb_id":"tt12877032","world_art_id":null,"type":"movie","add":"2021-09-27 18:21:26","orig_title":"Dianas bryllup","year":"2020-09-11","translations":["Любительский (многоголосый закадровый) (Синема УС)"],"quality":"webdl","translation":"Любительский (многоголосый закадровый) (Синема УС)","update":"2021-09-28 08:36:41","iframe_src":"//2413.svetacdn.in/71tsRs29n5tZ/movie/53453"},{"id":53452,"title":"Дорогая Аффи","kp_id":null,"imdb_id":"tt14928724","world_art_id":null,"type":"movie","add":"2021-09-27 18:19:08","orig_title":"Dear Affy","year":"2020-01-01","translations":["Любительский (многоголосый закадровый) (Синема УС)"],"quality":"webdl","translation":"Любительский (многоголосый закадровый) (Синема УС)","update":"2021-09-28 08:33:00","iframe_src":"//2413.svetacdn.in/71tsRs29n5tZ/movie/53452"},{"id":53451,"title":"Смертельный проступок","kp_id":"4366993","imdb_id":"tt13883320","world_art_id":null,"type":"movie","add":"2021-09-27 18:09:20","orig_title":"Impropriety","year":"2021-05-28","translations":["Любительский (многоголосый закадровый) (AlphaProject)"],"quality":"webdl","translation":"Любительский (многоголосый закадровый) (AlphaProject)","update":"2021-09-28 08:28:15","iframe_src":"//2413.svetacdn.in/71tsRs29n5tZ/movie/53451"},{"id":53450,"title":"Балаган","kp_id":"2001564","imdb_id":"tt13566356","world_art_id":null,"type":"movie","add":"2021-09-27 18:07:59","orig_title":"Circus","year":"2020-01-01","translations":["Любительский (многоголосый закадровый) (Синема УС)"],"quality":"webdl","translation":"Любительский (многоголосый закадровый) (Синема УС)","update":"2021-09-28 08:25:14","iframe_src":"//2413.svetacdn.in/71tsRs29n5tZ/movie/53450"},{"id":53341,"title":"Дом у озера","kp_id":"1177261","imdb_id":"tt8689290","world_art_id":null,"type":"movie","add":"2021-09-23 11:18:51","orig_title":"The Alpines","year":"2021-02-05","translations":["Любительский (многоголосый закадровый) (AlphaProject)","Любительский (многоголосый закадровый) (AlphaProject)"],"quality":"webdl","translation":"Любительский (многоголосый закадровый) (AlphaProject)","update":"2021-09-28 08:33:27","iframe_src":"//2413.svetacdn.in/71tsRs29n5tZ/movie/53341"},{"id":53077,"title":"Блокадный дневник","kp_id":"1346362","imdb_id":"tt13723712","world_art_id":null,"type":"movie","add":"2021-09-12 16:19:01","orig_title":"Blokadnyy dnevnik","year":"2021-09-08","translations":["Оригинальная дорожка","Оригинальная дорожка"],"quality":"ts","translation":"Оригинальная дорожка","update":"2021-09-28 09:23:58","iframe_src":"//2413.svetacdn.in/71tsRs29n5tZ/movie/53077"},{"id":48099,"title":"Носильщик №1","kp_id":"1263549","imdb_id":"tt10280276","world_art_id":null,"type":"movie","add":"2021-02-21 09:56:53","orig_title":"Coolie No. 1","year":"2020-12-25","translations":["Любительский (многоголосый закадровый) (OnisFilms)","Любительский (многоголосый закадровый) (Honey&Haseena)","Любительский (многоголосый закадровый) (FanStudio)","Профессиональный (многоголосый закадровый) (ZEE TV)"],"quality":"webdl","translation":"Любительский (многоголосый закадровый) (OnisFilms)","update":"2021-09-28 11:33:16","iframe_src":"//2413.svetacdn.in/71tsRs29n5tZ/movie/48099"},{"id":32232,"title":"Уильям. Последний неандерталец","kp_id":"1026795","imdb_id":"tt6316816","world_art_id":null,"type":"movie","add":"2019-10-22 07:59:40","orig_title":"William","year":"2019-04-05","translations":["Любительский (многоголосый закадровый) (Синема УС)","Профессиональный (многоголосый закадровый) (IVI)","[EN] Original (English)"],"quality":"webdl","translation":"Любительский (многоголосый закадровый) (Синема УС)","update":"2021-09-28 11:37:04","iframe_src":"//2413.svetacdn.in/71tsRs29n5tZ/movie/32232"},{"id":5310,"title":"Петля","kp_id":"502900","imdb_id":"tt3033212","world_art_id":null,"type":"serial","add":"2019-09-26 20:13:09","orig_title":"Petlya","year":"2010-01-01","translations":["Оригинальная дорожка"],"seasons_count":1,"episodes_count":12,"episodes":12,"update":"2019-09-26 21:16:44","iframe_src":"//2413.svetacdn.in/71tsRs29n5tZ/tv-series/5310"},{"id":5306,"title":"Золотце","kp_id":"1111735","imdb_id":null,"world_art_id":null,"type":"serial","add":"2019-09-26 14:02:34","orig_title":"Золотце","year":"2018-01-07","translations":["Оригинальная дорожка"],"seasons_count":1,"episodes_count":2,"episodes":2,"update":"2019-09-27 06:10:02","iframe_src":"//2413.svetacdn.in/71tsRs29n5tZ/tv-series/5306"},{"id":5296,"title":"Узкий мост","kp_id":"457813","imdb_id":"tt3831864","world_art_id":null,"type":"serial","add":"2019-09-25 12:07:48","orig_title":"Uzkiy most","year":"2004-01-01","translations":["Оригинальная дорожка"],"seasons_count":1,"episodes_count":4,"episodes":4,"update":"2019-09-25 15:01:22","iframe_src":"//2413.svetacdn.in/71tsRs29n5tZ/tv-series/5296"},{"id":5295,"title":"Музыка моей души","kp_id":"1118097","imdb_id":null,"world_art_id":null,"type":"serial","add":"2019-09-25 12:05:31","orig_title":"Музыка моей души","year":"2018-01-01","translations":["Оригинальная дорожка"],"seasons_count":1,"episodes_count":2,"episodes":2,"update":"2019-09-25 20:18:31","iframe_src":"//2413.svetacdn.in/71tsRs29n5tZ/tv-series/5295"},{"id":5294,"title":"Чистая психология","kp_id":"1253974","imdb_id":null,"world_art_id":null,"type":"serial","add":"2019-09-25 12:03:19","orig_title":"Чистая психология","year":"2019-09-21","translations":["Оригинальная дорожка"],"seasons_count":1,"episodes_count":2,"episodes":2,"update":"2019-09-25 20:17:21","iframe_src":"//2413.svetacdn.in/71tsRs29n5tZ/tv-series/5294"},{"id":5293,"title":"Казароза","kp_id":"252008","imdb_id":"tt0959401","world_art_id":null,"type":"serial","add":"2019-09-25 12:01:14","orig_title":"Kazaroza","year":"2005-01-01","translations":["Оригинальная дорожка"],"seasons_count":1,"episodes_count":3,"episodes":3,"update":"2019-09-25 15:00:05","iframe_src":"//2413.svetacdn.in/71tsRs29n5tZ/tv-series/5293"},{"id":5286,"title":"Американский Плейбой: История Хью Хефнера","kp_id":"1043885","imdb_id":"tt5968748","world_art_id":null,"type":"serial","add":"2019-09-25 11:35:56","orig_title":"American Playboy: The Hugh Hefner Story","year":"2017-04-07","translations":["Любительский (двухголосый закадровый) (Sunshine Studio)"],"seasons_count":1,"episodes_count":10,"episodes":10,"update":"2019-09-26 13:59:10","iframe_src":"//2413.svetacdn.in/71tsRs29n5tZ/tv-series/5286"},{"id":5283,"title":"Банши: Предыстория","kp_id":"840848","imdb_id":"tt3644692","world_art_id":null,"type":"serial","add":"2019-09-25 09:32:30","orig_title":"Banshee Origins","year":"2013-01-11","translations":["Профессиональный (многоголосый закадровый) (CasStudio)"],"seasons_count":3,"episodes_count":30,"episodes":8,"update":"2019-09-26 05:55:56","iframe_src":"//2413.svetacdn.in/71tsRs29n5tZ/tv-series/5283"},{"id":5277,"title":"Эзель","kp_id":"497667","imdb_id":"tt1534360","world_art_id":null,"type":"serial","add":"2019-09-24 07:08:11","orig_title":"Ezel","year":"2009-09-28","translations":["Профессиональный (многоголосый закадровый)","Профессиональный (двухголосый закадровый)"],"seasons_count":2,"episodes_count":71,"episodes":38,"update":"2019-09-25 08:06:13","iframe_src":"//2413.svetacdn.in/71tsRs29n5tZ/tv-series/5277"},{"id":5265,"title":"Закон Артура","kp_id":"1124853","imdb_id":"tt6516354","world_art_id":null,"type":"serial","add":"2019-09-23 09:04:02","orig_title":"Arthurs Gesetz","year":"2018-12-18","translations":["Профессиональный (двухголосый закадровый) (ViruseProject)"],"seasons_count":1,"episodes_count":6,"episodes":6,"update":"2019-09-25 22:41:10","iframe_src":"//2413.svetacdn.in/71tsRs29n5tZ/tv-series/5265"},{"id":5262,"title":"Ментовские войны. Киев","kp_id":"1072968","imdb_id":"tt10139552","world_art_id":null,"type":"serial","add":"2019-09-22 06:55:53","orig_title":"Mentovskie voyny. Kiev","year":"2017-09-26","translations":["Оригинальная дорожка"],"seasons_count":1,"episodes_count":36,"episodes":36,"update":"2019-09-27 05:54:44","iframe_src":"//2413.svetacdn.in/71tsRs29n5tZ/tv-series/5262"},{"id":5261,"title":"Ментовские войны. Одесса","kp_id":"1100366","imdb_id":"tt10101888","world_art_id":null,"type":"serial","add":"2019-09-22 06:43:29","orig_title":"Mentovskie voyny. Odessa","year":"2017-08-14","translations":["Оригинальная дорожка"],"seasons_count":2,"episodes_count":24,"episodes":12,"update":"2019-09-25 07:59:23","iframe_src":"//2413.svetacdn.in/71tsRs29n5tZ/tv-series/5261"},{"id":5253,"title":"Мой лучший враг","kp_id":"1049105","imdb_id":"tt9442936","world_art_id":null,"type":"serial","add":"2019-09-19 12:42:43","orig_title":"Moy luchshiy vrag","year":"2017-09-23","translations":["Оригинальная дорожка"],"seasons_count":1,"episodes_count":4,"episodes":4,"update":"2019-09-27 06:06:57","iframe_src":"//2413.svetacdn.in/71tsRs29n5tZ/tv-series/5253"},{"id":5252,"title":"Каждому своё","kp_id":"1097463","imdb_id":null,"world_art_id":null,"type":"serial","add":"2019-09-19 12:39:42","orig_title":"Каждому своё","year":"2017-11-10","translations":["Оригинальная дорожка"],"seasons_count":1,"episodes_count":2,"episodes":2,"update":"2019-09-25 11:19:18","iframe_src":"//2413.svetacdn.in/71tsRs29n5tZ/tv-series/5252"},{"id":5251,"title":"Люблю тебя любую","kp_id":"1045639","imdb_id":null,"world_art_id":null,"type":"serial","add":"2019-09-19 12:35:21","orig_title":"Люблю тебя любую","year":"2017-09-08","translations":["Оригинальная дорожка"],"seasons_count":1,"episodes_count":2,"episodes":2,"update":"2019-09-25 10:55:30","iframe_src":"//2413.svetacdn.in/71tsRs29n5tZ/tv-series/5251"},{"id":5247,"title":"Рецепт любви","kp_id":"1049691","imdb_id":null,"world_art_id":null,"type":"serial","add":"2019-09-19 12:01:18","orig_title":"Рецепт любви","year":"2017-09-29","translations":["Оригинальная дорожка"],"seasons_count":1,"episodes_count":4,"episodes":4,"update":"2019-09-27 06:01:41","iframe_src":"//2413.svetacdn.in/71tsRs29n5tZ/tv-series/5247"},{"id":5245,"title":"Каинова печать","kp_id":"1115559","imdb_id":null,"world_art_id":null,"type":"serial","add":"2019-09-19 11:53:40","orig_title":"Каинова печать","year":"2018-04-14","translations":["Оригинальная дорожка"],"seasons_count":1,"episodes_count":4,"episodes":4,"update":"2019-09-27 05:06:23","iframe_src":"//2413.svetacdn.in/71tsRs29n5tZ/tv-series/5245"},{"id":5220,"title":"Фаворитка","kp_id":"425940","imdb_id":"tt1256139","world_art_id":null,"type":"serial","add":"2019-09-17 08:48:45","orig_title":"A Favorita","year":"2008-06-02","translations":["Профессиональный (многоголосый закадровый)"],"seasons_count":1,"episodes_count":160,"episodes":160,"update":"2019-09-26 07:36:05","iframe_src":"//2413.svetacdn.in/71tsRs29n5tZ/tv-series/5220"},{"id":4746,"title":"Соперники Шерлока Холмса","kp_id":"717566","imdb_id":"tt0167703","world_art_id":null,"type":"serial","add":"2019-06-25 11:38:54","orig_title":"The Rivals of Sherlock Holmes","year":"1971-09-20","translations":["Любительский (одноголосый закадровый)"],"seasons_count":1,"episodes_count":13,"episodes":13,"update":"2019-09-26 20:17:01","iframe_src":"//2413.svetacdn.in/71tsRs29n5tZ/tv-series/4746"},{"id":3664,"title":"Нокс","kp_id":"1114956","imdb_id":"tt7791216","world_art_id":null,"type":"serial","add":"2018-12-10 11:15:56","orig_title":"Nox","year":"2018-03-12","translations":["Профессиональный (многоголосый закадровый) (GreenРай Studio)","Профессиональный (многоголосый закадровый)"],"seasons_count":1,"episodes_count":6,"episodes":6,"update":"2019-09-26 12:48:31","iframe_src":"//2413.svetacdn.in/71tsRs29n5tZ/tv-series/3664"},{"id":9836,"title":"Последняя смена","kp_id":"770917","imdb_id":"tt2965466","world_art_id":null,"type":"movie","add":"2017-02-20 12:41:57","orig_title":"Last Shift","year":"2014-10-25","translations":["Любительский (одноголосый закадровый) (Хихикающий доктор)","Профессиональный (многоголосый закадровый) (IVI)"],"quality":"bd","translation":"Любительский (одноголосый закадровый) (Хихикающий доктор)","update":"2021-09-28 08:34:56","iframe_src":"//2413.svetacdn.in/71tsRs29n5tZ/movie/9836"},{"id":9501,"title":"Белая масаи","kp_id":"110917","imdb_id":"tt0436889","world_art_id":null,"type":"movie","add":"2017-02-07 13:31:32","orig_title":"Die Weisse Massai","year":"2005-09-14","translations":["Профессиональный (двухголосый закадровый) (Elrom)","Профессиональный (двухголосый закадровый) (Elrom)"],"quality":"dvdrip","translation":"Профессиональный (двухголосый закадровый) (Elrom)","update":"2021-09-28 11:35:04","iframe_src":"//2413.svetacdn.in/71tsRs29n5tZ/movie/9501"},{"id":6946,"title":"Снайпер","kp_id":"17288","imdb_id":"tt0108171","world_art_id":null,"type":"movie","add":"2016-11-01 12:30:23","orig_title":"Sniper","year":"1993-01-29","translations":["Профессиональный (многоголосый закадровый)","Профессиональный (многоголосый закадровый)","Авторский (одноголосый закадровый) (Есарев Дмитрий)","Авторский (одноголосый закадровый) (Гаврилов Андрей)","Авторский (одноголосый закадровый) (Гоблин | Пучков Дмитрий)","Авторский (одноголосый закадровый) (Горчаков Василий)","Авторский (одноголосый закадровый) (Латышев Максим | CDV)","Авторский (одноголосый закадровый) (Володарский Леонид)","Авторский (одноголосый закадровый) (Живов Юрий)","[EN] Original (English)","Профессиональный (двухголосый закадровый) (НТВ)"],"quality":"hdtv","translation":"Профессиональный (многоголосый закадровый)","update":"2021-09-28 08:25:02","iframe_src":"//2413.svetacdn.in/71tsRs29n5tZ/movie/6946"},{"id":5445,"title":"Сестричка, действуй","kp_id":"6558","imdb_id":"tt0105417","world_art_id":null,"type":"movie","add":"2016-09-23 09:02:38","orig_title":"Sister Act","year":"1992-05-29","translations":["Профессиональный (многоголосый закадровый)","Авторский (одноголосый закадровый) (Гаврилов Андрей)","[EN] Original (English)","Профессиональный (двухголосый закадровый) (НТВ)","Профессиональный (двухголосый закадровый) (Первый канал | ОРТ)","Профессиональный (многоголосый закадровый)","Авторский (одноголосый закадровый) (Горчаков Василий)"],"quality":"bd","translation":"Профессиональный (многоголосый закадровый)","update":"2021-09-28 11:28:57","iframe_src":"//2413.svetacdn.in/71tsRs29n5tZ/movie/5445"}],"current_page":441,"first_page_url":"https://videocdn.tv/api/short?limit=100&api_token=EnbO9h8pv1VyjbCJhg0WM9nG259n7mtz&cache3441=3441&page=1","from":44001,"last_page":720,"last_page_url":"https://videocdn.tv/api/short?limit=100&api_token=EnbO9h8pv1VyjbCJhg0WM9nG259n7mtz&cache3441=3441&page=720","next_page_url":"https://videocdn.tv/api/short?limit=100&api_token=EnbO9h8pv1VyjbCJhg0WM9nG259n7mtz&cache3441=3441&page=442","path":"https://videocdn.tv/api/short","per_page":100,"prev_page_url":"https://videocdn.tv/api/short?limit=100&api_token=EnbO9h8pv1VyjbCJhg0WM9nG259n7mtz&cache3441=3441&page=440","to":44040,"total":71979}