{"result":true,"data":[{"id":40868,"title":"Слава героям","kp_id":null,"imdb_id":"tt11599272","world_art_id":null,"type":"movie","add":"2020-06-01 22:39:50","orig_title":"Tribute to Heroes","year":"2020-01-10","translations":["Любительский (двухголосый закадровый) (Колобок)"],"quality":"webdl","translation":"Любительский (двухголосый закадровый) (Колобок)","update":"2020-06-02 07:22:00","iframe_src":"//8543.svetacdn.in/IAF0wWTdNYZm/movie/40868"},{"id":40837,"title":"Чемпион судьбы","kp_id":"433273","imdb_id":"tt0084436","world_art_id":null,"type":"movie","add":"2020-05-31 19:52:54","orig_title":"Quan ji xiao ji","year":"1982-01-01","translations":["Любительский (одноголосый закадровый) (Береговых Виктор | Jet)"],"quality":"webdl","translation":"Любительский (одноголосый закадровый) (Береговых Виктор | Jet)","update":"2020-06-02 07:18:46","iframe_src":"//8543.svetacdn.in/IAF0wWTdNYZm/movie/40837"},{"id":40836,"title":"5 супербойцов","kp_id":"57381","imdb_id":"tt0077558","world_art_id":null,"type":"movie","add":"2020-05-31 19:39:35","orig_title":"Tang shan wu hu","year":"1979-09-01","translations":["Авторский (одноголосый закадровый) (Кузнецов Сергей)"],"quality":"webdl","translation":"Авторский (одноголосый закадровый) (Кузнецов Сергей)","update":"2020-06-02 07:16:50","iframe_src":"//8543.svetacdn.in/IAF0wWTdNYZm/movie/40836"},{"id":40835,"title":"Мэгги","kp_id":"1216636","imdb_id":"tt9000062","world_art_id":null,"type":"movie","add":"2020-05-31 19:15:01","orig_title":"Maggie","year":"2018-10-07","translations":["Любительский (двухголосый закадровый) (RealFake)"],"quality":"webdl","translation":"Любительский (двухголосый закадровый) (RealFake)","update":"2020-06-02 07:11:51","iframe_src":"//8543.svetacdn.in/IAF0wWTdNYZm/movie/40835"},{"id":40834,"title":"Ах! Подруга...","kp_id":"224795","imdb_id":"tt0354922","world_art_id":null,"type":"movie","add":"2020-05-31 18:15:19","orig_title":"Snegithiye","year":"2000-04-14","translations":["Любительский (двухголосый закадровый) (DeadSno & den904)"],"quality":"dvdrip","translation":"Любительский (двухголосый закадровый) (DeadSno & den904)","update":"2020-06-02 07:00:54","iframe_src":"//8543.svetacdn.in/IAF0wWTdNYZm/movie/40834"},{"id":40829,"title":"Чужаки в монастыре Шаолинь","kp_id":"239501","imdb_id":"tt0201060","world_art_id":null,"type":"movie","add":"2020-05-30 23:09:45","orig_title":"San chuang Shao Lin","year":"1983-10-06","translations":["Профессиональный (двухголосый закадровый)"],"quality":"webdl","translation":"Профессиональный (двухголосый закадровый)","update":"2020-06-02 06:57:24","iframe_src":"//8543.svetacdn.in/IAF0wWTdNYZm/movie/40829"},{"id":40788,"title":"Конкуренты кунг-фу","kp_id":"274344","imdb_id":"tt0072087","world_art_id":null,"type":"movie","add":"2020-05-30 07:23:10","orig_title":"Huang Fei Hong yi qu Ding Cai Pao","year":"1974-05-25","translations":["Любительский (одноголосый закадровый) (Береговых Виктор | Jet)"],"quality":"webdl","translation":"Любительский (одноголосый закадровый) (Береговых Виктор | Jet)","update":"2020-06-02 06:59:52","iframe_src":"//8543.svetacdn.in/IAF0wWTdNYZm/movie/40788"},{"id":35078,"title":"Обезьянье кунг-фу","kp_id":"231954","imdb_id":"tt0078969","world_art_id":null,"type":"movie","add":"2020-01-15 19:15:11","orig_title":"Chu long ma liu","year":"1979-05-05","translations":["Профессиональный (многоголосый закадровый)","Авторский (одноголосый закадровый) (Кузнецов Сергей)"],"quality":"dvdrip","translation":"Профессиональный (многоголосый закадровый)","update":"2020-06-02 07:04:58","iframe_src":"//8543.svetacdn.in/IAF0wWTdNYZm/movie/35078"},{"id":34725,"title":"Призрачный меч","kp_id":"225260","imdb_id":"tt0488763","world_art_id":null,"type":"movie","add":"2020-01-04 11:07:32","orig_title":"Muyeong geom","year":"2005-11-18","translations":["Профессиональный (двухголосый закадровый)","Профессиональный (двухголосый закадровый)"],"quality":"webdl","translation":"Профессиональный (двухголосый закадровый)","update":"2020-06-02 06:58:18","iframe_src":"//8543.svetacdn.in/IAF0wWTdNYZm/movie/34725"},{"id":34632,"title":"Великолепные скитальцы","kp_id":"64249","imdb_id":"tt0076354","world_art_id":null,"type":"movie","add":"2019-12-30 23:16:36","orig_title":"Jiang hu han zi","year":"1977-05-27","translations":["Любительский (одноголосый закадровый)"],"quality":"webdl","translation":"Любительский (одноголосый закадровый)","update":"2020-06-02 06:48:52","iframe_src":"//8543.svetacdn.in/IAF0wWTdNYZm/movie/34632"},{"id":30055,"title":"Нападение людей-грибов","kp_id":"93489","imdb_id":"tt0057295","world_art_id":null,"type":"movie","add":"2019-08-16 16:58:46","orig_title":"Matango","year":"1963-08-11","translations":["Любительский (одноголосый закадровый)","Любительский (одноголосый закадровый)"],"quality":"dvdrip","translation":"Любительский (одноголосый закадровый)","update":"2020-06-02 07:07:06","iframe_src":"//8543.svetacdn.in/IAF0wWTdNYZm/movie/30055"},{"id":23080,"title":"Воздушная кукуруза и малиновое мороженое","kp_id":"56657","imdb_id":"tt0078102","world_art_id":null,"type":"movie","add":"2019-03-14 23:08:22","orig_title":"Popcorn und Himbeereis","year":"1978-10-06","translations":["Профессиональный (одноголосый закадровый)","Любительский (одноголосый закадровый) (Никитин)"],"quality":"dvdrip","translation":"Профессиональный (одноголосый закадровый)","update":"2020-06-02 07:30:34","iframe_src":"//8543.svetacdn.in/IAF0wWTdNYZm/movie/23080"},{"id":22550,"title":"Служанка","kp_id":"149296","imdb_id":"tt0150980","world_art_id":null,"type":"movie","add":"2019-02-26 16:20:34","orig_title":"Hanyo","year":"1960-11-03","translations":["Любительский (одноголосый закадровый) (liosaa)","Любительский (одноголосый закадровый) (liosaa)"],"quality":"dvdrip","translation":"Любительский (одноголосый закадровый) (liosaa)","update":"2020-06-02 07:15:41","iframe_src":"//8543.svetacdn.in/IAF0wWTdNYZm/movie/22550"},{"id":22249,"title":"Тот, кто сидит внутри","kp_id":"1049709","imdb_id":"tt9759978","world_art_id":null,"type":"movie","add":"2019-02-12 09:15:59","orig_title":"Nae aneui geunom","year":"2019-01-09","translations":["Любительский (многоголосый закадровый) (Колобок)","Любительский (двухголосый закадровый) (GREEN TEA)"],"quality":"webdl","translation":"Любительский (многоголосый закадровый) (Колобок)","update":"2020-06-02 06:56:20","iframe_src":"//8543.svetacdn.in/IAF0wWTdNYZm/movie/22249"},{"id":18826,"title":"Белая лилия","kp_id":"1008459","imdb_id":"tt5961906","world_art_id":null,"type":"movie","add":"2018-09-06 23:28:45","orig_title":"Howaito riri","year":"2016-10-07","translations":["Любительский (одноголосый закадровый) (Воротилин Олег)","Любительский (одноголосый закадровый) (Воротилин Олег)"],"quality":"dvdrip","translation":"Любительский (одноголосый закадровый) (Воротилин Олег)","update":"2020-06-02 06:51:56","iframe_src":"//8543.svetacdn.in/IAF0wWTdNYZm/movie/18826"},{"id":15202,"title":"С Богами: Два мира","kp_id":"1008561","imdb_id":"tt7160070","world_art_id":null,"type":"movie","add":"2018-02-17 22:37:49","orig_title":"Singwa hamkke","year":"2017-12-20","translations":["Любительский (многоголосый закадровый) (Колобок)","Любительский (двухголосый закадровый)","Любительский (многоголосый закадровый) (GreenРай Studio)","Любительский (одноголосый закадровый) (STEPonee)","Профессиональный (многоголосый закадровый) (HDrezka Studio)","Авторский (одноголосый закадровый) (Дольский Андрей)"],"quality":"webdl","translation":"Любительский (многоголосый закадровый) (Колобок)","update":"2020-06-02 06:48:08","iframe_src":"//8543.svetacdn.in/IAF0wWTdNYZm/movie/15202"},{"id":13940,"title":"Нож в воде","kp_id":"969577","imdb_id":"tt5108912","world_art_id":null,"type":"movie","add":"2017-10-22 19:11:47","orig_title":"Oboreru naifu","year":"2016-11-05","translations":["Любительский (многоголосый закадровый) (XDUB Dorama)","Любительский (двухголосый закадровый) (STEPonee)","Любительский (многоголосый закадровый) (XDUB Dorama)"],"quality":"webdl","translation":"Любительский (многоголосый закадровый) (XDUB Dorama)","update":"2020-06-02 07:17:50","iframe_src":"//8543.svetacdn.in/IAF0wWTdNYZm/movie/13940"},{"id":12568,"title":"Путешествие на Запад","kp_id":"606731","imdb_id":"tt2017561","world_art_id":null,"type":"movie","add":"2017-07-19 13:31:31","orig_title":"Xi you: Xiang mo pian","year":"2013-02-02","translations":["Любительский (двухголосый закадровый) (GREEN TEA)","Любительский (двухголосый закадровый) (GREEN TEA)"],"quality":"bd","translation":"Любительский (двухголосый закадровый) (GREEN TEA)","update":"2020-06-02 07:14:50","iframe_src":"//8543.svetacdn.in/IAF0wWTdNYZm/movie/12568"},{"id":11208,"title":"Победители и грешники","kp_id":"24717","imdb_id":"tt0086605","world_art_id":null,"type":"movie","add":"2017-04-25 12:47:36","orig_title":"Qi mou miao ji: Wu fu xing","year":"1983-07-07","translations":["Профессиональный (двухголосый закадровый)","Профессиональный (многоголосый закадровый) (ДТВ)"],"quality":"bd","translation":"Профессиональный (двухголосый закадровый)","update":"2020-06-02 07:02:17","iframe_src":"//8543.svetacdn.in/IAF0wWTdNYZm/movie/11208"},{"id":10501,"title":"Трон в крови","kp_id":"8386","imdb_id":"tt0050613","world_art_id":null,"type":"movie","add":"2017-03-23 21:21:51","orig_title":"Kumonosu-jô","year":"1957-09-08","translations":["Профессиональный (многоголосый закадровый)","Авторский (одноголосый закадровый) (Сербин Юрий)"],"quality":"bd","translation":"Профессиональный (многоголосый закадровый)","update":"2020-06-02 07:20:32","iframe_src":"//8543.svetacdn.in/IAF0wWTdNYZm/movie/10501"},{"id":296,"title":"Случайная вакансия","kp_id":"766485","imdb_id":"tt2554946","world_art_id":null,"type":"serial","add":"2016-07-19 12:00:31","orig_title":"The Casual Vacancy","year":"2015-02-15","translations":["Профессиональный (двухголосый закадровый) (Gears Media)"],"seasons_count":1,"episodes_count":3,"episodes":3,"update":"2016-07-20 05:48:38","iframe_src":"//8543.svetacdn.in/IAF0wWTdNYZm/tv-series/296"},{"id":290,"title":"Простая жизнь","kp_id":"744259","imdb_id":"tt4504902","world_art_id":null,"type":"serial","add":"2016-07-19 04:30:33","orig_title":"Prostaya zhizn","year":"2013-09-02","translations":["Оригинальная дорожка"],"seasons_count":1,"episodes_count":16,"episodes":16,"update":"2016-07-19 07:37:58","iframe_src":"//8543.svetacdn.in/IAF0wWTdNYZm/tv-series/290"},{"id":286,"title":"Ой, ма-моч-ки!","kp_id":"893069","imdb_id":"tt4556580","world_art_id":null,"type":"serial","add":"2016-07-15 12:04:25","orig_title":"Oy, ma-moch-ki!","year":"2013-03-03","translations":["Оригинальная дорожка"],"seasons_count":1,"episodes_count":12,"episodes":12,"update":"2016-07-18 05:58:26","iframe_src":"//8543.svetacdn.in/IAF0wWTdNYZm/tv-series/286"},{"id":285,"title":"Свежая кровь","kp_id":"980497","imdb_id":"tt4513868","world_art_id":null,"type":"serial","add":"2016-07-14 12:26:19","orig_title":"New Blood","year":"2016-06-02","translations":["Любительский (двухголосый закадровый) (Sunshine Studio)"],"seasons_count":1,"episodes_count":7,"episodes":7,"update":"2016-07-15 11:16:28","iframe_src":"//8543.svetacdn.in/IAF0wWTdNYZm/tv-series/285"},{"id":282,"title":"Культ","kp_id":"840611","imdb_id":"tt4764510","world_art_id":null,"type":"serial","add":"2016-07-12 12:50:51","orig_title":"Kult","year":"2015-10-12","translations":["Оригинальная дорожка"],"seasons_count":1,"episodes_count":12,"episodes":12,"update":"2016-07-13 06:14:16","iframe_src":"//8543.svetacdn.in/IAF0wWTdNYZm/tv-series/282"},{"id":281,"title":"Сестра моя, Любовь","kp_id":"818852","imdb_id":"tt4152420","world_art_id":null,"type":"serial","add":"2016-07-12 04:38:06","orig_title":"Sestra moya: Lyubov","year":"2014-01-01","translations":["Оригинальная дорожка"],"seasons_count":1,"episodes_count":16,"episodes":16,"update":"2016-07-12 12:39:27","iframe_src":"//8543.svetacdn.in/IAF0wWTdNYZm/tv-series/281"},{"id":280,"title":"Хорошие руки","kp_id":"820698","imdb_id":"tt4039412","world_art_id":null,"type":"serial","add":"2016-07-12 04:22:00","orig_title":"Khoroshie ruki","year":"2014-09-08","translations":["Оригинальная дорожка"],"seasons_count":1,"episodes_count":12,"episodes":12,"update":"2016-07-12 12:41:53","iframe_src":"//8543.svetacdn.in/IAF0wWTdNYZm/tv-series/280"},{"id":278,"title":"Большая буква «Р»","kp_id":"477758","imdb_id":"tt1515193","world_art_id":null,"type":"serial","add":"2016-07-11 13:22:18","orig_title":"The Big C","year":"2010-08-16","translations":["Профессиональный (двухголосый закадровый) (Ozz.tv)","Любительский (многоголосый закадровый) (To4ka)"],"seasons_count":4,"episodes_count":40,"episodes":4,"update":"2016-07-15 11:03:41","iframe_src":"//8543.svetacdn.in/IAF0wWTdNYZm/tv-series/278"},{"id":276,"title":"Шанс","kp_id":"935906","imdb_id":null,"world_art_id":null,"type":"serial","add":"2016-07-10 08:09:44","orig_title":"Шанс","year":"2015-10-17","translations":["Оригинальная дорожка"],"seasons_count":1,"episodes_count":2,"episodes":2,"update":"2016-07-11 05:50:41","iframe_src":"//8543.svetacdn.in/IAF0wWTdNYZm/tv-series/276"},{"id":270,"title":"Завтра все закончится","kp_id":"984334","imdb_id":"tt4368698","world_art_id":null,"type":"serial","add":"2016-07-07 12:04:00","orig_title":"Morgen hör ich auf","year":"2016-01-02","translations":["Профессиональный (многоголосый закадровый) (ViruseProject)"],"seasons_count":1,"episodes_count":5,"episodes":5,"update":"2016-07-08 10:26:56","iframe_src":"//8543.svetacdn.in/IAF0wWTdNYZm/tv-series/270"},{"id":266,"title":"Так сложились звезды","kp_id":"968794","imdb_id":null,"world_art_id":null,"type":"serial","add":"2016-07-07 04:19:32","orig_title":"Так сложились звезды","year":"2016-04-28","translations":["Оригинальная дорожка"],"seasons_count":1,"episodes_count":4,"episodes":4,"update":"2016-07-07 05:52:19","iframe_src":"//8543.svetacdn.in/IAF0wWTdNYZm/tv-series/266"},{"id":262,"title":"Политические игры (Фокусы)","kp_id":"880731","imdb_id":"tt4061482","world_art_id":null,"type":"serial","add":"2016-07-06 13:25:55","orig_title":"Party Tricks","year":"2014-10-06","translations":["Любительский (двухголосый закадровый) (Kiitos)"],"seasons_count":1,"episodes_count":6,"episodes":6,"update":"2016-07-07 10:20:12","iframe_src":"//8543.svetacdn.in/IAF0wWTdNYZm/tv-series/262"},{"id":260,"title":"Галлиполи","kp_id":"840346","imdb_id":"tt3577058","world_art_id":null,"type":"serial","add":"2016-07-06 13:04:55","orig_title":"Gallipoli","year":"2015-02-09","translations":["Любительский (двухголосый закадровый) (Kiitos)"],"seasons_count":1,"episodes_count":7,"episodes":7,"update":"2016-07-07 09:57:51","iframe_src":"//8543.svetacdn.in/IAF0wWTdNYZm/tv-series/260"},{"id":259,"title":"Наручники","kp_id":"945341","imdb_id":"tt4568288","world_art_id":null,"type":"serial","add":"2016-07-06 10:04:27","orig_title":"Cuffs","year":"2015-10-28","translations":["Любительский (двухголосый закадровый) (Kiitos)"],"seasons_count":1,"episodes_count":8,"episodes":8,"update":"2016-07-07 05:44:33","iframe_src":"//8543.svetacdn.in/IAF0wWTdNYZm/tv-series/259"},{"id":238,"title":"Вижу-знаю","kp_id":"977848","imdb_id":null,"world_art_id":null,"type":"serial","add":"2016-06-28 15:50:12","orig_title":"Вижу-знаю","year":"2016-01-01","translations":["Оригинальная дорожка"],"seasons_count":1,"episodes_count":24,"episodes":24,"update":"2016-07-08 06:51:54","iframe_src":"//8543.svetacdn.in/IAF0wWTdNYZm/tv-series/238"},{"id":234,"title":"Отдел","kp_id":"893921","imdb_id":null,"world_art_id":null,"type":"serial","add":"2016-06-27 05:35:05","orig_title":"Отдел","year":"2016-01-01","translations":["Оригинальная дорожка"],"seasons_count":1,"episodes_count":16,"episodes":16,"update":"2016-07-18 08:18:13","iframe_src":"//8543.svetacdn.in/IAF0wWTdNYZm/tv-series/234"},{"id":207,"title":"Кровные узы","kp_id":"926866","imdb_id":"tt4671682","world_art_id":null,"type":"serial","add":"2016-06-20 12:43:27","orig_title":"Ties That Bind","year":"2015-08-12","translations":["Профессиональный (многоголосый закадровый) (ViruseProject)"],"seasons_count":1,"episodes_count":10,"episodes":10,"update":"2016-07-07 06:26:58","iframe_src":"//8543.svetacdn.in/IAF0wWTdNYZm/tv-series/207"},{"id":167,"title":"Цари и пророки","kp_id":"891699","imdb_id":"tt4387170","world_art_id":null,"type":"serial","add":"2016-06-09 13:08:16","orig_title":"Of Kings and Prophets","year":"2016-03-08","translations":["Профессиональный (многоголосый закадровый) (BaibaKo)"],"seasons_count":1,"episodes_count":9,"episodes":9,"update":"2016-07-18 06:48:34","iframe_src":"//8543.svetacdn.in/IAF0wWTdNYZm/tv-series/167"},{"id":100,"title":"Игра в молчанку","kp_id":"893672","imdb_id":"tt4074374","world_art_id":null,"type":"serial","add":"2016-05-27 05:15:09","orig_title":"Game of Silence","year":"2016-04-12","translations":["Профессиональный (многоголосый закадровый) (BaibaKo)"],"seasons_count":1,"episodes_count":10,"episodes":10,"update":"2016-07-11 06:03:16","iframe_src":"//8543.svetacdn.in/IAF0wWTdNYZm/tv-series/100"},{"id":87,"title":"Охотники","kp_id":"970132","imdb_id":"tt4983204","world_art_id":null,"type":"serial","add":"2016-05-24 06:33:18","orig_title":"Hunters","year":"2016-04-11","translations":["Профессиональный (многоголосый закадровый) (Кравец)"],"seasons_count":1,"episodes_count":13,"episodes":13,"update":"2016-07-14 07:59:05","iframe_src":"//8543.svetacdn.in/IAF0wWTdNYZm/tv-series/87"}],"current_page":496,"first_page_url":"https://videocdn.tv/api/short?limit=100&api_token=6Onb1W1alEUrBcKJZD3GoKBbWyAl2uG2&cache3496=3496&page=1","from":49501,"last_page":602,"last_page_url":"https://videocdn.tv/api/short?limit=100&api_token=6Onb1W1alEUrBcKJZD3GoKBbWyAl2uG2&cache3496=3496&page=602","next_page_url":"https://videocdn.tv/api/short?limit=100&api_token=6Onb1W1alEUrBcKJZD3GoKBbWyAl2uG2&cache3496=3496&page=497","path":"https://videocdn.tv/api/short","per_page":100,"prev_page_url":"https://videocdn.tv/api/short?limit=100&api_token=6Onb1W1alEUrBcKJZD3GoKBbWyAl2uG2&cache3496=3496&page=495","to":49540,"total":60136}