{"result":true,"data":[{"id":45332,"title":"Резилиенс и Утраченные Самоцветы","kp_id":"1190491","imdb_id":"tt8982672","world_art_id":null,"type":"movie","add":"2020-11-16 09:36:44","orig_title":"Resilience and the Lost Gems","year":"2019-10-10","translations":["Любительский (многоголосый закадровый) (Синема УС)"],"quality":"webdl","translation":"Любительский (многоголосый закадровый) (Синема УС)","update":"2020-11-16 17:01:08","iframe_src":"//5322.svetacdn.in/si4jsFRrtgrT/movie/45332"},{"id":45331,"title":"После расставания","kp_id":"1013913","imdb_id":"tt6233612","world_art_id":null,"type":"movie","add":"2020-11-16 09:34:16","orig_title":"Happily Never After","year":"2017-03-01","translations":["Любительский (многоголосый закадровый) (Синема УС)"],"quality":"hdtv","translation":"Любительский (многоголосый закадровый) (Синема УС)","update":"2020-11-16 17:00:50","iframe_src":"//5322.svetacdn.in/si4jsFRrtgrT/movie/45331"},{"id":44034,"title":"Мёртвый","kp_id":"1369824","imdb_id":"tt12145322","world_art_id":null,"type":"movie","add":"2020-10-01 15:05:10","orig_title":"Dead","year":"2020-08-07","translations":["Original (English)","Любительский (многоголосый закадровый) (@MUZOBOZ@)"],"quality":"webdl","translation":"Original (English)","update":"2020-11-16 14:38:55","iframe_src":"//5322.svetacdn.in/si4jsFRrtgrT/movie/44034"},{"id":43957,"title":"Отклонение","kp_id":"1076912","imdb_id":"tt7090638","world_art_id":null,"type":"movie","add":"2020-09-29 08:20:13","orig_title":"The Swerve","year":"2019-06-15","translations":["Любительский (одноголосый закадровый) (BadBajo)","Любительский (многоголосый закадровый) (@MUZOBOZ@)","Original (English)"],"quality":"webdl","translation":"Любительский (одноголосый закадровый) (BadBajo)","update":"2020-11-16 15:19:36","iframe_src":"//5322.svetacdn.in/si4jsFRrtgrT/movie/43957"},{"id":43943,"title":"Призраки","kp_id":"12124","imdb_id":"tt0116393","world_art_id":null,"type":"movie","add":"2020-09-28 19:43:52","orig_title":"Gang in Blue","year":"1996-09-08","translations":["Авторский (одноголосый закадровый) (Визгунов Сергей)","Original (English)"],"quality":"webdl","translation":"Авторский (одноголосый закадровый) (Визгунов Сергей)","update":"2020-11-16 15:07:29","iframe_src":"//5322.svetacdn.in/si4jsFRrtgrT/movie/43943"},{"id":43914,"title":"Брачные игры земных обитателей","kp_id":"22002","imdb_id":"tt0165874","world_art_id":null,"type":"movie","add":"2020-09-28 16:16:32","orig_title":"The Mating Habits of the Earthbound Human","year":"1999-09-03","translations":["Профессиональный (двухголосый закадровый)","Original (English)"],"quality":"webdl","translation":"Профессиональный (двухголосый закадровый)","update":"2020-11-16 15:18:00","iframe_src":"//5322.svetacdn.in/si4jsFRrtgrT/movie/43914"},{"id":43899,"title":"Дорога надежды","kp_id":"629607","imdb_id":"tt2069708","world_art_id":null,"type":"movie","add":"2020-09-27 20:27:49","orig_title":"Abel's Field","year":"2012-09-15","translations":["Профессиональный (многоголосый закадровый)","Original (English)"],"quality":"webdl","translation":"Профессиональный (многоголосый закадровый)","update":"2020-11-16 13:55:28","iframe_src":"//5322.svetacdn.in/si4jsFRrtgrT/movie/43899"},{"id":43864,"title":"Шизополис","kp_id":"18302","imdb_id":"tt0117561","world_art_id":null,"type":"movie","add":"2020-09-26 08:46:36","orig_title":"Schizopolis","year":"1996-05-18","translations":["Профессиональный (многоголосый закадровый) (Видеосервис)","Original (English)"],"quality":"webdl","translation":"Профессиональный (многоголосый закадровый) (Видеосервис)","update":"2020-11-16 15:14:05","iframe_src":"//5322.svetacdn.in/si4jsFRrtgrT/movie/43864"},{"id":43841,"title":"Очарование Манхэттена","kp_id":"26719","imdb_id":"tt0025731","world_art_id":null,"type":"movie","add":"2020-09-25 09:09:27","orig_title":"Romance in Manhattan","year":"1935-01-11","translations":["Профессиональный (одноголосый закадровый)","Профессиональный (одноголосый закадровый)","Original (English)"],"quality":"dvdrip","translation":"Профессиональный (одноголосый закадровый)","update":"2020-11-16 15:13:03","iframe_src":"//5322.svetacdn.in/si4jsFRrtgrT/movie/43841"},{"id":43697,"title":"Марионетка","kp_id":"1166326","imdb_id":"tt8237272","world_art_id":null,"type":"movie","add":"2020-09-20 21:16:54","orig_title":"Marionette","year":"2020-09-28","translations":["Любительский (многоголосый закадровый) (@MUZOBOZ@)","Полное дублирование (iTunes)","Original (English)"],"quality":"webdl","translation":"Любительский (многоголосый закадровый) (@MUZOBOZ@)","update":"2020-11-16 15:11:18","iframe_src":"//5322.svetacdn.in/si4jsFRrtgrT/movie/43697"},{"id":43696,"title":"Скуби-Ду! Нападение Меха-Пса","kp_id":"808289","imdb_id":"tt3328486","world_art_id":null,"type":"movie","add":"2020-09-20 19:29:10","orig_title":"Scooby-Doo! Mecha Mutt Menace","year":"2013-09-24","translations":["Полное дублирование","Original (English)"],"quality":"hdtv","translation":"Полное дублирование","update":"2020-11-16 13:53:23","iframe_src":"//5322.svetacdn.in/si4jsFRrtgrT/movie/43696"},{"id":43629,"title":"Ночной сталкер","kp_id":"578855","imdb_id":"tt1821657","world_art_id":null,"type":"movie","add":"2020-09-17 19:00:46","orig_title":"The Night Stalker","year":"2016-06-04","translations":["Любительский (одноголосый закадровый)","Original (English)"],"quality":"webdl","translation":"Любительский (одноголосый закадровый)","update":"2020-11-16 15:18:54","iframe_src":"//5322.svetacdn.in/si4jsFRrtgrT/movie/43629"},{"id":43622,"title":"Другая сторона горы","kp_id":"23849","imdb_id":"tt0073496","world_art_id":null,"type":"movie","add":"2020-09-17 09:11:04","orig_title":"The Other Side of the Mountain","year":"1975-07-25","translations":["Профессиональный (многоголосый закадровый)","Original (English)"],"quality":"webdl","translation":"Профессиональный (многоголосый закадровый)","update":"2020-11-16 15:15:07","iframe_src":"//5322.svetacdn.in/si4jsFRrtgrT/movie/43622"},{"id":43419,"title":"Интимные услуги","kp_id":"6798","imdb_id":"tt0093727","world_art_id":null,"type":"movie","add":"2020-09-11 11:48:34","orig_title":"Personal Services","year":"1987-02-12","translations":["Авторский (одноголосый закадровый) (Гранкин Евгений)","Original (English)"],"quality":"webdl","translation":"Авторский (одноголосый закадровый) (Гранкин Евгений)","update":"2020-11-16 15:12:04","iframe_src":"//5322.svetacdn.in/si4jsFRrtgrT/movie/43419"},{"id":43405,"title":"Лесси возвращается домой","kp_id":"17884","imdb_id":"tt0036098","world_art_id":null,"type":"movie","add":"2020-09-10 19:33:36","orig_title":"Lassie Come Home","year":"1943-10-07","translations":["Профессиональный (многоголосый закадровый)","Original (English)"],"quality":"webdl","translation":"Профессиональный (многоголосый закадровый)","update":"2020-11-16 15:10:15","iframe_src":"//5322.svetacdn.in/si4jsFRrtgrT/movie/43405"},{"id":43097,"title":"Вампиры 3: Пробуждение зла","kp_id":"81882","imdb_id":"tt0398378","world_art_id":null,"type":"movie","add":"2020-09-06 04:50:53","orig_title":"Vampires: The Turning","year":"2004-12-31","translations":["Профессиональный (двухголосый закадровый) (Видеосервис)","Авторский (одноголосый закадровый) (Визгунов Сергей)","Original (English)"],"quality":"webdl","translation":"Профессиональный (двухголосый закадровый) (Видеосервис)","update":"2020-11-16 15:20:42","iframe_src":"//5322.svetacdn.in/si4jsFRrtgrT/movie/43097"},{"id":43096,"title":"Доппельгангер","kp_id":"1815","imdb_id":"tt0106753","world_art_id":null,"type":"movie","add":"2020-09-05 20:26:05","orig_title":"Doppelganger","year":"1993-01-01","translations":["Авторский (одноголосый закадровый) (Гаврилов Андрей)","Авторский (одноголосый закадровый) (Визгунов Сергей)","Профессиональный (двухголосый закадровый) (Екатеринбург Арт)","Original (English)"],"quality":"webdl","translation":"Авторский (одноголосый закадровый) (Гаврилов Андрей)","update":"2020-11-16 15:04:33","iframe_src":"//5322.svetacdn.in/si4jsFRrtgrT/movie/43096"},{"id":41835,"title":"Дама в красном","kp_id":"4097","imdb_id":"tt0079429","world_art_id":null,"type":"movie","add":"2020-07-18 10:06:35","orig_title":"The Lady in Red","year":"1980-04-24","translations":["Авторский (одноголосый закадровый) (Котов Вячеслав)","Original (English)"],"quality":"webdl","translation":"Авторский (одноголосый закадровый) (Котов Вячеслав)","update":"2020-11-16 15:16:13","iframe_src":"//5322.svetacdn.in/si4jsFRrtgrT/movie/41835"},{"id":40165,"title":"Сердца и кости","kp_id":"1183769","imdb_id":"tt8689644","world_art_id":null,"type":"movie","add":"2020-05-06 19:15:41","orig_title":"Hearts and Bones","year":"2019-06-15","translations":["Любительский (многоголосый закадровый) (@MUZOBOZ@)","Профессиональный (многоголосый закадровый) (iTunes)","Original (English)"],"quality":"webdl","translation":"Любительский (многоголосый закадровый) (@MUZOBOZ@)","update":"2020-11-16 15:08:58","iframe_src":"//5322.svetacdn.in/si4jsFRrtgrT/movie/40165"},{"id":3621,"title":"Повстанец Хон Гиль-дон","kp_id":"1008596","imdb_id":"tt6256694","world_art_id":null,"type":"serial","add":"2018-12-04 23:21:52","orig_title":"Yeok-jeok: baek-seong-eul hom-chin do-jeok","year":"2017-01-30","translations":["Любительский (двухголосый закадровый) (SoftBox)"],"seasons_count":1,"episodes_count":30,"episodes":30,"update":"2018-12-05 09:38:22","iframe_src":"//5322.svetacdn.in/si4jsFRrtgrT/tv-series/3621"},{"id":3620,"title":"Стук сердца","kp_id":"972320","imdb_id":"tt4613520","world_art_id":null,"type":"serial","add":"2018-12-04 23:14:28","orig_title":"Maeumui sori","year":"2016-11-07","translations":["Любительский (двухголосый закадровый) (SoftBox)"],"seasons_count":1,"episodes_count":20,"episodes":20,"update":"2018-12-05 08:35:50","iframe_src":"//5322.svetacdn.in/si4jsFRrtgrT/tv-series/3620"},{"id":3617,"title":"Гадкие американцы","kp_id":"565062","imdb_id":"tt1621748","world_art_id":null,"type":"serial","add":"2018-12-04 19:50:37","orig_title":"Ugly Americans","year":"2010-03-17","translations":["Полное дублирование (Paramount Comedy)"],"seasons_count":2,"episodes_count":31,"episodes":17,"update":"2018-12-04 21:13:49","iframe_src":"//5322.svetacdn.in/si4jsFRrtgrT/tv-series/3617"},{"id":3611,"title":"Завтра с тобой","kp_id":"996614","imdb_id":"tt5994346","world_art_id":null,"type":"serial","add":"2018-12-04 01:03:41","orig_title":"Naeil geudaewa","year":"2017-02-03","translations":["Любительский (двухголосый закадровый) (SoftBox)"],"seasons_count":1,"episodes_count":16,"episodes":16,"update":"2018-12-04 08:53:57","iframe_src":"//5322.svetacdn.in/si4jsFRrtgrT/tv-series/3611"},{"id":3610,"title":"Звезда вселенной","kp_id":"1008090","imdb_id":"tt6212758","world_art_id":null,"type":"serial","add":"2018-12-04 00:56:26","orig_title":"Ujueui byeoli","year":"2017-01-26","translations":["Любительский (двухголосый закадровый) (SoftBox)"],"seasons_count":1,"episodes_count":6,"episodes":6,"update":"2018-12-04 08:25:28","iframe_src":"//5322.svetacdn.in/si4jsFRrtgrT/tv-series/3610"},{"id":3608,"title":"Купель дьявола","kp_id":"1209217","imdb_id":null,"world_art_id":null,"type":"serial","add":"2018-12-03 16:16:47","orig_title":"Купель дьявола","year":"2018-11-11","translations":["Оригинальная дорожка"],"seasons_count":1,"episodes_count":4,"episodes":4,"update":"2018-12-03 18:28:11","iframe_src":"//5322.svetacdn.in/si4jsFRrtgrT/tv-series/3608"},{"id":3606,"title":"Синичка 2","kp_id":"1209899","imdb_id":null,"world_art_id":null,"type":"serial","add":"2018-12-03 10:51:49","orig_title":"Синичка 2","year":"2018-12-01","translations":["Оригинальная дорожка"],"seasons_count":1,"episodes_count":4,"episodes":4,"update":"2018-12-04 00:00:42","iframe_src":"//5322.svetacdn.in/si4jsFRrtgrT/tv-series/3606"},{"id":3600,"title":"Колдовское озеро","kp_id":"1178006","imdb_id":null,"world_art_id":null,"type":"serial","add":"2018-12-02 10:51:51","orig_title":"Колдовское озеро","year":"2018-11-30","translations":["Оригинальная дорожка"],"seasons_count":1,"episodes_count":2,"episodes":2,"update":"2018-12-03 08:45:08","iframe_src":"//5322.svetacdn.in/si4jsFRrtgrT/tv-series/3600"},{"id":3596,"title":"Мышиный дом","kp_id":"580714","imdb_id":"tt0272388","world_art_id":null,"type":"serial","add":"2018-11-30 15:39:42","orig_title":"House of Mouse","year":"2001-01-13","translations":["Полное дублирование"],"seasons_count":1,"episodes_count":13,"episodes":13,"update":"2018-12-03 08:58:58","iframe_src":"//5322.svetacdn.in/si4jsFRrtgrT/tv-series/3596"},{"id":3586,"title":"Дрянная девчонка","kp_id":"1007734","imdb_id":"tt6175760","world_art_id":null,"type":"serial","add":"2018-11-28 11:39:21","orig_title":"Yeopgijeogin Geunyeo","year":"2017-05-29","translations":["Любительский (двухголосый закадровый) (SoftBox)"],"seasons_count":1,"episodes_count":16,"episodes":16,"update":"2018-12-03 10:33:26","iframe_src":"//5322.svetacdn.in/si4jsFRrtgrT/tv-series/3586"},{"id":3584,"title":"Стрекоза","kp_id":"1195657","imdb_id":null,"world_art_id":null,"type":"serial","add":"2018-11-28 09:23:55","orig_title":"Стрекоза","year":"2018-09-02","translations":["Оригинальная дорожка"],"seasons_count":1,"episodes_count":4,"episodes":4,"update":"2018-11-30 10:46:37","iframe_src":"//5322.svetacdn.in/si4jsFRrtgrT/tv-series/3584"},{"id":3574,"title":"Медное солнце","kp_id":"840071","imdb_id":null,"world_art_id":null,"type":"serial","add":"2018-11-27 08:03:58","orig_title":"Медное солнце","year":"2018-11-26","translations":["Оригинальная дорожка"],"seasons_count":1,"episodes_count":2,"episodes":2,"update":"2018-11-30 10:43:04","iframe_src":"//5322.svetacdn.in/si4jsFRrtgrT/tv-series/3574"},{"id":3565,"title":"Красавица Кон Щим","kp_id":"979312","imdb_id":"tt5705896","world_art_id":null,"type":"serial","add":"2018-11-26 10:32:07","orig_title":"Minyeo Gongsimi","year":"2016-05-14","translations":["Любительский (двухголосый закадровый) (SoftBox)"],"seasons_count":1,"episodes_count":20,"episodes":20,"update":"2018-11-30 10:30:40","iframe_src":"//5322.svetacdn.in/si4jsFRrtgrT/tv-series/3565"},{"id":3524,"title":"Плохой папа","kp_id":"1162641","imdb_id":"tt8907470","world_art_id":null,"type":"serial","add":"2018-11-18 20:29:43","orig_title":"Baedeu papa","year":"2018-10-01","translations":["Любительский (двухголосый закадровый) (HighHopes)"],"seasons_count":1,"episodes_count":16,"episodes":16,"update":"2018-12-01 17:30:03","iframe_src":"//5322.svetacdn.in/si4jsFRrtgrT/tv-series/3524"},{"id":3521,"title":"Новоландия: Замок в небесах","kp_id":"1046932","imdb_id":"tt7516484","world_art_id":null,"type":"serial","add":"2018-11-17 00:07:30","orig_title":"Jiu zhou tian kong cheng","year":"2016-07-20","translations":["Любительский (одноголосый закадровый) (GREEN TEA)"],"seasons_count":1,"episodes_count":29,"episodes":29,"update":"2018-11-30 12:35:59","iframe_src":"//5322.svetacdn.in/si4jsFRrtgrT/tv-series/3521"},{"id":3517,"title":"Мой тайный роман","kp_id":"1039854","imdb_id":"tt6300100","world_art_id":null,"type":"serial","add":"2018-11-16 22:07:40","orig_title":"Aetaneun romaenseu","year":"2017-04-17","translations":["Любительский (двухголосый закадровый) (SoftBox)","Любительский (двухголосый закадровый) (HighHopes)","Любительский (двухголосый закадровый) (Храм Дорам ТВ)"],"seasons_count":1,"episodes_count":13,"episodes":13,"update":"2018-12-02 21:43:49","iframe_src":"//5322.svetacdn.in/si4jsFRrtgrT/tv-series/3517"},{"id":3466,"title":"Приключения Тинтина","kp_id":"481202","imdb_id":"tt0179552","world_art_id":null,"type":"serial","add":"2018-11-08 16:44:38","orig_title":"The Adventures of Tintin","year":"1991-10-02","translations":["Полное дублирование (Первый канал | ОРТ)"],"seasons_count":3,"episodes_count":39,"episodes":13,"update":"2018-12-03 12:28:26","iframe_src":"//5322.svetacdn.in/si4jsFRrtgrT/tv-series/3466"},{"id":3339,"title":"Звоните ДиКаприо!","kp_id":"977755","imdb_id":null,"world_art_id":null,"type":"serial","add":"2018-10-20 08:03:18","orig_title":"Звоните ДиКаприо!","year":"2018-10-20","translations":["Оригинальная дорожка"],"seasons_count":1,"episodes_count":8,"episodes":8,"update":"2018-12-01 10:30:06","iframe_src":"//5322.svetacdn.in/si4jsFRrtgrT/tv-series/3339"},{"id":3170,"title":"Фалько","kp_id":"795760","imdb_id":"tt2396953","world_art_id":null,"type":"serial","add":"2018-09-15 18:05:06","orig_title":"Falco","year":"2013-06-20","translations":["Любительский (двухголосый закадровый) (Sunshine Studio)"],"seasons_count":4,"episodes_count":30,"episodes":8,"update":"2018-11-30 10:20:46","iframe_src":"//5322.svetacdn.in/si4jsFRrtgrT/tv-series/3170"},{"id":14985,"title":"Глупый и бессмысленный жест","kp_id":"971283","imdb_id":"tt5566790","world_art_id":null,"type":"movie","add":"2018-01-29 05:20:14","orig_title":"A Futile and Stupid Gesture","year":"2018-01-24","translations":["Любительский (многоголосый закадровый) (Синема УС)","Профессиональный (многоголосый закадровый) (NewStudio)","Профессиональный (многоголосый закадровый) (Good People)","Original (English)"],"quality":"webdl","translation":"Любительский (многоголосый закадровый) (Синема УС)","update":"2020-11-16 13:54:30","iframe_src":"//5322.svetacdn.in/si4jsFRrtgrT/movie/14985"},{"id":1772,"title":"Дом Рэйвен","kp_id":"1045618","imdb_id":"tt6311972","world_art_id":null,"type":"serial","add":"2017-11-27 11:27:39","orig_title":"Raven's Home","year":"2017-07-21","translations":["Любительский (двухголосый закадровый) (GoldTeam)","Любительский (многоголосый закадровый) (ColdFilm)","Любительский (двухголосый закадровый) (ColdFilm)"],"seasons_count":2,"episodes_count":34,"episodes":21,"update":"2018-12-03 10:56:36","iframe_src":"//5322.svetacdn.in/si4jsFRrtgrT/tv-series/1772"}],"current_page":404,"first_page_url":"https://videocdn.tv/api/short?limit=100&api_token=X6EwAUfE5M9xbo7y0Bp0aPf3uXxG2KLL&cache3404=3404&page=1","from":40301,"last_page":631,"last_page_url":"https://videocdn.tv/api/short?limit=100&api_token=X6EwAUfE5M9xbo7y0Bp0aPf3uXxG2KLL&cache3404=3404&page=631","next_page_url":"https://videocdn.tv/api/short?limit=100&api_token=X6EwAUfE5M9xbo7y0Bp0aPf3uXxG2KLL&cache3404=3404&page=405","path":"https://videocdn.tv/api/short","per_page":100,"prev_page_url":"https://videocdn.tv/api/short?limit=100&api_token=X6EwAUfE5M9xbo7y0Bp0aPf3uXxG2KLL&cache3404=3404&page=403","to":40340,"total":63081}