{"result":true,"data":[{"id":3807,"title":"Замёрзшие","kp_id":"432713","imdb_id":"tt1323045","world_art_id":null,"type":"movie","add":"2016-07-08 14:52:38","orig_title":"Frozen","year":"2010-01-24","translations":["Полное дублирование"],"quality":"bd","translation":"Полное дублирование","update":"2016-07-09 09:26:39","iframe_src":"//8209.svetacdn.in/71tsRs29n5tZ/movie/3807"},{"id":3784,"title":"Фантастическая четверка: Вторжение Серебряного серфера","kp_id":"178557","imdb_id":"tt0486576","world_art_id":null,"type":"movie","add":"2016-07-08 12:40:24","orig_title":"4: Rise of the Silver Surfer","year":"2007-06-12","translations":["Полное дублирование"],"quality":"bd","translation":"Полное дублирование","update":"2016-07-08 20:20:50","iframe_src":"//8209.svetacdn.in/71tsRs29n5tZ/movie/3784"},{"id":3783,"title":"Программа защиты принцесс","kp_id":"407633","imdb_id":"tt1196339","world_art_id":null,"type":"movie","add":"2016-07-08 12:39:30","orig_title":"Princess Protection Progra","year":"2009-05-20","translations":["Полное дублирование"],"quality":"webdl","translation":"Полное дублирование","update":"2016-07-08 20:18:18","iframe_src":"//8209.svetacdn.in/71tsRs29n5tZ/movie/3783"},{"id":3782,"title":"Шикарное приключение Шарпей","kp_id":"518159","imdb_id":"tt1629440","world_art_id":null,"type":"movie","add":"2016-07-08 12:38:38","orig_title":"Sharpay's Fabulous Adventure","year":"2011-04-19","translations":["Полное дублирование"],"quality":"bd","translation":"Полное дублирование","update":"2016-07-08 20:15:48","iframe_src":"//8209.svetacdn.in/71tsRs29n5tZ/movie/3782"},{"id":3781,"title":"Ханна Монтана: Кино","kp_id":"405606","imdb_id":"tt1114677","world_art_id":null,"type":"movie","add":"2016-07-08 12:37:52","orig_title":"Hannah Montana: The Movie","year":"2009-04-08","translations":["Полное дублирование"],"quality":"bd","translation":"Полное дублирование","update":"2016-07-08 20:13:38","iframe_src":"//8209.svetacdn.in/71tsRs29n5tZ/movie/3781"},{"id":3780,"title":"Сорвиголова","kp_id":"648","imdb_id":"tt0287978","world_art_id":null,"type":"movie","add":"2016-07-08 12:37:07","orig_title":"Daredevil","year":"2003-02-09","translations":["Полное дублирование"],"quality":"bd","translation":"Полное дублирование","update":"2016-07-08 21:02:54","iframe_src":"//8209.svetacdn.in/71tsRs29n5tZ/movie/3780"},{"id":3779,"title":"Танец-вспышка","kp_id":"4083","imdb_id":"tt0085549","world_art_id":null,"type":"movie","add":"2016-07-08 12:34:24","orig_title":"Flashdance","year":"1983-04-15","translations":["Профессиональный (многоголосый закадровый)"],"quality":"bd","translation":"Профессиональный (многоголосый закадровый)","update":"2016-07-08 20:08:27","iframe_src":"//8209.svetacdn.in/71tsRs29n5tZ/movie/3779"},{"id":3773,"title":"Привет семье!","kp_id":"4887","imdb_id":"tt0356680","world_art_id":null,"type":"movie","add":"2016-07-08 12:30:08","orig_title":"The Family Stone","year":"2005-11-26","translations":["Полное дублирование"],"quality":"hdtv","translation":"Полное дублирование","update":"2016-07-08 20:22:56","iframe_src":"//8209.svetacdn.in/71tsRs29n5tZ/movie/3773"},{"id":3767,"title":"Оскар и Люсинда","kp_id":"5561","imdb_id":"tt0119843","world_art_id":null,"type":"movie","add":"2016-07-07 13:19:04","orig_title":"Oscar and Lucinda","year":"1997-12-31","translations":["Профессиональный (многоголосый закадровый)"],"quality":"webdl","translation":"Профессиональный (многоголосый закадровый)","update":"2016-07-08 10:49:43","iframe_src":"//8209.svetacdn.in/71tsRs29n5tZ/movie/3767"},{"id":3766,"title":"Соммерсби","kp_id":"8801","imdb_id":"tt0108185","world_art_id":null,"type":"movie","add":"2016-07-07 13:18:13","orig_title":"Sommersby","year":"1993-02-05","translations":["Профессиональный (многоголосый закадровый)"],"quality":"bd","translation":"Профессиональный (многоголосый закадровый)","update":"2016-07-08 10:55:51","iframe_src":"//8209.svetacdn.in/71tsRs29n5tZ/movie/3766"},{"id":3765,"title":"Любовная лихорадка","kp_id":"61272","imdb_id":"tt0369672","world_art_id":null,"type":"movie","add":"2016-07-07 13:17:27","orig_title":"A Love Song for Bobby Long","year":"2004-09-02","translations":["Профессиональный (двухголосый закадровый)"],"quality":"bd","translation":"Профессиональный (двухголосый закадровый)","update":"2016-07-08 11:00:06","iframe_src":"//8209.svetacdn.in/71tsRs29n5tZ/movie/3765"},{"id":3763,"title":"Скандальный дневник","kp_id":"104942","imdb_id":"tt0465551","world_art_id":null,"type":"movie","add":"2016-07-07 13:14:59","orig_title":"Notes on a Scandal","year":"2006-12-25","translations":["Профессиональный (многоголосый закадровый)"],"quality":"bd","translation":"Профессиональный (многоголосый закадровый)","update":"2016-07-08 11:01:51","iframe_src":"//8209.svetacdn.in/71tsRs29n5tZ/movie/3763"},{"id":3762,"title":"Мария-Антуанетта","kp_id":"81561","imdb_id":"tt0422720","world_art_id":null,"type":"movie","add":"2016-07-07 13:13:54","orig_title":"Marie Antoinette","year":"2006-05-24","translations":["Профессиональный (многоголосый закадровый)"],"quality":"bd","translation":"Профессиональный (многоголосый закадровый)","update":"2016-07-08 11:08:10","iframe_src":"//8209.svetacdn.in/71tsRs29n5tZ/movie/3762"},{"id":3761,"title":"Молодая Виктория","kp_id":"384138","imdb_id":"tt0962736","world_art_id":null,"type":"movie","add":"2016-07-07 13:13:03","orig_title":"The Young Victoria","year":"2009-03-06","translations":["Полное дублирование"],"quality":"bd","translation":"Полное дублирование","update":"2016-07-08 21:06:52","iframe_src":"//8209.svetacdn.in/71tsRs29n5tZ/movie/3761"},{"id":3760,"title":"Паранойя","kp_id":"252268","imdb_id":"tt0486822","world_art_id":null,"type":"movie","add":"2016-07-07 13:11:23","orig_title":"Disturbia","year":"2007-04-04","translations":["Полное дублирование"],"quality":"bd","translation":"Полное дублирование","update":"2016-07-08 11:15:48","iframe_src":"//8209.svetacdn.in/71tsRs29n5tZ/movie/3760"},{"id":3754,"title":"Бабье лето","kp_id":"2224","imdb_id":"tt3706628","world_art_id":null,"type":"movie","add":"2016-07-07 13:02:47","orig_title":"Indian Summer","year":"1993-04-23","translations":["Авторский (одноголосый закадровый) (Сербин Юрий)"],"quality":"bd","translation":"Авторский (одноголосый закадровый) (Сербин Юрий)","update":"2016-07-08 20:56:58","iframe_src":"//8209.svetacdn.in/71tsRs29n5tZ/movie/3754"},{"id":3753,"title":"Крутая компания","kp_id":"64173","imdb_id":"tt0385267","world_art_id":null,"type":"movie","add":"2016-07-07 13:00:58","orig_title":"In Good Company","year":"2004-12-06","translations":["Профессиональный (многоголосый закадровый)"],"quality":"hddvd","translation":"Профессиональный (многоголосый закадровый)","update":"2016-07-08 10:35:06","iframe_src":"//8209.svetacdn.in/71tsRs29n5tZ/movie/3753"},{"id":3752,"title":"Бог грома","kp_id":"898798","imdb_id":"tt4527268","world_art_id":null,"type":"movie","add":"2016-07-07 11:48:00","orig_title":"God of Thunder","year":"2015-06-22","translations":["Любительский (многоголосый закадровый) (Parovoz Production)"],"quality":"bd","translation":"Любительский (многоголосый закадровый) (Parovoz Production)","update":"2016-07-08 06:58:26","iframe_src":"//8209.svetacdn.in/71tsRs29n5tZ/movie/3752"},{"id":3708,"title":"Парикмахерская 2: Снова в деле","kp_id":"6864","imdb_id":"tt0337579","world_art_id":null,"type":"movie","add":"2016-07-06 05:29:59","orig_title":"Barbershop 2: Back in Business","year":"2004-01-20","translations":["Профессиональный (многоголосый закадровый)"],"quality":"hdtv","translation":"Профессиональный (многоголосый закадровый)","update":"2016-07-08 08:28:58","iframe_src":"//8209.svetacdn.in/71tsRs29n5tZ/movie/3708"},{"id":3329,"title":"Уитнэйл и Я","kp_id":"17818","imdb_id":"tt0094336","world_art_id":null,"type":"movie","add":"2016-06-23 11:24:25","orig_title":"Withnail & I","year":"1987-03-27","translations":["Профессиональный (многоголосый закадровый)"],"quality":"bd","translation":"Профессиональный (многоголосый закадровый)","update":"2016-07-08 21:05:26","iframe_src":"//8209.svetacdn.in/71tsRs29n5tZ/movie/3329"}],"current_page":2524,"first_page_url":"https://videocdn.tv/api/short?limit=100&api_token=EnbO9h8pv1VyjbCJhg0WM9nG259n7mtz&cache32524=32524&page=1","from":252301,"last_page":660,"last_page_url":"https://videocdn.tv/api/short?limit=100&api_token=EnbO9h8pv1VyjbCJhg0WM9nG259n7mtz&cache32524=32524&page=660","next_page_url":null,"path":"https://videocdn.tv/api/short","per_page":100,"prev_page_url":"https://videocdn.tv/api/short?limit=100&api_token=EnbO9h8pv1VyjbCJhg0WM9nG259n7mtz&cache32524=32524&page=2523","to":252320,"total":65985}