{"result":true,"data":[{"id":43555,"title":"1906","kp_id":"1111743","imdb_id":"tt9420024","world_art_id":null,"type":"movie","add":"2020-09-15 09:35:15","orig_title":"1906","year":"2019-03-14","translations":["Любительский (многоголосый закадровый) (@MUZOBOZ@)"],"quality":"webdl","translation":"Любительский (многоголосый закадровый) (@MUZOBOZ@)","update":"2020-09-15 20:31:19","iframe_src":"//7720.svetacdn.in/IAF0wWTdNYZm/movie/43555"},{"id":43552,"title":"Наблюдающий","kp_id":"1242908","imdb_id":"tt12998268","world_art_id":null,"type":"movie","add":"2020-09-15 07:01:14","orig_title":"Watching","year":"2019-04-17","translations":["Любительский (двухголосый закадровый) (Колобок)"],"quality":"webdl","translation":"Любительский (двухголосый закадровый) (Колобок)","update":"2020-09-15 19:21:01","iframe_src":"//7720.svetacdn.in/IAF0wWTdNYZm/movie/43552"},{"id":43551,"title":"Файтер","kp_id":"1264612","imdb_id":"tt10340366","world_art_id":null,"type":"movie","add":"2020-09-15 06:58:51","orig_title":"Fighter","year":"2019-07-15","translations":["Любительский (многоголосый закадровый) (AlphaProject)"],"quality":"webdl","translation":"Любительский (многоголосый закадровый) (AlphaProject)","update":"2020-09-15 19:21:41","iframe_src":"//7720.svetacdn.in/IAF0wWTdNYZm/movie/43551"},{"id":43549,"title":"Мужской взгляд: Нападающие и защитники","kp_id":"1396218","imdb_id":"tt12784260","world_art_id":null,"type":"movie","add":"2020-09-14 21:25:03","orig_title":"The Male Gaze: Strikers & Defenders","year":"2020-07-27","translations":["Любительский (многоголосый закадровый) (Синема УС)"],"quality":"webdl","translation":"Любительский (многоголосый закадровый) (Синема УС)","update":"2020-09-15 17:44:43","iframe_src":"//7720.svetacdn.in/IAF0wWTdNYZm/movie/43549"},{"id":43409,"title":"Дивизия","kp_id":"1282704","imdb_id":"tt10648192","world_art_id":null,"type":"movie","add":"2020-09-11 04:43:05","orig_title":"A Divisão","year":"2020-01-23","translations":["Любительский (многоголосый закадровый) (@MUZOBOZ@)"],"quality":"bd","translation":"Любительский (многоголосый закадровый) (@MUZOBOZ@)","update":"2020-09-15 20:33:30","iframe_src":"//7720.svetacdn.in/IAF0wWTdNYZm/movie/43409"},{"id":43390,"title":"Старт","kp_id":"494804","imdb_id":null,"world_art_id":null,"type":"movie","add":"2020-09-10 17:59:06","orig_title":"Старт","year":"1977-01-01","translations":["Оригинальная дорожка"],"quality":"sat","translation":"Оригинальная дорожка","update":"2020-09-15 14:18:54","iframe_src":"//7720.svetacdn.in/IAF0wWTdNYZm/movie/43390"},{"id":43389,"title":"Солнечное зернышко","kp_id":"474355","imdb_id":"tt9013438","world_art_id":null,"type":"movie","add":"2020-09-10 17:53:01","orig_title":"Solnechnoe zyornyshko","year":"1969-01-01","translations":["Оригинальная дорожка"],"quality":"sat","translation":"Оригинальная дорожка","update":"2020-09-15 14:17:14","iframe_src":"//7720.svetacdn.in/IAF0wWTdNYZm/movie/43389"},{"id":43388,"title":"Сновидения поздней осени","kp_id":"991692","imdb_id":null,"world_art_id":null,"type":"movie","add":"2020-09-10 17:48:55","orig_title":"Сновидения поздней осени","year":"1988-01-01","translations":["Оригинальная дорожка"],"quality":"tv","translation":"Оригинальная дорожка","update":"2020-09-15 14:16:19","iframe_src":"//7720.svetacdn.in/IAF0wWTdNYZm/movie/43388"},{"id":43387,"title":"Снежная мельница","kp_id":"137821","imdb_id":"tt0452313","world_art_id":null,"type":"movie","add":"2020-09-10 17:35:41","orig_title":"Lumeveski","year":"1970-01-01","translations":["Любительский (двухголосый закадровый)"],"quality":"vhs","translation":"Любительский (двухголосый закадровый)","update":"2020-09-15 14:14:56","iframe_src":"//7720.svetacdn.in/IAF0wWTdNYZm/movie/43387"},{"id":43386,"title":"Слушается дело о... Не очень комическая опера","kp_id":"477534","imdb_id":null,"world_art_id":null,"type":"movie","add":"2020-09-10 17:31:59","orig_title":"Слушается дело о... Не очень комическая опера","year":"1976-01-01","translations":["Оригинальная дорожка"],"quality":"sat","translation":"Оригинальная дорожка","update":"2020-09-15 14:13:26","iframe_src":"//7720.svetacdn.in/IAF0wWTdNYZm/movie/43386"},{"id":43385,"title":"Сказка о карасях, зайце и бубликах","kp_id":"676949","imdb_id":"tt6230130","world_art_id":null,"type":"movie","add":"2020-09-10 17:23:46","orig_title":"Skazka o karasyakh, zaytse i bublikakh","year":"1984-01-01","translations":["Оригинальная дорожка"],"quality":"dvdrip","translation":"Оригинальная дорожка","update":"2020-09-15 13:47:39","iframe_src":"//7720.svetacdn.in/IAF0wWTdNYZm/movie/43385"},{"id":43368,"title":"Волчок","kp_id":"257998","imdb_id":"tt11559144","world_art_id":null,"type":"movie","add":"2020-09-09 19:35:38","orig_title":"Volchok","year":"1985-01-01","translations":["Оригинальная дорожка"],"quality":"dvdrip","translation":"Оригинальная дорожка","update":"2020-09-15 13:46:51","iframe_src":"//7720.svetacdn.in/IAF0wWTdNYZm/movie/43368"},{"id":43367,"title":"Композиция на тему... Рыжик","kp_id":"665419","imdb_id":null,"world_art_id":null,"type":"movie","add":"2020-09-09 19:13:51","orig_title":"Композиция на тему... Рыжик","year":"1989-01-01","translations":["Оригинальная дорожка"],"quality":"sat","translation":"Оригинальная дорожка","update":"2020-09-15 13:46:01","iframe_src":"//7720.svetacdn.in/IAF0wWTdNYZm/movie/43367"},{"id":43366,"title":"Рыбья упряжка","kp_id":"478639","imdb_id":null,"world_art_id":null,"type":"movie","add":"2020-09-09 19:08:14","orig_title":"Рыбья упряжка","year":"1982-01-01","translations":["Оригинальная дорожка"],"quality":"sat","translation":"Оригинальная дорожка","update":"2020-09-15 13:45:16","iframe_src":"//7720.svetacdn.in/IAF0wWTdNYZm/movie/43366"},{"id":43365,"title":"Про черепаху","kp_id":"445710","imdb_id":"tt1332583","world_art_id":null,"type":"movie","add":"2020-09-09 18:58:26","orig_title":"Pro cherepakhu","year":"1980-01-01","translations":["Оригинальная дорожка"],"quality":"dvdrip","translation":"Оригинальная дорожка","update":"2020-09-15 13:43:27","iframe_src":"//7720.svetacdn.in/IAF0wWTdNYZm/movie/43365"},{"id":43364,"title":"Композиция на тему... Паршивец","kp_id":"665423","imdb_id":null,"world_art_id":null,"type":"movie","add":"2020-09-09 18:54:13","orig_title":"Композиция на тему... Паршивец","year":"1990-01-01","translations":["Оригинальная дорожка"],"quality":"webdl","translation":"Оригинальная дорожка","update":"2020-09-15 13:42:16","iframe_src":"//7720.svetacdn.in/IAF0wWTdNYZm/movie/43364"},{"id":43363,"title":"Композиция на тему... Принцесса-Мимо","kp_id":"665424","imdb_id":null,"world_art_id":null,"type":"movie","add":"2020-09-09 18:47:42","orig_title":"Композиция на тему... Принцесса-Мимо","year":"1991-01-01","translations":["Оригинальная дорожка"],"quality":"sat","translation":"Оригинальная дорожка","update":"2020-09-15 13:41:34","iframe_src":"//7720.svetacdn.in/IAF0wWTdNYZm/movie/43363"},{"id":43362,"title":"Катавасия","kp_id":"1270745","imdb_id":null,"world_art_id":null,"type":"movie","add":"2020-09-09 18:40:48","orig_title":"Катавасия","year":"1974-01-01","translations":["Оригинальная дорожка"],"quality":"dvdrip","translation":"Оригинальная дорожка","update":"2020-09-15 13:40:21","iframe_src":"//7720.svetacdn.in/IAF0wWTdNYZm/movie/43362"},{"id":43361,"title":"Каменный век","kp_id":"481587","imdb_id":null,"world_art_id":null,"type":"movie","add":"2020-09-09 18:36:38","orig_title":"Каменный век","year":"1987-01-01","translations":["Оригинальная дорожка"],"quality":"sat","translation":"Оригинальная дорожка","update":"2020-09-15 13:39:40","iframe_src":"//7720.svetacdn.in/IAF0wWTdNYZm/movie/43361"},{"id":43359,"title":"Как мышонок летучим стал","kp_id":"584773","imdb_id":null,"world_art_id":null,"type":"movie","add":"2020-09-09 18:32:31","orig_title":"Как мышонок летучим стал","year":"1991-01-01","translations":["Оригинальная дорожка"],"quality":"dvdrip","translation":"Оригинальная дорожка","update":"2020-09-15 13:38:50","iframe_src":"//7720.svetacdn.in/IAF0wWTdNYZm/movie/43359"}],"current_page":599,"first_page_url":"https://videocdn.tv/api/short?limit=100&api_token=6Onb1W1alEUrBcKJZD3GoKBbWyAl2uG2&cache3599=3599&page=1","from":59801,"last_page":649,"last_page_url":"https://videocdn.tv/api/short?limit=100&api_token=6Onb1W1alEUrBcKJZD3GoKBbWyAl2uG2&cache3599=3599&page=649","next_page_url":"https://videocdn.tv/api/short?limit=100&api_token=6Onb1W1alEUrBcKJZD3GoKBbWyAl2uG2&cache3599=3599&page=600","path":"https://videocdn.tv/api/short","per_page":100,"prev_page_url":"https://videocdn.tv/api/short?limit=100&api_token=6Onb1W1alEUrBcKJZD3GoKBbWyAl2uG2&cache3599=3599&page=598","to":59820,"total":64845}