{"result":true,"data":[{"id":40342,"title":"ABCD","kp_id":"1271960","imdb_id":"tt10419042","world_art_id":null,"type":"movie","add":"2020-05-12 20:01:52","orig_title":"AB Aani CD","year":"2020-03-13","translations":["Любительский (многоголосый закадровый) (Синема УС)"],"quality":"webdl","translation":"Любительский (многоголосый закадровый) (Синема УС)","update":"2020-05-13 04:33:05","iframe_src":"//24213.svetacdn.in/IAF0wWTdNYZm/movie/40342"},{"id":40329,"title":"Маленькие злобные штучки","kp_id":"1263618","imdb_id":"tt10331140","world_art_id":null,"type":"movie","add":"2020-05-12 18:14:09","orig_title":"Evil Little Things","year":"2019-02-07","translations":["Любительский (многоголосый закадровый) (Синема УС)"],"quality":"webdl","translation":"Любительский (многоголосый закадровый) (Синема УС)","update":"2020-05-13 04:27:57","iframe_src":"//24213.svetacdn.in/IAF0wWTdNYZm/movie/40329"},{"id":40320,"title":"Везучий толстяк","kp_id":"1064079","imdb_id":"tt7505230","world_art_id":null,"type":"movie","add":"2020-05-12 13:22:00","orig_title":"Lucky Fat Man","year":"2017-01-19","translations":["Любительский (многоголосый закадровый) (Синема УС)"],"quality":"webdl","translation":"Любительский (многоголосый закадровый) (Синема УС)","update":"2020-05-12 19:36:19","iframe_src":"//24213.svetacdn.in/IAF0wWTdNYZm/movie/40320"},{"id":40306,"title":"Другое лицо","kp_id":"431206","imdb_id":"tt3524760","world_art_id":null,"type":"movie","add":"2020-05-11 20:53:12","orig_title":"Drugoe litso","year":"2008-01-01","translations":["Оригинальная дорожка"],"quality":"dvdrip","translation":"Оригинальная дорожка","update":"2020-05-12 13:53:56","iframe_src":"//24213.svetacdn.in/IAF0wWTdNYZm/movie/40306"},{"id":40276,"title":"Танцор рока","kp_id":"107584","imdb_id":"tt0274764","world_art_id":null,"type":"movie","add":"2020-05-11 06:52:54","orig_title":"Rock Dancer","year":"1995-11-03","translations":["Профессиональный (многоголосый закадровый) (НТВ)"],"quality":"tv","translation":"Профессиональный (многоголосый закадровый) (НТВ)","update":"2020-05-13 06:19:23","iframe_src":"//24213.svetacdn.in/IAF0wWTdNYZm/movie/40276"},{"id":40267,"title":"И в печали, и в радости","kp_id":"1165655","imdb_id":"tt8469890","world_art_id":null,"type":"movie","add":"2020-05-11 05:01:28","orig_title":"En las buenas y en las malas","year":"2019-03-15","translations":["Любительский (многоголосый закадровый) (AlphaProject)"],"quality":"webdl","translation":"Любительский (многоголосый закадровый) (AlphaProject)","update":"2020-05-12 08:39:40","iframe_src":"//24213.svetacdn.in/IAF0wWTdNYZm/movie/40267"},{"id":40212,"title":"Отверженный","kp_id":"102546","imdb_id":"tt0105515","world_art_id":null,"type":"movie","add":"2020-05-08 16:35:47","orig_title":"Tadipaar","year":"1993-12-17","translations":["Профессиональный (многоголосый закадровый)"],"quality":"dvdrip","translation":"Профессиональный (многоголосый закадровый)","update":"2020-05-12 13:45:48","iframe_src":"//24213.svetacdn.in/IAF0wWTdNYZm/movie/40212"},{"id":39425,"title":"Автостоп в ад","kp_id":"201685","imdb_id":"tt0140174","world_art_id":null,"type":"movie","add":"2020-04-17 05:33:26","orig_title":"Hitch Hike to Hell","year":"1977-01-01","translations":["Любительский (одноголосый закадровый)"],"quality":"bd","translation":"Любительский (одноголосый закадровый)","update":"2020-05-12 11:16:57","iframe_src":"//24213.svetacdn.in/IAF0wWTdNYZm/movie/39425"},{"id":39419,"title":"Полу вдова","kp_id":null,"imdb_id":"tt5012370","world_art_id":null,"type":"movie","add":"2020-04-17 04:53:41","orig_title":"Half Widow","year":"2017-01-01","translations":["Любительский (многоголосый закадровый) (AlphaProject)"],"quality":"webdl","translation":"Любительский (многоголосый закадровый) (AlphaProject)","update":"2020-05-12 11:19:23","iframe_src":"//24213.svetacdn.in/IAF0wWTdNYZm/movie/39419"},{"id":39416,"title":"Душеприказчица","kp_id":"1009942","imdb_id":"tt6247650","world_art_id":null,"type":"movie","add":"2020-04-17 04:49:22","orig_title":"The Executrix","year":"2017-10-05","translations":["Любительский (многоголосый закадровый) (Синема УС)"],"quality":"webdl","translation":"Любительский (многоголосый закадровый) (Синема УС)","update":"2020-05-12 11:19:51","iframe_src":"//24213.svetacdn.in/IAF0wWTdNYZm/movie/39416"},{"id":38707,"title":"Раджа Натварлал","kp_id":"822783","imdb_id":"tt3483712","world_art_id":null,"type":"movie","add":"2020-03-30 21:36:06","orig_title":"Raja Natwarlal","year":"2014-08-28","translations":["Профессиональный (многоголосый закадровый) (ZEE TV)"],"quality":"hdrip","translation":"Профессиональный (многоголосый закадровый) (ZEE TV)","update":"2020-05-12 13:45:09","iframe_src":"//24213.svetacdn.in/IAF0wWTdNYZm/movie/38707"},{"id":30018,"title":"Темнота","kp_id":"1063419","imdb_id":"tt7487314","world_art_id":null,"type":"movie","add":"2019-08-15 10:42:54","orig_title":"A Dark Place","year":"2018-04-27","translations":["Любительский (многоголосый закадровый) (Синема УС)","Профессиональный (многоголосый закадровый) (HDrezka Studio)"],"quality":"webdl","translation":"Любительский (многоголосый закадровый) (Синема УС)","update":"2020-05-12 16:36:38","iframe_src":"//24213.svetacdn.in/IAF0wWTdNYZm/movie/30018"},{"id":24657,"title":"Мальчик по имени Парусник","kp_id":"662728","imdb_id":"tt2201211","world_art_id":null,"type":"movie","add":"2019-04-15 21:22:59","orig_title":"A Boy Called Sailboat","year":"2018-04-29","translations":["Профессиональный (многоголосый закадровый) (HDrezka Studio)"],"quality":"webdl","translation":"Профессиональный (многоголосый закадровый) (HDrezka Studio)","update":"2020-05-12 16:36:09","iframe_src":"//24213.svetacdn.in/IAF0wWTdNYZm/movie/24657"},{"id":22480,"title":"Первый призыв","kp_id":"1119175","imdb_id":"tt8142044","world_art_id":null,"type":"movie","add":"2019-02-23 21:49:23","orig_title":"1st Summoning","year":"2019-02-22","translations":["Любительский (многоголосый закадровый) (Синема УС)","Профессиональный (многоголосый закадровый) (HDrezka Studio)"],"quality":"webdl","translation":"Любительский (многоголосый закадровый) (Синема УС)","update":"2020-05-12 11:46:34","iframe_src":"//24213.svetacdn.in/IAF0wWTdNYZm/movie/22480"},{"id":17119,"title":"2036, происхождение неизвестно","kp_id":"1002391","imdb_id":"tt4575328","world_art_id":null,"type":"movie","add":"2018-06-10 19:40:43","orig_title":"2036 Origin Unknown","year":"2018-06-08","translations":["Любительский (многоголосый закадровый) (@MUZOBOZ@)","Любительский (двухголосый закадровый) (HiWayGrope)","Профессиональный (многоголосый закадровый) (Jaskier)","[EN] Original (English)","Профессиональный (многоголосый закадровый) (HDrezka Studio)"],"quality":"webdl","translation":"Любительский (многоголосый закадровый) (@MUZOBOZ@)","update":"2020-05-12 08:43:59","iframe_src":"//24213.svetacdn.in/IAF0wWTdNYZm/movie/17119"},{"id":16150,"title":"Операция «Шаровая молния»","kp_id":"995013","imdb_id":"tt5466186","world_art_id":null,"type":"movie","add":"2018-04-08 21:40:01","orig_title":"Entebbe","year":"2018-02-19","translations":["Полное дублирование","[EN] Original (English)","Профессиональный (многоголосый закадровый) (HDrezka Studio)"],"quality":"bd","translation":"Полное дублирование","update":"2020-05-12 08:47:46","iframe_src":"//24213.svetacdn.in/IAF0wWTdNYZm/movie/16150"},{"id":12956,"title":"Манифесто","kp_id":"919800","imdb_id":"tt4511200","world_art_id":null,"type":"movie","add":"2017-08-14 21:47:28","orig_title":"Manifesto","year":"2015-12-09","translations":["Профессиональный (многоголосый закадровый) (HDrezka Studio)"],"quality":"webdl","translation":"Профессиональный (многоголосый закадровый) (HDrezka Studio)","update":"2020-05-12 11:47:20","iframe_src":"//24213.svetacdn.in/IAF0wWTdNYZm/movie/12956"},{"id":11263,"title":"Песнь тьмы","kp_id":"922179","imdb_id":"tt4805316","world_art_id":null,"type":"movie","add":"2017-04-30 11:02:38","orig_title":"A Dark Song","year":"2016-07-08","translations":["Полное дублирование (iTunes)","Авторский (одноголосый закадровый) (Дольский Андрей)","Профессиональный (многоголосый закадровый) (HDrezka Studio)"],"quality":"webdl","translation":"Полное дублирование (iTunes)","update":"2020-05-12 16:35:24","iframe_src":"//24213.svetacdn.in/IAF0wWTdNYZm/movie/11263"},{"id":10001,"title":"Я – Куба","kp_id":"43937","imdb_id":"tt0058604","world_art_id":null,"type":"movie","add":"2017-02-23 22:19:19","orig_title":"Soy Cuba","year":"1964-10-26","translations":["Профессиональный (многоголосый закадровый)"],"quality":"webdl","translation":"Профессиональный (многоголосый закадровый)","update":"2020-05-12 13:49:34","iframe_src":"//24213.svetacdn.in/IAF0wWTdNYZm/movie/10001"},{"id":9186,"title":"Ярость","kp_id":"819534","imdb_id":"tt3398048","world_art_id":null,"type":"movie","add":"2017-01-25 15:39:47","orig_title":"Tevar","year":"2015-01-08","translations":["Любительский (двухголосый закадровый)","Любительский (многоголосый закадровый) (ICG)"],"quality":"webdl","translation":"Любительский (двухголосый закадровый)","update":"2020-05-12 13:46:38","iframe_src":"//24213.svetacdn.in/IAF0wWTdNYZm/movie/9186"}],"current_page":1275,"first_page_url":"https://videocdn.tv/api/short?limit=100&api_token=6Onb1W1alEUrBcKJZD3GoKBbWyAl2uG2&cache31275=31275&page=1","from":127401,"last_page":729,"last_page_url":"https://videocdn.tv/api/short?limit=100&api_token=6Onb1W1alEUrBcKJZD3GoKBbWyAl2uG2&cache31275=31275&page=729","next_page_url":null,"path":"https://videocdn.tv/api/short","per_page":100,"prev_page_url":"https://videocdn.tv/api/short?limit=100&api_token=6Onb1W1alEUrBcKJZD3GoKBbWyAl2uG2&cache31275=31275&page=1274","to":127420,"total":72860}