{"result":true,"data":[{"id":51135,"title":"Зомби одним планом!: В Голливуде","kp_id":"1260291","imdb_id":"tt10188260","world_art_id":null,"type":"movie","add":"2021-06-13 09:29:27","orig_title":"Kamera o tomeru na! supin-ofu: Hariuddo daisakusen!","year":"2019-03-02","translations":["Любительский (многоголосый закадровый) (Синема УС)"],"quality":"bd","translation":"Любительский (многоголосый закадровый) (Синема УС)","update":"2021-06-13 12:30:01","iframe_src":"//2413.svetacdn.in/71tsRs29n5tZ/movie/51135"},{"id":51134,"title":"В плену у сакуры","kp_id":"1209004","imdb_id":"tt9800096","world_art_id":null,"type":"movie","add":"2021-06-13 08:12:31","orig_title":"Sorôkin no mita sakura","year":"2019-03-22","translations":["Профессиональный (многоголосый закадровый) (Позитив)"],"quality":"webdl","translation":"Профессиональный (многоголосый закадровый) (Позитив)","update":"2021-06-13 16:12:37","iframe_src":"//2413.svetacdn.in/71tsRs29n5tZ/movie/51134"},{"id":51128,"title":"Я здесь","kp_id":"1263421","imdb_id":null,"world_art_id":null,"type":"movie","add":"2021-06-12 12:08:43","orig_title":"Я здесь","year":"2019-01-01","translations":["Оригинальная дорожка"],"quality":"webdl","translation":"Оригинальная дорожка","update":"2021-06-12 15:09:19","iframe_src":"//2413.svetacdn.in/71tsRs29n5tZ/movie/51128"},{"id":51126,"title":"Горные слёзы","kp_id":null,"imdb_id":"tt8495520","world_art_id":null,"type":"movie","add":"2021-06-12 12:06:52","orig_title":"Ta dakrya tou vounou","year":"2018-11-10","translations":["Любительский (многоголосый закадровый) (Синема УС)"],"quality":"webdl","translation":"Любительский (многоголосый закадровый) (Синема УС)","update":"2021-06-12 21:52:04","iframe_src":"//2413.svetacdn.in/71tsRs29n5tZ/movie/51126"},{"id":51125,"title":"София-Антиполис","kp_id":"1174204","imdb_id":"tt8694588","world_art_id":null,"type":"movie","add":"2021-06-12 12:05:07","orig_title":"Sophia Antipolis","year":"2018-10-31","translations":["Любительский (многоголосый закадровый) (Синема УС)"],"quality":"webdl","translation":"Любительский (многоголосый закадровый) (Синема УС)","update":"2021-06-12 21:53:14","iframe_src":"//2413.svetacdn.in/71tsRs29n5tZ/movie/51125"},{"id":51124,"title":"Я вернулся","kp_id":"1088354","imdb_id":"tt6892340","world_art_id":null,"type":"movie","add":"2021-06-12 11:46:52","orig_title":"Sono tornato","year":"2018-02-01","translations":["Любительский (многоголосый закадровый) (Синема УС)"],"quality":"webdl","translation":"Любительский (многоголосый закадровый) (Синема УС)","update":"2021-06-12 21:54:50","iframe_src":"//2413.svetacdn.in/71tsRs29n5tZ/movie/51124"},{"id":51123,"title":"Сатпал Чаухан","kp_id":"1143871","imdb_id":"tt8406866","world_art_id":null,"type":"movie","add":"2021-06-12 11:44:53","orig_title":"S.P. Chauhan","year":"2019-02-07","translations":["Любительский (многоголосый закадровый) (Синема УС)"],"quality":"webdl","translation":"Любительский (многоголосый закадровый) (Синема УС)","update":"2021-06-12 21:53:47","iframe_src":"//2413.svetacdn.in/71tsRs29n5tZ/movie/51123"},{"id":51122,"title":"Дороги прошлого","kp_id":"1014082","imdb_id":"tt6410720","world_art_id":null,"type":"movie","add":"2021-06-12 11:43:21","orig_title":"Road of Bygones","year":"2019-10-26","translations":["Любительский (многоголосый закадровый) (Синема УС)"],"quality":"webdl","translation":"Любительский (многоголосый закадровый) (Синема УС)","update":"2021-06-12 21:52:49","iframe_src":"//2413.svetacdn.in/71tsRs29n5tZ/movie/51122"},{"id":51121,"title":"Мандао: возвращение","kp_id":"1349779","imdb_id":"tt8764084","world_art_id":null,"type":"movie","add":"2021-06-12 11:41:52","orig_title":"Mandao Returns","year":"2020-12-15","translations":["Любительский (многоголосый закадровый) (Синема УС)"],"quality":"webdl","translation":"Любительский (многоголосый закадровый) (Синема УС)","update":"2021-06-12 21:52:13","iframe_src":"//2413.svetacdn.in/71tsRs29n5tZ/movie/51121"},{"id":51120,"title":"M.V.B антология фильмов часть III: Паранормальное","kp_id":"1342294","imdb_id":"tt11662146","world_art_id":null,"type":"movie","add":"2021-06-12 11:39:41","orig_title":"M.V.B Films Anthology Vol III Paranormal","year":"2020-03-18","translations":["Любительский (многоголосый закадровый) (Синема УС)"],"quality":"webdl","translation":"Любительский (многоголосый закадровый) (Синема УС)","update":"2021-06-12 21:50:43","iframe_src":"//2413.svetacdn.in/71tsRs29n5tZ/movie/51120"},{"id":51119,"title":"Жизнь и смерть за 96 часов","kp_id":null,"imdb_id":"tt6447704","world_art_id":null,"type":"movie","add":"2021-06-12 11:37:58","orig_title":"Life and Death in 96 Hours","year":"2016-11-13","translations":["Любительский (двухголосый закадровый) (Колобок)"],"quality":"webdl","translation":"Любительский (двухголосый закадровый) (Колобок)","update":"2021-06-12 21:50:06","iframe_src":"//2413.svetacdn.in/71tsRs29n5tZ/movie/51119"},{"id":51118,"title":"В ад и обратно","kp_id":"1273906","imdb_id":"tt10417498","world_art_id":null,"type":"movie","add":"2021-06-12 11:35:14","orig_title":"Infierno grande","year":"2019-05-23","translations":["Любительский (многоголосый закадровый) (Синема УС)"],"quality":"webdl","translation":"Любительский (многоголосый закадровый) (Синема УС)","update":"2021-06-12 21:49:33","iframe_src":"//2413.svetacdn.in/71tsRs29n5tZ/movie/51118"},{"id":51117,"title":"Единственная ночь","kp_id":"493435","imdb_id":"tt1578265","world_art_id":null,"type":"movie","add":"2021-06-12 05:07:36","orig_title":"Re-Generator","year":"2010-01-23","translations":["Любительский (двухголосый закадровый) (DeadSno & den904)"],"quality":"bd","translation":"Любительский (двухголосый закадровый) (DeadSno & den904)","update":"2021-06-12 11:43:05","iframe_src":"//2413.svetacdn.in/71tsRs29n5tZ/movie/51117"},{"id":51113,"title":"Бандит-заложник","kp_id":"1411676","imdb_id":"tt13067292","world_art_id":null,"type":"movie","add":"2021-06-11 20:51:53","orig_title":"Rogue Hostage","year":"2021-06-11","translations":["Любительский (многоголосый закадровый) (AlphaProject)"],"quality":"webdl","translation":"Любительский (многоголосый закадровый) (AlphaProject)","update":"2021-06-12 21:48:08","iframe_src":"//2413.svetacdn.in/71tsRs29n5tZ/movie/51113"},{"id":51112,"title":"Карго","kp_id":"4366851","imdb_id":"tt13705098","world_art_id":null,"type":"movie","add":"2021-06-11 20:50:13","orig_title":"Cargo","year":"2021-03-20","translations":["Любительский (многоголосый закадровый) (Синема УС)"],"quality":"webdl","translation":"Любительский (многоголосый закадровый) (Синема УС)","update":"2021-06-12 21:46:57","iframe_src":"//2413.svetacdn.in/71tsRs29n5tZ/movie/51112"},{"id":51090,"title":"Трагический лес","kp_id":"1395447","imdb_id":"tt12792598","world_art_id":null,"type":"movie","add":"2021-06-11 05:58:11","orig_title":"Selva trágica","year":"2020-09-09","translations":["Любительский (одноголосый закадровый) (datynet | Агапов Антон)"],"quality":"webdl","translation":"Любительский (одноголосый закадровый) (datynet | Агапов Антон)","update":"2021-06-12 09:26:33","iframe_src":"//2413.svetacdn.in/71tsRs29n5tZ/movie/51090"},{"id":50974,"title":"Соблазн","kp_id":"1222771","imdb_id":"tt9440738","world_art_id":null,"type":"movie","add":"2021-06-06 10:00:07","orig_title":"Lured","year":"2019-10-17","translations":["Любительский (многоголосый закадровый) (Синема УС)"],"quality":"webdl","translation":"Любительский (многоголосый закадровый) (Синема УС)","update":"2021-06-13 08:52:16","iframe_src":"//2413.svetacdn.in/71tsRs29n5tZ/movie/50974"},{"id":50440,"title":"Замыкание","kp_id":"1162915","imdb_id":"tt14384290","world_art_id":null,"type":"movie","add":"2021-05-17 10:51:11","orig_title":"Zamykanie","year":"2021-05-13","translations":["Оригинальная дорожка","Профессиональный (многоголосый закадровый)"],"quality":"ts","translation":"Оригинальная дорожка","update":"2021-06-13 16:08:33","iframe_src":"//2413.svetacdn.in/71tsRs29n5tZ/movie/50440"},{"id":45733,"title":"Территория","kp_id":"224046","imdb_id":"tt0407250","world_art_id":null,"type":"movie","add":"2020-12-01 17:46:57","orig_title":"Territoriya","year":"1980-06-13","translations":["Оригинальная дорожка"],"quality":"webdl","translation":"Оригинальная дорожка","update":"2021-06-12 15:13:32","iframe_src":"//2413.svetacdn.in/71tsRs29n5tZ/movie/45733"},{"id":20201,"title":"Месть Джипси","kp_id":null,"imdb_id":"tt9239778","world_art_id":null,"type":"movie","add":"2018-11-19 21:00:00","orig_title":"Gypsy's Revenge","year":"2018-11-06","translations":["Любительский (многоголосый закадровый) (Синема УС)","Профессиональный (многоголосый закадровый) (OMSKBIRD records)"],"quality":"webdl","translation":"Любительский (многоголосый закадровый) (Синема УС)","update":"2021-06-12 11:44:41","iframe_src":"//2413.svetacdn.in/71tsRs29n5tZ/movie/20201"},{"id":1223,"title":"Запах клубники","kp_id":"924223","imdb_id":"tt4900982","world_art_id":null,"type":"serial","add":"2017-04-27 12:49:37","orig_title":"Çilek Kokusu","year":"2015-06-24","translations":["Любительский (одноголосый закадровый) (Реальный перевод)"],"seasons_count":1,"episodes_count":23,"episodes":23,"update":"2017-04-28 12:34:03","iframe_src":"//2413.svetacdn.in/71tsRs29n5tZ/tv-series/1223"},{"id":1221,"title":"Вторжение. Битва за рай","kp_id":"915411","imdb_id":"tt4716164","world_art_id":null,"type":"serial","add":"2017-04-27 05:53:28","orig_title":"Tomorrow. When The War Began","year":"2016-04-23","translations":["Профессиональный (многоголосый закадровый) (Jaskier)"],"seasons_count":1,"episodes_count":6,"episodes":6,"update":"2017-04-28 10:49:22","iframe_src":"//2413.svetacdn.in/71tsRs29n5tZ/tv-series/1221"},{"id":1220,"title":"Бриклберри","kp_id":"709862","imdb_id":"tt2022713","world_art_id":null,"type":"serial","add":"2017-04-26 13:32:58","orig_title":"Brickleberry","year":"2012-09-25","translations":["Профессиональный (многоголосый закадровый) (NewStudio)"],"seasons_count":3,"episodes_count":36,"episodes":13,"update":"2017-05-01 10:27:45","iframe_src":"//2413.svetacdn.in/71tsRs29n5tZ/tv-series/1220"},{"id":1219,"title":"Наше счастливое завтра","kp_id":"968795","imdb_id":null,"world_art_id":null,"type":"serial","add":"2017-04-26 13:26:09","orig_title":"Наше счастливое завтра","year":"2017-04-24","translations":["Оригинальная дорожка"],"seasons_count":1,"episodes_count":16,"episodes":16,"update":"2017-05-01 05:01:30","iframe_src":"//2413.svetacdn.in/71tsRs29n5tZ/tv-series/1219"},{"id":1218,"title":"Оптимисты","kp_id":"970176","imdb_id":"tt5905344","world_art_id":null,"type":"serial","add":"2017-04-26 13:23:01","orig_title":"Optimisty","year":"2017-04-24","translations":["Оригинальная дорожка"],"seasons_count":1,"episodes_count":13,"episodes":13,"update":"2017-05-01 05:11:51","iframe_src":"//2413.svetacdn.in/71tsRs29n5tZ/tv-series/1218"},{"id":1217,"title":"Баллада о бомбере","kp_id":"569961","imdb_id":"tt2007472","world_art_id":null,"type":"serial","add":"2017-04-25 12:01:06","orig_title":"Ballada o bombere","year":"2011-04-25","translations":["Оригинальная дорожка"],"seasons_count":1,"episodes_count":8,"episodes":8,"update":"2017-04-26 14:04:05","iframe_src":"//2413.svetacdn.in/71tsRs29n5tZ/tv-series/1217"},{"id":1216,"title":"Линия Марты","kp_id":"797034","imdb_id":"tt3507622","world_art_id":null,"type":"serial","add":"2017-04-25 11:57:20","orig_title":"Liniya Marty","year":"2014-01-29","translations":["Оригинальная дорожка"],"seasons_count":1,"episodes_count":4,"episodes":4,"update":"2017-04-26 10:48:50","iframe_src":"//2413.svetacdn.in/71tsRs29n5tZ/tv-series/1216"},{"id":1215,"title":"Противостояние","kp_id":"1008706","imdb_id":null,"world_art_id":null,"type":"serial","add":"2017-04-25 11:54:23","orig_title":"Противостояние","year":"2017-04-22","translations":["Оригинальная дорожка"],"seasons_count":1,"episodes_count":4,"episodes":4,"update":"2017-04-26 06:07:57","iframe_src":"//2413.svetacdn.in/71tsRs29n5tZ/tv-series/1215"},{"id":1214,"title":"Измены","kp_id":"839356","imdb_id":"tt5031896","world_art_id":null,"type":"serial","add":"2017-04-25 11:44:44","orig_title":"Izmeni","year":"2015-09-21","translations":["Оригинальная дорожка"],"seasons_count":1,"episodes_count":16,"episodes":16,"update":"2017-04-26 05:53:50","iframe_src":"//2413.svetacdn.in/71tsRs29n5tZ/tv-series/1214"},{"id":1213,"title":"Отцы","kp_id":"963348","imdb_id":null,"world_art_id":null,"type":"serial","add":"2017-04-25 07:42:10","orig_title":"Отцы","year":"2016-01-01","translations":["Оригинальная дорожка"],"seasons_count":1,"episodes_count":12,"episodes":12,"update":"2017-04-25 14:45:57","iframe_src":"//2413.svetacdn.in/71tsRs29n5tZ/tv-series/1213"},{"id":1212,"title":"Мёртв на 99%","kp_id":"988864","imdb_id":null,"world_art_id":null,"type":"serial","add":"2017-04-24 15:56:17","orig_title":"Мёртв на 99%","year":"2017-04-10","translations":["Оригинальная дорожка"],"seasons_count":1,"episodes_count":10,"episodes":10,"update":"2017-04-25 15:04:46","iframe_src":"//2413.svetacdn.in/71tsRs29n5tZ/tv-series/1212"},{"id":1210,"title":"Выжить любой ценой","kp_id":"989172","imdb_id":null,"world_art_id":null,"type":"serial","add":"2017-04-24 15:52:00","orig_title":"Выжить любой ценой","year":"2017-03-27","translations":["Оригинальная дорожка"],"seasons_count":1,"episodes_count":12,"episodes":12,"update":"2017-04-26 15:37:54","iframe_src":"//2413.svetacdn.in/71tsRs29n5tZ/tv-series/1210"},{"id":1209,"title":"Портрет женщины в красном","kp_id":"1043989","imdb_id":null,"world_art_id":null,"type":"serial","add":"2017-04-24 11:31:36","orig_title":"Портрет женщины в красном","year":"2017-04-22","translations":["Оригинальная дорожка"],"seasons_count":1,"episodes_count":1,"episodes":1,"update":"2017-04-25 06:10:53","iframe_src":"//2413.svetacdn.in/71tsRs29n5tZ/tv-series/1209"},{"id":1208,"title":"Объявлен в розыск","kp_id":"511419","imdb_id":"tt3389276","world_art_id":null,"type":"serial","add":"2017-04-21 14:26:52","orig_title":"Obyavlen v rozysk","year":"2011-02-06","translations":["Оригинальная дорожка"],"seasons_count":1,"episodes_count":12,"episodes":12,"update":"2017-04-24 15:39:55","iframe_src":"//2413.svetacdn.in/71tsRs29n5tZ/tv-series/1208"},{"id":1206,"title":"Спецотдел М","kp_id":"915136","imdb_id":"tt4602874","world_art_id":null,"type":"serial","add":"2017-04-20 12:41:27","orig_title":"Siljongneuwareu M","year":"2015-03-28","translations":["Любительский (двухголосый закадровый) (XDUB Dorama)"],"seasons_count":1,"episodes_count":10,"episodes":10,"update":"2017-04-21 11:14:23","iframe_src":"//2413.svetacdn.in/71tsRs29n5tZ/tv-series/1206"},{"id":1205,"title":"Шулер","kp_id":"701593","imdb_id":"tt3558240","world_art_id":null,"type":"serial","add":"2017-04-20 12:34:35","orig_title":"Shuler","year":"2013-09-23","translations":["Оригинальная дорожка"],"seasons_count":1,"episodes_count":10,"episodes":10,"update":"2017-04-21 08:34:22","iframe_src":"//2413.svetacdn.in/71tsRs29n5tZ/tv-series/1205"},{"id":1204,"title":"Трасса смерти","kp_id":"1006673","imdb_id":"tt6234852","world_art_id":null,"type":"serial","add":"2017-04-20 12:18:47","orig_title":"Trassa smerti","year":"2017-04-17","translations":["Оригинальная дорожка"],"seasons_count":1,"episodes_count":10,"episodes":10,"update":"2017-04-23 07:52:36","iframe_src":"//2413.svetacdn.in/71tsRs29n5tZ/tv-series/1204"},{"id":1195,"title":"Что и требовалось доказать","kp_id":"898460","imdb_id":null,"world_art_id":null,"type":"serial","add":"2017-04-18 07:36:39","orig_title":"Что и требовалось доказать","year":"2017-04-17","translations":["Оригинальная дорожка"],"seasons_count":1,"episodes_count":8,"episodes":8,"update":"2017-04-24 15:19:57","iframe_src":"//2413.svetacdn.in/71tsRs29n5tZ/tv-series/1195"},{"id":1149,"title":"В розыске","kp_id":"971423","imdb_id":"tt5542294","world_art_id":null,"type":"serial","add":"2017-03-29 17:19:38","orig_title":"APB","year":"2017-02-06","translations":["Профессиональный (многоголосый закадровый) (Jaskier)"],"seasons_count":1,"episodes_count":12,"episodes":12,"update":"2017-04-28 07:40:04","iframe_src":"//2413.svetacdn.in/71tsRs29n5tZ/tv-series/1149"},{"id":205,"title":"Десница Божья","kp_id":"842134","imdb_id":"tt3973768","world_art_id":null,"type":"serial","add":"2016-06-20 12:15:12","orig_title":"Hand of God","year":"2014-08-28","translations":["Профессиональный (многоголосый закадровый) (LostFilm)"],"seasons_count":2,"episodes_count":20,"episodes":10,"update":"2017-04-25 14:55:06","iframe_src":"//2413.svetacdn.in/71tsRs29n5tZ/tv-series/205"}],"current_page":584,"first_page_url":"https://videocdn.tv/api/short?limit=100&api_token=EnbO9h8pv1VyjbCJhg0WM9nG259n7mtz&cache3584=3584&page=1","from":58301,"last_page":719,"last_page_url":"https://videocdn.tv/api/short?limit=100&api_token=EnbO9h8pv1VyjbCJhg0WM9nG259n7mtz&cache3584=3584&page=719","next_page_url":"https://videocdn.tv/api/short?limit=100&api_token=EnbO9h8pv1VyjbCJhg0WM9nG259n7mtz&cache3584=3584&page=585","path":"https://videocdn.tv/api/short","per_page":100,"prev_page_url":"https://videocdn.tv/api/short?limit=100&api_token=EnbO9h8pv1VyjbCJhg0WM9nG259n7mtz&cache3584=3584&page=583","to":58340,"total":71819}