{"result":true,"data":[{"id":44677,"title":"Смерть от тысячи порезов","kp_id":"1364598","imdb_id":"tt12029164","world_art_id":null,"type":"movie","add":"2020-10-22 10:14:16","orig_title":"Death by 1000 Cuts","year":"2020-09-22","translations":["Любительский (многоголосый закадровый) (@MUZOBOZ@)"],"quality":"webdl","translation":"Любительский (многоголосый закадровый) (@MUZOBOZ@)","update":"2020-10-22 15:02:33","iframe_src":"//2413.svetacdn.in/si4jsFRrtgrT/movie/44677"},{"id":44675,"title":"Убийца в лагере чирлидинга","kp_id":"1419535","imdb_id":"tt13122232","world_art_id":null,"type":"movie","add":"2020-10-22 09:22:37","orig_title":"Cheer Camp Killer","year":"2020-10-10","translations":["Любительский (многоголосый закадровый) (AlphaProject)"],"quality":"webdl","translation":"Любительский (многоголосый закадровый) (AlphaProject)","update":"2020-10-22 12:05:11","iframe_src":"//2413.svetacdn.in/si4jsFRrtgrT/movie/44675"},{"id":44635,"title":"Речная крыса","kp_id":"22944","imdb_id":"tt0088006","world_art_id":null,"type":"movie","add":"2020-10-20 17:45:06","orig_title":"The River Rat","year":"1984-09-28","translations":["Профессиональный (многоголосый закадровый)"],"quality":"sat","translation":"Профессиональный (многоголосый закадровый)","update":"2020-10-22 09:52:33","iframe_src":"//2413.svetacdn.in/si4jsFRrtgrT/movie/44635"},{"id":44634,"title":"История пионового фонаря — невеста из ада","kp_id":"362632","imdb_id":"tt0163985","world_art_id":null,"type":"movie","add":"2020-10-20 17:43:23","orig_title":"Botan-dorô","year":"1968-06-15","translations":["Любительский (одноголосый закадровый) (Воротилин Олег)"],"quality":"dvdrip","translation":"Любительский (одноголосый закадровый) (Воротилин Олег)","update":"2020-10-22 09:50:48","iframe_src":"//2413.svetacdn.in/si4jsFRrtgrT/movie/44634"},{"id":44633,"title":"Не вижу смерти","kp_id":"1275173","imdb_id":"tt10504904","world_art_id":null,"type":"movie","add":"2020-10-20 17:31:36","orig_title":"Blind","year":"2019-07-10","translations":["Полное дублирование (iTunes)"],"quality":"webdl","translation":"Полное дублирование (iTunes)","update":"2020-10-22 11:47:20","iframe_src":"//2413.svetacdn.in/si4jsFRrtgrT/movie/44633"},{"id":44630,"title":"Тайны дворцовых переворотов. Россия, век XVIII. Фильм 6. Смерть юного императора","kp_id":"450325","imdb_id":"tt3905802","world_art_id":null,"type":"movie","add":"2020-10-20 14:38:15","orig_title":"Smert yunogo imperatora","year":"2003-01-01","translations":["Оригинальная дорожка"],"quality":"webdl","translation":"Оригинальная дорожка","update":"2020-10-22 13:17:11","iframe_src":"//2413.svetacdn.in/si4jsFRrtgrT/movie/44630"},{"id":44629,"title":"Тайны дворцовых переворотов. Россия, век XVIII. Фильм 5. Вторая невеста императора","kp_id":"450168","imdb_id":"tt3240208","world_art_id":null,"type":"movie","add":"2020-10-20 14:37:27","orig_title":"Vtoraya nevesta imperatora","year":"2003-01-01","translations":["Оригинальная дорожка"],"quality":"webdl","translation":"Оригинальная дорожка","update":"2020-10-22 13:18:07","iframe_src":"//2413.svetacdn.in/si4jsFRrtgrT/movie/44629"},{"id":44628,"title":"Тайны дворцовых переворотов. Россия, век XVIII. Фильм 4. Падение Голиафа","kp_id":"449852","imdb_id":"tt4326660","world_art_id":null,"type":"movie","add":"2020-10-20 14:35:48","orig_title":"Padenie Goliatha","year":"2001-01-01","translations":["Оригинальная дорожка"],"quality":"webdl","translation":"Оригинальная дорожка","update":"2020-10-22 13:19:40","iframe_src":"//2413.svetacdn.in/si4jsFRrtgrT/movie/44628"},{"id":44627,"title":"Тайны дворцовых переворотов. Россия, век XVIII. Фильм 3. Я — император","kp_id":"448751","imdb_id":"tt4326654","world_art_id":null,"type":"movie","add":"2020-10-20 14:30:32","orig_title":"Ya - imperator","year":"2001-01-01","translations":["Оригинальная дорожка"],"quality":"webdl","translation":"Оригинальная дорожка","update":"2020-10-22 13:21:01","iframe_src":"//2413.svetacdn.in/si4jsFRrtgrT/movie/44627"},{"id":44626,"title":"Тайны дворцовых переворотов. Россия, век XVIII. Фильм 2. Завещание императрицы","kp_id":"447696","imdb_id":"tt4326652","world_art_id":null,"type":"movie","add":"2020-10-20 14:29:38","orig_title":"Zaveshchanie imperatritsy","year":"2000-01-01","translations":["Оригинальная дорожка"],"quality":"webdl","translation":"Оригинальная дорожка","update":"2020-10-22 13:22:19","iframe_src":"//2413.svetacdn.in/si4jsFRrtgrT/movie/44626"},{"id":44625,"title":"Тайны дворцовых переворотов. Россия, век XVIII. Фильм 1. Завещание императора","kp_id":"40743","imdb_id":"tt4326648","world_art_id":null,"type":"movie","add":"2020-10-20 14:28:51","orig_title":"Zaveshchanie imperatora","year":"2000-01-01","translations":["Оригинальная дорожка"],"quality":"webdl","translation":"Оригинальная дорожка","update":"2020-10-22 13:23:19","iframe_src":"//2413.svetacdn.in/si4jsFRrtgrT/movie/44625"},{"id":44606,"title":"Мир Людовика","kp_id":"346091","imdb_id":"tt0134208","world_art_id":null,"type":"movie","add":"2020-10-19 19:57:10","orig_title":"De wereld van Ludovic","year":"1993-02-02","translations":["Любительский (одноголосый закадровый)"],"quality":"sat","translation":"Любительский (одноголосый закадровый)","update":"2020-10-22 09:41:40","iframe_src":"//2413.svetacdn.in/si4jsFRrtgrT/movie/44606"},{"id":44600,"title":"Откровенное признание","kp_id":"61313","imdb_id":"tt0363532","world_art_id":null,"type":"movie","add":"2020-10-19 18:00:30","orig_title":"Confidences trop intimes","year":"2004-02-06","translations":["Профессиональный (многоголосый закадровый)"],"quality":"webdl","translation":"Профессиональный (многоголосый закадровый)","update":"2020-10-22 09:29:55","iframe_src":"//2413.svetacdn.in/si4jsFRrtgrT/movie/44600"},{"id":44491,"title":"Отт Тянак","kp_id":"1361482","imdb_id":"tt9904844","world_art_id":null,"type":"movie","add":"2020-10-16 09:31:25","orig_title":"Ott Tänak: The Movie","year":"2019-04-11","translations":["Любительский (многоголосый закадровый) (Синема УС)"],"quality":"webdl","translation":"Любительский (многоголосый закадровый) (Синема УС)","update":"2020-10-22 09:45:24","iframe_src":"//2413.svetacdn.in/si4jsFRrtgrT/movie/44491"},{"id":44458,"title":"Чрезвычайное положение","kp_id":"1319374","imdb_id":"tt11214690","world_art_id":null,"type":"movie","add":"2020-10-15 09:34:31","orig_title":"États d'Urgence","year":"2019-10-30","translations":["Любительский (многоголосый закадровый) (Синема УС)"],"quality":"hdtv","translation":"Любительский (многоголосый закадровый) (Синема УС)","update":"2020-10-22 09:20:33","iframe_src":"//2413.svetacdn.in/si4jsFRrtgrT/movie/44458"},{"id":44451,"title":"Пылающие сердца","kp_id":"708180","imdb_id":"tt2402578","world_art_id":null,"type":"movie","add":"2020-10-15 07:50:22","orig_title":"Jimmy Jones","year":"2018-07-02","translations":["Любительский (многоголосый закадровый) (Синема УС)"],"quality":"webdl","translation":"Любительский (многоголосый закадровый) (Синема УС)","update":"2020-10-22 09:20:18","iframe_src":"//2413.svetacdn.in/si4jsFRrtgrT/movie/44451"},{"id":42165,"title":"Без любви","kp_id":"10777","imdb_id":"tt0038256","world_art_id":null,"type":"movie","add":"2020-07-31 16:28:17","orig_title":"Without Love","year":"1945-03-22","translations":["Авторский (одноголосый закадровый) (Яковлев Алексей)","[EN] Original (English)"],"quality":"webdl","translation":"Авторский (одноголосый закадровый) (Яковлев Алексей)","update":"2020-10-22 07:27:13","iframe_src":"//2413.svetacdn.in/si4jsFRrtgrT/movie/42165"},{"id":42164,"title":"Башмаки рыбака","kp_id":"10191","imdb_id":"tt0063599","world_art_id":null,"type":"movie","add":"2020-07-31 16:26:57","orig_title":"The Shoes of the Fisherman","year":"1968-11-14","translations":["Любительский (одноголосый закадровый)","[EN] Original (English)"],"quality":"webdl","translation":"Любительский (одноголосый закадровый)","update":"2020-10-22 07:26:02","iframe_src":"//2413.svetacdn.in/si4jsFRrtgrT/movie/42164"},{"id":42163,"title":"Рёв мыши","kp_id":"20186","imdb_id":"tt0053084","world_art_id":null,"type":"movie","add":"2020-07-31 16:24:52","orig_title":"The Mouse That Roared","year":"1959-07-17","translations":["Профессиональный (многоголосый закадровый)","[EN] Original (English)"],"quality":"webdl","translation":"Профессиональный (многоголосый закадровый)","update":"2020-10-22 07:24:55","iframe_src":"//2413.svetacdn.in/si4jsFRrtgrT/movie/42163"},{"id":25712,"title":"Моя любовь","kp_id":"46718","imdb_id":"tt0032812","world_art_id":null,"type":"movie","add":"2019-04-30 10:09:31","orig_title":"Moya lyubov","year":"1940-07-08","translations":["Оригинальная дорожка","Оригинальная дорожка"],"quality":"dvdrip","translation":"Оригинальная дорожка","update":"2020-10-22 13:39:06","iframe_src":"//2413.svetacdn.in/si4jsFRrtgrT/movie/25712"}],"current_page":957,"first_page_url":"https://videocdn.tv/api/short?limit=100&api_token=X6EwAUfE5M9xbo7y0Bp0aPf3uXxG2KLL&cache3957=3957&page=1","from":95601,"last_page":717,"last_page_url":"https://videocdn.tv/api/short?limit=100&api_token=X6EwAUfE5M9xbo7y0Bp0aPf3uXxG2KLL&cache3957=3957&page=717","next_page_url":null,"path":"https://videocdn.tv/api/short","per_page":100,"prev_page_url":"https://videocdn.tv/api/short?limit=100&api_token=X6EwAUfE5M9xbo7y0Bp0aPf3uXxG2KLL&cache3957=3957&page=956","to":95620,"total":71614}