{"result":true,"data":[{"id":28115,"title":"Убей или умри","kp_id":"648447","imdb_id":"tt2111392","world_art_id":null,"type":"movie","add":"2019-06-20 23:50:07","orig_title":"Raze","year":"2013-04-21","translations":["Любительский (двухголосый закадровый) (DeadSno & den904)"],"quality":"bd","translation":"Любительский (двухголосый закадровый) (DeadSno & den904)","update":"2019-06-21 06:58:56","iframe_src":"//7923.svetacdn.in/si4jsFRrtgrT/movie/28115"},{"id":28110,"title":"Четвертак","kp_id":"4870","imdb_id":"tt0114753","world_art_id":null,"type":"movie","add":"2019-06-20 23:41:41","orig_title":"Two Bits","year":"1995-11-22","translations":["Профессиональный (многоголосый закадровый)"],"quality":"webdl","translation":"Профессиональный (многоголосый закадровый)","update":"2019-06-21 07:08:10","iframe_src":"//7923.svetacdn.in/si4jsFRrtgrT/movie/28110"},{"id":28105,"title":"Lego Звездные войны: Падаванская угроза","kp_id":"603322","imdb_id":"tt2005268","world_art_id":null,"type":"movie","add":"2019-06-20 23:29:03","orig_title":"Lego Star Wars: The Padawan Menace","year":"2011-07-22","translations":["Полное дублирование"],"quality":"bd","translation":"Полное дублирование","update":"2019-06-21 07:08:55","iframe_src":"//7923.svetacdn.in/si4jsFRrtgrT/movie/28105"},{"id":28103,"title":"Lego Звездные войны: Награда Бомбада","kp_id":"610450","imdb_id":"tt1808255","world_art_id":null,"type":"movie","add":"2019-06-20 23:22:03","orig_title":"Lego Star Wars: Bombad Bounty","year":"2010-11-27","translations":["Полное дублирование"],"quality":"webdl","translation":"Полное дублирование","update":"2019-06-21 07:10:30","iframe_src":"//7923.svetacdn.in/si4jsFRrtgrT/movie/28103"},{"id":28100,"title":"Китайский кофе","kp_id":"4868","imdb_id":"tt0118852","world_art_id":null,"type":"movie","add":"2019-06-20 22:54:58","orig_title":"Chinese Coffee","year":"2000-09-02","translations":["Любительский (одноголосый закадровый)"],"quality":"dvdrip","translation":"Любительский (одноголосый закадровый)","update":"2019-06-21 07:13:34","iframe_src":"//7923.svetacdn.in/si4jsFRrtgrT/movie/28100"},{"id":28098,"title":"60 дней","kp_id":"43743","imdb_id":"tt0033042","world_art_id":null,"type":"movie","add":"2019-06-20 22:50:43","orig_title":"Shestdesyat dney","year":"1940-02-08","translations":["Оригинальная дорожка"],"quality":"dvdrip","translation":"Оригинальная дорожка","update":"2019-06-21 07:11:31","iframe_src":"//7923.svetacdn.in/si4jsFRrtgrT/movie/28098"},{"id":28097,"title":"Апельсиновый сок","kp_id":"430473","imdb_id":"tt1589974","world_art_id":null,"type":"movie","add":"2019-06-20 22:45:59","orig_title":"Apelsinovyy sok","year":"2010-11-04","translations":["Оригинальная дорожка"],"quality":"sat","translation":"Оригинальная дорожка","update":"2019-06-21 07:12:32","iframe_src":"//7923.svetacdn.in/si4jsFRrtgrT/movie/28097"},{"id":28096,"title":"Безумная Лори","kp_id":"46127","imdb_id":"tt0166506","world_art_id":null,"type":"movie","add":"2019-06-20 22:38:55","orig_title":"Bezumnaya Lori","year":"1991-01-01","translations":["Оригинальная дорожка"],"quality":"dvdrip","translation":"Оригинальная дорожка","update":"2019-06-21 07:16:53","iframe_src":"//7923.svetacdn.in/si4jsFRrtgrT/movie/28096"},{"id":28095,"title":"Бой под Соколом","kp_id":"481427","imdb_id":"tt3028096","world_art_id":null,"type":"movie","add":"2019-06-20 22:34:43","orig_title":"Boy pod sokolom","year":"1942-10-01","translations":["Оригинальная дорожка"],"quality":"dvdrip","translation":"Оригинальная дорожка","update":"2019-06-21 07:18:02","iframe_src":"//7923.svetacdn.in/si4jsFRrtgrT/movie/28095"},{"id":28094,"title":"Детство Горького","kp_id":"44167","imdb_id":"tt0030055","world_art_id":null,"type":"movie","add":"2019-06-20 22:29:43","orig_title":"Detstvo Gorkogo","year":"1938-06-18","translations":["Оригинальная дорожка"],"quality":"dvdrip","translation":"Оригинальная дорожка","update":"2019-06-21 07:18:40","iframe_src":"//7923.svetacdn.in/si4jsFRrtgrT/movie/28094"},{"id":28093,"title":"Девчонка, с которой я дружил","kp_id":"224109","imdb_id":"tt0291129","world_art_id":null,"type":"movie","add":"2019-06-20 22:26:08","orig_title":"Devchonka, s kotoroy ya druzhil","year":"1961-01-01","translations":["Оригинальная дорожка"],"quality":"vhs","translation":"Оригинальная дорожка","update":"2019-06-21 07:19:49","iframe_src":"//7923.svetacdn.in/si4jsFRrtgrT/movie/28093"},{"id":28092,"title":"Где-то есть сын","kp_id":"44483","imdb_id":"tt0352364","world_art_id":null,"type":"movie","add":"2019-06-20 22:22:04","orig_title":"Gde-to est syn","year":"1962-11-11","translations":["Оригинальная дорожка"],"quality":"vhs","translation":"Оригинальная дорожка","update":"2019-06-21 07:20:37","iframe_src":"//7923.svetacdn.in/si4jsFRrtgrT/movie/28092"},{"id":28091,"title":"Гибель «Орла»","kp_id":"44496","imdb_id":"tt0032524","world_art_id":null,"type":"movie","add":"2019-06-20 22:11:01","orig_title":"Gibel Orla","year":"1941-01-15","translations":["Оригинальная дорожка"],"quality":"dvdrip","translation":"Оригинальная дорожка","update":"2019-06-21 07:21:36","iframe_src":"//7923.svetacdn.in/si4jsFRrtgrT/movie/28091"},{"id":28090,"title":"Гоголь. Ближайший","kp_id":"447707","imdb_id":"tt1824174","world_art_id":null,"type":"movie","add":"2019-06-20 22:07:56","orig_title":"Gogol. Blizhayshiy","year":"2009-02-24","translations":["Оригинальная дорожка"],"quality":"iptv","translation":"Оригинальная дорожка","update":"2019-06-21 07:21:49","iframe_src":"//7923.svetacdn.in/si4jsFRrtgrT/movie/28090"},{"id":28089,"title":"Горизонт","kp_id":"44563","imdb_id":"tt0021924","world_art_id":null,"type":"movie","add":"2019-06-20 22:03:56","orig_title":"Gorizont","year":"1932-11-10","translations":["Оригинальная дорожка"],"quality":"dvdrip","translation":"Оригинальная дорожка","update":"2019-06-21 07:23:03","iframe_src":"//7923.svetacdn.in/si4jsFRrtgrT/movie/28089"},{"id":28088,"title":"Горизонт","kp_id":"44564","imdb_id":"tt0171348","world_art_id":null,"type":"movie","add":"2019-06-20 21:59:53","orig_title":"Gorizont","year":"1962-03-07","translations":["Оригинальная дорожка"],"quality":"sat","translation":"Оригинальная дорожка","update":"2019-06-21 07:37:40","iframe_src":"//7923.svetacdn.in/si4jsFRrtgrT/movie/28088"},{"id":28087,"title":"Хирургия","kp_id":"420166","imdb_id":"tt6620158","world_art_id":null,"type":"movie","add":"2019-06-20 21:56:33","orig_title":"Hirurgiya","year":"1939-05-01","translations":["Оригинальная дорожка"],"quality":"dvdrip","translation":"Оригинальная дорожка","update":"2019-06-21 07:40:33","iframe_src":"//7923.svetacdn.in/si4jsFRrtgrT/movie/28087"},{"id":28086,"title":"И снова утро","kp_id":"224041","imdb_id":"tt0355553","world_art_id":null,"type":"movie","add":"2019-06-20 21:51:21","orig_title":"I snova utro","year":"1961-05-15","translations":["Оригинальная дорожка"],"quality":"sat","translation":"Оригинальная дорожка","update":"2019-06-21 07:40:02","iframe_src":"//7923.svetacdn.in/si4jsFRrtgrT/movie/28086"},{"id":28085,"title":"Иоланта","kp_id":"42615","imdb_id":"tt0058762","world_art_id":null,"type":"movie","add":"2019-06-20 21:47:55","orig_title":"Iolanta","year":"1963-08-06","translations":["Оригинальная дорожка"],"quality":"dvdrip","translation":"Оригинальная дорожка","update":"2019-06-21 07:41:14","iframe_src":"//7923.svetacdn.in/si4jsFRrtgrT/movie/28085"},{"id":28084,"title":"История весеннего призыва","kp_id":"421341","imdb_id":"tt4545422","world_art_id":null,"type":"movie","add":"2019-06-20 21:42:03","orig_title":"Istoriya Vesennego Prizyva","year":"2003-01-01","translations":["Оригинальная дорожка"],"quality":"dvdrip","translation":"Оригинальная дорожка","update":"2019-06-21 07:43:08","iframe_src":"//7923.svetacdn.in/si4jsFRrtgrT/movie/28084"}],"current_page":1401,"first_page_url":"https://videocdn.tv/api/short?limit=100&api_token=X6EwAUfE5M9xbo7y0Bp0aPf3uXxG2KLL&cache31401=31401&page=1","from":140001,"last_page":643,"last_page_url":"https://videocdn.tv/api/short?limit=100&api_token=X6EwAUfE5M9xbo7y0Bp0aPf3uXxG2KLL&cache31401=31401&page=643","next_page_url":null,"path":"https://videocdn.tv/api/short","per_page":100,"prev_page_url":"https://videocdn.tv/api/short?limit=100&api_token=X6EwAUfE5M9xbo7y0Bp0aPf3uXxG2KLL&cache31401=31401&page=1400","to":140020,"total":64295}