{"result":true,"data":[{"id":51349,"title":"Дикий пёс","kp_id":"1338747","imdb_id":"tt11503178","world_art_id":null,"type":"movie","add":"2021-06-22 10:33:10","orig_title":"Wild Dog","year":"2021-04-02","translations":["Любительский (многоголосый закадровый) (Синема УС)"],"quality":"webdl","translation":"Любительский (многоголосый закадровый) (Синема УС)","update":"2021-06-22 12:45:47","iframe_src":"//7741.svetacdn.in/si4jsFRrtgrT/movie/51349"},{"id":51348,"title":"Три короля","kp_id":null,"imdb_id":"tt13519396","world_art_id":null,"type":"movie","add":"2021-06-22 10:29:21","orig_title":"The Three Kings","year":"2020-01-01","translations":["Любительский (многоголосый закадровый) (Синема УС)"],"quality":"webdl","translation":"Любительский (многоголосый закадровый) (Синема УС)","update":"2021-06-22 12:53:01","iframe_src":"//7741.svetacdn.in/si4jsFRrtgrT/movie/51348"},{"id":51347,"title":"Священник","kp_id":"1341898","imdb_id":"tt11591306","world_art_id":null,"type":"movie","add":"2021-06-22 10:27:18","orig_title":"The Priest","year":"2021-03-11","translations":["Любительский (многоголосый закадровый) (Синема УС)"],"quality":"webdl","translation":"Любительский (многоголосый закадровый) (Синема УС)","update":"2021-06-22 17:00:46","iframe_src":"//7741.svetacdn.in/si4jsFRrtgrT/movie/51347"},{"id":51346,"title":"Закат красной луны","kp_id":"1379288","imdb_id":"tt11950836","world_art_id":null,"type":"movie","add":"2021-06-22 10:24:52","orig_title":"Lúa vermella","year":"2020-02-23","translations":["Любительский (многоголосый закадровый) (Синема УС)"],"quality":"webdl","translation":"Любительский (многоголосый закадровый) (Синема УС)","update":"2021-06-22 17:00:21","iframe_src":"//7741.svetacdn.in/si4jsFRrtgrT/movie/51346"},{"id":51328,"title":"Азимут","kp_id":"1041072","imdb_id":"tt6567960","world_art_id":null,"type":"movie","add":"2021-06-21 13:23:16","orig_title":"Azimuth","year":"2017-01-01","translations":["Любительский (многоголосый закадровый) (Синема УС)"],"quality":"webdl","translation":"Любительский (многоголосый закадровый) (Синема УС)","update":"2021-06-22 11:12:02","iframe_src":"//7741.svetacdn.in/si4jsFRrtgrT/movie/51328"},{"id":51322,"title":"Расследования на Мартас-Винъярде: Отравлена в раю","kp_id":"4445671","imdb_id":"tt14376526","world_art_id":null,"type":"movie","add":"2021-06-21 11:33:29","orig_title":"Original title: Poisoned in Paradise","year":"2021-05-16","translations":["Любительский (многоголосый закадровый) (Синема УС)"],"quality":"webdl","translation":"Любительский (многоголосый закадровый) (Синема УС)","update":"2021-06-23 08:08:18","iframe_src":"//7741.svetacdn.in/si4jsFRrtgrT/movie/51322"},{"id":51272,"title":"Снеговик","kp_id":"20807","imdb_id":"tt0116671","world_art_id":null,"type":"movie","add":"2021-06-18 16:43:38","orig_title":"Jack Frost","year":"1997-11-18","translations":["Авторский (одноголосый закадровый) (Сербин Юрий)","[EN] Original (English)","Профессиональный (двухголосый закадровый) (РенТВ)"],"quality":"bd","translation":"Авторский (одноголосый закадровый) (Сербин Юрий)","update":"2021-06-22 12:48:03","iframe_src":"//7741.svetacdn.in/si4jsFRrtgrT/movie/51272"},{"id":51270,"title":"Вышиби мозги: История любви","kp_id":"295413","imdb_id":"tt0106475","world_art_id":null,"type":"movie","add":"2021-06-18 16:25:49","orig_title":"Brain Smasher... A Love Story","year":"1993-11-17","translations":["Авторский (одноголосый закадровый) (Дохалов Вартан)","Авторский (одноголосый закадровый) (Сербин Юрий)","[EN] Original (English)","Профессиональный (одноголосый закадровый)"],"quality":"bd","translation":"Авторский (одноголосый закадровый) (Дохалов Вартан)","update":"2021-06-22 12:38:22","iframe_src":"//7741.svetacdn.in/si4jsFRrtgrT/movie/51270"},{"id":50225,"title":"Тишина и крик","kp_id":"75661","imdb_id":"tt0061536","world_art_id":null,"type":"movie","add":"2021-05-08 08:10:41","orig_title":"Csend és kiáltás","year":"1968-03-14","translations":["Авторский (одноголосый закадровый) (Яковлев Алексей)","Полное дублирование (Киностудия им. Горького)","Любительский (одноголосый закадровый)"],"quality":"bd","translation":"Авторский (одноголосый закадровый) (Яковлев Алексей)","update":"2021-06-22 12:58:55","iframe_src":"//7741.svetacdn.in/si4jsFRrtgrT/movie/50225"},{"id":47917,"title":"Барб и Звезда едут в Виста дель Мар","kp_id":"1256560","imdb_id":"tt3797512","world_art_id":null,"type":"movie","add":"2021-02-14 18:40:27","orig_title":"Barb and Star Go to Vista Del Mar","year":"2021-02-12","translations":["Любительский (многоголосый закадровый) (@MUZOBOZ@)","Профессиональный (многоголосый закадровый) (iTunes)","[EN] Original (English)"],"quality":"webdl","translation":"Любительский (многоголосый закадровый) (@MUZOBOZ@)","update":"2021-06-22 10:47:10","iframe_src":"//7741.svetacdn.in/si4jsFRrtgrT/movie/47917"},{"id":41900,"title":"Полный нокдаун","kp_id":"642492","imdb_id":"tt2093056","world_art_id":null,"type":"movie","add":"2020-07-20 14:18:56","orig_title":"American Fighter","year":"2020-07-20","translations":["Любительский (многоголосый закадровый) (@MUZOBOZ@)","Полное дублирование","Полное дублирование (iTunes)","[EN] Original (English)"],"quality":"webdl","translation":"Любительский (многоголосый закадровый) (@MUZOBOZ@)","update":"2021-06-22 10:49:07","iframe_src":"//7741.svetacdn.in/si4jsFRrtgrT/movie/41900"},{"id":41776,"title":"Клементина","kp_id":"1113780","imdb_id":"tt7311036","world_art_id":null,"type":"movie","add":"2020-07-15 20:12:06","orig_title":"Clementine","year":"2019-04-27","translations":["Профессиональный (многоголосый закадровый) (iTunes)","[EN] Original (English)"],"quality":"bd","translation":"Профессиональный (многоголосый закадровый) (iTunes)","update":"2021-06-22 10:46:19","iframe_src":"//7741.svetacdn.in/si4jsFRrtgrT/movie/41776"},{"id":41534,"title":"Картуш","kp_id":"13534","imdb_id":"tt0055832","world_art_id":null,"type":"movie","add":"2020-07-01 13:13:22","orig_title":"Cartouche","year":"1962-03-07","translations":["Полное дублирование","Полное дублирование","Профессиональный (многоголосый закадровый) (DVD Classic)","Профессиональный (многоголосый закадровый) (Екатеринбург Арт)","Профессиональный (многоголосый закадровый) (НТВ)","Профессиональный (многоголосый закадровый) (Twister)"],"quality":"bd","translation":"Полное дублирование","update":"2021-06-22 12:53:46","iframe_src":"//7741.svetacdn.in/si4jsFRrtgrT/movie/41534"},{"id":40509,"title":"Приключения «Посейдона»","kp_id":"16257","imdb_id":"tt0069113","world_art_id":null,"type":"movie","add":"2020-05-18 21:28:35","orig_title":"The Poseidon Adventure","year":"1972-12-12","translations":["Профессиональный (многоголосый закадровый)","Авторский (одноголосый закадровый) (Гаврилов Андрей)","Авторский (одноголосый закадровый) (Живов Юрий)","[EN] Original (English)","Профессиональный (многоголосый закадровый)"],"quality":"bd","translation":"Профессиональный (многоголосый закадровый)","update":"2021-06-22 12:33:11","iframe_src":"//7741.svetacdn.in/si4jsFRrtgrT/movie/40509"},{"id":26018,"title":"Интим","kp_id":"713","imdb_id":"tt0256103","world_art_id":null,"type":"movie","add":"2019-05-05 21:45:53","orig_title":"Intimacy","year":"2001-01-20","translations":["Профессиональный (многоголосый закадровый)","Авторский (одноголосый закадровый) (Кузнецов Сергей)","Авторский (одноголосый закадровый) (Сербин Юрий)","Авторский (одноголосый закадровый) (Яроцкий Михаил | Kyberpunk)","[EN] Original (English)","Профессиональный (многоголосый закадровый)"],"quality":"dvdrip","translation":"Профессиональный (многоголосый закадровый)","update":"2021-06-22 12:43:38","iframe_src":"//7741.svetacdn.in/si4jsFRrtgrT/movie/26018"},{"id":3862,"title":"Вместе с Верой","kp_id":"1161791","imdb_id":null,"world_art_id":null,"type":"serial","add":"2019-01-11 07:35:51","orig_title":"Вместе с Верой","year":"2019-01-06","translations":["Оригинальная дорожка"],"seasons_count":1,"episodes_count":2,"episodes":2,"update":"2019-01-12 07:36:37","iframe_src":"//7741.svetacdn.in/si4jsFRrtgrT/tv-series/3862"},{"id":3856,"title":"Мой сосед-адвокат Чо Дыль-хо","kp_id":"990773","imdb_id":"tt5616430","world_art_id":null,"type":"serial","add":"2019-01-09 22:35:46","orig_title":"Dong-ne-byeon-ho-sa Jo Deul-ho","year":"2016-03-28","translations":["Любительский (двухголосый закадровый)"],"seasons_count":1,"episodes_count":20,"episodes":20,"update":"2019-01-10 06:53:10","iframe_src":"//7741.svetacdn.in/si4jsFRrtgrT/tv-series/3856"},{"id":3855,"title":"Непокорные","kp_id":"1045744","imdb_id":"tt6958022","world_art_id":null,"type":"serial","add":"2019-01-09 15:13:52","orig_title":"The Defiant Ones","year":"2017-07-09","translations":["Профессиональный (многоголосый закадровый) (SDI Media | Iyuno-SDI Group Russia)"],"seasons_count":1,"episodes_count":4,"episodes":4,"update":"2019-01-11 11:07:39","iframe_src":"//7741.svetacdn.in/si4jsFRrtgrT/tv-series/3855"},{"id":3854,"title":"Шахта","kp_id":"533136","imdb_id":"tt4136744","world_art_id":null,"type":"serial","add":"2019-01-09 12:31:13","orig_title":"Shakhta","year":"2010-10-28","translations":["Оригинальная дорожка"],"seasons_count":1,"episodes_count":16,"episodes":16,"update":"2019-01-10 14:01:04","iframe_src":"//7741.svetacdn.in/si4jsFRrtgrT/tv-series/3854"},{"id":3852,"title":"Фея-штангистка Ким Бок-чу","kp_id":"1006739","imdb_id":"tt6157148","world_art_id":null,"type":"serial","add":"2019-01-09 00:19:33","orig_title":"Yeokdoyojeong Gim Bok-ju","year":"2016-11-16","translations":["Любительский (двухголосый закадровый) (SoftBox)"],"seasons_count":1,"episodes_count":16,"episodes":16,"update":"2019-01-09 09:17:48","iframe_src":"//7741.svetacdn.in/si4jsFRrtgrT/tv-series/3852"},{"id":3848,"title":"Маргоша 2","kp_id":"487581","imdb_id":"tt3867806","world_art_id":null,"type":"serial","add":"2019-01-08 15:37:21","orig_title":"Margosha 2","year":"2009-12-21","translations":["Оригинальная дорожка"],"seasons_count":1,"episodes_count":90,"episodes":90,"update":"2019-01-11 15:27:43","iframe_src":"//7741.svetacdn.in/si4jsFRrtgrT/tv-series/3848"},{"id":3847,"title":"Маргоша","kp_id":"445118","imdb_id":"tt2851244","world_art_id":null,"type":"serial","add":"2019-01-08 15:34:46","orig_title":"Margosha","year":"2009-09-07","translations":["Оригинальная дорожка"],"seasons_count":1,"episodes_count":60,"episodes":60,"update":"2019-01-09 13:48:03","iframe_src":"//7741.svetacdn.in/si4jsFRrtgrT/tv-series/3847"},{"id":3846,"title":"Тайны Борго Ларичи","kp_id":"915115","imdb_id":"tt3913070","world_art_id":null,"type":"serial","add":"2019-01-08 14:22:54","orig_title":"I segreti di Borgo Larici","year":"2014-01-22","translations":["Профессиональный (многоголосый закадровый) (Eurochannel)"],"seasons_count":1,"episodes_count":7,"episodes":7,"update":"2019-01-11 11:03:13","iframe_src":"//7741.svetacdn.in/si4jsFRrtgrT/tv-series/3846"},{"id":3845,"title":"Авария","kp_id":"494304","imdb_id":"tt1349084","world_art_id":null,"type":"serial","add":"2019-01-08 12:36:21","orig_title":"Collision","year":"2009-10-11","translations":["Профессиональный (многоголосый закадровый) (Eurochannel)"],"seasons_count":1,"episodes_count":5,"episodes":5,"update":"2019-01-09 10:53:48","iframe_src":"//7741.svetacdn.in/si4jsFRrtgrT/tv-series/3845"},{"id":3844,"title":"Тень любви","kp_id":"1225539","imdb_id":null,"world_art_id":null,"type":"serial","add":"2019-01-08 09:07:57","orig_title":"Тень любви","year":"2019-01-07","translations":["Оригинальная дорожка"],"seasons_count":1,"episodes_count":4,"episodes":4,"update":"2019-01-08 13:31:52","iframe_src":"//7741.svetacdn.in/si4jsFRrtgrT/tv-series/3844"},{"id":3840,"title":"Халк против","kp_id":"432706","imdb_id":"tt1325753","world_art_id":null,"type":"serial","add":"2019-01-07 16:40:39","orig_title":"Hulk Vs.","year":"2009-01-27","translations":["Профессиональный (многоголосый закадровый)"],"seasons_count":1,"episodes_count":2,"episodes":2,"update":"2019-01-08 07:39:22","iframe_src":"//7741.svetacdn.in/si4jsFRrtgrT/tv-series/3840"},{"id":3839,"title":"Амазонки","kp_id":"566553","imdb_id":"tt1951462","world_art_id":null,"type":"serial","add":"2019-01-07 16:24:36","orig_title":"Amazonki","year":"2011-06-27","translations":["Оригинальная дорожка"],"seasons_count":1,"episodes_count":24,"episodes":24,"update":"2019-01-08 14:16:14","iframe_src":"//7741.svetacdn.in/si4jsFRrtgrT/tv-series/3839"},{"id":3838,"title":"Луна","kp_id":"840326","imdb_id":null,"world_art_id":null,"type":"serial","add":"2019-01-07 16:08:49","orig_title":"Луна","year":"2015-02-02","translations":["Оригинальная дорожка"],"seasons_count":1,"episodes_count":30,"episodes":30,"update":"2019-01-08 14:42:10","iframe_src":"//7741.svetacdn.in/si4jsFRrtgrT/tv-series/3838"},{"id":3837,"title":"Виктория - победительница","kp_id":"517338","imdb_id":"tt1604099","world_art_id":null,"type":"serial","add":"2019-01-07 14:11:27","orig_title":"Victorious","year":"2010-03-27","translations":["Полное дублирование (SDI Media | Iyuno-SDI Group Russia)"],"seasons_count":4,"episodes_count":57,"episodes":13,"update":"2019-01-08 15:06:04","iframe_src":"//7741.svetacdn.in/si4jsFRrtgrT/tv-series/3837"},{"id":3836,"title":"Меч","kp_id":"472248","imdb_id":"tt3784362","world_art_id":null,"type":"serial","add":"2019-01-07 12:03:11","orig_title":"Mech","year":"2010-02-15","translations":["Оригинальная дорожка"],"seasons_count":1,"episodes_count":25,"episodes":25,"update":"2019-01-09 05:42:29","iframe_src":"//7741.svetacdn.in/si4jsFRrtgrT/tv-series/3836"},{"id":3830,"title":"Кофе, пожалуйста","kp_id":"1162811","imdb_id":"tt9284182","world_art_id":null,"type":"serial","add":"2019-01-06 21:02:20","orig_title":"Keopiya, Bootakhae","year":"2018-12-01","translations":["Любительский (двухголосый закадровый) (SoftBox)"],"seasons_count":1,"episodes_count":12,"episodes":12,"update":"2019-01-09 05:41:45","iframe_src":"//7741.svetacdn.in/si4jsFRrtgrT/tv-series/3830"},{"id":3828,"title":"Список клиентов","kp_id":"611388","imdb_id":"tt2022170","world_art_id":null,"type":"serial","add":"2019-01-06 09:59:08","orig_title":"The Client List","year":"2012-04-08","translations":["Профессиональный (двухголосый закадровый) (NewStudio)","Профессиональный (многоголосый закадровый) (SET)"],"seasons_count":2,"episodes_count":25,"episodes":15,"update":"2019-01-11 09:05:58","iframe_src":"//7741.svetacdn.in/si4jsFRrtgrT/tv-series/3828"},{"id":3826,"title":"Геймеры","kp_id":"571334","imdb_id":"tt4216630","world_art_id":null,"type":"serial","add":"2019-01-06 01:00:58","orig_title":"Geymery","year":"2012-03-12","translations":["Оригинальная дорожка"],"seasons_count":1,"episodes_count":8,"episodes":8,"update":"2019-01-07 22:37:03","iframe_src":"//7741.svetacdn.in/si4jsFRrtgrT/tv-series/3826"},{"id":3825,"title":"Граница времени","kp_id":"888086","imdb_id":null,"world_art_id":null,"type":"serial","add":"2019-01-06 00:36:14","orig_title":"Граница времени","year":"2015-02-16","translations":["Оригинальная дорожка"],"seasons_count":1,"episodes_count":23,"episodes":23,"update":"2019-01-08 17:32:45","iframe_src":"//7741.svetacdn.in/si4jsFRrtgrT/tv-series/3825"},{"id":3202,"title":"Скорая помощь","kp_id":"79741","imdb_id":"tt0108757","world_art_id":null,"type":"serial","add":"2018-09-22 19:24:27","orig_title":"ER","year":"1994-09-19","translations":["Профессиональный (многоголосый закадровый) (НТВ)"],"seasons_count":15,"episodes_count":331,"episodes":22,"update":"2019-01-08 15:25:36","iframe_src":"//7741.svetacdn.in/si4jsFRrtgrT/tv-series/3202"},{"id":10697,"title":"Полицейская история 3: Суперполицейский","kp_id":"13720","imdb_id":"tt0104558","world_art_id":null,"type":"movie","add":"2017-04-03 12:33:24","orig_title":"Ging chaat goo si III: Chiu kup ging chaat","year":"1992-07-04","translations":["Профессиональный (двухголосый закадровый)","Профессиональный (многоголосый закадровый)","Авторский (одноголосый закадровый) (Живов Юрий)","Профессиональный (двухголосый закадровый) (РенТВ)"],"quality":"bd","translation":"Профессиональный (двухголосый закадровый)","update":"2021-06-22 12:26:53","iframe_src":"//7741.svetacdn.in/si4jsFRrtgrT/movie/10697"},{"id":10656,"title":"Полицейская история","kp_id":"22791","imdb_id":"tt0089374","world_art_id":null,"type":"movie","add":"2017-03-31 14:25:37","orig_title":"Ging chaat goo si","year":"1985-12-14","translations":["Профессиональный (многоголосый закадровый) (РенТВ)","Профессиональный (многоголосый закадровый)","Профессиональный (двухголосый закадровый) (РенТВ)","Профессиональный (двухголосый закадровый) (НТВ)","Авторский (одноголосый закадровый) (Гаврилов Андрей)","Авторский (одноголосый закадровый) (Сонькин Владимир)","Авторский (одноголосый закадровый) (Яроцкий Михаил | Kyberpunk)","Любительский (одноголосый закадровый)"],"quality":"bd","translation":"Профессиональный (многоголосый закадровый) (РенТВ)","update":"2021-06-22 12:22:12","iframe_src":"//7741.svetacdn.in/si4jsFRrtgrT/movie/10656"},{"id":3171,"title":"Маменькины сынки","kp_id":"58978","imdb_id":"tt0046521","world_art_id":null,"type":"movie","add":"2016-06-15 10:30:46","orig_title":"I Vitelloni","year":"1953-08-26","translations":["Профессиональный (многоголосый закадровый)","Профессиональный (многоголосый закадровый) (iTunes)","Профессиональный (двухголосый закадровый) (Культура | Россия К)","Профессиональный (многоголосый закадровый) (5-й канал СПб)"],"quality":"webdl","translation":"Профессиональный (многоголосый закадровый)","update":"2021-06-23 08:46:42","iframe_src":"//7741.svetacdn.in/si4jsFRrtgrT/movie/3171"},{"id":3167,"title":"Амаркорд","kp_id":"77163","imdb_id":"tt0071129","world_art_id":null,"type":"movie","add":"2016-06-15 10:26:48","orig_title":"Amarcord","year":"1973-12-13","translations":["Профессиональный (многоголосый закадровый)","Профессиональный (многоголосый закадровый) (Film Prestige)","Авторский (одноголосый закадровый) (Сербин Юрий)","Профессиональный (многоголосый закадровый) (Культура | Россия К)"],"quality":"bd","translation":"Профессиональный (многоголосый закадровый)","update":"2021-06-22 12:56:14","iframe_src":"//7741.svetacdn.in/si4jsFRrtgrT/movie/3167"},{"id":1766,"title":"Сукияки Bестерн Джанго","kp_id":"271836","imdb_id":"tt0906665","world_art_id":null,"type":"movie","add":"2016-05-01 07:27:38","orig_title":"Sukiyaki Western Django","year":"2007-08-31","translations":["Полное дублирование","Профессиональный (двухголосый закадровый)","Авторский (одноголосый закадровый) (Сербин Юрий)","[EN] Original (English)","Профессиональный (двухголосый закадровый) (Гланц + Королёва)"],"quality":"bd","translation":"Полное дублирование","update":"2021-06-22 12:17:00","iframe_src":"//7741.svetacdn.in/si4jsFRrtgrT/movie/1766"}],"current_page":482,"first_page_url":"https://videocdn.tv/api/short?limit=100&api_token=X6EwAUfE5M9xbo7y0Bp0aPf3uXxG2KLL&cache3482=3482&page=1","from":48101,"last_page":708,"last_page_url":"https://videocdn.tv/api/short?limit=100&api_token=X6EwAUfE5M9xbo7y0Bp0aPf3uXxG2KLL&cache3482=3482&page=708","next_page_url":"https://videocdn.tv/api/short?limit=100&api_token=X6EwAUfE5M9xbo7y0Bp0aPf3uXxG2KLL&cache3482=3482&page=483","path":"https://videocdn.tv/api/short","per_page":100,"prev_page_url":"https://videocdn.tv/api/short?limit=100&api_token=X6EwAUfE5M9xbo7y0Bp0aPf3uXxG2KLL&cache3482=3482&page=481","to":48140,"total":70752}