{"result":true,"data":[{"id":44548,"title":"Восемь минут второго","kp_id":"1429949","imdb_id":"tt13186470","world_art_id":null,"type":"movie","add":"2020-10-18 09:21:15","orig_title":"8ight After","year":"2020-10-15","translations":["Любительский (многоголосый закадровый) (Синема УС)"],"quality":"webdl","translation":"Любительский (многоголосый закадровый) (Синема УС)","update":"2020-10-18 18:42:54","iframe_src":"//7923.svetacdn.in/71tsRs29n5tZ/movie/44548"},{"id":44522,"title":"На разогреве","kp_id":"1170762","imdb_id":"tt8633748","world_art_id":null,"type":"movie","add":"2020-10-17 04:48:53","orig_title":"The Opening Act","year":"2020-10-16","translations":["Любительский (многоголосый закадровый) (@MUZOBOZ@)"],"quality":"webdl","translation":"Любительский (многоголосый закадровый) (@MUZOBOZ@)","update":"2020-10-17 14:17:07","iframe_src":"//7923.svetacdn.in/71tsRs29n5tZ/movie/44522"},{"id":44429,"title":"Охотник за браконьерами","kp_id":"425961","imdb_id":"tt1714879","world_art_id":null,"type":"movie","add":"2020-10-14 10:05:07","orig_title":"Okhotnik za brakonyerami","year":"1975-01-01","translations":["Оригинальная дорожка"],"quality":"hdtv","translation":"Оригинальная дорожка","update":"2020-10-18 04:54:46","iframe_src":"//7923.svetacdn.in/71tsRs29n5tZ/movie/44429"},{"id":44428,"title":"Принц Ахмед и тайна астролога","kp_id":"98612","imdb_id":"tt0215479","world_art_id":null,"type":"movie","add":"2020-10-14 10:03:35","orig_title":"Ahmed, el principe de la Alhambra","year":"1998-07-17","translations":["Профессиональный (многоголосый закадровый)"],"quality":"dvdrip","translation":"Профессиональный (многоголосый закадровый)","update":"2020-10-18 04:59:18","iframe_src":"//7923.svetacdn.in/71tsRs29n5tZ/movie/44428"},{"id":44427,"title":"Нэмури Кёсиро 4: Меч соблазна","kp_id":"164773","imdb_id":"tt0123188","world_art_id":null,"type":"movie","add":"2020-10-14 09:41:50","orig_title":"Nemuri Kyôshirô: Joyôken","year":"1964-10-17","translations":["Авторский (одноголосый закадровый) (Иванов Михаил)"],"quality":"webdl","translation":"Авторский (одноголосый закадровый) (Иванов Михаил)","update":"2020-10-18 05:12:39","iframe_src":"//7923.svetacdn.in/71tsRs29n5tZ/movie/44427"},{"id":44426,"title":"Нэмури Кёсиро 5: Меч огня","kp_id":"164787","imdb_id":"tt0148936","world_art_id":null,"type":"movie","add":"2020-10-14 09:28:48","orig_title":"Nemuri Kyôshirô: Enjôken","year":"1965-01-13","translations":["Авторский (одноголосый закадровый) (Кузнецов Сергей)"],"quality":"webdl","translation":"Авторский (одноголосый закадровый) (Кузнецов Сергей)","update":"2020-10-18 05:15:59","iframe_src":"//7923.svetacdn.in/71tsRs29n5tZ/movie/44426"},{"id":44425,"title":"Нэмури Кёсиро 3: Убийство полного круга","kp_id":"164788","imdb_id":"tt0148932","world_art_id":null,"type":"movie","add":"2020-10-14 09:13:18","orig_title":"Nemuri Kyôshirô: Engetsugiri","year":"1964-05-23","translations":["Авторский (одноголосый закадровый) (Иванов Михаил)"],"quality":"webdl","translation":"Авторский (одноголосый закадровый) (Иванов Михаил)","update":"2020-10-18 05:14:46","iframe_src":"//7923.svetacdn.in/71tsRs29n5tZ/movie/44425"},{"id":44424,"title":"Нэмури Кёсиро 6: Меч сатаны","kp_id":"164687","imdb_id":"tt0148937","world_art_id":null,"type":"movie","add":"2020-10-14 09:09:54","orig_title":"Nemuri Kyôshirô: Mashôken","year":"1965-05-01","translations":["Авторский (одноголосый закадровый) (Кузнецов Сергей)"],"quality":"webdl","translation":"Авторский (одноголосый закадровый) (Кузнецов Сергей)","update":"2020-10-18 05:19:51","iframe_src":"//7923.svetacdn.in/71tsRs29n5tZ/movie/44424"},{"id":44423,"title":"Нэмури Кёсиро: Китайский нефрит","kp_id":"144156","imdb_id":"tt0148940","world_art_id":null,"type":"movie","add":"2020-10-14 09:07:17","orig_title":"Nemuri Kyôshirô: Sappôchô","year":"1963-11-02","translations":["Авторский (одноголосый закадровый) (Иванов Михаил)"],"quality":"dvdrip","translation":"Авторский (одноголосый закадровый) (Иванов Михаил)","update":"2020-10-18 05:11:28","iframe_src":"//7923.svetacdn.in/71tsRs29n5tZ/movie/44423"},{"id":44421,"title":"Большая жуткая крыса","kp_id":"1316663","imdb_id":"tt11172830","world_art_id":null,"type":"movie","add":"2020-10-13 20:01:41","orig_title":"Big Freaking Rat","year":"2020-10-12","translations":["Любительский (многоголосый закадровый) (@MUZOBOZ@)"],"quality":"webdl","translation":"Любительский (многоголосый закадровый) (@MUZOBOZ@)","update":"2020-10-18 05:05:56","iframe_src":"//7923.svetacdn.in/71tsRs29n5tZ/movie/44421"},{"id":44420,"title":"Тело да кости","kp_id":"1299209","imdb_id":"tt10890888","world_art_id":null,"type":"movie","add":"2020-10-13 20:00:09","orig_title":"Body and Bones","year":"2019-09-15","translations":["Любительский (многоголосый закадровый) (@MUZOBOZ@)"],"quality":"webdl","translation":"Любительский (многоголосый закадровый) (@MUZOBOZ@)","update":"2020-10-18 05:08:14","iframe_src":"//7923.svetacdn.in/71tsRs29n5tZ/movie/44420"},{"id":44418,"title":"Криминальное прослушивание","kp_id":"844862","imdb_id":"tt4157712","world_art_id":null,"type":"movie","add":"2020-10-13 19:57:08","orig_title":"Criminal Audition","year":"2019-08-24","translations":["Любительский (многоголосый закадровый) (@MUZOBOZ@)"],"quality":"webdl","translation":"Любительский (многоголосый закадровый) (@MUZOBOZ@)","update":"2020-10-18 05:06:57","iframe_src":"//7923.svetacdn.in/71tsRs29n5tZ/movie/44418"},{"id":44403,"title":"Килли и Ду","kp_id":"1062300","imdb_id":"tt7065700","world_art_id":null,"type":"movie","add":"2020-10-13 17:33:21","orig_title":"Keely and Du","year":"2018-09-21","translations":["Любительский (многоголосый закадровый) (Синема УС)"],"quality":"webdl","translation":"Любительский (многоголосый закадровый) (Синема УС)","update":"2020-10-17 13:49:22","iframe_src":"//7923.svetacdn.in/71tsRs29n5tZ/movie/44403"},{"id":44402,"title":"Благие намерения","kp_id":"1302897","imdb_id":"tt10888554","world_art_id":null,"type":"movie","add":"2020-10-13 17:31:02","orig_title":"Las buenas intenciones","year":"2019-09-07","translations":["Любительский (многоголосый закадровый) (Синема УС)"],"quality":"webdl","translation":"Любительский (многоголосый закадровый) (Синема УС)","update":"2020-10-17 13:48:12","iframe_src":"//7923.svetacdn.in/71tsRs29n5tZ/movie/44402"},{"id":44401,"title":"Сердцу не прикажешь","kp_id":"1197861","imdb_id":"tt9046850","world_art_id":null,"type":"movie","add":"2020-10-13 17:29:18","orig_title":"Serce nie sluga","year":"2018-10-05","translations":["Любительский (многоголосый закадровый) (AlphaProject)"],"quality":"webdl","translation":"Любительский (многоголосый закадровый) (AlphaProject)","update":"2020-10-17 13:46:52","iframe_src":"//7923.svetacdn.in/71tsRs29n5tZ/movie/44401"},{"id":43685,"title":"Тайны, которые мы храним","kp_id":"1213882","imdb_id":"tt9252488","world_art_id":null,"type":"movie","add":"2020-09-20 08:05:33","orig_title":"The Secrets We Keep","year":"2020-09-16","translations":["Любительский (двухголосый закадровый) (Колобок)","Любительский (многоголосый закадровый) (@MUZOBOZ@)","Любительский (многоголосый закадровый) (@MUZOBOZ@)"],"quality":"ts","translation":"Любительский (двухголосый закадровый) (Колобок)","update":"2020-10-18 04:51:14","iframe_src":"//7923.svetacdn.in/71tsRs29n5tZ/movie/43685"},{"id":41536,"title":"Атакан. Кровавая легенда","kp_id":"1366087","imdb_id":null,"world_art_id":null,"type":"movie","add":"2020-07-01 19:57:17","orig_title":"Атакан. Кровавая легенда","year":"2020-08-06","translations":["Оригинальная дорожка","Оригинальная дорожка"],"quality":"webdl","translation":"Оригинальная дорожка","update":"2020-10-17 15:20:28","iframe_src":"//7923.svetacdn.in/71tsRs29n5tZ/movie/41536"},{"id":35502,"title":"Нэмури Кёсиро 07: Принцесса в маске","kp_id":"164686","imdb_id":"tt0148941","world_art_id":null,"type":"movie","add":"2020-01-26 20:27:54","orig_title":"Nemuri Kyôshirô: Tajôken","year":"1966-03-12","translations":["Авторский (одноголосый закадровый) (Кузнецов Сергей)","Авторский (одноголосый закадровый) (Кузнецов Сергей)"],"quality":"dvdrip","translation":"Авторский (одноголосый закадровый) (Кузнецов Сергей)","update":"2020-10-18 05:17:15","iframe_src":"//7923.svetacdn.in/71tsRs29n5tZ/movie/35502"},{"id":35501,"title":"Нэмури Кёсиро 2: Поединок","kp_id":"164789","imdb_id":"tt0148935","world_art_id":null,"type":"movie","add":"2020-01-26 20:24:29","orig_title":"Nemuri Kyôshirô: Shôbu","year":"1964-01-09","translations":["Авторский (одноголосый закадровый) (Иванов Михаил)","Авторский (одноголосый закадровый) (Иванов Михаил)"],"quality":"dvdrip","translation":"Авторский (одноголосый закадровый) (Иванов Михаил)","update":"2020-10-18 05:18:48","iframe_src":"//7923.svetacdn.in/71tsRs29n5tZ/movie/35501"},{"id":22857,"title":"Джентльмен из Эпсома","kp_id":"54362","imdb_id":"tt0056014","world_art_id":null,"type":"movie","add":"2019-03-10 15:22:00","orig_title":"Le gentleman d'Epsom","year":"1962-10-03","translations":["Профессиональный (двухголосый закадровый)","Полное дублирование","Полное дублирование"],"quality":"dvdrip","translation":"Профессиональный (двухголосый закадровый)","update":"2020-10-18 05:04:41","iframe_src":"//7923.svetacdn.in/71tsRs29n5tZ/movie/22857"},{"id":912,"title":"Кулинар 2","kp_id":"766642","imdb_id":null,"world_art_id":null,"type":"serial","add":"2017-01-20 06:47:09","orig_title":"Кулинар 2","year":"2013-12-02","translations":["Оригинальная дорожка"],"seasons_count":1,"episodes_count":20,"episodes":20,"update":"2017-01-20 11:42:36","iframe_src":"//7923.svetacdn.in/71tsRs29n5tZ/tv-series/912"},{"id":910,"title":"Своя чужая","kp_id":"837756","imdb_id":"tt4976578","world_art_id":null,"type":"serial","add":"2017-01-20 06:22:02","orig_title":"Svoya chuzhaya","year":"2015-06-06","translations":["Оригинальная дорожка"],"seasons_count":1,"episodes_count":16,"episodes":16,"update":"2017-01-20 10:43:24","iframe_src":"//7923.svetacdn.in/71tsRs29n5tZ/tv-series/910"},{"id":908,"title":"Призрак уездного театра","kp_id":"976622","imdb_id":null,"world_art_id":null,"type":"serial","add":"2017-01-20 06:10:41","orig_title":"Призрак уездного театра","year":"2016-05-21","translations":["Оригинальная дорожка"],"seasons_count":1,"episodes_count":4,"episodes":4,"update":"2017-01-20 10:19:48","iframe_src":"//7923.svetacdn.in/71tsRs29n5tZ/tv-series/908"},{"id":907,"title":"Дурная слава","kp_id":"968263","imdb_id":"tt5519574","world_art_id":null,"type":"serial","add":"2017-01-19 12:26:28","orig_title":"Notorious","year":"2016-09-22","translations":["Профессиональный (многоголосый закадровый) (NewStudio)"],"seasons_count":1,"episodes_count":10,"episodes":10,"update":"2017-01-20 07:26:26","iframe_src":"//7923.svetacdn.in/71tsRs29n5tZ/tv-series/907"},{"id":906,"title":"Перезапись","kp_id":"991685","imdb_id":"tt5683292","world_art_id":null,"type":"serial","add":"2017-01-19 11:55:34","orig_title":"Rewrite","year":"2016-07-02","translations":["Любительский (двухголосый закадровый) (AniLibria.TV)"],"seasons_count":1,"episodes_count":13,"episodes":13,"update":"2017-01-20 08:03:14","iframe_src":"//7923.svetacdn.in/71tsRs29n5tZ/tv-series/906"},{"id":905,"title":"Скиталец Эндры","kp_id":"996309","imdb_id":"tt5877116","world_art_id":null,"type":"serial","add":"2017-01-19 11:38:00","orig_title":"Endride","year":"2016-04-02","translations":["Любительский (многоголосый закадровый)"],"seasons_count":1,"episodes_count":24,"episodes":24,"update":"2017-01-19 15:17:52","iframe_src":"//7923.svetacdn.in/71tsRs29n5tZ/tv-series/905"},{"id":904,"title":"Два плюс два","kp_id":"933229","imdb_id":"tt5923660","world_art_id":null,"type":"serial","add":"2017-01-19 10:35:23","orig_title":"Dva plyus dva","year":"2015-09-27","translations":["Оригинальная дорожка"],"seasons_count":1,"episodes_count":4,"episodes":4,"update":"2017-01-19 13:57:23","iframe_src":"//7923.svetacdn.in/71tsRs29n5tZ/tv-series/904"},{"id":900,"title":"Бригада","kp_id":"77039","imdb_id":"tt0337898","world_art_id":null,"type":"serial","add":"2017-01-19 05:55:06","orig_title":"Brigada","year":"2002-09-23","translations":["Оригинальная дорожка"],"seasons_count":1,"episodes_count":15,"episodes":15,"update":"2017-01-23 07:44:12","iframe_src":"//7923.svetacdn.in/71tsRs29n5tZ/tv-series/900"},{"id":899,"title":"Гордость и предубеждение","kp_id":"89518","imdb_id":"tt0112130","world_art_id":null,"type":"serial","add":"2017-01-18 11:53:01","orig_title":"Pride and Prejudice","year":"1995-09-24","translations":["Профессиональный (многоголосый закадровый)"],"seasons_count":1,"episodes_count":6,"episodes":6,"update":"2017-01-19 07:07:24","iframe_src":"//7923.svetacdn.in/71tsRs29n5tZ/tv-series/899"},{"id":898,"title":"Гадкий Я: Мини-фильмы. Миньоны","kp_id":"653704","imdb_id":"tt2129997","world_art_id":null,"type":"serial","add":"2017-01-18 11:39:38","orig_title":"Despicable Me: Minion Madness","year":"2010-12-14","translations":["Профессиональный (двухголосый закадровый)"],"seasons_count":2,"episodes_count":5,"episodes":2,"update":"2017-01-19 06:59:32","iframe_src":"//7923.svetacdn.in/71tsRs29n5tZ/tv-series/898"},{"id":897,"title":"Теория невероятности","kp_id":"929062","imdb_id":null,"world_art_id":null,"type":"serial","add":"2017-01-18 05:56:38","orig_title":"Теория невероятности","year":"2015-09-05","translations":["Оригинальная дорожка"],"seasons_count":1,"episodes_count":2,"episodes":2,"update":"2017-01-18 12:06:07","iframe_src":"//7923.svetacdn.in/71tsRs29n5tZ/tv-series/897"},{"id":896,"title":"Солдаты 2","kp_id":"500560","imdb_id":"tt4083484","world_art_id":null,"type":"serial","add":"2017-01-18 05:50:43","orig_title":"Soldaty 2","year":"2004-01-01","translations":["Оригинальная дорожка"],"seasons_count":1,"episodes_count":16,"episodes":16,"update":"2017-01-18 08:26:21","iframe_src":"//7923.svetacdn.in/71tsRs29n5tZ/tv-series/896"},{"id":894,"title":"Юркины рассветы","kp_id":"451164","imdb_id":"tt4840330","world_art_id":null,"type":"serial","add":"2017-01-17 12:05:33","orig_title":"Yurkiny rassvety","year":"1975-05-15","translations":["Оригинальная дорожка"],"seasons_count":1,"episodes_count":4,"episodes":4,"update":"2017-01-17 14:24:03","iframe_src":"//7923.svetacdn.in/71tsRs29n5tZ/tv-series/894"},{"id":880,"title":"Позднее раскаяние","kp_id":"745219","imdb_id":"tt3991970","world_art_id":null,"type":"serial","add":"2017-01-16 05:55:03","orig_title":"Pozdnee raskayanie","year":"2013-11-18","translations":["Оригинальная дорожка"],"seasons_count":1,"episodes_count":16,"episodes":16,"update":"2017-01-18 13:46:30","iframe_src":"//7923.svetacdn.in/71tsRs29n5tZ/tv-series/880"},{"id":847,"title":"Вы все меня бесите","kp_id":"968843","imdb_id":"tt5886364","world_art_id":null,"type":"serial","add":"2017-01-09 18:10:34","orig_title":"Вы все меня бесите","year":"2017-01-09","translations":["Оригинальная дорожка"],"seasons_count":1,"episodes_count":20,"episodes":20,"update":"2017-01-19 08:49:04","iframe_src":"//7923.svetacdn.in/71tsRs29n5tZ/tv-series/847"},{"id":625,"title":"Завтра не наступит","kp_id":"972037","imdb_id":"tt5595688","world_art_id":null,"type":"serial","add":"2016-11-25 04:21:40","orig_title":"No Tomorrow","year":"2016-10-04","translations":["Профессиональный (многоголосый закадровый) (ColdFilm)"],"seasons_count":1,"episodes_count":13,"episodes":13,"update":"2017-01-19 11:39:36","iframe_src":"//7923.svetacdn.in/71tsRs29n5tZ/tv-series/625"},{"id":521,"title":"Дедушка","kp_id":"984274","imdb_id":"tt5923532","world_art_id":null,"type":"serial","add":"2016-10-09 10:39:14","orig_title":"Dedushka","year":"2016-10-07","translations":["Оригинальная дорожка"],"seasons_count":1,"episodes_count":1,"episodes":1,"update":"2017-01-19 13:51:53","iframe_src":"//7923.svetacdn.in/71tsRs29n5tZ/tv-series/521"},{"id":518,"title":"Давайте познакомимся","kp_id":"1002691","imdb_id":null,"world_art_id":null,"type":"serial","add":"2016-10-07 09:13:43","orig_title":"Давайте познакомимся","year":"2016-09-30","translations":["Оригинальная дорожка"],"seasons_count":1,"episodes_count":1,"episodes":1,"update":"2017-01-20 07:10:53","iframe_src":"//7923.svetacdn.in/71tsRs29n5tZ/tv-series/518"},{"id":405,"title":"Раненое сердце","kp_id":"998773","imdb_id":null,"world_art_id":null,"type":"serial","add":"2016-09-04 13:31:10","orig_title":"Раненое сердце","year":"2016-09-18","translations":["Оригинальная дорожка"],"seasons_count":1,"episodes_count":4,"episodes":4,"update":"2017-01-20 11:23:17","iframe_src":"//7923.svetacdn.in/71tsRs29n5tZ/tv-series/405"},{"id":401,"title":"Слишком близко к дому","kp_id":"991701","imdb_id":"tt5596646","world_art_id":null,"type":"serial","add":"2016-09-04 11:45:14","orig_title":"Too Close to Home","year":"2016-08-22","translations":["Профессиональный (многоголосый закадровый) (BaibaKo)","Профессиональный (многоголосый закадровый) (HDrezka Studio)","Профессиональный (многоголосый закадровый) (HDrezka Studio 18+)"],"seasons_count":1,"episodes_count":8,"episodes":8,"update":"2017-01-22 10:31:34","iframe_src":"//7923.svetacdn.in/71tsRs29n5tZ/tv-series/401"}],"current_page":518,"first_page_url":"https://videocdn.tv/api/short?limit=100&api_token=EnbO9h8pv1VyjbCJhg0WM9nG259n7mtz&cache3518=3518&page=1","from":51701,"last_page":642,"last_page_url":"https://videocdn.tv/api/short?limit=100&api_token=EnbO9h8pv1VyjbCJhg0WM9nG259n7mtz&cache3518=3518&page=642","next_page_url":"https://videocdn.tv/api/short?limit=100&api_token=EnbO9h8pv1VyjbCJhg0WM9nG259n7mtz&cache3518=3518&page=519","path":"https://videocdn.tv/api/short","per_page":100,"prev_page_url":"https://videocdn.tv/api/short?limit=100&api_token=EnbO9h8pv1VyjbCJhg0WM9nG259n7mtz&cache3518=3518&page=517","to":51740,"total":64195}