{"result":true,"data":[{"id":9134,"title":"Девушка в лесу","kp_id":"724502","imdb_id":"tt2554842","world_art_id":null,"type":"movie","add":"2017-01-24 04:38:30","orig_title":"Girl in Woods","year":"2016-06-03","translations":["Любительский (многоголосый закадровый) (Паровоз Продакшн | Parovoz Production)"],"quality":"webdl","translation":"Любительский (многоголосый закадровый) (Паровоз Продакшн | Parovoz Production)","update":"2017-01-24 05:13:58","iframe_src":"//83.svetacdn.in/PfJ50H0ZBPg3/movie/9134"},{"id":9116,"title":"Террордактиль","kp_id":"837549","imdb_id":"tt3524346","world_art_id":null,"type":"movie","add":"2017-01-23 06:02:03","orig_title":"Terrordactyl","year":"2016-04-16","translations":["Профессиональный (многоголосый) (СПД)"],"quality":"webdl","translation":"Профессиональный (многоголосый) (СПД)","update":"2017-01-23 10:58:42","iframe_src":"//83.svetacdn.in/PfJ50H0ZBPg3/movie/9116"},{"id":9115,"title":"Миг","kp_id":"970661","imdb_id":"tt5504168","world_art_id":null,"type":"movie","add":"2017-01-23 06:01:02","orig_title":"Kshanam","year":"2016-02-26","translations":["Профессиональный (двухголосый закадровый)"],"quality":"webdl","translation":"Профессиональный (двухголосый закадровый)","update":"2017-01-23 10:41:26","iframe_src":"//83.svetacdn.in/PfJ50H0ZBPg3/movie/9115"},{"id":9114,"title":"Приходи на меня посмотреть","kp_id":"972959","imdb_id":"tt5572720","world_art_id":null,"type":"movie","add":"2017-01-23 05:59:52","orig_title":"Nal Boreowayo","year":"2016-04-07","translations":["Любительский (двухголосый закадровый) (Колобок)"],"quality":"webdl","translation":"Любительский (двухголосый закадровый) (Колобок)","update":"2017-01-23 10:35:39","iframe_src":"//83.svetacdn.in/PfJ50H0ZBPg3/movie/9114"},{"id":9110,"title":"Редукторы","kp_id":"646303","imdb_id":"tt2094825","world_art_id":null,"type":"movie","add":"2017-01-23 05:55:30","orig_title":"Gearheads","year":"2016-01-15","translations":["Любительский (многоголосый закадровый) (Паровоз Продакшн | Parovoz Production)"],"quality":"webdl","translation":"Любительский (многоголосый закадровый) (Паровоз Продакшн | Parovoz Production)","update":"2017-01-23 10:55:42","iframe_src":"//83.svetacdn.in/PfJ50H0ZBPg3/movie/9110"},{"id":9106,"title":"Книга любви","kp_id":"432882","imdb_id":"tt1330018","world_art_id":null,"type":"movie","add":"2017-01-22 12:59:09","orig_title":"The Book of Love","year":"2016-04-14","translations":["Любительский (многоголосый закадровый) (@MUZOBOZ@)"],"quality":"webdl","translation":"Любительский (многоголосый закадровый) (@MUZOBOZ@)","update":"2017-01-23 11:57:44","iframe_src":"//83.svetacdn.in/PfJ50H0ZBPg3/movie/9106"},{"id":9104,"title":"На север","kp_id":"929932","imdb_id":"tt4960764","world_art_id":null,"type":"movie","add":"2017-01-22 12:56:26","orig_title":"Go North","year":"2017-01-13","translations":["Любительский (многоголосый закадровый) (@MUZOBOZ@)"],"quality":"webdl","translation":"Любительский (многоголосый закадровый) (@MUZOBOZ@)","update":"2017-01-23 11:46:16","iframe_src":"//83.svetacdn.in/PfJ50H0ZBPg3/movie/9104"},{"id":9102,"title":"Кристин","kp_id":"910812","imdb_id":"tt4666726","world_art_id":null,"type":"movie","add":"2017-01-22 12:54:16","orig_title":"Christine","year":"2016-01-23","translations":["Любительский (многоголосый закадровый) (Синема УС)"],"quality":"webdl","translation":"Любительский (многоголосый закадровый) (Синема УС)","update":"2017-01-23 11:59:32","iframe_src":"//83.svetacdn.in/PfJ50H0ZBPg3/movie/9102"},{"id":9101,"title":"Плохие дети отправляются в ад","kp_id":"808600","imdb_id":"tt3349578","world_art_id":null,"type":"movie","add":"2017-01-22 12:53:06","orig_title":"Bad Kids of Crestview Academy","year":"2017-01-13","translations":["Любительский (многоголосый закадровый) (@MUZOBOZ@)"],"quality":"webdl","translation":"Любительский (многоголосый закадровый) (@MUZOBOZ@)","update":"2017-01-23 11:49:11","iframe_src":"//83.svetacdn.in/PfJ50H0ZBPg3/movie/9101"},{"id":9096,"title":"Козёл","kp_id":"894646","imdb_id":"tt4437216","world_art_id":null,"type":"movie","add":"2017-01-22 12:46:28","orig_title":"Goat","year":"2016-01-22","translations":["Любительский (многоголосый закадровый) (@MUZOBOZ@)"],"quality":"webdl","translation":"Любительский (многоголосый закадровый) (@MUZOBOZ@)","update":"2017-01-23 12:04:22","iframe_src":"//83.svetacdn.in/PfJ50H0ZBPg3/movie/9096"},{"id":9088,"title":"Андердог","kp_id":"706020","imdb_id":"tt2378830","world_art_id":null,"type":"movie","add":"2017-01-22 12:00:06","orig_title":"Sommeren '92","year":"2015-08-27","translations":["Полное дублирование (iTunes)"],"quality":"webdl","translation":"Полное дублирование (iTunes)","update":"2017-01-23 12:57:22","iframe_src":"//83.svetacdn.in/PfJ50H0ZBPg3/movie/9088"},{"id":9087,"title":"Друзья общества","kp_id":"910558","imdb_id":"tt4625516","world_art_id":null,"type":"movie","add":"2017-01-22 11:57:43","orig_title":"Amis publics","year":"2016-01-18","translations":["Авторский (одноголосый закадровый) (Карповский Антон)"],"quality":"bd","translation":"Авторский (одноголосый закадровый) (Карповский Антон)","update":"2017-01-23 11:51:57","iframe_src":"//83.svetacdn.in/PfJ50H0ZBPg3/movie/9087"},{"id":9049,"title":"Орел и решка","kp_id":"40866","imdb_id":"tt0114054","world_art_id":null,"type":"movie","add":"2017-01-19 07:21:27","orig_title":"Oryol i reshka","year":"1995-11-03","translations":["Оригинальная дорожка"],"quality":"hdtv","translation":"Оригинальная дорожка","update":"2017-01-23 11:39:59","iframe_src":"//83.svetacdn.in/PfJ50H0ZBPg3/movie/9049"},{"id":9048,"title":"Терпеливый","kp_id":"922495","imdb_id":"tt4771896","world_art_id":null,"type":"movie","add":"2017-01-19 07:13:38","orig_title":"Tarde para la ira","year":"2016-09-02","translations":["Любительский (одноголосый закадровый) (Хихикающий доктор)"],"quality":"bd","translation":"Любительский (одноголосый закадровый) (Хихикающий доктор)","update":"2017-01-23 11:41:32","iframe_src":"//83.svetacdn.in/PfJ50H0ZBPg3/movie/9048"},{"id":9041,"title":"Весомое чувство","kp_id":"932122","imdb_id":null,"world_art_id":null,"type":"movie","add":"2017-01-18 13:46:19","orig_title":"Весомое чувство","year":"2015-09-19","translations":["Оригинальная дорожка"],"quality":"hdtv","translation":"Оригинальная дорожка","update":"2017-01-23 08:17:12","iframe_src":"//83.svetacdn.in/PfJ50H0ZBPg3/movie/9041"},{"id":9040,"title":"Простить за всё","kp_id":"891639","imdb_id":null,"world_art_id":null,"type":"movie","add":"2017-01-18 13:44:01","orig_title":"Простить за всё","year":"2015-03-01","translations":["Оригинальная дорожка"],"quality":"hdtv","translation":"Оригинальная дорожка","update":"2017-01-23 08:15:30","iframe_src":"//83.svetacdn.in/PfJ50H0ZBPg3/movie/9040"},{"id":9039,"title":"Рой","kp_id":"845165","imdb_id":"tt3745906","world_art_id":null,"type":"movie","add":"2017-01-18 13:42:18","orig_title":"The Hive","year":"2015-09-14","translations":["Любительский (двухголосый закадровый)"],"quality":"webdl","translation":"Любительский (двухголосый закадровый)","update":"2017-01-23 08:14:11","iframe_src":"//83.svetacdn.in/PfJ50H0ZBPg3/movie/9039"},{"id":6256,"title":"Конгрессмен","kp_id":"822715","imdb_id":"tt3485800","world_art_id":null,"type":"movie","add":"2016-10-13 13:55:30","orig_title":"The Congressman","year":"2016-04-09","translations":["Любительский (многоголосый закадровый)","Любительский (многоголосый закадровый) (Синема УС)"],"quality":"dvdrip","translation":"Любительский (многоголосый закадровый)","update":"2017-01-23 12:50:00","iframe_src":"//83.svetacdn.in/PfJ50H0ZBPg3/movie/6256"},{"id":3704,"title":"Налетчики","kp_id":"925037","imdb_id":"tt3963816","world_art_id":null,"type":"movie","add":"2016-07-06 05:11:35","orig_title":"Marauders","year":"2016-07-01","translations":["Любительский (многоголосый закадровый) (Паровоз Продакшн | Parovoz Production)","Полное дублирование"],"quality":"webdl","translation":"Любительский (многоголосый закадровый) (Паровоз Продакшн | Parovoz Production)","update":"2017-01-23 12:53:08","iframe_src":"//83.svetacdn.in/PfJ50H0ZBPg3/movie/3704"},{"id":530,"title":"Вуаль","kp_id":"837502","imdb_id":"tt3533916","world_art_id":null,"type":"movie","add":"2016-04-04 12:13:50","orig_title":"The Veil","year":"2016-01-19","translations":["Любительский (многоголосый закадровый) (Паровоз Продакшн | Parovoz Production)","Полное дублирование"],"quality":"webdl","translation":"Любительский (многоголосый закадровый) (Паровоз Продакшн | Parovoz Production)","update":"2017-01-23 15:35:42","iframe_src":"//83.svetacdn.in/PfJ50H0ZBPg3/movie/530"}],"current_page":2616,"first_page_url":"https://videocdn.tv/api/short?limit=100&api_token=RgFQdUIR2dRmwv8iYa5SnFNgnw3vpjKj&cache32616=32616&page=1","from":261501,"last_page":720,"last_page_url":"https://videocdn.tv/api/short?limit=100&api_token=RgFQdUIR2dRmwv8iYa5SnFNgnw3vpjKj&cache32616=32616&page=720","next_page_url":null,"path":"https://videocdn.tv/api/short","per_page":100,"prev_page_url":"https://videocdn.tv/api/short?limit=100&api_token=RgFQdUIR2dRmwv8iYa5SnFNgnw3vpjKj&cache32616=32616&page=2615","to":261520,"total":71943}