{"result":true,"data":[{"id":51183,"title":"Красный перец чили","kp_id":"692350","imdb_id":"tt4338242","world_art_id":null,"type":"movie","add":"2021-06-14 19:47:11","orig_title":"Shukno Lanka","year":"2010-07-02","translations":["Любительский (одноголосый закадровый)"],"quality":"webdl","translation":"Любительский (одноголосый закадровый)","update":"2021-06-15 04:33:36","iframe_src":"//83.svetacdn.in/PfJ50H0ZBPg3/movie/51183"},{"id":51181,"title":"Буря","kp_id":"208348","imdb_id":"tt0178187","world_art_id":null,"type":"movie","add":"2021-06-14 19:38:30","orig_title":"Aandhi-Toofan","year":"1985-03-22","translations":["Любительский (одноголосый закадровый)"],"quality":"webdl","translation":"Любительский (одноголосый закадровый)","update":"2021-06-15 04:33:08","iframe_src":"//83.svetacdn.in/PfJ50H0ZBPg3/movie/51181"},{"id":51180,"title":"Мастер эпоса","kp_id":"731095","imdb_id":"tt2624704","world_art_id":null,"type":"movie","add":"2021-06-14 19:35:53","orig_title":"Kaaviya Thalaivan","year":"2014-11-28","translations":["Любительский (одноголосый закадровый)"],"quality":"webdl","translation":"Любительский (одноголосый закадровый)","update":"2021-06-15 04:32:51","iframe_src":"//83.svetacdn.in/PfJ50H0ZBPg3/movie/51180"},{"id":51179,"title":"Прошлое, настоящее, будущее","kp_id":"47878","imdb_id":"tt0090202","world_art_id":null,"type":"movie","add":"2021-06-14 19:34:05","orig_title":"Trikal (Past, Present, Future)","year":"1985-08-30","translations":["Любительский (одноголосый закадровый)"],"quality":"webdl","translation":"Любительский (одноголосый закадровый)","update":"2021-06-15 04:32:09","iframe_src":"//83.svetacdn.in/PfJ50H0ZBPg3/movie/51179"},{"id":51176,"title":"Король бандитов","kp_id":"245935","imdb_id":"tt0247909","world_art_id":null,"type":"movie","add":"2021-06-14 19:23:45","orig_title":"Aaj Ka Goonda Raaj","year":"1992-07-10","translations":["Любительский (одноголосый закадровый)"],"quality":"webdl","translation":"Любительский (одноголосый закадровый)","update":"2021-06-15 04:31:49","iframe_src":"//83.svetacdn.in/PfJ50H0ZBPg3/movie/51176"},{"id":51173,"title":"Света нет, но счётчик крутится","kp_id":"1132616","imdb_id":"tt7720922","world_art_id":null,"type":"movie","add":"2021-06-14 18:36:07","orig_title":"Batti Gul Meter Chalu","year":"2018-09-21","translations":["Профессиональный (многоголосый закадровый) (ZEE TV)"],"quality":"hdrip","translation":"Профессиональный (многоголосый закадровый) (ZEE TV)","update":"2021-06-15 04:31:16","iframe_src":"//83.svetacdn.in/PfJ50H0ZBPg3/movie/51173"},{"id":51169,"title":"Самая грустная музыка в мире","kp_id":"39465","imdb_id":"tt0366996","world_art_id":null,"type":"movie","add":"2021-06-14 14:36:12","orig_title":"The Saddest Music in the World","year":"2003-08-31","translations":["Авторский (одноголосый закадровый) (Алексеев Антон)"],"quality":"webdl","translation":"Авторский (одноголосый закадровый) (Алексеев Антон)","update":"2021-06-15 07:15:29","iframe_src":"//83.svetacdn.in/PfJ50H0ZBPg3/movie/51169"},{"id":51168,"title":"Энн из Зелёных крыш: новое начало","kp_id":"397691","imdb_id":"tt1063034","world_art_id":null,"type":"movie","add":"2021-06-14 09:19:58","orig_title":"Anne of Green Gables: A New Beginning","year":"2008-12-14","translations":["Профессиональный (многоголосый закадровый) (Инис)"],"quality":"sat","translation":"Профессиональный (многоголосый закадровый) (Инис)","update":"2021-06-14 16:24:37","iframe_src":"//83.svetacdn.in/PfJ50H0ZBPg3/movie/51168"},{"id":51093,"title":"Сканер-полицейский","kp_id":"2675","imdb_id":"tt0111082","world_art_id":null,"type":"movie","add":"2021-06-11 06:21:27","orig_title":"Scanner Cop","year":"1994-03-12","translations":["Авторский (одноголосый закадровый) (Дольский Андрей)","Авторский (одноголосый закадровый) (Гаврилов Андрей)","[EN] Original (English)","Профессиональный (многоголосый закадровый)"],"quality":"bd","translation":"Авторский (одноголосый закадровый) (Дольский Андрей)","update":"2021-06-14 14:43:13","iframe_src":"//83.svetacdn.in/PfJ50H0ZBPg3/movie/51093"},{"id":38324,"title":"О, Боже!","kp_id":"679668","imdb_id":"tt2255934","world_art_id":null,"type":"movie","add":"2020-03-20 22:00:49","orig_title":"Aiyyaa","year":"2012-10-11","translations":["Профессиональный (многоголосый закадровый)"],"quality":"dvdrip","translation":"Профессиональный (многоголосый закадровый)","update":"2021-06-15 06:15:53","iframe_src":"//83.svetacdn.in/PfJ50H0ZBPg3/movie/38324"},{"id":32422,"title":"Ты псих?","kp_id":"1133482","imdb_id":"tt8108196","world_art_id":null,"type":"movie","add":"2019-10-28 07:24:37","orig_title":"Judgementall Hai Kya","year":"2019-07-25","translations":["Любительский (многоголосый закадровый) (Синема УС)","Профессиональный (многоголосый закадровый) (ZEE TV)"],"quality":"webdl","translation":"Любительский (многоголосый закадровый) (Синема УС)","update":"2021-06-15 04:31:38","iframe_src":"//83.svetacdn.in/PfJ50H0ZBPg3/movie/32422"},{"id":27245,"title":"Огненная дрожь","kp_id":"846893","imdb_id":"tt3969972","world_art_id":null,"type":"movie","add":"2019-05-30 04:19:22","orig_title":"Firequake","year":"2014-12-22","translations":["Профессиональный (многоголосый закадровый)","[EN] Original (English)","Профессиональный (многоголосый закадровый)","Профессиональный (многоголосый закадровый) (ТВ3)"],"quality":"hdrip","translation":"Профессиональный (многоголосый закадровый)","update":"2021-06-14 14:38:17","iframe_src":"//83.svetacdn.in/PfJ50H0ZBPg3/movie/27245"},{"id":21355,"title":"Кусама: Бесконечные миры","kp_id":"1112207","imdb_id":"tt1893269","world_art_id":null,"type":"movie","add":"2019-01-09 10:05:34","orig_title":"Kusama: Infinity","year":"2018-01-21","translations":["Профессиональный (многоголосый закадровый)","Профессиональный (многоголосый закадровый) (HDrezka Studio)"],"quality":"webdl","translation":"Профессиональный (многоголосый закадровый)","update":"2021-06-14 17:46:06","iframe_src":"//83.svetacdn.in/PfJ50H0ZBPg3/movie/21355"},{"id":20256,"title":"Землетрясение","kp_id":"1094106","imdb_id":"tt6523720","world_art_id":null,"type":"movie","add":"2018-11-22 22:57:42","orig_title":"Skjelvet","year":"2018-08-19","translations":["Любительский (многоголосый закадровый) (@MUZOBOZ@)","Любительский (многоголосый закадровый)","Полное дублирование (iTunes)","Профессиональный (многоголосый закадровый)","Профессиональный (многоголосый закадровый) (HDrezka Studio)"],"quality":"webdl","translation":"Любительский (многоголосый закадровый) (@MUZOBOZ@)","update":"2021-06-15 04:15:26","iframe_src":"//83.svetacdn.in/PfJ50H0ZBPg3/movie/20256"},{"id":19022,"title":"Багровая мята","kp_id":"1058083","imdb_id":"tt6850820","world_art_id":null,"type":"movie","add":"2018-09-16 21:19:14","orig_title":"Peppermint","year":"2018-09-06","translations":["Полное дублирование","Любительский (многоголосый закадровый) (@MUZOBOZ@)","Авторский (одноголосый закадровый) (Яроцкий Михаил | Kyberpunk)","Профессиональный (многоголосый закадровый) (HDrezka Studio)","Авторский (одноголосый закадровый) (Немахов Юрий)","Авторский (одноголосый закадровый) (Яроцкий Михаил | Kyberpunk)","[EN] Original (English)","Профессиональный (двухголосый закадровый) (TV Play Baltics)"],"quality":"bd","translation":"Полное дублирование","update":"2021-06-15 08:59:17","iframe_src":"//83.svetacdn.in/PfJ50H0ZBPg3/movie/19022"},{"id":18983,"title":"Шестиструнный самурай","kp_id":"59763","imdb_id":"tt0118736","world_art_id":null,"type":"movie","add":"2018-09-14 00:26:28","orig_title":"Six-String Samurai","year":"1998-09-15","translations":["Авторский (одноголосый закадровый) (Яроцкий Михаил | Kyberpunk)","Профессиональный (многоголосый закадровый)","Авторский (одноголосый закадровый) (Сербин Юрий)","Авторский (одноголосый закадровый) (Яроцкий Михаил | Kyberpunk)","[EN] Original (English)","Любительский (одноголосый закадровый)","Профессиональный (двухголосый закадровый)","Профессиональный (многоголосый закадровый) (Первый канал | ОРТ)"],"quality":"dvdrip","translation":"Авторский (одноголосый закадровый) (Яроцкий Михаил | Kyberpunk)","update":"2021-06-14 14:33:08","iframe_src":"//83.svetacdn.in/PfJ50H0ZBPg3/movie/18983"},{"id":961,"title":"Я буду ждать тебя всегда","kp_id":"880653","imdb_id":null,"world_art_id":null,"type":"serial","add":"2017-02-01 05:40:10","orig_title":"Я буду ждать тебя всегда","year":"2014-01-25","translations":["Оригинальная дорожка"],"seasons_count":1,"episodes_count":2,"episodes":2,"update":"2017-02-01 07:58:23","iframe_src":"//83.svetacdn.in/PfJ50H0ZBPg3/tv-series/961"},{"id":960,"title":"Любовь под грифом «Совершенно секретно»","kp_id":"447115","imdb_id":null,"world_art_id":null,"type":"serial","add":"2017-01-31 13:51:15","orig_title":"Любовь под грифом «Совершенно секретно»","year":"2008-10-17","translations":["Оригинальная дорожка"],"seasons_count":1,"episodes_count":2,"episodes":2,"update":"2017-02-01 06:53:41","iframe_src":"//83.svetacdn.in/PfJ50H0ZBPg3/tv-series/960"},{"id":957,"title":"Нанастоящая любовь","kp_id":"533113","imdb_id":"tt1772607","world_art_id":null,"type":"serial","add":"2017-01-31 06:02:05","orig_title":"Nanolyubov","year":"2010-10-25","translations":["Оригинальная дорожка"],"seasons_count":1,"episodes_count":40,"episodes":40,"update":"2017-02-01 09:20:03","iframe_src":"//83.svetacdn.in/PfJ50H0ZBPg3/tv-series/957"},{"id":956,"title":"Дядя Бак","kp_id":"889193","imdb_id":"tt4424758","world_art_id":null,"type":"serial","add":"2017-01-31 05:24:00","orig_title":"Uncle Buck","year":"2016-06-14","translations":["Профессиональный (многоголосый закадровый) (BaibaKo)"],"seasons_count":1,"episodes_count":8,"episodes":8,"update":"2017-02-01 06:49:38","iframe_src":"//83.svetacdn.in/PfJ50H0ZBPg3/tv-series/956"},{"id":954,"title":"Московская борзая","kp_id":"843668","imdb_id":"tt5031894","world_art_id":null,"type":"serial","add":"2017-01-27 06:09:03","orig_title":"Moskovskaya borzaya","year":"2015-07-01","translations":["Оригинальная дорожка"],"seasons_count":1,"episodes_count":20,"episodes":20,"update":"2017-01-30 14:38:06","iframe_src":"//83.svetacdn.in/PfJ50H0ZBPg3/tv-series/954"},{"id":953,"title":"Охотники за караванами","kp_id":"571268","imdb_id":"tt2969516","world_art_id":null,"type":"serial","add":"2017-01-26 08:24:17","orig_title":"Okhotniki za karavanami","year":"2010-12-19","translations":["Оригинальная дорожка"],"seasons_count":1,"episodes_count":4,"episodes":4,"update":"2017-01-27 12:35:35","iframe_src":"//83.svetacdn.in/PfJ50H0ZBPg3/tv-series/953"},{"id":952,"title":"Дед Мазаев и Зайцевы","kp_id":"947040","imdb_id":null,"world_art_id":null,"type":"serial","add":"2017-01-26 06:23:11","orig_title":"Дед Мазаев и Зайцевы","year":"2015-12-04","translations":["Оригинальная дорожка"],"seasons_count":1,"episodes_count":4,"episodes":4,"update":"2017-01-26 10:53:51","iframe_src":"//83.svetacdn.in/PfJ50H0ZBPg3/tv-series/952"},{"id":951,"title":"Хозяйка","kp_id":"957257","imdb_id":null,"world_art_id":null,"type":"serial","add":"2017-01-26 05:55:53","orig_title":"Хозяйка","year":"2016-02-01","translations":["Оригинальная дорожка"],"seasons_count":1,"episodes_count":24,"episodes":24,"update":"2017-01-30 07:42:44","iframe_src":"//83.svetacdn.in/PfJ50H0ZBPg3/tv-series/951"},{"id":950,"title":"Затмение","kp_id":"935908","imdb_id":null,"world_art_id":null,"type":"serial","add":"2017-01-26 05:52:34","orig_title":"Затмение","year":"2016-05-01","translations":["Оригинальная дорожка"],"seasons_count":1,"episodes_count":4,"episodes":4,"update":"2017-01-26 15:34:39","iframe_src":"//83.svetacdn.in/PfJ50H0ZBPg3/tv-series/950"},{"id":949,"title":"Дневник Луизы Ложкиной","kp_id":"947427","imdb_id":null,"world_art_id":null,"type":"serial","add":"2017-01-26 05:42:03","orig_title":"Дневник Луизы Ложкиной","year":"2016-03-05","translations":["Оригинальная дорожка"],"seasons_count":1,"episodes_count":20,"episodes":20,"update":"2017-01-26 16:02:54","iframe_src":"//83.svetacdn.in/PfJ50H0ZBPg3/tv-series/949"},{"id":948,"title":"Время дочерей","kp_id":"957351","imdb_id":null,"world_art_id":null,"type":"serial","add":"2017-01-26 05:37:26","orig_title":"Время дочерей","year":"2016-01-11","translations":["Оригинальная дорожка"],"seasons_count":1,"episodes_count":8,"episodes":8,"update":"2017-01-26 09:57:35","iframe_src":"//83.svetacdn.in/PfJ50H0ZBPg3/tv-series/948"},{"id":947,"title":"Скалолазка","kp_id":"957463","imdb_id":null,"world_art_id":null,"type":"serial","add":"2017-01-26 05:33:19","orig_title":"Скалолазка","year":"2015-12-18","translations":["Оригинальная дорожка"],"seasons_count":1,"episodes_count":8,"episodes":8,"update":"2017-01-26 09:41:54","iframe_src":"//83.svetacdn.in/PfJ50H0ZBPg3/tv-series/947"},{"id":938,"title":"Вечный отпуск","kp_id":"948263","imdb_id":"tt5630640","world_art_id":null,"type":"serial","add":"2017-01-24 14:14:54","orig_title":"Eternal Vacation","year":"2016-03-21","translations":["Оригинальная дорожка"],"seasons_count":1,"episodes_count":24,"episodes":24,"update":"2017-01-27 12:41:11","iframe_src":"//83.svetacdn.in/PfJ50H0ZBPg3/tv-series/938"},{"id":936,"title":"Бедные люди","kp_id":"945388","imdb_id":"tt6258782","world_art_id":null,"type":"serial","add":"2017-01-24 14:02:18","orig_title":"Bednye Ludi","year":"2016-04-11","translations":["Оригинальная дорожка"],"seasons_count":1,"episodes_count":17,"episodes":17,"update":"2017-01-26 09:26:22","iframe_src":"//83.svetacdn.in/PfJ50H0ZBPg3/tv-series/936"},{"id":935,"title":"По секрету всему свету","kp_id":"910095","imdb_id":null,"world_art_id":null,"type":"serial","add":"2017-01-24 13:16:41","orig_title":"По секрету всему свету","year":"2015-05-30","translations":["Оригинальная дорожка"],"seasons_count":1,"episodes_count":1,"episodes":1,"update":"2017-01-26 08:21:43","iframe_src":"//83.svetacdn.in/PfJ50H0ZBPg3/tv-series/935"},{"id":895,"title":"Майк и Молли","kp_id":"504439","imdb_id":"tt1608180","world_art_id":null,"type":"serial","add":"2017-01-18 04:39:12","orig_title":"Mike & Molly","year":"2010-09-20","translations":["Профессиональный (одноголосый закадровый) (Кураж-Бамбей)"],"seasons_count":6,"episodes_count":127,"episodes":13,"update":"2017-02-01 07:46:55","iframe_src":"//83.svetacdn.in/PfJ50H0ZBPg3/tv-series/895"},{"id":865,"title":"Гражданский брак","kp_id":"947462","imdb_id":null,"world_art_id":null,"type":"serial","add":"2017-01-11 10:05:48","orig_title":"Гражданский брак","year":"2017-01-09","translations":["Оригинальная дорожка"],"seasons_count":1,"episodes_count":15,"episodes":15,"update":"2017-01-27 12:12:00","iframe_src":"//83.svetacdn.in/PfJ50H0ZBPg3/tv-series/865"},{"id":725,"title":"Настоящий гений","kp_id":"968185","imdb_id":"tt5500906","world_art_id":null,"type":"serial","add":"2016-12-22 19:52:00","orig_title":"Pure Genius","year":"2016-10-27","translations":["Профессиональный (многоголосый закадровый) (IdeaFilm)"],"seasons_count":1,"episodes_count":13,"episodes":13,"update":"2017-02-01 05:48:24","iframe_src":"//83.svetacdn.in/PfJ50H0ZBPg3/tv-series/725"},{"id":596,"title":"Корпорация","kp_id":"900004","imdb_id":"tt4118466","world_art_id":null,"type":"serial","add":"2016-11-17 16:09:38","orig_title":"Incorporated","year":"2016-11-30","translations":["Профессиональный (многоголосый закадровый) (ColdFilm)","Профессиональный (многоголосый закадровый) (LostFilm)"],"seasons_count":1,"episodes_count":10,"episodes":10,"update":"2017-02-01 12:06:20","iframe_src":"//83.svetacdn.in/PfJ50H0ZBPg3/tv-series/596"},{"id":6927,"title":"Выбор игры","kp_id":"3002","imdb_id":"tt0108065","world_art_id":null,"type":"movie","add":"2016-11-01 11:54:56","orig_title":"Searching for Bobby Fischer","year":"1993-08-11","translations":["Профессиональный (двухголосый закадровый)","[EN] Original (English)","Любительский (одноголосый закадровый) (Stalk | Кирдин Никита)","Профессиональный (двухголосый закадровый) (НТВ)","Профессиональный (многоголосый закадровый)"],"quality":"webdl","translation":"Профессиональный (двухголосый закадровый)","update":"2021-06-15 08:31:09","iframe_src":"//83.svetacdn.in/PfJ50H0ZBPg3/movie/6927"},{"id":3583,"title":"История любви","kp_id":"5035","imdb_id":"tt0066011","world_art_id":null,"type":"movie","add":"2016-07-01 08:29:59","orig_title":"Love Story","year":"1970-12-16","translations":["Профессиональный (многоголосый закадровый)","Авторский (одноголосый закадровый) (Кузнецов Сергей)","[EN] Original (English)","Профессиональный (многоголосый закадровый) (СТС)","Профессиональный (многоголосый закадровый) (DVD Магия)","Профессиональный (многоголосый закадровый) (Film Prestige)"],"quality":"bd","translation":"Профессиональный (многоголосый закадровый)","update":"2021-06-15 08:42:54","iframe_src":"//83.svetacdn.in/PfJ50H0ZBPg3/movie/3583"},{"id":198,"title":"Салем","kp_id":"807630","imdb_id":"tt2963254","world_art_id":null,"type":"serial","add":"2016-06-16 14:28:33","orig_title":"Salem","year":"2014-04-20","translations":["Профессиональный (многоголосый закадровый) (LostFilm)","Профессиональный (многоголосый закадровый) (NewStudio)"],"seasons_count":3,"episodes_count":36,"episodes":10,"update":"2017-01-30 06:20:55","iframe_src":"//83.svetacdn.in/PfJ50H0ZBPg3/tv-series/198"},{"id":2301,"title":"Почти герои","kp_id":"1690","imdb_id":"tt0119053","world_art_id":null,"type":"movie","add":"2016-05-17 19:12:53","orig_title":"Almost Heroes","year":"1998-05-29","translations":["Полное дублирование","[EN] Original (English)","Авторский (одноголосый закадровый) (Кашкин Александр | Первомайский)","Полное дублирование (Варус-Видео)","[EN] Original (English)","Любительский (одноголосый закадровый) (Антонов Николай)","Профессиональный (двухголосый закадровый) (НТВ)"],"quality":"webdl","translation":"Полное дублирование","update":"2021-06-15 08:06:28","iframe_src":"//83.svetacdn.in/PfJ50H0ZBPg3/movie/2301"},{"id":2098,"title":"Олдбой","kp_id":"75871","imdb_id":"tt0364569","world_art_id":null,"type":"movie","add":"2016-05-12 15:33:51","orig_title":"Oldeuboi","year":"2003-11-21","translations":["Полное дублирование","Профессиональный (двухголосый закадровый)","Авторский (одноголосый закадровый) (Сербин Юрий)","Авторский (одноголосый закадровый) (Гаевский Евгений)","Авторский (одноголосый закадровый) (Сербин Юрий)","Авторский (одноголосый закадровый) (Визгунов Сергей)","Полное дублирование (Cinema Prestige)","Любительский (одноголосый закадровый) (@PD)","Профессиональный (двухголосый закадровый) (Tycoon)","Профессиональный (многоголосый закадровый) (Первый канал | ОРТ)"],"quality":"bd","translation":"Полное дублирование","update":"2021-06-15 06:41:17","iframe_src":"//83.svetacdn.in/PfJ50H0ZBPg3/movie/2098"}],"current_page":595,"first_page_url":"https://videocdn.tv/api/short?limit=100&api_token=RgFQdUIR2dRmwv8iYa5SnFNgnw3vpjKj&cache3595=3595&page=1","from":59401,"last_page":720,"last_page_url":"https://videocdn.tv/api/short?limit=100&api_token=RgFQdUIR2dRmwv8iYa5SnFNgnw3vpjKj&cache3595=3595&page=720","next_page_url":"https://videocdn.tv/api/short?limit=100&api_token=RgFQdUIR2dRmwv8iYa5SnFNgnw3vpjKj&cache3595=3595&page=596","path":"https://videocdn.tv/api/short","per_page":100,"prev_page_url":"https://videocdn.tv/api/short?limit=100&api_token=RgFQdUIR2dRmwv8iYa5SnFNgnw3vpjKj&cache3595=3595&page=594","to":59440,"total":71943}