{"result":true,"data":[{"id":20684,"title":"Полной грудью","kp_id":"602709","imdb_id":"tt1999987","world_art_id":null,"type":"movie","add":"2018-12-12 00:18:37","orig_title":"Breathe In","year":"2013-01-19","translations":["Профессиональный (многоголосый закадровый)"],"quality":"bd","translation":"Профессиональный (многоголосый закадровый)","update":"2018-12-12 08:16:31","iframe_src":"//5322.svetacdn.in/71tsRs29n5tZ/movie/20684"},{"id":20682,"title":"Очень чудное Рождество","kp_id":"1149399","imdb_id":"tt8295976","world_art_id":null,"type":"movie","add":"2018-12-12 00:12:23","orig_title":"A Very Nutty Christmas","year":"2018-11-30","translations":["Любительский (многоголосый закадровый) (Синема УС)"],"quality":"webdl","translation":"Любительский (многоголосый закадровый) (Синема УС)","update":"2018-12-12 08:08:19","iframe_src":"//5322.svetacdn.in/71tsRs29n5tZ/movie/20682"},{"id":20640,"title":"Смиренное кладбище","kp_id":"43880","imdb_id":"tt0098353","world_art_id":null,"type":"movie","add":"2018-12-11 10:05:19","orig_title":"Smirennoye kladbishche","year":"1989-01-01","translations":["Оригинальная дорожка"],"quality":"dvdrip","translation":"Оригинальная дорожка","update":"2018-12-11 23:27:57","iframe_src":"//5322.svetacdn.in/71tsRs29n5tZ/movie/20640"},{"id":20639,"title":"Веселые и беззаботные","kp_id":"19581","imdb_id":"tt0039404","world_art_id":null,"type":"movie","add":"2018-12-11 10:01:58","orig_title":"Fun & Fancy Free","year":"1947-09-27","translations":["Полное дублирование"],"quality":"dvdrip","translation":"Полное дублирование","update":"2018-12-11 23:30:44","iframe_src":"//5322.svetacdn.in/71tsRs29n5tZ/movie/20639"},{"id":20605,"title":"Бессонные ночи","kp_id":null,"imdb_id":"tt6566600","world_art_id":null,"type":"movie","add":"2018-12-10 11:27:57","orig_title":"Sleepless Nights","year":"2016-02-06","translations":["Любительский (многоголосый закадровый) (Колобок)"],"quality":"webdl","translation":"Любительский (многоголосый закадровый) (Колобок)","update":"2018-12-11 23:37:00","iframe_src":"//5322.svetacdn.in/71tsRs29n5tZ/movie/20605"},{"id":19339,"title":"Заговор","kp_id":"89530","imdb_id":"tt0266425","world_art_id":null,"type":"movie","add":"2018-10-03 08:39:40","orig_title":"Conspiracy","year":"2001-05-19","translations":["Профессиональный (многоголосый закадровый)"],"quality":"webdl","translation":"Профессиональный (многоголосый закадровый)","update":"2018-12-12 08:15:03","iframe_src":"//5322.svetacdn.in/71tsRs29n5tZ/movie/19339"},{"id":549,"title":"Однажды в Вегасе","kp_id":"317889","imdb_id":"tt1033643","world_art_id":null,"type":"movie","add":"2016-04-04 20:37:57","orig_title":"What Happens in Vegas","year":"2008-04-22","translations":["Полное дублирование","Original (English)"],"quality":"bd","translation":"Полное дублирование","update":"2018-12-11 13:02:38","iframe_src":"//5322.svetacdn.in/71tsRs29n5tZ/movie/549"},{"id":542,"title":"Вспомнить всё","kp_id":"453374","imdb_id":"tt1386703","world_art_id":null,"type":"movie","add":"2016-04-04 20:05:20","orig_title":"Total Recall","year":"2012-08-02","translations":["Полное дублирование","Original (English)"],"quality":"bd","translation":"Полное дублирование","update":"2018-12-11 12:55:33","iframe_src":"//5322.svetacdn.in/71tsRs29n5tZ/movie/542"},{"id":531,"title":"Трамбо","kp_id":"799728","imdb_id":"tt3203606","world_art_id":null,"type":"movie","add":"2016-04-04 12:16:30","orig_title":"Trumbo","year":"2015-11-25","translations":["Профессиональный (многоголосый закадровый) (iTunes)","Original (English)"],"quality":"bd","translation":"Профессиональный (многоголосый закадровый) (iTunes)","update":"2018-12-11 12:59:09","iframe_src":"//5322.svetacdn.in/71tsRs29n5tZ/movie/531"},{"id":529,"title":"Тронутые","kp_id":"770634","imdb_id":"tt2962876","world_art_id":null,"type":"movie","add":"2016-04-04 12:12:37","orig_title":"The Road Within","year":"2014-06-18","translations":["Любительский (многоголосый закадровый)","Полное дублирование (iTunes)","Original (English)"],"quality":"bd","translation":"Любительский (многоголосый закадровый)","update":"2018-12-11 12:54:41","iframe_src":"//5322.svetacdn.in/71tsRs29n5tZ/movie/529"},{"id":527,"title":"Лес призраков","kp_id":"817679","imdb_id":"tt3387542","world_art_id":null,"type":"movie","add":"2016-04-04 12:04:07","orig_title":"The Forest","year":"2016-01-07","translations":["Полное дублирование (iTunes)","Original (English)"],"quality":"bd","translation":"Полное дублирование (iTunes)","update":"2018-12-11 12:23:21","iframe_src":"//5322.svetacdn.in/71tsRs29n5tZ/movie/527"},{"id":526,"title":"Мальчик","kp_id":"712702","imdb_id":"tt2443822","world_art_id":null,"type":"movie","add":"2016-04-04 12:02:30","orig_title":"The Boy","year":"2015-03-14","translations":["Любительский (одноголосый закадровый)","Original (English)"],"quality":"webdl","translation":"Любительский (одноголосый закадровый)","update":"2018-12-11 12:22:06","iframe_src":"//5322.svetacdn.in/71tsRs29n5tZ/movie/526"},{"id":517,"title":"Зелёный фонарь: Изумрудные рыцари","kp_id":"544794","imdb_id":"tt1683043","world_art_id":null,"type":"movie","add":"2016-04-04 11:37:29","orig_title":"Green Lantern: Emerald Knights","year":"2011-04-09","translations":["Полное дублирование","Original (English)"],"quality":"bd","translation":"Полное дублирование","update":"2018-12-11 13:03:54","iframe_src":"//5322.svetacdn.in/71tsRs29n5tZ/movie/517"},{"id":514,"title":"Турбо","kp_id":"581651","imdb_id":"tt1860353","world_art_id":null,"type":"movie","add":"2016-04-04 11:35:01","orig_title":"Turbo","year":"2013-07-17","translations":["Полное дублирование","Original (English)"],"quality":"bd","translation":"Полное дублирование","update":"2018-12-11 13:00:25","iframe_src":"//5322.svetacdn.in/71tsRs29n5tZ/movie/514"},{"id":497,"title":"История игрушек 2","kp_id":"405","imdb_id":"tt0120363","world_art_id":null,"type":"movie","add":"2016-04-03 22:15:06","orig_title":"Toy Story 2","year":"1999-11-13","translations":["Полное дублирование","Original (English)"],"quality":"bd","translation":"Полное дублирование","update":"2018-12-11 12:56:40","iframe_src":"//5322.svetacdn.in/71tsRs29n5tZ/movie/497"},{"id":478,"title":"Лоракс","kp_id":"470036","imdb_id":"tt1482459","world_art_id":null,"type":"movie","add":"2016-04-02 22:53:16","orig_title":"The Lorax","year":"2012-03-01","translations":["Полное дублирование","Original (English)"],"quality":"bd","translation":"Полное дублирование","update":"2018-12-11 12:53:17","iframe_src":"//5322.svetacdn.in/71tsRs29n5tZ/movie/478"},{"id":475,"title":"История игрушек","kp_id":"482","imdb_id":"tt0114709","world_art_id":null,"type":"movie","add":"2016-04-02 22:37:04","orig_title":"Toy Story","year":"1995-11-19","translations":["Полное дублирование","Original (English)"],"quality":"bd","translation":"Полное дублирование","update":"2018-12-11 12:58:21","iframe_src":"//5322.svetacdn.in/71tsRs29n5tZ/movie/475"},{"id":473,"title":"Суперсемейка","kp_id":"38903","imdb_id":"tt0317705","world_art_id":null,"type":"movie","add":"2016-04-02 22:27:53","orig_title":"The Incredibles","year":"2004-10-27","translations":["Полное дублирование","Original (English)"],"quality":"bd","translation":"Полное дублирование","update":"2018-12-11 12:52:05","iframe_src":"//5322.svetacdn.in/71tsRs29n5tZ/movie/473"},{"id":470,"title":"ВАЛЛ-И","kp_id":"279102","imdb_id":"tt0910970","world_art_id":null,"type":"movie","add":"2016-04-02 22:12:01","orig_title":"WALL·E","year":"2008-06-23","translations":["Полное дублирование","Original (English)"],"quality":"bd","translation":"Полное дублирование","update":"2018-12-11 13:01:42","iframe_src":"//5322.svetacdn.in/71tsRs29n5tZ/movie/470"},{"id":468,"title":"Семейка монстров","kp_id":"464379","imdb_id":"tt0787474","world_art_id":null,"type":"movie","add":"2016-04-02 22:04:19","orig_title":"The Boxtrolls","year":"2014-08-31","translations":["Полное дублирование","Original (English)"],"quality":"bd","translation":"Полное дублирование","update":"2018-12-11 12:21:07","iframe_src":"//5322.svetacdn.in/71tsRs29n5tZ/movie/468"}],"current_page":1653,"first_page_url":"https://videocdn.tv/api/short?limit=100&api_token=EnbO9h8pv1VyjbCJhg0WM9nG259n7mtz&cache31653=31653&page=1","from":165201,"last_page":621,"last_page_url":"https://videocdn.tv/api/short?limit=100&api_token=EnbO9h8pv1VyjbCJhg0WM9nG259n7mtz&cache31653=31653&page=621","next_page_url":null,"path":"https://videocdn.tv/api/short","per_page":100,"prev_page_url":"https://videocdn.tv/api/short?limit=100&api_token=EnbO9h8pv1VyjbCJhg0WM9nG259n7mtz&cache31653=31653&page=1652","to":165220,"total":62040}