{"result":true,"data":[{"id":38624,"title":"Сальса: начало","kp_id":"964246","imdb_id":"tt5362210","world_art_id":null,"type":"movie","add":"2020-03-27 20:10:28","orig_title":"Strictly Salsa: The Beginning","year":"2019-09-13","translations":["Любительский (многоголосый закадровый) (Синема УС)"],"quality":"webdl","translation":"Любительский (многоголосый закадровый) (Синема УС)","update":"2020-03-28 05:36:55","iframe_src":"//83.svetacdn.in/PfJ50H0ZBPg3/movie/38624"},{"id":38623,"title":"Лучше забей","kp_id":"1302901","imdb_id":null,"world_art_id":null,"type":"movie","add":"2020-03-27 19:47:38","orig_title":"Лучше забей","year":"2019-01-01","translations":["Оригинальная дорожка"],"quality":"webdl","translation":"Оригинальная дорожка","update":"2020-03-28 11:16:48","iframe_src":"//83.svetacdn.in/PfJ50H0ZBPg3/movie/38623"},{"id":38621,"title":"Будь естественным: Нерассказанная история Алис Ги-Блаше","kp_id":"930530","imdb_id":"tt3146022","world_art_id":null,"type":"movie","add":"2020-03-27 15:23:57","orig_title":"Be Natural: The Untold Story of Alice Guy-Blaché","year":"2018-05-11","translations":["Любительский (многоголосый закадровый) (Синема УС)"],"quality":"webdl","translation":"Любительский (многоголосый закадровый) (Синема УС)","update":"2020-03-28 16:12:04","iframe_src":"//83.svetacdn.in/PfJ50H0ZBPg3/movie/38621"},{"id":38618,"title":"На правильной стороне","kp_id":"983299","imdb_id":"tt5762006","world_art_id":null,"type":"movie","add":"2020-03-27 15:15:54","orig_title":"Sustained","year":"2017-07-23","translations":["Любительский (многоголосый закадровый) (Синема УС)"],"quality":"webdl","translation":"Любительский (многоголосый закадровый) (Синема УС)","update":"2020-03-28 11:18:38","iframe_src":"//83.svetacdn.in/PfJ50H0ZBPg3/movie/38618"},{"id":38616,"title":"Звезда по соседству","kp_id":"1047824","imdb_id":"tt8661098","world_art_id":null,"type":"movie","add":"2020-03-27 15:14:37","orig_title":"Iutjip seuta","year":"2017-09-19","translations":["Любительский (многоголосый закадровый) (Синема УС)"],"quality":"webdl","translation":"Любительский (многоголосый закадровый) (Синема УС)","update":"2020-03-28 11:17:45","iframe_src":"//83.svetacdn.in/PfJ50H0ZBPg3/movie/38616"},{"id":38615,"title":"Мартышки в космосе: Ответный удар","kp_id":"484858","imdb_id":"tt1537481","world_art_id":null,"type":"movie","add":"2020-03-27 12:51:51","orig_title":"Space Chimps 2: Zartog Strikes Back","year":"2010-05-28","translations":["Полное дублирование"],"quality":"bd","translation":"Полное дублирование","update":"2020-03-27 23:02:28","iframe_src":"//83.svetacdn.in/PfJ50H0ZBPg3/movie/38615"},{"id":38608,"title":"Королева слонов","kp_id":"1311125","imdb_id":"tt6722976","world_art_id":null,"type":"movie","add":"2020-03-27 09:20:59","orig_title":"The Elephant Queen","year":"2019-01-27","translations":["Профессиональный (одноголосый закадровый)"],"quality":"webdl","translation":"Профессиональный (одноголосый закадровый)","update":"2020-03-28 17:02:30","iframe_src":"//83.svetacdn.in/PfJ50H0ZBPg3/movie/38608"},{"id":38607,"title":"13 разговоров об одном","kp_id":"857","imdb_id":"tt0268690","world_art_id":null,"type":"movie","add":"2020-03-27 09:17:14","orig_title":"Thirteen Conversations About One Thing","year":"2001-09-02","translations":["Профессиональный (многоголосый закадровый)"],"quality":"dvdrip","translation":"Профессиональный (многоголосый закадровый)","update":"2020-03-28 17:02:03","iframe_src":"//83.svetacdn.in/PfJ50H0ZBPg3/movie/38607"},{"id":38571,"title":"Том-учитель","kp_id":"208655","imdb_id":"tt0040712","world_art_id":null,"type":"movie","add":"2020-03-26 14:55:03","orig_title":"Professor Tom","year":"1948-10-30","translations":["Профессиональный (двухголосый закадровый) (студия \"Омикрон\")"],"quality":"bd","translation":"Профессиональный (двухголосый закадровый) (студия \"Омикрон\")","update":"2020-03-27 23:01:38","iframe_src":"//83.svetacdn.in/PfJ50H0ZBPg3/movie/38571"},{"id":38570,"title":"Старый, добрый Том","kp_id":"205537","imdb_id":"tt0040661","world_art_id":null,"type":"movie","add":"2020-03-26 14:53:21","orig_title":"Old Rockin' Chair Tom","year":"1948-09-18","translations":["Профессиональный (двухголосый закадровый) (студия \"Омикрон\")"],"quality":"bd","translation":"Профессиональный (двухголосый закадровый) (студия \"Омикрон\")","update":"2020-03-27 23:00:47","iframe_src":"//83.svetacdn.in/PfJ50H0ZBPg3/movie/38570"},{"id":38569,"title":"Мирный договор","kp_id":"208656","imdb_id":"tt0040907","world_art_id":null,"type":"movie","add":"2020-03-26 14:52:09","orig_title":"The Truce Hurts","year":"1948-07-17","translations":["Профессиональный (двухголосый закадровый) (студия \"Омикрон\")"],"quality":"bd","translation":"Профессиональный (двухголосый закадровый) (студия \"Омикрон\")","update":"2020-03-27 23:00:21","iframe_src":"//83.svetacdn.in/PfJ50H0ZBPg3/movie/38569"},{"id":38568,"title":"Надо друга выручать","kp_id":"202852","imdb_id":"tt0040515","world_art_id":null,"type":"movie","add":"2020-03-26 14:51:05","orig_title":"Kitty Foiled","year":"1948-05-29","translations":["Профессиональный (двухголосый закадровый) (студия \"Омикрон\")"],"quality":"bd","translation":"Профессиональный (двухголосый закадровый) (студия \"Омикрон\")","update":"2020-03-27 23:00:03","iframe_src":"//83.svetacdn.in/PfJ50H0ZBPg3/movie/38568"},{"id":38567,"title":"Мышонок-невидимка","kp_id":"202853","imdb_id":"tt0039497","world_art_id":null,"type":"movie","add":"2020-03-26 14:50:04","orig_title":"The Invisible Mouse","year":"1947-09-27","translations":["Профессиональный (двухголосый закадровый) (студия \"Омикрон\")"],"quality":"bd","translation":"Профессиональный (двухголосый закадровый) (студия \"Омикрон\")","update":"2020-03-27 23:00:00","iframe_src":"//83.svetacdn.in/PfJ50H0ZBPg3/movie/38567"},{"id":38566,"title":"Если в доме завелись мыши","kp_id":"221822","imdb_id":"tt0039637","world_art_id":null,"type":"movie","add":"2020-03-26 14:48:58","orig_title":"A Mouse in the House","year":"1947-08-30","translations":["Профессиональный (двухголосый закадровый) (студия \"Омикрон\")"],"quality":"bd","translation":"Профессиональный (двухголосый закадровый) (студия \"Омикрон\")","update":"2020-03-27 22:59:58","iframe_src":"//83.svetacdn.in/PfJ50H0ZBPg3/movie/38566"},{"id":38565,"title":"Приключения на пляже","kp_id":"202854","imdb_id":"tt0039796","world_art_id":null,"type":"movie","add":"2020-03-26 14:47:39","orig_title":"Salt Water Tabby","year":"1947-07-12","translations":["Профессиональный (двухголосый закадровый) (студия \"Омикрон\")"],"quality":"bd","translation":"Профессиональный (двухголосый закадровый) (студия \"Омикрон\")","update":"2020-03-27 22:59:58","iframe_src":"//83.svetacdn.in/PfJ50H0ZBPg3/movie/38565"},{"id":38564,"title":"Доктор Джекилл и мистер Мышь","kp_id":"220872","imdb_id":"tt0039338","world_art_id":null,"type":"movie","add":"2020-03-26 14:46:35","orig_title":"Dr. Jekyll and Mr. Mouse","year":"1947-06-14","translations":["Профессиональный (двухголосый закадровый) (студия \"Омикрон\")"],"quality":"bd","translation":"Профессиональный (двухголосый закадровый) (студия \"Омикрон\")","update":"2020-03-27 22:59:56","iframe_src":"//83.svetacdn.in/PfJ50H0ZBPg3/movie/38564"},{"id":34761,"title":"Серхио и Сергей","kp_id":"1029897","imdb_id":"tt6131208","world_art_id":null,"type":"movie","add":"2020-01-05 11:14:25","orig_title":"Sergio & Serguéi","year":"2018-04-20","translations":["Профессиональный (многоголосый закадровый)","Профессиональный (многоголосый закадровый) (Good People)"],"quality":"webdl","translation":"Профессиональный (многоголосый закадровый)","update":"2020-03-28 11:12:27","iframe_src":"//83.svetacdn.in/PfJ50H0ZBPg3/movie/34761"},{"id":30892,"title":"Звук тишины","kp_id":"1217312","imdb_id":"tt9352926","world_art_id":null,"type":"movie","add":"2019-09-15 20:40:48","orig_title":"The Sound of Silence","year":"2019-01-26","translations":["Любительский (многоголосый закадровый) (Синема УС)","Профессиональный (многоголосый закадровый) (Good People)"],"quality":"webdl","translation":"Любительский (многоголосый закадровый) (Синема УС)","update":"2020-03-28 11:18:08","iframe_src":"//83.svetacdn.in/PfJ50H0ZBPg3/movie/30892"},{"id":13658,"title":"Дитя во времени","kp_id":"1043946","imdb_id":"tt6540078","world_art_id":null,"type":"movie","add":"2017-09-28 05:01:35","orig_title":"The Child in Time","year":"2017-09-24","translations":["Любительский (многоголосый закадровый) (Синема УС)","Профессиональный (многоголосый закадровый) (GreenРай Studio)","Профессиональный (многоголосый закадровый) (Jaskier)","Профессиональный (многоголосый закадровый) (Первый канал | ОРТ)","Профессиональный (многоголосый закадровый) (Good People)"],"quality":"hdtv","translation":"Любительский (многоголосый закадровый) (Синема УС)","update":"2020-03-28 16:11:39","iframe_src":"//83.svetacdn.in/PfJ50H0ZBPg3/movie/13658"},{"id":12291,"title":"Паломничество","kp_id":"893498","imdb_id":"tt3531202","world_art_id":null,"type":"movie","add":"2017-07-04 22:00:34","orig_title":"Pilgrimage","year":"2017-04-23","translations":["Любительский (многоголосый закадровый) (@MUZOBOZ@)","Профессиональный (многоголосый закадровый) (GreenРай Studio)","Профессиональный (многоголосый закадровый) (Good People)"],"quality":"webdl","translation":"Любительский (многоголосый закадровый) (@MUZOBOZ@)","update":"2020-03-28 16:12:29","iframe_src":"//83.svetacdn.in/PfJ50H0ZBPg3/movie/12291"}],"current_page":666,"first_page_url":"https://videocdn.tv/api/short?limit=100&api_token=RgFQdUIR2dRmwv8iYa5SnFNgnw3vpjKj&cache3666=3666&page=1","from":66501,"last_page":608,"last_page_url":"https://videocdn.tv/api/short?limit=100&api_token=RgFQdUIR2dRmwv8iYa5SnFNgnw3vpjKj&cache3666=3666&page=608","next_page_url":null,"path":"https://videocdn.tv/api/short","per_page":100,"prev_page_url":"https://videocdn.tv/api/short?limit=100&api_token=RgFQdUIR2dRmwv8iYa5SnFNgnw3vpjKj&cache3666=3666&page=665","to":66520,"total":60708}