{"result":true,"data":[{"id":36435,"title":"Кентервильское привидение","kp_id":"271984","imdb_id":"tt0090792","world_art_id":null,"type":"movie","add":"2020-02-17 19:59:21","orig_title":"The Canterville Ghost","year":"1987-02-23","translations":["Профессиональный (многоголосый закадровый)"],"quality":"dvdrip","translation":"Профессиональный (многоголосый закадровый)","update":"2020-02-18 05:33:55","iframe_src":"//5322.svetacdn.in/IAF0wWTdNYZm/movie/36435"},{"id":36434,"title":"Холод в сердце","kp_id":"22229","imdb_id":"tt0118870","world_art_id":null,"type":"movie","add":"2020-02-17 19:54:38","orig_title":"Cold Around the Heart","year":"1997-11-07","translations":["Профессиональный (многоголосый закадровый) (Первый канал | ОРТ)"],"quality":"webdl","translation":"Профессиональный (многоголосый закадровый) (Первый канал | ОРТ)","update":"2020-02-18 05:33:18","iframe_src":"//5322.svetacdn.in/IAF0wWTdNYZm/movie/36434"},{"id":36433,"title":"Ты и я","kp_id":"80158","imdb_id":"tt0378072","world_art_id":null,"type":"movie","add":"2020-02-17 19:52:23","orig_title":"Hum Tum","year":"2004-05-28","translations":["Профессиональный (многоголосый закадровый)"],"quality":"bd","translation":"Профессиональный (многоголосый закадровый)","update":"2020-02-18 05:32:49","iframe_src":"//5322.svetacdn.in/IAF0wWTdNYZm/movie/36433"},{"id":36379,"title":"Солдат","kp_id":"265789","imdb_id":"tt0843372","world_art_id":null,"type":"movie","add":"2020-02-16 21:07:05","orig_title":"Sainikudu","year":"2006-11-30","translations":["Профессиональный (многоголосый закадровый) (Red Media)"],"quality":"hddvd","translation":"Профессиональный (многоголосый закадровый) (Red Media)","update":"2020-02-18 06:43:10","iframe_src":"//5322.svetacdn.in/IAF0wWTdNYZm/movie/36379"},{"id":36378,"title":"Пропавшее воскресенье","kp_id":"325677","imdb_id":"tt1039989","world_art_id":null,"type":"movie","add":"2020-02-16 21:04:04","orig_title":"Sunday","year":"2008-01-25","translations":["Профессиональный (двухголосый закадровый)"],"quality":"webdl","translation":"Профессиональный (двухголосый закадровый)","update":"2020-02-18 06:42:30","iframe_src":"//5322.svetacdn.in/IAF0wWTdNYZm/movie/36378"},{"id":36377,"title":"Безработный с дипломом","kp_id":"843014","imdb_id":"tt3822396","world_art_id":null,"type":"movie","add":"2020-02-16 21:00:59","orig_title":"Velaiilla Pattadhari","year":"2014-07-18","translations":["Любительский (многоголосый закадровый)"],"quality":"webdl","translation":"Любительский (многоголосый закадровый)","update":"2020-02-18 06:41:38","iframe_src":"//5322.svetacdn.in/IAF0wWTdNYZm/movie/36377"},{"id":36376,"title":"Великое ограбление","kp_id":"98038","imdb_id":"tt0187096","world_art_id":null,"type":"movie","add":"2020-02-16 20:58:30","orig_title":"Govindha Govindha","year":"1996-05-10","translations":["Профессиональный (многоголосый закадровый) (ZEE TV)"],"quality":"webdl","translation":"Профессиональный (многоголосый закадровый) (ZEE TV)","update":"2020-02-18 06:40:16","iframe_src":"//5322.svetacdn.in/IAF0wWTdNYZm/movie/36376"},{"id":36375,"title":"Укрощение строптивой","kp_id":"99287","imdb_id":"tt0247502","world_art_id":null,"type":"movie","add":"2020-02-16 20:55:08","orig_title":"Manchali","year":"1973-10-26","translations":["Любительский (одноголосый закадровый)"],"quality":"dvdrip","translation":"Любительский (одноголосый закадровый)","update":"2020-02-18 06:39:26","iframe_src":"//5322.svetacdn.in/IAF0wWTdNYZm/movie/36375"},{"id":36374,"title":"Во имя Бога","kp_id":"392298","imdb_id":"tt1068956","world_art_id":null,"type":"movie","add":"2020-02-16 20:52:09","orig_title":"Khuda Kay Liye","year":"2007-07-07","translations":["Профессиональный (многоголосый закадровый)"],"quality":"iptv","translation":"Профессиональный (многоголосый закадровый)","update":"2020-02-18 06:38:18","iframe_src":"//5322.svetacdn.in/IAF0wWTdNYZm/movie/36374"},{"id":36372,"title":"Земля Бансилала","kp_id":"220207","imdb_id":"tt0304204","world_art_id":null,"type":"movie","add":"2020-02-16 20:44:09","orig_title":"Isi Ka Naam Zindagi","year":"1992-01-01","translations":["Профессиональный (многоголосый закадровый)"],"quality":"dvdrip","translation":"Профессиональный (многоголосый закадровый)","update":"2020-02-18 06:36:06","iframe_src":"//5322.svetacdn.in/IAF0wWTdNYZm/movie/36372"},{"id":36371,"title":"Безработный с дипломом 2","kp_id":"1059851","imdb_id":"tt7019812","world_art_id":null,"type":"movie","add":"2020-02-16 20:40:41","orig_title":"Velaiilla Pattadhari 2","year":"2017-08-11","translations":["Любительский (двухголосый закадровый)"],"quality":"webdl","translation":"Любительский (двухголосый закадровый)","update":"2020-02-18 06:35:13","iframe_src":"//5322.svetacdn.in/IAF0wWTdNYZm/movie/36371"},{"id":36370,"title":"Священный амулет","kp_id":"39661","imdb_id":"tt0366985","world_art_id":null,"type":"movie","add":"2020-02-16 20:37:39","orig_title":"Rudraksh","year":"2004-02-13","translations":["Профессиональный (двухголосый закадровый)"],"quality":"dvdrip","translation":"Профессиональный (двухголосый закадровый)","update":"2020-02-18 06:34:16","iframe_src":"//5322.svetacdn.in/IAF0wWTdNYZm/movie/36370"},{"id":36356,"title":"Смертельная лиса","kp_id":"1051460","imdb_id":"tt7494060","world_art_id":null,"type":"movie","add":"2020-02-16 19:27:20","orig_title":"The Extreme Fox","year":"2014-07-01","translations":["Любительский (двухголосый закадровый)"],"quality":"webdl","translation":"Любительский (двухголосый закадровый)","update":"2020-02-18 06:32:40","iframe_src":"//5322.svetacdn.in/IAF0wWTdNYZm/movie/36356"},{"id":36285,"title":"Луна в окружении звезд","kp_id":"180711","imdb_id":"tt0483980","world_art_id":null,"type":"movie","add":"2020-02-14 22:35:20","orig_title":"Chukkallo Chandrudu","year":"2006-01-14","translations":["Профессиональный (многоголосый закадровый)"],"quality":"webdl","translation":"Профессиональный (многоголосый закадровый)","update":"2020-02-18 06:31:15","iframe_src":"//5322.svetacdn.in/IAF0wWTdNYZm/movie/36285"},{"id":36284,"title":"Стена","kp_id":"78552","imdb_id":"tt0072860","world_art_id":null,"type":"movie","add":"2020-02-14 22:32:18","orig_title":"Deewaar","year":"1975-01-24","translations":["Профессиональный (многоголосый закадровый)"],"quality":"bd","translation":"Профессиональный (многоголосый закадровый)","update":"2020-02-18 06:30:19","iframe_src":"//5322.svetacdn.in/IAF0wWTdNYZm/movie/36284"},{"id":36283,"title":"Гоутам и Нанда","kp_id":"1057294","imdb_id":"tt7128254","world_art_id":null,"type":"movie","add":"2020-02-14 22:27:22","orig_title":"Goutham Nanda","year":"2017-07-27","translations":["Любительский (двухголосый закадровый) (DeadSno & den904)"],"quality":"webdl","translation":"Любительский (двухголосый закадровый) (DeadSno & den904)","update":"2020-02-18 06:27:18","iframe_src":"//5322.svetacdn.in/IAF0wWTdNYZm/movie/36283"},{"id":36282,"title":"Дом-призрак","kp_id":"586300","imdb_id":"tt1887763","world_art_id":null,"type":"movie","add":"2020-02-14 22:24:28","orig_title":"Haunted - 3D","year":"2011-05-06","translations":["Любительский (многоголосый закадровый) (ICG)"],"quality":"bd","translation":"Любительский (многоголосый закадровый) (ICG)","update":"2020-02-18 06:13:33","iframe_src":"//5322.svetacdn.in/IAF0wWTdNYZm/movie/36282"},{"id":29847,"title":"Затянувшаяся расплата","kp_id":"677424","imdb_id":"tt2357489","world_art_id":null,"type":"movie","add":"2019-08-08 13:13:46","orig_title":"Zanjeer","year":"2013-09-05","translations":["Профессиональный (многоголосый закадровый) (ZEE TV)"],"quality":"webdl","translation":"Профессиональный (многоголосый закадровый) (ZEE TV)","update":"2020-02-18 06:37:29","iframe_src":"//5322.svetacdn.in/IAF0wWTdNYZm/movie/29847"},{"id":12999,"title":"Справедливый человек","kp_id":"962326","imdb_id":"tt5457772","world_art_id":null,"type":"movie","add":"2017-08-17 04:21:01","orig_title":"Sarrainodu","year":"2016-04-21","translations":["Профессиональный (многоголосый закадровый) (SDI Media)"],"quality":"webdl","translation":"Профессиональный (многоголосый закадровый) (SDI Media)","update":"2020-02-18 06:46:53","iframe_src":"//5322.svetacdn.in/IAF0wWTdNYZm/movie/12999"},{"id":12054,"title":"Солдат","kp_id":"722309","imdb_id":"tt2556308","world_art_id":null,"type":"movie","add":"2017-06-20 04:49:29","orig_title":"Holiday","year":"2014-06-05","translations":["Профессиональный (многоголосый закадровый) (ZEE TV)","Любительский (многоголосый закадровый) (ICG)"],"quality":"bd","translation":"Профессиональный (многоголосый закадровый) (ZEE TV)","update":"2020-02-18 06:11:41","iframe_src":"//5322.svetacdn.in/IAF0wWTdNYZm/movie/12054"}],"current_page":876,"first_page_url":"https://videocdn.tv/api/short?limit=100&api_token=6Onb1W1alEUrBcKJZD3GoKBbWyAl2uG2&cache3876=3876&page=1","from":87501,"last_page":626,"last_page_url":"https://videocdn.tv/api/short?limit=100&api_token=6Onb1W1alEUrBcKJZD3GoKBbWyAl2uG2&cache3876=3876&page=626","next_page_url":null,"path":"https://videocdn.tv/api/short","per_page":100,"prev_page_url":"https://videocdn.tv/api/short?limit=100&api_token=6Onb1W1alEUrBcKJZD3GoKBbWyAl2uG2&cache3876=3876&page=875","to":87520,"total":62573}