{"result":true,"data":[{"id":51306,"title":"Дом","kp_id":"1195087","imdb_id":"tt9001594","world_art_id":null,"type":"movie","add":"2021-06-20 11:47:07","orig_title":"Home","year":"2020-12-15","translations":["Любительский (многоголосый закадровый) (AlphaProject)"],"quality":"webdl","translation":"Любительский (многоголосый закадровый) (AlphaProject)","update":"2021-06-20 22:37:57","iframe_src":"//5091.svetacdn.in/si4jsFRrtgrT/movie/51306"},{"id":51305,"title":"Пожиратели надежд","kp_id":"960426","imdb_id":"tt3727970","world_art_id":null,"type":"movie","add":"2021-06-20 11:36:49","orig_title":"Hopekillers","year":"2021-01-01","translations":["Любительский (многоголосый закадровый) (Синема УС)"],"quality":"webdl","translation":"Любительский (многоголосый закадровый) (Синема УС)","update":"2021-06-20 22:37:23","iframe_src":"//5091.svetacdn.in/si4jsFRrtgrT/movie/51305"},{"id":51303,"title":"Холостяк на свадьбе","kp_id":"1367879","imdb_id":"tt12105554","world_art_id":null,"type":"movie","add":"2021-06-20 11:27:48","orig_title":"Le discours","year":"2020-09-01","translations":["Любительский (двухголосый закадровый) (Колобок)"],"quality":"ts","translation":"Любительский (двухголосый закадровый) (Колобок)","update":"2021-06-20 22:36:46","iframe_src":"//5091.svetacdn.in/si4jsFRrtgrT/movie/51303"},{"id":51302,"title":"Ночной доктор","kp_id":"1355621","imdb_id":"tt11967116","world_art_id":null,"type":"movie","add":"2021-06-20 11:24:35","orig_title":"Un médecin de nuit","year":"2020-08-31","translations":["Любительский (двухголосый закадровый) (Колобок)"],"quality":"ts","translation":"Любительский (двухголосый закадровый) (Колобок)","update":"2021-06-20 22:36:12","iframe_src":"//5091.svetacdn.in/si4jsFRrtgrT/movie/51302"},{"id":51296,"title":"Следующая","kp_id":"1331518","imdb_id":"tt11423214","world_art_id":null,"type":"movie","add":"2021-06-20 02:51:28","orig_title":"Girl Next","year":"2021-06-18","translations":["Любительский (многоголосый закадровый) (@MUZOBOZ@)"],"quality":"webdl","translation":"Любительский (многоголосый закадровый) (@MUZOBOZ@)","update":"2021-06-21 04:38:49","iframe_src":"//5091.svetacdn.in/si4jsFRrtgrT/movie/51296"},{"id":51291,"title":"Внезапная любовь","kp_id":"1321404","imdb_id":"tt11294756","world_art_id":null,"type":"movie","add":"2021-06-20 02:45:58","orig_title":"Auf einmal war es Liebe","year":"2019-12-06","translations":["Любительский (многоголосый закадровый) (Синема УС)"],"quality":"webdl","translation":"Любительский (многоголосый закадровый) (Синема УС)","update":"2021-06-21 04:38:31","iframe_src":"//5091.svetacdn.in/si4jsFRrtgrT/movie/51291"},{"id":51289,"title":"Ленни — чудо собака!","kp_id":"47038","imdb_id":"tt0374621","world_art_id":null,"type":"movie","add":"2021-06-19 16:27:27","orig_title":"Lenny the Wonder Dog","year":"2005-12-05","translations":["Профессиональный (многоголосый закадровый)"],"quality":"dvdrip","translation":"Профессиональный (многоголосый закадровый)","update":"2021-06-21 06:45:56","iframe_src":"//5091.svetacdn.in/si4jsFRrtgrT/movie/51289"},{"id":51287,"title":"Страница 16","kp_id":"1123701","imdb_id":"tt7997646","world_art_id":null,"type":"movie","add":"2021-06-19 09:39:35","orig_title":"Page 16","year":"2018-08-10","translations":["Любительский (многоголосый закадровый) (Синема УС)"],"quality":"webdl","translation":"Любительский (многоголосый закадровый) (Синема УС)","update":"2021-06-20 21:50:13","iframe_src":"//5091.svetacdn.in/si4jsFRrtgrT/movie/51287"},{"id":51286,"title":"Отставной","kp_id":"1352135","imdb_id":"tt11199856","world_art_id":null,"type":"movie","add":"2021-06-19 09:38:01","orig_title":"Apostratos","year":"2019-11-04","translations":["Любительский (многоголосый закадровый) (Синема УС)"],"quality":"webdl","translation":"Любительский (многоголосый закадровый) (Синема УС)","update":"2021-06-20 21:27:19","iframe_src":"//5091.svetacdn.in/si4jsFRrtgrT/movie/51286"},{"id":51284,"title":"Перед Ночью","kp_id":"1084617","imdb_id":"tt7066896","world_art_id":null,"type":"movie","add":"2021-06-19 09:33:48","orig_title":"Prima che la notte","year":"2018-05-23","translations":["Любительский (многоголосый закадровый) (AlphaProject)"],"quality":"webdl","translation":"Любительский (многоголосый закадровый) (AlphaProject)","update":"2021-06-20 21:26:07","iframe_src":"//5091.svetacdn.in/si4jsFRrtgrT/movie/51284"},{"id":50644,"title":"Хищники","kp_id":"4419513","imdb_id":"tt13863334","world_art_id":null,"type":"movie","add":"2021-05-25 08:50:16","orig_title":"Endangered Species","year":"2021-05-28","translations":["Original (English)","Любительский (многоголосый закадровый) (Синема УС)","Полное дублирование (iTunes)"],"quality":"bd","translation":"Original (English)","update":"2021-06-21 12:34:31","iframe_src":"//5091.svetacdn.in/si4jsFRrtgrT/movie/50644"},{"id":50176,"title":"Земля дрожит","kp_id":"57040","imdb_id":"tt0040866","world_art_id":null,"type":"movie","add":"2021-05-06 07:06:35","orig_title":"La terra trema","year":"1948-09-02","translations":["Профессиональный (двухголосый закадровый) (СВ-Дубль)","Любительский (одноголосый закадровый)","Профессиональный (многоголосый закадровый) (Акцент)","Профессиональный (многоголосый закадровый) (Кармен Видео)"],"quality":"bd","translation":"Профессиональный (двухголосый закадровый) (СВ-Дубль)","update":"2021-06-21 06:18:23","iframe_src":"//5091.svetacdn.in/si4jsFRrtgrT/movie/50176"},{"id":44320,"title":"Колумнистка","kp_id":"1236656","imdb_id":"tt9695308","world_art_id":null,"type":"movie","add":"2020-10-11 21:57:25","orig_title":"De kuthoer","year":"2019-12-20","translations":["Профессиональный (многоголосый закадровый) (iTunes)"],"quality":"webdl","translation":"Профессиональный (многоголосый закадровый) (iTunes)","update":"2021-06-21 12:42:36","iframe_src":"//5091.svetacdn.in/si4jsFRrtgrT/movie/44320"},{"id":8691,"title":"Matchday: Изнутри ФК Барселона","kp_id":"1320880","imdb_id":"tt11122508","world_art_id":null,"type":"serial","add":"2020-09-10 18:59:21","orig_title":"Matchday: Inside FC Barcelona","year":"2019-11-29","translations":["Любительский (многоголосый закадровый) (ColdFilm)"],"seasons_count":1,"episodes_count":8,"episodes":8,"update":"2020-09-11 05:39:01","iframe_src":"//5091.svetacdn.in/si4jsFRrtgrT/tv-series/8691"},{"id":8690,"title":"Бойкот","kp_id":"1380178","imdb_id":"tt11268644","world_art_id":null,"type":"serial","add":"2020-09-10 18:28:43","orig_title":"Blackballed","year":"2020-05-18","translations":["Любительский (многоголосый закадровый) (ColdFilm)"],"seasons_count":1,"episodes_count":12,"episodes":12,"update":"2020-09-10 20:54:28","iframe_src":"//5091.svetacdn.in/si4jsFRrtgrT/tv-series/8690"},{"id":8689,"title":"Уличная еда: Латинская Америка","kp_id":"1395640","imdb_id":"tt12742136","world_art_id":null,"type":"serial","add":"2020-09-10 18:26:29","orig_title":"Street Food: Latin Americatt12742136","year":"2020-07-21","translations":["Любительский (многоголосый закадровый) (ColdFilm)"],"seasons_count":1,"episodes_count":6,"episodes":6,"update":"2020-09-10 20:48:43","iframe_src":"//5091.svetacdn.in/si4jsFRrtgrT/tv-series/8689"},{"id":8688,"title":"По острию ножа","kp_id":"519095","imdb_id":"tt1107290","world_art_id":null,"type":"serial","add":"2020-09-10 17:15:15","orig_title":"Sur le fil","year":"2007-09-28","translations":["Любительский (многоголосый закадровый) (WestFilm)"],"seasons_count":3,"episodes_count":17,"episodes":6,"update":"2020-09-11 11:40:11","iframe_src":"//5091.svetacdn.in/si4jsFRrtgrT/tv-series/8688"},{"id":8687,"title":"Задверье","kp_id":"402991","imdb_id":"tt0115288","world_art_id":null,"type":"serial","add":"2020-09-10 15:52:13","orig_title":"Neverwhere","year":"1996-09-12","translations":["Любительский (одноголосый закадровый) (Саня Белый)"],"seasons_count":1,"episodes_count":6,"episodes":6,"update":"2020-09-11 10:34:28","iframe_src":"//5091.svetacdn.in/si4jsFRrtgrT/tv-series/8687"},{"id":8686,"title":"Цветы жизни","kp_id":"1311408","imdb_id":"tt9894434","world_art_id":null,"type":"serial","add":"2020-09-10 15:19:38","orig_title":"Faites des gosses","year":"2019-09-14","translations":["Любительский (многоголосый закадровый) (WestFilm)"],"seasons_count":1,"episodes_count":6,"episodes":6,"update":"2020-09-11 10:44:43","iframe_src":"//5091.svetacdn.in/si4jsFRrtgrT/tv-series/8686"},{"id":8678,"title":"Детективы","kp_id":"789766","imdb_id":"tt2980074","world_art_id":null,"type":"serial","add":"2020-09-10 06:51:30","orig_title":"Détectives","year":"2013-05-22","translations":["Любительский (многоголосый закадровый) (WestFilm)"],"seasons_count":1,"episodes_count":8,"episodes":8,"update":"2020-09-11 05:44:59","iframe_src":"//5091.svetacdn.in/si4jsFRrtgrT/tv-series/8678"},{"id":8673,"title":"За Сару","kp_id":null,"imdb_id":"tt4884714","world_art_id":null,"type":"serial","add":"2020-09-09 10:11:35","orig_title":"Pour Sarah","year":"2015-09-21","translations":["Любительский (многоголосый закадровый) (WestFilm)"],"seasons_count":1,"episodes_count":10,"episodes":10,"update":"2020-09-11 10:27:33","iframe_src":"//5091.svetacdn.in/si4jsFRrtgrT/tv-series/8673"},{"id":8671,"title":"Современный фермер","kp_id":"841479","imdb_id":"tt4135572","world_art_id":null,"type":"serial","add":"2020-09-09 08:26:05","orig_title":"Modern Farmer","year":"2014-10-18","translations":["Любительский (двухголосый закадровый) (GREEN TEA)"],"seasons_count":1,"episodes_count":20,"episodes":20,"update":"2020-09-11 13:15:30","iframe_src":"//5091.svetacdn.in/si4jsFRrtgrT/tv-series/8671"},{"id":8667,"title":"Валентина","kp_id":"520579","imdb_id":"tt0211879","world_art_id":null,"type":"serial","add":"2020-09-09 06:02:56","orig_title":"Valentina","year":"1993-01-01","translations":["Любительский (одноголосый закадровый) (Мадлен Дюваль)"],"seasons_count":1,"episodes_count":80,"episodes":80,"update":"2020-09-10 20:43:57","iframe_src":"//5091.svetacdn.in/si4jsFRrtgrT/tv-series/8667"},{"id":8666,"title":"Каприз","kp_id":"523273","imdb_id":"tt0212651","world_art_id":null,"type":"serial","add":"2020-09-08 20:08:49","orig_title":"Capricho","year":"1993-01-11","translations":["Любительский (одноголосый закадровый) (Мадлен Дюваль)"],"seasons_count":1,"episodes_count":80,"episodes":80,"update":"2020-09-10 07:52:59","iframe_src":"//5091.svetacdn.in/si4jsFRrtgrT/tv-series/8666"},{"id":8665,"title":"Сила желания","kp_id":"1040566","imdb_id":"tt6491190","world_art_id":null,"type":"serial","add":"2020-09-08 19:04:33","orig_title":"A Força do Querer","year":"2017-04-03","translations":["Любительский (двухголосый закадровый) (AveBrasil)"],"seasons_count":1,"episodes_count":91,"episodes":91,"update":"2020-09-09 19:43:19","iframe_src":"//5091.svetacdn.in/si4jsFRrtgrT/tv-series/8665"},{"id":8655,"title":"Двойная жизнь","kp_id":"1217307","imdb_id":"tt9348970","world_art_id":null,"type":"serial","add":"2020-09-08 11:24:54","orig_title":"Double vie","year":"2019-01-10","translations":["Любительский (многоголосый закадровый) (WestFilm)"],"seasons_count":1,"episodes_count":6,"episodes":6,"update":"2020-09-11 10:32:30","iframe_src":"//5091.svetacdn.in/si4jsFRrtgrT/tv-series/8655"},{"id":8646,"title":"Тонкие материи","kp_id":"1272470","imdb_id":"tt12037240","world_art_id":null,"type":"serial","add":"2020-09-07 13:51:55","orig_title":"Tonkie Materii","year":"2020-09-07","translations":["Оригинальная дорожка"],"seasons_count":1,"episodes_count":8,"episodes":8,"update":"2020-09-11 09:14:01","iframe_src":"//5091.svetacdn.in/si4jsFRrtgrT/tv-series/8646"},{"id":8384,"title":"Плохой гений","kp_id":"1340380","imdb_id":"tt11542210","world_art_id":null,"type":"serial","add":"2020-08-06 05:37:17","orig_title":"Bad Genius","year":"2020-08-03","translations":["Любительский (многоголосый закадровый) (Octopus)"],"seasons_count":1,"episodes_count":12,"episodes":12,"update":"2020-09-09 15:24:42","iframe_src":"//5091.svetacdn.in/si4jsFRrtgrT/tv-series/8384"},{"id":8144,"title":"Долина соблазна","kp_id":"1220026","imdb_id":"tt9340526","world_art_id":null,"type":"serial","add":"2020-07-12 13:56:48","orig_title":"P-Valley","year":"2020-07-12","translations":["Любительский (многоголосый закадровый) (Octopus)","Любительский (многоголосый закадровый) (ColdFilm)","Профессиональный (многоголосый закадровый) (Novamedia)"],"seasons_count":1,"episodes_count":8,"episodes":8,"update":"2020-09-10 11:54:38","iframe_src":"//5091.svetacdn.in/si4jsFRrtgrT/tv-series/8144"},{"id":7022,"title":"Ругаль","kp_id":"1297201","imdb_id":"tt11769798","world_art_id":null,"type":"serial","add":"2020-03-29 04:37:30","orig_title":"Rugal","year":"2020-03-28","translations":["Любительский (многоголосый закадровый) (ColdFilm)","Любительский (двухголосый закадровый) (SoftBox)","Любительский (двухголосый закадровый) (GREEN TEA)"],"seasons_count":1,"episodes_count":16,"episodes":16,"update":"2020-09-11 07:28:37","iframe_src":"//5091.svetacdn.in/si4jsFRrtgrT/tv-series/7022"},{"id":36420,"title":"Мама: гостья из тьмы","kp_id":"1017348","imdb_id":"tt6051260","world_art_id":null,"type":"movie","add":"2020-02-17 14:08:27","orig_title":"Cruel Peter","year":"2019-07-03","translations":["Полное дублирование (iTunes)","Original (English)"],"quality":"webdl","translation":"Полное дублирование (iTunes)","update":"2021-06-21 12:40:59","iframe_src":"//5091.svetacdn.in/si4jsFRrtgrT/movie/36420"},{"id":6171,"title":"Страшилки","kp_id":"1199474","imdb_id":"tt7573024","world_art_id":null,"type":"serial","add":"2019-12-28 15:41:16","orig_title":"Creeped Out","year":"2017-10-31","translations":["Любительский (двухголосый закадровый) (GoldTeam)","Профессиональный (многоголосый закадровый) (HDrezka Studio)","Любительский (многоголосый закадровый) (WestFilm)","Профессиональный (многоголосый закадровый) (Первый ТВЧ)"],"seasons_count":2,"episodes_count":23,"episodes":10,"update":"2020-09-11 06:47:50","iframe_src":"//5091.svetacdn.in/si4jsFRrtgrT/tv-series/6171"},{"id":33758,"title":"Джей и молчаливый Боб: Перезагрузка","kp_id":"1036153","imdb_id":"tt6521876","world_art_id":null,"type":"movie","add":"2019-12-05 19:02:24","orig_title":"Jay and Silent Bob Reboot","year":"2019-10-15","translations":["Original (English)","Профессиональный (многоголосый закадровый) (HDrezka Studio)","Полное дублирование (Netflix)","Профессиональный (двухголосый закадровый) (Кубик в Кубе)","Профессиональный (многоголосый закадровый) (ViP Premiere)","Авторский (одноголосый закадровый) (Яроцкий Михаил | Kyberpunk)","Любительский (двухголосый закадровый) (LakeFilms)","Полное дублирование (Netflix)"],"quality":"bd","translation":"Original (English)","update":"2021-06-21 08:06:24","iframe_src":"//5091.svetacdn.in/si4jsFRrtgrT/movie/33758"},{"id":5822,"title":"Смерть на языке цветов","kp_id":"1322672","imdb_id":null,"world_art_id":null,"type":"serial","add":"2019-11-24 23:05:42","orig_title":"Смерть на языке цветов","year":"2019-11-24","translations":["Оригинальная дорожка"],"seasons_count":1,"episodes_count":4,"episodes":4,"update":"2020-09-10 07:13:54","iframe_src":"//5091.svetacdn.in/si4jsFRrtgrT/tv-series/5822"},{"id":5183,"title":"Рино 911","kp_id":"258553","imdb_id":"tt0370194","world_art_id":null,"type":"serial","add":"2019-09-11 06:23:13","orig_title":"Reno 911!","year":"2003-07-23","translations":["Профессиональный (одноголосый закадровый)","Любительский (многоголосый закадровый) (Octopus)","Любительский (многоголосый закадровый) (ColdFilm)"],"seasons_count":7,"episodes_count":113,"episodes":25,"update":"2020-09-10 20:09:26","iframe_src":"//5091.svetacdn.in/si4jsFRrtgrT/tv-series/5183"},{"id":26917,"title":"Пять минут страха","kp_id":"43370","imdb_id":"tt0089857","world_art_id":null,"type":"movie","add":"2019-05-23 10:45:08","orig_title":"Pyat minut strakha","year":"1986-04-07","translations":["Оригинальная дорожка"],"quality":"hdtv","translation":"Оригинальная дорожка","update":"2021-06-21 08:10:28","iframe_src":"//5091.svetacdn.in/si4jsFRrtgrT/movie/26917"},{"id":7278,"title":"Дом ночных призраков","kp_id":"3546","imdb_id":"tt0185371","world_art_id":null,"type":"movie","add":"2016-11-10 12:53:12","orig_title":"House on Haunted Hill","year":"1999-10-27","translations":["Полное дублирование","Авторский (одноголосый закадровый) (Гаврилов Андрей)","Авторский (одноголосый закадровый) (Сонькин Владимир)","Полное дублирование","Original (English)","Профессиональный (двухголосый закадровый)","Профессиональный (многоголосый закадровый)"],"quality":"bd","translation":"Полное дублирование","update":"2021-06-21 07:35:50","iframe_src":"//5091.svetacdn.in/si4jsFRrtgrT/movie/7278"},{"id":6530,"title":"Унесенные","kp_id":"18974","imdb_id":"tt0291502","world_art_id":null,"type":"movie","add":"2016-10-20 15:13:04","orig_title":"Swept Away","year":"2002-10-08","translations":["Профессиональный (двухголосый закадровый)","Original (English)","Профессиональный (двухголосый закадровый)","Профессиональный (двухголосый закадровый) (Видеосервис)","Профессиональный (многоголосый закадровый)"],"quality":"webdl","translation":"Профессиональный (двухголосый закадровый)","update":"2021-06-21 12:15:06","iframe_src":"//5091.svetacdn.in/si4jsFRrtgrT/movie/6530"},{"id":5563,"title":"Я знаю, что вы сделали прошлым летом","kp_id":"15995","imdb_id":"tt0119345","world_art_id":null,"type":"movie","add":"2016-09-27 11:41:17","orig_title":"I Know What You Did Last Summer","year":"1997-10-17","translations":["Профессиональный (многоголосый)","Авторский (одноголосый закадровый) (Гаврилов Андрей)","Авторский (одноголосый закадровый) (Кашкин Александр | Первомайский)","Авторский (одноголосый закадровый) (Живов Юрий)","Original (English)","Профессиональный (двухголосый закадровый) (SDI Media)","Профессиональный (многоголосый закадровый)"],"quality":"bd","translation":"Профессиональный (многоголосый)","update":"2021-06-21 12:30:00","iframe_src":"//5091.svetacdn.in/si4jsFRrtgrT/movie/5563"},{"id":5488,"title":"13 грехов","kp_id":"624156","imdb_id":"tt2059171","world_art_id":null,"type":"movie","add":"2016-09-26 07:48:14","orig_title":"13 Sins","year":"2014-03-07","translations":["Полное дублирование","Original (English)","Полное дублирование (НТВ)","Любительский (двухголосый закадровый)"],"quality":"bd","translation":"Полное дублирование","update":"2021-06-21 12:38:07","iframe_src":"//5091.svetacdn.in/si4jsFRrtgrT/movie/5488"}],"current_page":200,"first_page_url":"https://videocdn.tv/api/short?limit=100&api_token=X6EwAUfE5M9xbo7y0Bp0aPf3uXxG2KLL&cache3200=3200&page=1","from":19901,"last_page":666,"last_page_url":"https://videocdn.tv/api/short?limit=100&api_token=X6EwAUfE5M9xbo7y0Bp0aPf3uXxG2KLL&cache3200=3200&page=666","next_page_url":"https://videocdn.tv/api/short?limit=100&api_token=X6EwAUfE5M9xbo7y0Bp0aPf3uXxG2KLL&cache3200=3200&page=201","path":"https://videocdn.tv/api/short","per_page":100,"prev_page_url":"https://videocdn.tv/api/short?limit=100&api_token=X6EwAUfE5M9xbo7y0Bp0aPf3uXxG2KLL&cache3200=3200&page=199","to":19940,"total":66542}