{"result":true,"data":[{"id":53757,"title":"Прекрасная мельничиха","kp_id":"26840","imdb_id":"tt0047871","world_art_id":null,"type":"movie","add":"2021-10-11 05:49:08","orig_title":"La bella mugnaia","year":"1955-10-27","translations":["Профессиональный (двухголосый закадровый) (РенТВ)"],"quality":"bd","translation":"Профессиональный (двухголосый закадровый) (РенТВ)","update":"2021-10-11 11:59:59","iframe_src":"//2413.svetacdn.in/71tsRs29n5tZ/movie/53757"},{"id":53750,"title":"Копы","kp_id":"49170","imdb_id":"tt0339230","world_art_id":null,"type":"movie","add":"2021-10-10 16:23:09","orig_title":"Kopps","year":"2003-01-24","translations":["Профессиональный (двухголосый закадровый)"],"quality":"bd","translation":"Профессиональный (двухголосый закадровый)","update":"2021-10-11 09:33:48","iframe_src":"//2413.svetacdn.in/71tsRs29n5tZ/movie/53750"},{"id":53749,"title":"Дебютантка поневоле","kp_id":"14117","imdb_id":"tt0052126","world_art_id":null,"type":"movie","add":"2021-10-10 16:20:49","orig_title":"The Reluctant Debutante","year":"1958-08-14","translations":["Любительский (одноголосый закадровый) (Клушин Игорь | хромолка)","[EN] Original (English)"],"quality":"bd","translation":"Любительский (одноголосый закадровый) (Клушин Игорь | хромолка)","update":"2021-10-11 06:11:20","iframe_src":"//2413.svetacdn.in/71tsRs29n5tZ/movie/53749"},{"id":53748,"title":"Рок-звезда","kp_id":"580651","imdb_id":"tt1839596","world_art_id":null,"type":"movie","add":"2021-10-10 15:58:43","orig_title":"Rockstar","year":"2011-11-11","translations":["Любительский (многоголосый закадровый) (ICG)"],"quality":"bd","translation":"Любительский (многоголосый закадровый) (ICG)","update":"2021-10-11 06:28:15","iframe_src":"//2413.svetacdn.in/71tsRs29n5tZ/movie/53748"},{"id":53747,"title":"Существо","kp_id":"18532","imdb_id":"tt0085224","world_art_id":null,"type":"movie","add":"2021-10-10 11:00:30","orig_title":"The Being","year":"1981-05-08","translations":["[EN] Original (English)","Авторский (одноголосый закадровый) (Котов Вячеслав)"],"quality":"bd","translation":"[EN] Original (English)","update":"2021-10-11 07:00:17","iframe_src":"//2413.svetacdn.in/71tsRs29n5tZ/movie/53747"},{"id":53746,"title":"Охота","kp_id":"59013","imdb_id":"tt0060223","world_art_id":null,"type":"movie","add":"2021-10-10 07:02:15","orig_title":"La caza","year":"1966-06-25","translations":["Профессиональный (многоголосый закадровый) (TVXXI)","Любительский (одноголосый закадровый)"],"quality":"webdl","translation":"Профессиональный (многоголосый закадровый) (TVXXI)","update":"2021-10-11 09:00:27","iframe_src":"//2413.svetacdn.in/71tsRs29n5tZ/movie/53746"},{"id":53744,"title":"Волшебники Забытого королевства","kp_id":"33541","imdb_id":"tt0090333","world_art_id":null,"type":"movie","add":"2021-10-10 06:57:55","orig_title":"Wizards of the Lost Kingdom","year":"1985-05-17","translations":["[EN] Original (English)","Любительский (одноголосый закадровый)"],"quality":"bd","translation":"[EN] Original (English)","update":"2021-10-11 07:06:11","iframe_src":"//2413.svetacdn.in/71tsRs29n5tZ/movie/53744"},{"id":53743,"title":"Подвал","kp_id":"57758","imdb_id":"tt0099235","world_art_id":null,"type":"movie","add":"2021-10-10 06:55:02","orig_title":"The Cellar","year":"1988-10-26","translations":["Авторский (одноголосый закадровый) (Визгунов Сергей)","[EN] Original (English)"],"quality":"bd","translation":"Авторский (одноголосый закадровый) (Визгунов Сергей)","update":"2021-10-11 07:08:56","iframe_src":"//2413.svetacdn.in/71tsRs29n5tZ/movie/53743"},{"id":53742,"title":"Походка стрелка","kp_id":"27634","imdb_id":"tt0051690","world_art_id":null,"type":"movie","add":"2021-10-10 06:54:05","orig_title":"Gunman's Walk","year":"1958-07-15","translations":["[EN] Original (English)","Профессиональный (многоголосый закадровый) (Sony Turbo)"],"quality":"bd","translation":"[EN] Original (English)","update":"2021-10-11 07:02:42","iframe_src":"//2413.svetacdn.in/71tsRs29n5tZ/movie/53742"},{"id":53741,"title":"Соломон и Гейнор","kp_id":"33462","imdb_id":"tt0181830","world_art_id":null,"type":"movie","add":"2021-10-10 06:46:36","orig_title":"Solomon and Gaenor","year":"1999-04-30","translations":["[EN] Original (English)","Профессиональный (двухголосый закадровый)"],"quality":"webdl","translation":"[EN] Original (English)","update":"2021-10-11 08:51:06","iframe_src":"//2413.svetacdn.in/71tsRs29n5tZ/movie/53741"},{"id":53740,"title":"Черный октябрь","kp_id":"32946","imdb_id":"tt0099312","world_art_id":null,"type":"movie","add":"2021-10-10 06:41:05","orig_title":"Cover-Up","year":"1991-02-09","translations":["Профессиональный (двухголосый закадровый) (Первый канал | ОРТ)","[EN] Original (English)","Авторский (одноголосый закадровый) (Михалёв Алексей)","Авторский (одноголосый закадровый) (Марченко Александр)","Авторский (одноголосый закадровый) (Карцев Пётр)","Авторский (одноголосый закадровый) (Горчаков Василий)","Авторский (одноголосый закадровый) (Дольский Андрей)"],"quality":"webdl","translation":"Профессиональный (двухголосый закадровый) (Первый канал | ОРТ)","update":"2021-10-11 06:47:35","iframe_src":"//2413.svetacdn.in/71tsRs29n5tZ/movie/53740"},{"id":53735,"title":"Неожиданное Рождество","kp_id":"1437416","imdb_id":"tt13247248","world_art_id":null,"type":"movie","add":"2021-10-09 18:51:33","orig_title":"Christmas Collision","year":"2021-10-08","translations":["Любительский (многоголосый закадровый) (AlphaProject)"],"quality":"webdl","translation":"Любительский (многоголосый закадровый) (AlphaProject)","update":"2021-10-10 06:43:54","iframe_src":"//2413.svetacdn.in/71tsRs29n5tZ/movie/53735"},{"id":53729,"title":"Маппеты: Особняк с привидениями","kp_id":"4445256","imdb_id":"tt14602326","world_art_id":null,"type":"movie","add":"2021-10-09 17:37:55","orig_title":"Muppets Haunted Mansion","year":"2021-10-08","translations":["Любительский (многоголосый закадровый) (ColdFilm)","Профессиональный (многоголосый закадровый) (BaibaKo)"],"quality":"webdl","translation":"Любительский (многоголосый закадровый) (ColdFilm)","update":"2021-10-10 18:44:40","iframe_src":"//2413.svetacdn.in/71tsRs29n5tZ/movie/53729"},{"id":53585,"title":"Имплантированная","kp_id":"1238798","imdb_id":"tt9786896","world_art_id":null,"type":"movie","add":"2021-10-03 08:10:09","orig_title":"Implanted","year":"2021-10-01","translations":["Любительский (многоголосый закадровый) (@MUZOBOZ@)","Любительский (многоголосый закадровый) (@MUZOBOZ@)","[EN] Original (English)"],"quality":"webdl","translation":"Любительский (многоголосый закадровый) (@MUZOBOZ@)","update":"2021-10-11 09:03:57","iframe_src":"//2413.svetacdn.in/71tsRs29n5tZ/movie/53585"},{"id":52423,"title":"Голая сингулярность","kp_id":"1254661","imdb_id":"tt9598214","world_art_id":null,"type":"movie","add":"2021-08-14 13:33:12","orig_title":"Naked Singularity","year":"2021-04-09","translations":["Любительский (многоголосый закадровый) (AlphaProject)","[EN] Original (English)"],"quality":"webdl","translation":"Любительский (многоголосый закадровый) (AlphaProject)","update":"2021-10-10 14:59:47","iframe_src":"//2413.svetacdn.in/71tsRs29n5tZ/movie/52423"},{"id":45357,"title":"Вписка","kp_id":"1341631","imdb_id":"tt11618536","world_art_id":null,"type":"movie","add":"2020-11-16 18:35:16","orig_title":"Shithouse","year":"2020-08-13","translations":["Оригинальная дорожка","Любительский (многоголосый закадровый)","[EN] Original (English)","Любительский (многоголосый закадровый) (Синема УС)","Полное дублирование (IVI)"],"quality":"webdl","translation":"Оригинальная дорожка","update":"2021-10-10 12:39:03","iframe_src":"//2413.svetacdn.in/71tsRs29n5tZ/movie/45357"},{"id":37862,"title":"Стрела: Попадание в яблочко","kp_id":null,"imdb_id":"tt11622354","world_art_id":null,"type":"movie","add":"2020-03-12 11:19:59","orig_title":"Arrow: Hitting the Bullseye","year":"2020-01-28","translations":["Любительский (многоголосый закадровый) (WestFilm)","Профессиональный (многоголосый закадровый) (TVShows)"],"quality":"hdtv","translation":"Любительский (многоголосый закадровый) (WestFilm)","update":"2021-10-11 06:26:09","iframe_src":"//2413.svetacdn.in/71tsRs29n5tZ/movie/37862"},{"id":6475,"title":"Второе дыхание","kp_id":"702759","imdb_id":"tt3391842","world_art_id":null,"type":"serial","add":"2020-01-25 20:54:57","orig_title":"Vtoroe dykhanie","year":"2013-03-04","translations":["Оригинальная дорожка"],"seasons_count":1,"episodes_count":8,"episodes":8,"update":"2020-01-26 21:45:22","iframe_src":"//2413.svetacdn.in/71tsRs29n5tZ/tv-series/6475"},{"id":6473,"title":"Свиридовы","kp_id":"782830","imdb_id":null,"world_art_id":null,"type":"serial","add":"2020-01-25 19:26:20","orig_title":"Свиридовы","year":"2013-12-15","translations":["Оригинальная дорожка"],"seasons_count":1,"episodes_count":8,"episodes":8,"update":"2020-01-26 09:24:25","iframe_src":"//2413.svetacdn.in/71tsRs29n5tZ/tv-series/6473"},{"id":6471,"title":"Фабрика","kp_id":"799288","imdb_id":"tt2220768","world_art_id":null,"type":"serial","add":"2020-01-25 19:06:20","orig_title":"The Mill","year":"2013-07-28","translations":["Профессиональный (многоголосый закадровый) (BaibaKo)"],"seasons_count":2,"episodes_count":8,"episodes":4,"update":"2020-01-26 09:34:58","iframe_src":"//2413.svetacdn.in/71tsRs29n5tZ/tv-series/6471"},{"id":6468,"title":"Джейк и пираты Нетландии","kp_id":"591868","imdb_id":"tt1833403","world_art_id":null,"type":"serial","add":"2020-01-25 16:46:33","orig_title":"Jake and the Never Land Pirates","year":"2011-02-14","translations":["Полное дублирование"],"seasons_count":3,"episodes_count":92,"episodes":33,"update":"2020-01-26 11:07:33","iframe_src":"//2413.svetacdn.in/71tsRs29n5tZ/tv-series/6468"},{"id":6461,"title":"Ещё один шанс","kp_id":"447693","imdb_id":null,"world_art_id":null,"type":"serial","add":"2020-01-24 07:22:10","orig_title":"Ещё один шанс","year":"2009-02-28","translations":["Оригинальная дорожка"],"seasons_count":1,"episodes_count":4,"episodes":4,"update":"2020-01-24 18:38:22","iframe_src":"//2413.svetacdn.in/71tsRs29n5tZ/tv-series/6461"},{"id":6460,"title":"Тутанхамончик","kp_id":"309607","imdb_id":"tt0386986","world_art_id":null,"type":"serial","add":"2020-01-23 19:43:18","orig_title":"Tutenstein","year":"2003-11-01","translations":["Полное дублирование"],"seasons_count":3,"episodes_count":39,"episodes":13,"update":"2020-01-26 21:13:23","iframe_src":"//2413.svetacdn.in/71tsRs29n5tZ/tv-series/6460"},{"id":6458,"title":"Гетман","kp_id":"926877","imdb_id":"tt9072434","world_art_id":null,"type":"serial","add":"2020-01-23 16:55:06","orig_title":"Hetman","year":"2015-10-29","translations":["Оригинальная дорожка"],"seasons_count":1,"episodes_count":4,"episodes":4,"update":"2020-01-24 16:32:29","iframe_src":"//2413.svetacdn.in/71tsRs29n5tZ/tv-series/6458"},{"id":6453,"title":"Лига Октября","kp_id":"1180685","imdb_id":"tt8826128","world_art_id":null,"type":"serial","add":"2020-01-23 11:33:27","orig_title":"October Faction","year":"2020-01-23","translations":["Любительский (многоголосый закадровый) (Octopus)","Полное дублирование (Пифагор)","Профессиональный (двухголосый закадровый) (IdeaFilm)"],"seasons_count":1,"episodes_count":10,"episodes":10,"update":"2020-01-24 21:56:37","iframe_src":"//2413.svetacdn.in/71tsRs29n5tZ/tv-series/6453"},{"id":6418,"title":"Легенда Феррари","kp_id":"1219253","imdb_id":null,"world_art_id":null,"type":"serial","add":"2020-01-20 18:38:26","orig_title":"Легенда Феррари","year":"2020-01-20","translations":["Оригинальная дорожка"],"seasons_count":1,"episodes_count":12,"episodes":12,"update":"2020-01-25 13:11:24","iframe_src":"//2413.svetacdn.in/71tsRs29n5tZ/tv-series/6418"},{"id":6400,"title":"Люди-Икс","kp_id":"84960","imdb_id":"tt0103584","world_art_id":null,"type":"serial","add":"2020-01-19 11:20:43","orig_title":"X-Men","year":"1992-10-31","translations":["Профессиональный (многоголосый закадровый)"],"seasons_count":5,"episodes_count":76,"episodes":14,"update":"2020-01-26 11:58:02","iframe_src":"//2413.svetacdn.in/71tsRs29n5tZ/tv-series/6400"},{"id":6375,"title":"Высший пилотаж","kp_id":"466426","imdb_id":"tt1446023","world_art_id":null,"type":"serial","add":"2020-01-17 04:14:13","orig_title":"Vysshiy pilotazh","year":"2009-05-25","translations":["Оригинальная дорожка"],"seasons_count":1,"episodes_count":16,"episodes":16,"update":"2020-01-25 14:43:43","iframe_src":"//2413.svetacdn.in/71tsRs29n5tZ/tv-series/6375"},{"id":6195,"title":"Цепляясь за лёд","kp_id":"1202056","imdb_id":"tt9117054","world_art_id":null,"type":"serial","add":"2020-01-01 15:05:48","orig_title":"Spinning Out","year":"2020-01-01","translations":["Полное дублирование (Пифагор)","Профессиональный (многоголосый закадровый) (TVShows)"],"seasons_count":1,"episodes_count":10,"episodes":10,"update":"2020-01-24 06:37:35","iframe_src":"//2413.svetacdn.in/71tsRs29n5tZ/tv-series/6195"},{"id":5965,"title":"Расправа","kp_id":"1181436","imdb_id":"tt8594028","world_art_id":null,"type":"serial","add":"2019-12-06 22:34:49","orig_title":"Reprisal","year":"2019-12-06","translations":["Любительский (многоголосый закадровый) (Octopus)","Профессиональный (многоголосый закадровый) (TVShows)","Профессиональный (многоголосый закадровый) (NewStudio)"],"seasons_count":1,"episodes_count":10,"episodes":10,"update":"2020-01-24 18:21:58","iframe_src":"//2413.svetacdn.in/71tsRs29n5tZ/tv-series/5965"},{"id":5839,"title":"Барс","kp_id":"1008781","imdb_id":null,"world_art_id":null,"type":"serial","add":"2019-11-25 17:57:05","orig_title":"Барс","year":"2019-11-25","translations":["Оригинальная дорожка"],"seasons_count":1,"episodes_count":34,"episodes":34,"update":"2020-01-26 16:04:50","iframe_src":"//2413.svetacdn.in/71tsRs29n5tZ/tv-series/5839"},{"id":31770,"title":"Киллер по вызову","kp_id":"1047875","imdb_id":"tt7248248","world_art_id":null,"type":"movie","add":"2019-10-12 18:01:10","orig_title":"Lucky Day","year":"2019-09-18","translations":["Полное дублирование (IVI)","[EN] Original (English)","Авторский (одноголосый закадровый) (Чадов Михаил)","Полное дублирование (Мосфильм)"],"quality":"bd","translation":"Полное дублирование (IVI)","update":"2021-10-11 12:03:55","iframe_src":"//2413.svetacdn.in/71tsRs29n5tZ/movie/31770"},{"id":5189,"title":"Сердце матери","kp_id":"1253502","imdb_id":"tt10132798","world_art_id":null,"type":"serial","add":"2019-09-11 16:44:09","orig_title":"Serdtse materi","year":"2019-03-18","translations":["Оригинальная дорожка"],"seasons_count":1,"episodes_count":24,"episodes":24,"update":"2020-01-26 17:04:44","iframe_src":"//2413.svetacdn.in/71tsRs29n5tZ/tv-series/5189"},{"id":4834,"title":"Магнус","kp_id":"1155378","imdb_id":"tt8333976","world_art_id":null,"type":"serial","add":"2019-07-11 12:48:23","orig_title":"Magnus","year":"2019-01-04","translations":["Профессиональный (многоголосый закадровый) (Good People)","Профессиональный (многоголосый закадровый) (Игмар)"],"seasons_count":1,"episodes_count":6,"episodes":6,"update":"2020-01-27 15:05:48","iframe_src":"//2413.svetacdn.in/71tsRs29n5tZ/tv-series/4834"},{"id":4245,"title":"Имя розы","kp_id":"1209813","imdb_id":"tt7572868","world_art_id":null,"type":"serial","add":"2019-03-12 12:24:06","orig_title":"The Name of the Rose","year":"2019-03-04","translations":["Профессиональный (многоголосый закадровый) (NewStudio)","Профессиональный (многоголосый закадровый) (SDI Media | Iyuno-SDI Group Russia)","Любительский (одноголосый закадровый)"],"seasons_count":1,"episodes_count":8,"episodes":8,"update":"2020-01-25 22:24:19","iframe_src":"//2413.svetacdn.in/71tsRs29n5tZ/tv-series/4245"},{"id":22507,"title":"Антитела","kp_id":"80358","imdb_id":"tt0337573","world_art_id":null,"type":"movie","add":"2019-02-24 14:26:21","orig_title":"Antikörper","year":"2005-04-24","translations":["Полное дублирование","Полное дублирование","Профессиональный (двухголосый закадровый)"],"quality":"dvdrip","translation":"Полное дублирование","update":"2021-10-11 06:33:40","iframe_src":"//2413.svetacdn.in/71tsRs29n5tZ/movie/22507"},{"id":3727,"title":"Гаргульи","kp_id":"161241","imdb_id":"tt0108783","world_art_id":null,"type":"serial","add":"2018-12-19 19:03:43","orig_title":"Gargoyles","year":"1994-10-24","translations":["Полное дублирование","Полное дублирование (РенТВ)"],"seasons_count":3,"episodes_count":78,"episodes":13,"update":"2020-01-24 18:35:25","iframe_src":"//2413.svetacdn.in/71tsRs29n5tZ/tv-series/3727"},{"id":3049,"title":"Ведьмина любовь","kp_id":"1142687","imdb_id":"tt8689936","world_art_id":null,"type":"serial","add":"2018-08-20 07:23:17","orig_title":"Manyeoui Sarang","year":"2018-07-25","translations":["Любительский (двухголосый закадровый) (CrezaStudio)"],"seasons_count":1,"episodes_count":12,"episodes":12,"update":"2020-01-27 07:08:54","iframe_src":"//2413.svetacdn.in/71tsRs29n5tZ/tv-series/3049"},{"id":1672,"title":"Стражи Галактики","kp_id":"843231","imdb_id":"tt4176370","world_art_id":null,"type":"serial","add":"2017-10-26 05:19:59","orig_title":"Guardians of the Galaxy","year":"2015-07-26","translations":["Полное дублирование","Полное дублирование (Невафильм | Нева-1)","Любительский (многоголосый закадровый) (Hamster Studio)","Профессиональный (двухголосый закадровый)"],"seasons_count":3,"episodes_count":78,"episodes":26,"update":"2020-01-27 16:24:03","iframe_src":"//2413.svetacdn.in/71tsRs29n5tZ/tv-series/1672"},{"id":9153,"title":"Пику","kp_id":"841134","imdb_id":"tt3767372","world_art_id":null,"type":"movie","add":"2017-01-24 13:10:29","orig_title":"Piku","year":"2015-05-07","translations":["Любительский (двухголосый закадровый) (Колобок)","Любительский (многоголосый закадровый) (ICG)","Любительский (двухголосый закадровый) (DeadSno & den904)"],"quality":"webdl","translation":"Любительский (двухголосый закадровый) (Колобок)","update":"2021-10-11 09:11:53","iframe_src":"//2413.svetacdn.in/71tsRs29n5tZ/movie/9153"}],"current_page":388,"first_page_url":"https://videocdn.tv/api/short?limit=100&api_token=EnbO9h8pv1VyjbCJhg0WM9nG259n7mtz&cache3388=3388&page=1","from":38701,"last_page":717,"last_page_url":"https://videocdn.tv/api/short?limit=100&api_token=EnbO9h8pv1VyjbCJhg0WM9nG259n7mtz&cache3388=3388&page=717","next_page_url":"https://videocdn.tv/api/short?limit=100&api_token=EnbO9h8pv1VyjbCJhg0WM9nG259n7mtz&cache3388=3388&page=389","path":"https://videocdn.tv/api/short","per_page":100,"prev_page_url":"https://videocdn.tv/api/short?limit=100&api_token=EnbO9h8pv1VyjbCJhg0WM9nG259n7mtz&cache3388=3388&page=387","to":38740,"total":71669}