{"result":true,"data":[{"id":32683,"title":"Урожай","kp_id":"722838","imdb_id":"tt2543336","world_art_id":null,"type":"movie","add":"2019-11-04 06:49:47","orig_title":"The Harvest","year":"2013-10-19","translations":["Любительский (двухголосый закадровый) (ColdFilm)"],"quality":"webdl","translation":"Любительский (двухголосый закадровый) (ColdFilm)","update":"2019-11-05 13:06:02","iframe_src":"//83.svetacdn.in/PfJ50H0ZBPg3/movie/32683"},{"id":32681,"title":"В космосе чувств не бывает","kp_id":"557158","imdb_id":"tt1686313","world_art_id":null,"type":"movie","add":"2019-11-04 06:47:06","orig_title":"I rymden finns inga känslor","year":"2010-09-03","translations":["Любительский (одноголосый закадровый)"],"quality":"bd","translation":"Любительский (одноголосый закадровый)","update":"2019-11-05 13:07:52","iframe_src":"//83.svetacdn.in/PfJ50H0ZBPg3/movie/32681"},{"id":32677,"title":"Смелый большой панда","kp_id":"498818","imdb_id":"tt1576423","world_art_id":null,"type":"movie","add":"2019-11-04 06:42:55","orig_title":"Little Big Panda","year":"2011-02-03","translations":["Полное дублирование"],"quality":"bd","translation":"Полное дублирование","update":"2019-11-05 13:08:58","iframe_src":"//83.svetacdn.in/PfJ50H0ZBPg3/movie/32677"},{"id":32560,"title":"Кровь и кости","kp_id":"81551","imdb_id":"tt0419515","world_art_id":null,"type":"movie","add":"2019-10-31 21:54:01","orig_title":"Chi to hone","year":"2004-10-09","translations":["Профессиональный (многоголосый закадровый)"],"quality":"dvdrip","translation":"Профессиональный (многоголосый закадровый)","update":"2019-11-05 11:51:21","iframe_src":"//83.svetacdn.in/PfJ50H0ZBPg3/movie/32560"},{"id":32557,"title":"Госпожа Кровавый Снег","kp_id":"94157","imdb_id":"tt0158714","world_art_id":null,"type":"movie","add":"2019-10-31 20:55:26","orig_title":"Shurayukihime","year":"1973-12-01","translations":["Авторский (одноголосый закадровый) (Кузнецов Сергей)"],"quality":"bd","translation":"Авторский (одноголосый закадровый) (Кузнецов Сергей)","update":"2019-11-05 11:55:47","iframe_src":"//83.svetacdn.in/PfJ50H0ZBPg3/movie/32557"},{"id":32555,"title":"Телескоп Хаббл в 3D","kp_id":"472257","imdb_id":"tt1433813","world_art_id":null,"type":"movie","add":"2019-10-31 20:45:36","orig_title":"Hubble 3D","year":"2010-03-19","translations":["Авторский (одноголосый закадровый) (Сербин Юрий)"],"quality":"bd","translation":"Авторский (одноголосый закадровый) (Сербин Юрий)","update":"2019-11-05 11:56:34","iframe_src":"//83.svetacdn.in/PfJ50H0ZBPg3/movie/32555"},{"id":32546,"title":"После расставания","kp_id":"495682","imdb_id":"tt1578261","world_art_id":null,"type":"movie","add":"2019-10-31 20:09:34","orig_title":"Break Ke Baad","year":"2010-11-25","translations":["Профессиональный (многоголосый закадровый) (ZEE TV)"],"quality":"dvdrip","translation":"Профессиональный (многоголосый закадровый) (ZEE TV)","update":"2019-11-05 11:57:21","iframe_src":"//83.svetacdn.in/PfJ50H0ZBPg3/movie/32546"},{"id":32542,"title":"Удивительная история странной любви","kp_id":"422430","imdb_id":"tt1252596","world_art_id":null,"type":"movie","add":"2019-10-31 19:54:05","orig_title":"Ajab Prem Ki Ghazab Kahani","year":"2009-11-06","translations":["Профессиональный (многоголосый закадровый)"],"quality":"bd","translation":"Профессиональный (многоголосый закадровый)","update":"2019-11-05 12:23:13","iframe_src":"//83.svetacdn.in/PfJ50H0ZBPg3/movie/32542"},{"id":32535,"title":"Барби: Рождественская история","kp_id":"424954","imdb_id":"tt1314715","world_art_id":null,"type":"movie","add":"2019-10-31 14:33:41","orig_title":"Barbie in 'A Christmas Carol'","year":"2008-10-23","translations":["Полное дублирование"],"quality":"dvdrip","translation":"Полное дублирование","update":"2019-11-05 08:59:48","iframe_src":"//83.svetacdn.in/PfJ50H0ZBPg3/movie/32535"},{"id":32534,"title":"Дневники Барби","kp_id":"255038","imdb_id":"tt0795338","world_art_id":null,"type":"movie","add":"2019-10-31 14:31:51","orig_title":"Barbie Diaries","year":"2006-05-09","translations":["Полное дублирование"],"quality":"dvdrip","translation":"Полное дублирование","update":"2019-11-05 09:00:42","iframe_src":"//83.svetacdn.in/PfJ50H0ZBPg3/movie/32534"},{"id":32531,"title":"Барби: Принцесса и Нищенка","kp_id":"161225","imdb_id":"tt0426955","world_art_id":null,"type":"movie","add":"2019-10-31 12:37:11","orig_title":"Barbie as the Princess and the Pauper","year":"2004-09-28","translations":["Полное дублирование"],"quality":"dvdrip","translation":"Полное дублирование","update":"2019-11-05 09:01:17","iframe_src":"//83.svetacdn.in/PfJ50H0ZBPg3/movie/32531"},{"id":32530,"title":"Барби: Сказочная страна. Волшебная радуга","kp_id":"295066","imdb_id":"tt1007920","world_art_id":null,"type":"movie","add":"2019-10-31 12:35:21","orig_title":"Barbie Fairytopia: Magic of the Rainbow","year":"2007-03-06","translations":["Полное дублирование"],"quality":"dvdrip","translation":"Полное дублирование","update":"2019-11-05 09:01:48","iframe_src":"//83.svetacdn.in/PfJ50H0ZBPg3/movie/32530"},{"id":32529,"title":"Барби и дракон","kp_id":"79676","imdb_id":"tt0313255","world_art_id":null,"type":"movie","add":"2019-10-31 12:25:09","orig_title":"Barbie as Rapunzel","year":"2002-09-30","translations":["Полное дублирование"],"quality":"dvdrip","translation":"Полное дублирование","update":"2019-11-05 09:02:32","iframe_src":"//83.svetacdn.in/PfJ50H0ZBPg3/movie/32529"},{"id":32528,"title":"Барби: Лебединое озеро","kp_id":"95248","imdb_id":"tt0383206","world_art_id":null,"type":"movie","add":"2019-10-31 12:22:34","orig_title":"Barbie of Swan Lake","year":"2003-09-30","translations":["Полное дублирование"],"quality":"dvdrip","translation":"Полное дублирование","update":"2019-11-05 09:03:03","iframe_src":"//83.svetacdn.in/PfJ50H0ZBPg3/movie/32528"},{"id":32527,"title":"Барби: Тайна феи","kp_id":"574166","imdb_id":"tt1800254","world_art_id":null,"type":"movie","add":"2019-10-31 12:20:38","orig_title":"Barbie: A Fairy Secret","year":"2011-02-22","translations":["Полное дублирование"],"quality":"dvdrip","translation":"Полное дублирование","update":"2019-11-05 09:03:34","iframe_src":"//83.svetacdn.in/PfJ50H0ZBPg3/movie/32527"},{"id":32526,"title":"Барби: Чудесное Рождество","kp_id":"626827","imdb_id":"tt2091240","world_art_id":null,"type":"movie","add":"2019-10-31 12:18:30","orig_title":"Barbie: A Perfect Christmas","year":"2011-11-03","translations":["Полное дублирование"],"quality":"dvdrip","translation":"Полное дублирование","update":"2019-11-05 09:04:07","iframe_src":"//83.svetacdn.in/PfJ50H0ZBPg3/movie/32526"},{"id":32509,"title":"Это были мы 2","kp_id":"611428","imdb_id":"tt2002626","world_art_id":null,"type":"movie","add":"2019-10-30 20:44:18","orig_title":"Bokura ga ita: Kouhen","year":"2012-04-21","translations":["Любительский (двухголосый закадровый) (GREEN TEA)"],"quality":"dvdrip","translation":"Любительский (двухголосый закадровый) (GREEN TEA)","update":"2019-11-05 12:32:48","iframe_src":"//83.svetacdn.in/PfJ50H0ZBPg3/movie/32509"},{"id":32508,"title":"Маскарад","kp_id":"694359","imdb_id":"tt2290840","world_art_id":null,"type":"movie","add":"2019-10-30 20:35:53","orig_title":"Gwanghae: Wangyidoen namja","year":"2012-09-13","translations":["Любительский (двухголосый закадровый)"],"quality":"bd","translation":"Любительский (двухголосый закадровый)","update":"2019-11-05 12:38:10","iframe_src":"//83.svetacdn.in/PfJ50H0ZBPg3/movie/32508"},{"id":32477,"title":"Папа в командировке","kp_id":"7704","imdb_id":"tt0089748","world_art_id":null,"type":"movie","add":"2019-10-29 20:23:19","orig_title":"Otac na sluzbenom putu","year":"1985-01-15","translations":["Профессиональный (многоголосый закадровый)"],"quality":"dvdrip","translation":"Профессиональный (многоголосый закадровый)","update":"2019-11-05 12:43:32","iframe_src":"//83.svetacdn.in/PfJ50H0ZBPg3/movie/32477"},{"id":21712,"title":"Наши истории любви","kp_id":"676953","imdb_id":"tt2354407","world_art_id":null,"type":"movie","add":"2019-01-21 13:47:09","orig_title":"Teri Meri Kahaani","year":"2012-06-21","translations":["Профессиональный (многоголосый закадровый)"],"quality":"bd","translation":"Профессиональный (многоголосый закадровый)","update":"2019-11-05 12:19:45","iframe_src":"//83.svetacdn.in/PfJ50H0ZBPg3/movie/21712"}],"current_page":1549,"first_page_url":"https://videocdn.tv/api/short?limit=100&api_token=RgFQdUIR2dRmwv8iYa5SnFNgnw3vpjKj&cache31549=31549&page=1","from":154801,"last_page":715,"last_page_url":"https://videocdn.tv/api/short?limit=100&api_token=RgFQdUIR2dRmwv8iYa5SnFNgnw3vpjKj&cache31549=31549&page=715","next_page_url":null,"path":"https://videocdn.tv/api/short","per_page":100,"prev_page_url":"https://videocdn.tv/api/short?limit=100&api_token=RgFQdUIR2dRmwv8iYa5SnFNgnw3vpjKj&cache31549=31549&page=1548","to":154820,"total":71489}