{"result":true,"data":[{"id":48313,"title":"Озеро любви","kp_id":"95335","imdb_id":"tt0107357","world_art_id":null,"type":"movie","add":"2021-03-01 07:08:39","orig_title":"Lake Consequence","year":"1993-02-28","translations":["Профессиональный (многоголосый закадровый)"],"quality":"dvdrip","translation":"Профессиональный (многоголосый закадровый)","update":"2021-03-01 18:00:22","iframe_src":"//8422.svetacdn.in/IAF0wWTdNYZm/movie/48313"},{"id":48312,"title":"Седьмой этап","kp_id":"492472","imdb_id":"tt1568816","world_art_id":null,"type":"movie","add":"2021-03-01 07:05:16","orig_title":"Fase 7","year":"2010-11-14","translations":["Любительский (одноголосый закадровый)"],"quality":"bd","translation":"Любительский (одноголосый закадровый)","update":"2021-03-02 07:22:57","iframe_src":"//8422.svetacdn.in/IAF0wWTdNYZm/movie/48312"},{"id":48308,"title":"Травля","kp_id":"220127","imdb_id":"tt0073815","world_art_id":null,"type":"movie","add":"2021-03-01 06:33:22","orig_title":"La traque","year":"1975-05-14","translations":["Профессиональный (многоголосый закадровый)"],"quality":"bd","translation":"Профессиональный (многоголосый закадровый)","update":"2021-03-02 07:09:06","iframe_src":"//8422.svetacdn.in/IAF0wWTdNYZm/movie/48308"},{"id":47848,"title":"Красная точка","kp_id":"4299212","imdb_id":"tt11307814","world_art_id":null,"type":"movie","add":"2021-02-11 15:45:41","orig_title":"Red Dot","year":"2021-02-11","translations":["Любительский (двухголосый закадровый)","Любительский (многоголосый закадровый) (@MUZOBOZ@)","Любительский (многоголосый закадровый) (@MUZOBOZ@)","Авторский (одноголосый закадровый) (Немахов Юрий)"],"quality":"webdl","translation":"Любительский (двухголосый закадровый)","update":"2021-03-02 07:05:02","iframe_src":"//8422.svetacdn.in/IAF0wWTdNYZm/movie/47848"},{"id":47314,"title":"3 женщины","kp_id":"14401","imdb_id":"tt0075612","world_art_id":null,"type":"movie","add":"2021-01-22 06:08:00","orig_title":"3 Women","year":"1977-04-10","translations":["Профессиональный (многоголосый закадровый) (Первый канал | ОРТ)","Original (English)","Профессиональный (двухголосый закадровый) (NLS)"],"quality":"bd","translation":"Профессиональный (многоголосый закадровый) (Первый канал | ОРТ)","update":"2021-03-01 14:50:00","iframe_src":"//8422.svetacdn.in/IAF0wWTdNYZm/movie/47314"},{"id":47241,"title":"Муж парикмахерши","kp_id":"36794","imdb_id":"tt0100112","world_art_id":null,"type":"movie","add":"2021-01-20 07:05:48","orig_title":"Le mari de la coiffeuse","year":"1990-10-03","translations":["Профессиональный (многоголосый закадровый)","Любительский (одноголосый закадровый)"],"quality":"bd","translation":"Профессиональный (многоголосый закадровый)","update":"2021-03-01 10:58:50","iframe_src":"//8422.svetacdn.in/IAF0wWTdNYZm/movie/47241"},{"id":47185,"title":"Тайна красной орхидеи","kp_id":"5730","imdb_id":"tt0055391","world_art_id":null,"type":"movie","add":"2021-01-17 16:12:06","orig_title":"Das Rätsel der roten Orchidee","year":"1962-03-01","translations":["Профессиональный (многоголосый закадровый) (5-й канал СПб)","Профессиональный (двухголосый закадровый)"],"quality":"bd","translation":"Профессиональный (многоголосый закадровый) (5-й канал СПб)","update":"2021-03-01 10:57:18","iframe_src":"//8422.svetacdn.in/IAF0wWTdNYZm/movie/47185"},{"id":46928,"title":"Путешествие капитана Фракасса","kp_id":"21376","imdb_id":"tt0103203","world_art_id":null,"type":"movie","add":"2021-01-12 05:18:46","orig_title":"Il viaggio di Capitan Fracassa","year":"1990-10-31","translations":["Профессиональный (многоголосый закадровый)","Профессиональный (двухголосый закадровый)"],"quality":"bd","translation":"Профессиональный (многоголосый закадровый)","update":"2021-03-01 11:04:40","iframe_src":"//8422.svetacdn.in/IAF0wWTdNYZm/movie/46928"},{"id":46796,"title":"Под предварительным следствием","kp_id":"37713","imdb_id":"tt0082436","world_art_id":null,"type":"movie","add":"2021-01-08 07:15:01","orig_title":"Garde à vue","year":"1981-09-23","translations":["Профессиональный (многоголосый закадровый) (Пифагор)","Профессиональный (многоголосый закадровый) (Неоклассика)"],"quality":"bd","translation":"Профессиональный (многоголосый закадровый) (Пифагор)","update":"2021-03-01 11:03:32","iframe_src":"//8422.svetacdn.in/IAF0wWTdNYZm/movie/46796"},{"id":46510,"title":"Земля кочевников","kp_id":"1238506","imdb_id":"tt9770150","world_art_id":null,"type":"movie","add":"2020-12-29 17:34:12","orig_title":"Nomadland","year":"2020-09-11","translations":["Original (English)","Любительский (многоголосый закадровый) (@MUZOBOZ@)","Любительский (одноголосый закадровый)","Профессиональный (многоголосый закадровый) (HDrezka Studio)","Профессиональный (многоголосый закадровый) (HDrezka Studio)"],"quality":"webdl","translation":"Original (English)","update":"2021-03-02 07:20:03","iframe_src":"//8422.svetacdn.in/IAF0wWTdNYZm/movie/46510"},{"id":39012,"title":"Милый друг","kp_id":"1166881","imdb_id":"tt6487174","world_art_id":null,"type":"movie","add":"2020-04-08 12:15:33","orig_title":"La dernière vie de Simon","year":"2019-08-24","translations":["Полное дублирование","Полное дублирование (iTunes)"],"quality":"webdl","translation":"Полное дублирование","update":"2021-03-01 11:01:23","iframe_src":"//8422.svetacdn.in/IAF0wWTdNYZm/movie/39012"},{"id":21343,"title":"Фанат 2","kp_id":"256119","imdb_id":"tt8612428","world_art_id":null,"type":"movie","add":"2019-01-09 00:02:51","orig_title":"Fanat 2","year":"1990-01-01","translations":["Оригинальная дорожка","Оригинальная дорожка"],"quality":"tv","translation":"Оригинальная дорожка","update":"2021-03-01 10:07:48","iframe_src":"//8422.svetacdn.in/IAF0wWTdNYZm/movie/21343"},{"id":21122,"title":"Свет во тьме","kp_id":"7601","imdb_id":"tt0105391","world_art_id":null,"type":"movie","add":"2019-01-01 17:14:08","orig_title":"Shining Through","year":"1992-01-31","translations":["Профессиональный (многоголосый закадровый)","Авторский (одноголосый закадровый) (Гаврилов Андрей)","Original (English)","Профессиональный (двухголосый закадровый)","Профессиональный (двухголосый закадровый) (Премьер Видео Фильм)","Профессиональный (многоголосый закадровый) (Первый канал | ОРТ)"],"quality":"bd","translation":"Профессиональный (многоголосый закадровый)","update":"2021-03-01 14:45:56","iframe_src":"//8422.svetacdn.in/IAF0wWTdNYZm/movie/21122"},{"id":15379,"title":"Детоксикация","kp_id":"6503","imdb_id":"tt0160184","world_art_id":null,"type":"movie","add":"2018-03-05 08:10:37","orig_title":"D-Tox","year":"2002-01-04","translations":["Профессиональный (многоголосый закадровый)","Авторский (одноголосый закадровый) (Гаевский Евгений)","Original (English)","Профессиональный (двухголосый закадровый) (Гланц + Королёва)","Профессиональный (многоголосый закадровый)","Профессиональный (многоголосый закадровый) (Первый канал | ОРТ)","Авторский (одноголосый закадровый) (Гаврилов Андрей)"],"quality":"bd","translation":"Профессиональный (многоголосый закадровый)","update":"2021-03-02 07:11:45","iframe_src":"//8422.svetacdn.in/IAF0wWTdNYZm/movie/15379"},{"id":15310,"title":"Ночные игры","kp_id":"737859","imdb_id":"tt2704998","world_art_id":null,"type":"movie","add":"2018-02-26 22:03:29","orig_title":"Game Night","year":"2018-02-15","translations":["Полное дублирование","Original (English)","Профессиональный (многоголосый закадровый) (HDrezka Studio)","Авторский (одноголосый закадровый) (Есарев Дмитрий)","Полное дублирование","Original (English)"],"quality":"bd","translation":"Полное дублирование","update":"2021-03-01 11:21:24","iframe_src":"//8422.svetacdn.in/IAF0wWTdNYZm/movie/15310"},{"id":1391,"title":"Смешарики. Новые приключения","kp_id":"717994","imdb_id":"tt3840506","world_art_id":null,"type":"serial","add":"2017-07-13 09:26:48","orig_title":"Smeshariki: Novye priklyucheniya","year":"2012-10-27","translations":["Оригинальная дорожка"],"seasons_count":1,"episodes_count":49,"episodes":49,"update":"2017-07-14 13:44:13","iframe_src":"//8422.svetacdn.in/IAF0wWTdNYZm/tv-series/1391"},{"id":1383,"title":"Дружба народов","kp_id":"762085","imdb_id":"tt3775694","world_art_id":null,"type":"serial","add":"2017-07-10 12:45:35","orig_title":"Druzhba narodov","year":"2014-03-03","translations":["Оригинальная дорожка"],"seasons_count":1,"episodes_count":20,"episodes":20,"update":"2017-07-11 11:58:00","iframe_src":"//8422.svetacdn.in/IAF0wWTdNYZm/tv-series/1383"},{"id":1381,"title":"Фарца","kp_id":"838053","imdb_id":"tt4567218","world_art_id":null,"type":"serial","add":"2017-07-10 05:20:16","orig_title":"Fartsa","year":"2015-03-30","translations":["Оригинальная дорожка"],"seasons_count":1,"episodes_count":8,"episodes":8,"update":"2017-07-11 08:08:32","iframe_src":"//8422.svetacdn.in/IAF0wWTdNYZm/tv-series/1381"},{"id":1380,"title":"Дед 005","kp_id":"803174","imdb_id":"tt4660728","world_art_id":null,"type":"serial","add":"2017-07-10 05:14:25","orig_title":"Ded 005","year":"2014-08-15","translations":["Оригинальная дорожка"],"seasons_count":1,"episodes_count":6,"episodes":6,"update":"2017-07-11 12:13:34","iframe_src":"//8422.svetacdn.in/IAF0wWTdNYZm/tv-series/1380"},{"id":1379,"title":"Легко ли быть молодым?","kp_id":"855948","imdb_id":"tt4391392","world_art_id":null,"type":"serial","add":"2017-07-09 07:16:19","orig_title":"Legko li byt molodym?","year":"2015-01-26","translations":["Оригинальная дорожка"],"seasons_count":1,"episodes_count":8,"episodes":8,"update":"2017-07-12 11:05:49","iframe_src":"//8422.svetacdn.in/IAF0wWTdNYZm/tv-series/1379"},{"id":1378,"title":"Байки Митяя","kp_id":"655912","imdb_id":"tt4104710","world_art_id":null,"type":"serial","add":"2017-07-09 07:08:51","orig_title":"Bayki Mityaya","year":"2012-02-06","translations":["Оригинальная дорожка"],"seasons_count":1,"episodes_count":20,"episodes":20,"update":"2017-07-10 07:14:32","iframe_src":"//8422.svetacdn.in/IAF0wWTdNYZm/tv-series/1378"},{"id":1374,"title":"Отец Матвей","kp_id":"838849","imdb_id":"tt4550906","world_art_id":null,"type":"serial","add":"2017-07-07 05:31:19","orig_title":"Отец Матвей","year":"2014-09-22","translations":["Оригинальная дорожка"],"seasons_count":1,"episodes_count":20,"episodes":20,"update":"2017-07-11 13:54:19","iframe_src":"//8422.svetacdn.in/IAF0wWTdNYZm/tv-series/1374"},{"id":1372,"title":"Женщина в беде 4","kp_id":"961722","imdb_id":null,"world_art_id":null,"type":"serial","add":"2017-07-06 05:51:54","orig_title":"Женщина в беде 4","year":"2017-05-27","translations":["Оригинальная дорожка"],"seasons_count":1,"episodes_count":4,"episodes":4,"update":"2017-07-07 10:21:34","iframe_src":"//8422.svetacdn.in/IAF0wWTdNYZm/tv-series/1372"},{"id":1371,"title":"Женщина в беде 3","kp_id":"961721","imdb_id":null,"world_art_id":null,"type":"serial","add":"2017-07-06 05:49:57","orig_title":"Женщина в беде 3","year":"2017-05-20","translations":["Оригинальная дорожка"],"seasons_count":1,"episodes_count":4,"episodes":4,"update":"2017-07-07 08:59:05","iframe_src":"//8422.svetacdn.in/IAF0wWTdNYZm/tv-series/1371"},{"id":1370,"title":"Тайны Лауры","kp_id":"838553","imdb_id":"tt3187578","world_art_id":null,"type":"serial","add":"2017-07-06 05:35:33","orig_title":"The Mysteries of Laura","year":"2014-09-17","translations":["Профессиональный (многоголосый закадровый) (Fox Life)"],"seasons_count":2,"episodes_count":38,"episodes":16,"update":"2017-07-11 07:39:12","iframe_src":"//8422.svetacdn.in/IAF0wWTdNYZm/tv-series/1370"},{"id":1369,"title":"Женщина в беде 2","kp_id":"842591","imdb_id":null,"world_art_id":null,"type":"serial","add":"2017-07-06 05:29:20","orig_title":"Женщина в беде 2","year":"2015-04-18","translations":["Оригинальная дорожка"],"seasons_count":1,"episodes_count":4,"episodes":4,"update":"2017-07-07 08:53:18","iframe_src":"//8422.svetacdn.in/IAF0wWTdNYZm/tv-series/1369"},{"id":1367,"title":"Бомбила","kp_id":"586571","imdb_id":"tt3494928","world_art_id":null,"type":"serial","add":"2017-07-06 04:59:29","orig_title":"Bombila","year":"2011-05-16","translations":["Оригинальная дорожка"],"seasons_count":1,"episodes_count":16,"episodes":16,"update":"2017-07-10 08:57:18","iframe_src":"//8422.svetacdn.in/IAF0wWTdNYZm/tv-series/1367"},{"id":1366,"title":"Я – Ангина","kp_id":"788462","imdb_id":null,"world_art_id":null,"type":"serial","add":"2017-07-06 04:49:59","orig_title":"Я – Ангина","year":"2013-08-23","translations":["Оригинальная дорожка"],"seasons_count":1,"episodes_count":4,"episodes":4,"update":"2017-07-07 10:29:57","iframe_src":"//8422.svetacdn.in/IAF0wWTdNYZm/tv-series/1366"},{"id":1364,"title":"Предельная глубина","kp_id":"839266","imdb_id":null,"world_art_id":null,"type":"serial","add":"2017-07-06 04:34:33","orig_title":"Предельная глубина","year":"2014-04-16","translations":["Оригинальная дорожка"],"seasons_count":1,"episodes_count":4,"episodes":4,"update":"2017-07-06 12:29:32","iframe_src":"//8422.svetacdn.in/IAF0wWTdNYZm/tv-series/1364"},{"id":1362,"title":"Город","kp_id":"971145","imdb_id":null,"world_art_id":null,"type":"serial","add":"2017-07-05 19:34:14","orig_title":"Город","year":"2017-07-02","translations":["Оригинальная дорожка"],"seasons_count":1,"episodes_count":8,"episodes":8,"update":"2017-07-12 09:56:27","iframe_src":"//8422.svetacdn.in/IAF0wWTdNYZm/tv-series/1362"},{"id":1360,"title":"Дедушка","kp_id":"897046","imdb_id":"tt4465368","world_art_id":null,"type":"serial","add":"2017-07-05 11:00:37","orig_title":"Grandfathered","year":"2015-09-29","translations":["Любительский (многоголосый закадровый) (Alternative Production)"],"seasons_count":1,"episodes_count":22,"episodes":22,"update":"2017-07-07 14:25:37","iframe_src":"//8422.svetacdn.in/IAF0wWTdNYZm/tv-series/1360"},{"id":1359,"title":"За пределами","kp_id":"799433","imdb_id":"tt3155320","world_art_id":null,"type":"serial","add":"2017-07-05 10:43:25","orig_title":"Extant","year":"2014-07-09","translations":["Профессиональный (многоголосый закадровый) (LostFilm)"],"seasons_count":2,"episodes_count":26,"episodes":13,"update":"2017-07-07 09:37:43","iframe_src":"//8422.svetacdn.in/IAF0wWTdNYZm/tv-series/1359"},{"id":1352,"title":"Саша + Даша + Глаша","kp_id":"843285","imdb_id":null,"world_art_id":null,"type":"serial","add":"2017-07-03 13:11:17","orig_title":"Саша + Даша + Глаша","year":"2017-06-21","translations":["Оригинальная дорожка"],"seasons_count":1,"episodes_count":4,"episodes":4,"update":"2017-07-07 10:38:27","iframe_src":"//8422.svetacdn.in/IAF0wWTdNYZm/tv-series/1352"},{"id":1046,"title":"Райское место","kp_id":"1007810","imdb_id":null,"world_art_id":null,"type":"serial","add":"2017-02-26 08:28:43","orig_title":"Райское место","year":"2017-01-09","translations":["Оригинальная дорожка"],"seasons_count":1,"episodes_count":100,"episodes":100,"update":"2017-07-13 14:43:38","iframe_src":"//8422.svetacdn.in/IAF0wWTdNYZm/tv-series/1046"},{"id":3990,"title":"Роксана","kp_id":"2743","imdb_id":"tt0093886","world_art_id":null,"type":"movie","add":"2016-07-16 02:59:49","orig_title":"Roxanne","year":"1987-06-19","translations":["Любительский (одноголосый закадровый)","Авторский (одноголосый закадровый) (Михалёв Алексей)","Авторский (одноголосый закадровый) (Володарский Леонид)","Original (English)","Профессиональный (многоголосый закадровый) (Первый канал | ОРТ)","Профессиональный (многоголосый закадровый) (Видеосервис)"],"quality":"bd","translation":"Любительский (одноголосый закадровый)","update":"2021-03-01 14:40:54","iframe_src":"//8422.svetacdn.in/IAF0wWTdNYZm/movie/3990"},{"id":2100,"title":"Таинственная река","kp_id":"3730","imdb_id":"tt0327056","world_art_id":null,"type":"movie","add":"2016-05-12 15:40:44","orig_title":"Mystic River","year":"2003-05-23","translations":["Полное дублирование","Original (English)","Авторский (одноголосый закадровый) (Гаврилов Андрей)","Авторский (одноголосый закадровый) (Сербин Юрий)","Авторский (одноголосый закадровый) (Визгунов Сергей)","Полное дублирование (Мосфильм)","Original (English)","Профессиональный (многоголосый закадровый)"],"quality":"bd","translation":"Полное дублирование","update":"2021-03-01 14:33:26","iframe_src":"//8422.svetacdn.in/IAF0wWTdNYZm/movie/2100"},{"id":1690,"title":"К-9: Собачья работа","kp_id":"7376","imdb_id":"tt0097637","world_art_id":null,"type":"movie","add":"2016-04-28 04:56:19","orig_title":"K-9","year":"1989-04-28","translations":["Профессиональный (многоголосый закадровый)","Авторский (одноголосый закадровый) (Гаврилов Андрей)","Авторский (одноголосый закадровый) (Горчаков Василий)","Original (English)","Профессиональный (двухголосый закадровый) (НТВ)","Профессиональный (двухголосый закадровый) (Премьер Видео Фильм)","Профессиональный (многоголосый закадровый) (Первый канал | ОРТ)"],"quality":"bd","translation":"Профессиональный (многоголосый закадровый)","update":"2021-03-01 11:27:38","iframe_src":"//8422.svetacdn.in/IAF0wWTdNYZm/movie/1690"},{"id":67,"title":"Настоящие О'Нилы","kp_id":"902520","imdb_id":"tt4422756","world_art_id":null,"type":"serial","add":"2016-04-27 05:15:51","orig_title":"The Real O'Neals","year":"2016-03-02","translations":["Любительский (двухголосый закадровый) (Sunshine Studio)","Профессиональный (многоголосый закадровый) (SunshineStudio)"],"seasons_count":2,"episodes_count":29,"episodes":16,"update":"2017-07-12 13:45:03","iframe_src":"//8422.svetacdn.in/IAF0wWTdNYZm/tv-series/67"},{"id":1608,"title":"Идеальный незнакомец","kp_id":"104924","imdb_id":"tt0457433","world_art_id":null,"type":"movie","add":"2016-04-24 11:04:41","orig_title":"Perfect Stranger","year":"2007-04-10","translations":["Полное дублирование","Авторский (одноголосый закадровый) (Гаврилов Андрей)","Полное дублирование","Original (English)"],"quality":"bd","translation":"Полное дублирование","update":"2021-03-01 11:17:49","iframe_src":"//8422.svetacdn.in/IAF0wWTdNYZm/movie/1608"},{"id":193,"title":"Ганмен","kp_id":"717310","imdb_id":"tt2515034","world_art_id":null,"type":"movie","add":"2016-03-06 22:56:56","orig_title":"The Gunman","year":"2015-02-16","translations":["Полное дублирование","Авторский (одноголосый закадровый) (Есарев Дмитрий)","Авторский (одноголосый закадровый) (Яроцкий Михаил | Kyberpunk)","Полное дублирование (iTunes)","Original (English)"],"quality":"bd","translation":"Полное дублирование","update":"2021-03-01 14:25:18","iframe_src":"//8422.svetacdn.in/IAF0wWTdNYZm/movie/193"}],"current_page":548,"first_page_url":"https://videocdn.tv/api/short?limit=100&api_token=6Onb1W1alEUrBcKJZD3GoKBbWyAl2uG2&cache3548=3548&page=1","from":54701,"last_page":690,"last_page_url":"https://videocdn.tv/api/short?limit=100&api_token=6Onb1W1alEUrBcKJZD3GoKBbWyAl2uG2&cache3548=3548&page=690","next_page_url":"https://videocdn.tv/api/short?limit=100&api_token=6Onb1W1alEUrBcKJZD3GoKBbWyAl2uG2&cache3548=3548&page=549","path":"https://videocdn.tv/api/short","per_page":100,"prev_page_url":"https://videocdn.tv/api/short?limit=100&api_token=6Onb1W1alEUrBcKJZD3GoKBbWyAl2uG2&cache3548=3548&page=547","to":54740,"total":68978}