{"result":true,"data":[{"id":34385,"title":"Адская гора","kp_id":"954328","imdb_id":"tt5276332","world_art_id":null,"type":"movie","add":"2019-12-23 06:19:29","orig_title":"Hell Mountain","year":"2017-04-18","translations":["Любительский (многоголосый закадровый) (Синема УС)"],"quality":"webdl","translation":"Любительский (многоголосый закадровый) (Синема УС)","update":"2019-12-23 07:48:10","iframe_src":"//8543.svetacdn.in/71tsRs29n5tZ/movie/34385"},{"id":34358,"title":"Рождественский наставник","kp_id":"1321456","imdb_id":"tt11241514","world_art_id":null,"type":"movie","add":"2019-12-22 15:12:48","orig_title":"Christmas Coach","year":"2019-12-15","translations":["Любительский (многоголосый закадровый) (AlphaProject)"],"quality":"hdtv","translation":"Любительский (многоголосый закадровый) (AlphaProject)","update":"2019-12-22 18:29:10","iframe_src":"//8543.svetacdn.in/71tsRs29n5tZ/movie/34358"},{"id":34357,"title":"Коко-ди Коко-да","kp_id":"1221268","imdb_id":"tt9355200","world_art_id":null,"type":"movie","add":"2019-12-22 15:09:14","orig_title":"Koko-di Koko-da","year":"2019-01-25","translations":["Полное дублирование (iTunes)"],"quality":"webdl","translation":"Полное дублирование (iTunes)","update":"2019-12-22 18:19:52","iframe_src":"//8543.svetacdn.in/71tsRs29n5tZ/movie/34357"},{"id":34347,"title":"Боже мой!","kp_id":"1188621","imdb_id":"tt8359840","world_art_id":null,"type":"movie","add":"2019-12-21 12:59:42","orig_title":"Roubaix, une lumière","year":"2019-05-22","translations":["Профессиональный (многоголосый закадровый) (iTunes)"],"quality":"webdl","translation":"Профессиональный (многоголосый закадровый) (iTunes)","update":"2019-12-22 14:13:43","iframe_src":"//8543.svetacdn.in/71tsRs29n5tZ/movie/34347"},{"id":34344,"title":"Праздничное свидание","kp_id":"1312037","imdb_id":"tt10768456","world_art_id":null,"type":"movie","add":"2019-12-21 12:40:28","orig_title":"Holiday Date","year":"2019-12-14","translations":["Любительский (многоголосый закадровый) (AlphaProject)"],"quality":"hdtv","translation":"Любительский (многоголосый закадровый) (AlphaProject)","update":"2019-12-22 13:54:29","iframe_src":"//8543.svetacdn.in/71tsRs29n5tZ/movie/34344"},{"id":34340,"title":"Пришло время вернуться домой к Рождеству","kp_id":"1321258","imdb_id":"tt11068326","world_art_id":null,"type":"movie","add":"2019-12-21 12:32:07","orig_title":"Time for You to Come Home for Christmas","year":"2019-12-06","translations":["Любительский (многоголосый закадровый) (Синема УС)"],"quality":"hdtv","translation":"Любительский (многоголосый закадровый) (Синема УС)","update":"2019-12-22 13:51:50","iframe_src":"//8543.svetacdn.in/71tsRs29n5tZ/movie/34340"},{"id":34339,"title":"Рождественская кухня","kp_id":"1311414","imdb_id":"tt11090230","world_art_id":null,"type":"movie","add":"2019-12-21 12:28:53","orig_title":"Baking Christmas","year":"2019-11-29","translations":["Любительский (многоголосый закадровый) (Синема УС)"],"quality":"webdl","translation":"Любительский (многоголосый закадровый) (Синема УС)","update":"2019-12-22 13:43:06","iframe_src":"//8543.svetacdn.in/71tsRs29n5tZ/movie/34339"},{"id":34338,"title":"Безмолвные касания","kp_id":"1072914","imdb_id":"tt7431040","world_art_id":null,"type":"movie","add":"2019-12-21 12:28:14","orig_title":"A Certain Kind of Silence","year":"2019-07-03","translations":["Любительский (многоголосый закадровый) (Синема УС)"],"quality":"webdl","translation":"Любительский (многоголосый закадровый) (Синема УС)","update":"2019-12-22 13:42:12","iframe_src":"//8543.svetacdn.in/71tsRs29n5tZ/movie/34338"},{"id":34337,"title":"Рождественские звезды","kp_id":"1321251","imdb_id":"tt11290298","world_art_id":null,"type":"movie","add":"2019-12-21 12:26:18","orig_title":"Christmas Stars","year":"2019-12-13","translations":["Любительский (многоголосый закадровый) (Синема УС)"],"quality":"webdl","translation":"Любительский (многоголосый закадровый) (Синема УС)","update":"2019-12-22 13:41:27","iframe_src":"//8543.svetacdn.in/71tsRs29n5tZ/movie/34337"},{"id":34336,"title":"Рождественский домик","kp_id":"1272149","imdb_id":"tt10383902","world_art_id":null,"type":"movie","add":"2019-12-21 12:25:37","orig_title":"The Christmas Chalet","year":"2019-12-01","translations":["Любительский (многоголосый закадровый) (AlphaProject)"],"quality":"hdtv","translation":"Любительский (многоголосый закадровый) (AlphaProject)","update":"2019-12-22 13:56:26","iframe_src":"//8543.svetacdn.in/71tsRs29n5tZ/movie/34336"},{"id":34330,"title":"Рождество в Грейсленде: Родина праздника","kp_id":"1291272","imdb_id":"tt10768410","world_art_id":null,"type":"movie","add":"2019-12-21 12:20:17","orig_title":"Christmas at Graceland: Home for the Holidays","year":"2019-11-23","translations":["Любительский (многоголосый закадровый) (AlphaProject)"],"quality":"hdtv","translation":"Любительский (многоголосый закадровый) (AlphaProject)","update":"2019-12-22 14:01:17","iframe_src":"//8543.svetacdn.in/71tsRs29n5tZ/movie/34330"},{"id":34328,"title":"Четыре руки","kp_id":"1006187","imdb_id":"tt6047482","world_art_id":null,"type":"movie","add":"2019-12-21 12:19:03","orig_title":"Die Vierhändige","year":"2017-06-25","translations":["Любительский (двухголосый закадровый) (Колобок)"],"quality":"webdl","translation":"Любительский (двухголосый закадровый) (Колобок)","update":"2019-12-22 14:04:26","iframe_src":"//8543.svetacdn.in/71tsRs29n5tZ/movie/34328"},{"id":34307,"title":"Правосудие моей пятки","kp_id":"82465","imdb_id":"tt0105385","world_art_id":null,"type":"movie","add":"2019-12-20 15:54:01","orig_title":"Sam sei goon","year":"1992-07-02","translations":["Любительский (одноголосый закадровый)"],"quality":"bd","translation":"Любительский (одноголосый закадровый)","update":"2019-12-23 08:35:31","iframe_src":"//8543.svetacdn.in/71tsRs29n5tZ/movie/34307"},{"id":34275,"title":"При исполнении 4: Свидетель","kp_id":"22074","imdb_id":"tt0097539","world_art_id":null,"type":"movie","add":"2019-12-19 21:06:31","orig_title":"Wong Ka Si Sei IV: Sik Gik Sing Yan","year":"1989-07-21","translations":["Профессиональный (одноголосый закадровый)"],"quality":"bd","translation":"Профессиональный (одноголосый закадровый)","update":"2019-12-22 14:16:47","iframe_src":"//8543.svetacdn.in/71tsRs29n5tZ/movie/34275"},{"id":34045,"title":"Сказочное рождество","kp_id":"1254628","imdb_id":"tt10176734","world_art_id":null,"type":"movie","add":"2019-12-13 06:06:52","orig_title":"A Storybook Christmas","year":"2019-07-13","translations":["Original (English)","Любительский (многоголосый закадровый) (Синема УС)"],"quality":"webdl","translation":"Original (English)","update":"2019-12-22 14:09:20","iframe_src":"//8543.svetacdn.in/71tsRs29n5tZ/movie/34045"},{"id":29875,"title":"Зверь","kp_id":"1197742","imdb_id":"tt10530286","world_art_id":null,"type":"movie","add":"2019-08-08 22:29:32","orig_title":"Biseuteu","year":"2019-06-26","translations":["Полное дублирование (iTunes)"],"quality":"webdl","translation":"Полное дублирование (iTunes)","update":"2019-12-22 17:01:45","iframe_src":"//8543.svetacdn.in/71tsRs29n5tZ/movie/29875"},{"id":22412,"title":"Ким Пять-с-плюсом","kp_id":"1113100","imdb_id":"tt7979492","world_art_id":null,"type":"movie","add":"2019-02-21 08:50:26","orig_title":"Kim Possible","year":"2019-02-15","translations":["Original (English)","Полное дублирование (iTunes)"],"quality":"webdl","translation":"Original (English)","update":"2019-12-22 17:02:20","iframe_src":"//8543.svetacdn.in/71tsRs29n5tZ/movie/22412"},{"id":21499,"title":"А теперь я иду встретиться с тобой","kp_id":"1048223","imdb_id":"tt8092252","world_art_id":null,"type":"movie","add":"2019-01-15 05:40:14","orig_title":"Jigeum Mannareo Gabmida","year":"2018-03-14","translations":["Любительский (многоголосый закадровый) (Синема УС)","Любительский (многоголосый закадровый) (STEPonee)","Любительский (двухголосый закадровый) (SoftBox)"],"quality":"bd","translation":"Любительский (многоголосый закадровый) (Синема УС)","update":"2019-12-23 07:35:38","iframe_src":"//8543.svetacdn.in/71tsRs29n5tZ/movie/21499"},{"id":19456,"title":"Любовник моей жены","kp_id":"1101696","imdb_id":"tt7654872","world_art_id":null,"type":"movie","add":"2018-10-09 00:54:47","orig_title":"Amoureux de ma femme","year":"2018-04-25","translations":["Полное дублирование"],"quality":"bd","translation":"Полное дублирование","update":"2019-12-22 14:12:14","iframe_src":"//8543.svetacdn.in/71tsRs29n5tZ/movie/19456"},{"id":10537,"title":"Рассказы Русалочки","kp_id":"963388","imdb_id":"tt5493944","world_art_id":null,"type":"movie","add":"2017-03-26 22:55:12","orig_title":"The Little Mermaid","year":"2017-03-26","translations":["Профессиональный (многоголосый закадровый) (HDrezka Studio)","Полное дублирование"],"quality":"webdl","translation":"Профессиональный (многоголосый закадровый) (HDrezka Studio)","update":"2019-12-22 14:10:39","iframe_src":"//8543.svetacdn.in/71tsRs29n5tZ/movie/10537"}],"current_page":858,"first_page_url":"https://videocdn.tv/api/short?limit=100&api_token=EnbO9h8pv1VyjbCJhg0WM9nG259n7mtz&cache3858=3858&page=1","from":85701,"last_page":601,"last_page_url":"https://videocdn.tv/api/short?limit=100&api_token=EnbO9h8pv1VyjbCJhg0WM9nG259n7mtz&cache3858=3858&page=601","next_page_url":null,"path":"https://videocdn.tv/api/short","per_page":100,"prev_page_url":"https://videocdn.tv/api/short?limit=100&api_token=EnbO9h8pv1VyjbCJhg0WM9nG259n7mtz&cache3858=3858&page=857","to":85720,"total":60055}