{"result":true,"data":[{"id":26264,"title":"Номер «Люкс» для генерала с девочкой","kp_id":"46461","imdb_id":"tt0179385","world_art_id":null,"type":"movie","add":"2019-05-09 21:45:44","orig_title":"Nomer 'lyuks' dlya generala s devochkoy","year":"1991-01-01","translations":["Оригинальная дорожка"],"quality":"dvdrip","translation":"Оригинальная дорожка","update":"2019-05-10 07:25:17","iframe_src":"//7741.svetacdn.in/si4jsFRrtgrT/movie/26264"},{"id":26263,"title":"Необыкновенные приключения Карика и Вали","kp_id":"94628","imdb_id":"tt0299060","world_art_id":null,"type":"movie","add":"2019-05-09 21:43:38","orig_title":"Neobyknovennyye priklyucheniya Karika i Vali","year":"1987-01-01","translations":["Оригинальная дорожка"],"quality":"dvdrip","translation":"Оригинальная дорожка","update":"2019-05-10 07:24:07","iframe_src":"//7741.svetacdn.in/si4jsFRrtgrT/movie/26263"},{"id":26262,"title":"Над Тиссой","kp_id":"46298","imdb_id":"tt0234307","world_art_id":null,"type":"movie","add":"2019-05-09 21:42:22","orig_title":"Nad Tissoy","year":"1958-12-23","translations":["Оригинальная дорожка"],"quality":"dvdrip","translation":"Оригинальная дорожка","update":"2019-05-10 07:23:01","iframe_src":"//7741.svetacdn.in/si4jsFRrtgrT/movie/26262"},{"id":26261,"title":"Пистолет с глушителем","kp_id":"40912","imdb_id":"tt0107829","world_art_id":null,"type":"movie","add":"2019-05-09 21:41:10","orig_title":"Pistolet s glushitelem","year":"1993-01-01","translations":["Оригинальная дорожка"],"quality":"dvdrip","translation":"Оригинальная дорожка","update":"2019-05-10 07:22:08","iframe_src":"//7741.svetacdn.in/si4jsFRrtgrT/movie/26261"},{"id":26260,"title":"На перепутье","kp_id":"502053","imdb_id":"tt2839010","world_art_id":null,"type":"movie","add":"2019-05-09 21:41:07","orig_title":"Na perepute","year":"2011-04-07","translations":["Оригинальная дорожка"],"quality":"sat","translation":"Оригинальная дорожка","update":"2019-05-10 07:21:01","iframe_src":"//7741.svetacdn.in/si4jsFRrtgrT/movie/26260"},{"id":26259,"title":"Мой лучший друг, генерал Василий, сын Иосифа","kp_id":"46674","imdb_id":"tt0168076","world_art_id":null,"type":"movie","add":"2019-05-09 21:39:51","orig_title":"Moy luchshiy drug, general Vasiliy, syn Iosifa","year":"1991-04-01","translations":["Оригинальная дорожка"],"quality":"sat","translation":"Оригинальная дорожка","update":"2019-05-10 07:20:11","iframe_src":"//7741.svetacdn.in/si4jsFRrtgrT/movie/26259"},{"id":26258,"title":"Племянник, или Русский бизнес 2","kp_id":"95220","imdb_id":"tt0382233","world_art_id":null,"type":"movie","add":"2019-05-09 21:38:15","orig_title":"Plemyannik ili Russkiy biznes 2","year":"2002-01-01","translations":["Оригинальная дорожка"],"quality":"dvdrip","translation":"Оригинальная дорожка","update":"2019-05-10 07:19:06","iframe_src":"//7741.svetacdn.in/si4jsFRrtgrT/movie/26258"},{"id":26257,"title":"Путешествия пана Кляксы","kp_id":"43050","imdb_id":"tt0091772","world_art_id":null,"type":"movie","add":"2019-05-09 21:37:45","orig_title":"Podróze pana Kleksa","year":"1986-02-03","translations":["Полное дублирование"],"quality":"bd","translation":"Полное дублирование","update":"2019-05-10 07:17:49","iframe_src":"//7741.svetacdn.in/si4jsFRrtgrT/movie/26257"},{"id":26256,"title":"Мальчик с пальчик","kp_id":"43075","imdb_id":"tt0089818","world_art_id":null,"type":"movie","add":"2019-05-09 21:36:03","orig_title":"Malchik s palchik","year":"1985-01-03","translations":["Оригинальная дорожка"],"quality":"dvdrip","translation":"Оригинальная дорожка","update":"2019-05-10 07:16:59","iframe_src":"//7741.svetacdn.in/si4jsFRrtgrT/movie/26256"},{"id":26255,"title":"Повесть о настоящем человеке","kp_id":"43184","imdb_id":"tt0040707","world_art_id":null,"type":"movie","add":"2019-05-09 21:35:09","orig_title":"Povest o nastoyashchem cheloveke","year":"1948-10-22","translations":["Оригинальная дорожка"],"quality":"dvdrip","translation":"Оригинальная дорожка","update":"2019-05-10 07:15:41","iframe_src":"//7741.svetacdn.in/si4jsFRrtgrT/movie/26255"},{"id":26254,"title":"Куда он денется!","kp_id":"45020","imdb_id":"tt0237391","world_art_id":null,"type":"movie","add":"2019-05-09 21:34:31","orig_title":"Kuda on denetsya!","year":"1981-01-01","translations":["Оригинальная дорожка"],"quality":"dvdrip","translation":"Оригинальная дорожка","update":"2019-05-10 07:14:12","iframe_src":"//7741.svetacdn.in/si4jsFRrtgrT/movie/26254"},{"id":26253,"title":"Главный калибр","kp_id":"412378","imdb_id":null,"world_art_id":null,"type":"movie","add":"2019-05-09 21:33:04","orig_title":"Главный калибр","year":"2007-06-24","translations":["Оригинальная дорожка"],"quality":"dvdrip","translation":"Оригинальная дорожка","update":"2019-05-10 07:13:05","iframe_src":"//7741.svetacdn.in/si4jsFRrtgrT/movie/26253"},{"id":26251,"title":"Два друга","kp_id":"44332","imdb_id":"tt0048026","world_art_id":null,"type":"movie","add":"2019-05-09 21:31:39","orig_title":"Dva druga","year":"1955-03-29","translations":["Оригинальная дорожка"],"quality":"sat","translation":"Оригинальная дорожка","update":"2019-05-10 07:10:35","iframe_src":"//7741.svetacdn.in/si4jsFRrtgrT/movie/26251"},{"id":26249,"title":"Диван для одинокого мужчины","kp_id":"661238","imdb_id":null,"world_art_id":null,"type":"movie","add":"2019-05-09 21:29:06","orig_title":"Диван для одинокого мужчины","year":"2012-01-01","translations":["Оригинальная дорожка"],"quality":"sat","translation":"Оригинальная дорожка","update":"2019-05-10 07:06:34","iframe_src":"//7741.svetacdn.in/si4jsFRrtgrT/movie/26249"},{"id":26248,"title":"И жизнь, и слезы, и любовь","kp_id":"42565","imdb_id":"tt0167204","world_art_id":null,"type":"movie","add":"2019-05-09 21:28:36","orig_title":"I zhizn, i slyozy, i lyubov...","year":"1984-08-20","translations":["Оригинальная дорожка"],"quality":"dvdrip","translation":"Оригинальная дорожка","update":"2019-05-10 07:05:12","iframe_src":"//7741.svetacdn.in/si4jsFRrtgrT/movie/26248"},{"id":26247,"title":"Денискины рассказы","kp_id":"474721","imdb_id":"tt1508257","world_art_id":null,"type":"movie","add":"2019-05-09 21:27:58","orig_title":"Deniskiny rasskazy","year":"1970-01-01","translations":["Оригинальная дорожка"],"quality":"dvdrip","translation":"Оригинальная дорожка","update":"2019-05-10 07:04:17","iframe_src":"//7741.svetacdn.in/si4jsFRrtgrT/movie/26247"},{"id":26246,"title":"Бомжиха 2","kp_id":"501962","imdb_id":"tt3519324","world_art_id":null,"type":"movie","add":"2019-05-09 21:26:26","orig_title":"Bomzhikha 2","year":"2010-03-08","translations":["Оригинальная дорожка"],"quality":"sat","translation":"Оригинальная дорожка","update":"2019-05-10 07:03:39","iframe_src":"//7741.svetacdn.in/si4jsFRrtgrT/movie/26246"},{"id":26245,"title":"Наши девушки","kp_id":"256138","imdb_id":"tt0495162","world_art_id":null,"type":"movie","add":"2019-05-09 21:25:13","orig_title":"Boyevoy kinosbornik 13: Nashi devushki","year":"1942-01-01","translations":["Оригинальная дорожка"],"quality":"dvdrip","translation":"Оригинальная дорожка","update":"2019-05-10 07:01:44","iframe_src":"//7741.svetacdn.in/si4jsFRrtgrT/movie/26245"},{"id":26244,"title":"Вдали от Родины","kp_id":"45685","imdb_id":"tt0140672","world_art_id":null,"type":"movie","add":"2019-05-09 21:23:38","orig_title":"Vdali ot rodiny","year":"1960-05-09","translations":["Оригинальная дорожка"],"quality":"dvdrip","translation":"Оригинальная дорожка","update":"2019-05-10 06:58:15","iframe_src":"//7741.svetacdn.in/si4jsFRrtgrT/movie/26244"},{"id":26243,"title":"В тылу врага","kp_id":"45644","imdb_id":"tt0329722","world_art_id":null,"type":"movie","add":"2019-05-09 21:22:28","orig_title":"V tylu vraga","year":"1941-07-14","translations":["Оригинальная дорожка"],"quality":"dvdrip","translation":"Оригинальная дорожка","update":"2019-05-10 06:56:58","iframe_src":"//7741.svetacdn.in/si4jsFRrtgrT/movie/26243"}],"current_page":1810,"first_page_url":"https://videocdn.tv/api/short?limit=100&api_token=X6EwAUfE5M9xbo7y0Bp0aPf3uXxG2KLL&cache31810=31810&page=1","from":180901,"last_page":707,"last_page_url":"https://videocdn.tv/api/short?limit=100&api_token=X6EwAUfE5M9xbo7y0Bp0aPf3uXxG2KLL&cache31810=31810&page=707","next_page_url":null,"path":"https://videocdn.tv/api/short","per_page":100,"prev_page_url":"https://videocdn.tv/api/short?limit=100&api_token=X6EwAUfE5M9xbo7y0Bp0aPf3uXxG2KLL&cache31810=31810&page=1809","to":180920,"total":70605}