{"result":true,"data":[{"id":52220,"title":"Дикая натура","kp_id":"1429363","imdb_id":"tt13154142","world_art_id":null,"type":"movie","add":"2021-08-04 16:23:07","orig_title":"A Savage Nature","year":"2020-10-15","translations":["Любительский (многоголосый закадровый) (@MUZOBOZ@)"],"quality":"webdl","translation":"Любительский (многоголосый закадровый) (@MUZOBOZ@)","update":"2021-08-05 04:22:33","iframe_src":"//5091.svetacdn.in/IAF0wWTdNYZm/movie/52220"},{"id":52218,"title":"Поездка в Парадайс","kp_id":"1331317","imdb_id":"tt11374586","world_art_id":null,"type":"movie","add":"2021-08-04 16:19:06","orig_title":"Pooling to Paradise","year":"2021-03-21","translations":["Любительский (многоголосый закадровый) (@MUZOBOZ@)"],"quality":"webdl","translation":"Любительский (многоголосый закадровый) (@MUZOBOZ@)","update":"2021-08-05 04:22:18","iframe_src":"//5091.svetacdn.in/IAF0wWTdNYZm/movie/52218"},{"id":52215,"title":"Бродящий по пустоши","kp_id":null,"imdb_id":"tt14730740","world_art_id":null,"type":"movie","add":"2021-08-04 16:13:37","orig_title":"Zone Drifter","year":"2021-08-03","translations":["Любительский (многоголосый закадровый) (@MUZOBOZ@)"],"quality":"webdl","translation":"Любительский (многоголосый закадровый) (@MUZOBOZ@)","update":"2021-08-05 04:22:01","iframe_src":"//5091.svetacdn.in/IAF0wWTdNYZm/movie/52215"},{"id":52213,"title":"Дверь в дверь","kp_id":"277587","imdb_id":"tt0274468","world_art_id":null,"type":"movie","add":"2021-08-04 12:25:26","orig_title":"Door to Door","year":"2002-06-01","translations":["Любительский (одноголосый закадровый)"],"quality":"webdl","translation":"Любительский (одноголосый закадровый)","update":"2021-08-04 16:18:53","iframe_src":"//5091.svetacdn.in/IAF0wWTdNYZm/movie/52213"},{"id":52212,"title":"За что?","kp_id":"1396050","imdb_id":"tt12680856","world_art_id":null,"type":"movie","add":"2021-08-04 10:52:46","orig_title":"Why","year":"2021-07-15","translations":["Любительский (многоголосый закадровый) (Синема УС)"],"quality":"webdl","translation":"Любительский (многоголосый закадровый) (Синема УС)","update":"2021-08-04 19:50:29","iframe_src":"//5091.svetacdn.in/IAF0wWTdNYZm/movie/52212"},{"id":52211,"title":"Малик","kp_id":"1303107","imdb_id":"tt10919240","world_art_id":null,"type":"movie","add":"2021-08-04 10:51:01","orig_title":"Malik","year":"2021-01-01","translations":["Любительский (многоголосый закадровый) (Синема УС)"],"quality":"webdl","translation":"Любительский (многоголосый закадровый) (Синема УС)","update":"2021-08-04 19:49:33","iframe_src":"//5091.svetacdn.in/IAF0wWTdNYZm/movie/52211"},{"id":52210,"title":"Решительные меры","kp_id":"1166482","imdb_id":"tt8615164","world_art_id":null,"type":"movie","add":"2021-08-04 10:25:43","orig_title":"Drastic Measures","year":"2019-09-01","translations":["Любительский (многоголосый закадровый) (Синема УС)"],"quality":"webdl","translation":"Любительский (многоголосый закадровый) (Синема УС)","update":"2021-08-04 19:51:13","iframe_src":"//5091.svetacdn.in/IAF0wWTdNYZm/movie/52210"},{"id":52209,"title":"Анализируя Ашеров","kp_id":"1002411","imdb_id":"tt6027372","world_art_id":null,"type":"movie","add":"2021-08-04 09:42:09","orig_title":"Deconstructing the Ushers","year":"2019-01-01","translations":["Любительский (многоголосый закадровый) (Синема УС)"],"quality":"webdl","translation":"Любительский (многоголосый закадровый) (Синема УС)","update":"2021-08-04 16:08:11","iframe_src":"//5091.svetacdn.in/IAF0wWTdNYZm/movie/52209"},{"id":52208,"title":"Под миражем солнца","kp_id":"1204800","imdb_id":"tt9095296","world_art_id":null,"type":"movie","add":"2021-08-04 09:35:02","orig_title":"Breve Miragem de Sol","year":"2019-01-01","translations":["Любительский (многоголосый закадровый) (Синема УС)"],"quality":"webdl","translation":"Любительский (многоголосый закадровый) (Синема УС)","update":"2021-08-04 16:07:25","iframe_src":"//5091.svetacdn.in/IAF0wWTdNYZm/movie/52208"},{"id":52207,"title":"Похищенная","kp_id":"1448759","imdb_id":"tt12717808","world_art_id":null,"type":"movie","add":"2021-08-04 06:05:29","orig_title":"Abducted","year":"2021-01-01","translations":["Любительский (многоголосый закадровый) (Синема УС)"],"quality":"webdl","translation":"Любительский (многоголосый закадровый) (Синема УС)","update":"2021-08-04 20:19:13","iframe_src":"//5091.svetacdn.in/IAF0wWTdNYZm/movie/52207"},{"id":52206,"title":"Монстр из бутылки","kp_id":"1322825","imdb_id":"tt11219136","world_art_id":null,"type":"movie","add":"2021-08-04 06:00:43","orig_title":"Bottle Monster","year":"2021-08-03","translations":["Любительский (многоголосый закадровый) (@MUZOBOZ@)"],"quality":"webdl","translation":"Любительский (многоголосый закадровый) (@MUZOBOZ@)","update":"2021-08-04 20:18:52","iframe_src":"//5091.svetacdn.in/IAF0wWTdNYZm/movie/52206"},{"id":52205,"title":"Праведная Кровь","kp_id":"4383484","imdb_id":"tt13845956","world_art_id":null,"type":"movie","add":"2021-08-04 05:59:04","orig_title":"Righteous Blood","year":"2021-01-01","translations":["Любительский (многоголосый закадровый) (Синема УС)"],"quality":"webdl","translation":"Любительский (многоголосый закадровый) (Синема УС)","update":"2021-08-04 20:18:03","iframe_src":"//5091.svetacdn.in/IAF0wWTdNYZm/movie/52205"},{"id":52201,"title":"Незнакомец наблюдает","kp_id":"6516","imdb_id":"tt0084735","world_art_id":null,"type":"movie","add":"2021-08-04 05:10:38","orig_title":"A Stranger Is Watching","year":"1982-01-22","translations":["Профессиональный (многоголосый закадровый) (РТР | Россия)","Original (English)"],"quality":"bd","translation":"Профессиональный (многоголосый закадровый) (РТР | Россия)","update":"2021-08-04 10:47:54","iframe_src":"//5091.svetacdn.in/IAF0wWTdNYZm/movie/52201"},{"id":51506,"title":"Все, кто её любил","kp_id":"1316705","imdb_id":"tt11177158","world_art_id":null,"type":"movie","add":"2021-07-01 07:25:36","orig_title":"All Who Loved Her","year":"2021-06-29","translations":["Любительский (многоголосый закадровый) (Синема УС)"],"quality":"webdl","translation":"Любительский (многоголосый закадровый) (Синема УС)","update":"2021-08-05 04:19:09","iframe_src":"//5091.svetacdn.in/IAF0wWTdNYZm/movie/51506"},{"id":51505,"title":"Ход короля","kp_id":null,"imdb_id":"tt14250486","world_art_id":null,"type":"movie","add":"2021-07-01 07:24:24","orig_title":"Boss Moves","year":"2021-01-01","translations":["Любительский (многоголосый закадровый) (Синема УС)","Любительский (многоголосый закадровый) (Синема УС)"],"quality":"webdl","translation":"Любительский (многоголосый закадровый) (Синема УС)","update":"2021-08-05 04:20:21","iframe_src":"//5091.svetacdn.in/IAF0wWTdNYZm/movie/51505"},{"id":51504,"title":"Точка эвакуации","kp_id":"1239119","imdb_id":"tt9674196","world_art_id":null,"type":"movie","add":"2021-07-01 07:22:51","orig_title":"Extraction Point","year":"2021-01-01","translations":["Любительский (многоголосый закадровый) (Синема УС)","Любительский (многоголосый закадровый) (Синема УС)"],"quality":"webdl","translation":"Любительский (многоголосый закадровый) (Синема УС)","update":"2021-08-05 04:19:55","iframe_src":"//5091.svetacdn.in/IAF0wWTdNYZm/movie/51504"},{"id":50813,"title":"Отрываясь по полной...","kp_id":"79613","imdb_id":"tt0406977","world_art_id":null,"type":"movie","add":"2021-05-31 19:39:48","orig_title":"Masti","year":"2004-04-09","translations":["Профессиональный (многоголосый закадровый) (Формат AB)"],"quality":"webdl","translation":"Профессиональный (многоголосый закадровый) (Формат AB)","update":"2021-08-05 04:19:34","iframe_src":"//5091.svetacdn.in/IAF0wWTdNYZm/movie/50813"},{"id":50722,"title":"Бегущая в лабиринте","kp_id":"1147971","imdb_id":"tt5752192","world_art_id":null,"type":"movie","add":"2021-05-29 08:33:47","orig_title":"Meander","year":"2020-10-10","translations":["Полное дублирование (iTunes)","Любительский (многоголосый закадровый) (@MUZOBOZ@)"],"quality":"webdl","translation":"Полное дублирование (iTunes)","update":"2021-08-05 04:18:47","iframe_src":"//5091.svetacdn.in/IAF0wWTdNYZm/movie/50722"},{"id":49776,"title":"Другая правда","kp_id":"1253639","imdb_id":"tt10051088","world_art_id":null,"type":"movie","add":"2021-04-21 10:01:18","orig_title":"Curveball","year":"2021-04-09","translations":["Любительский (многоголосый закадровый) (Синема УС)"],"quality":"webdl","translation":"Любительский (многоголосый закадровый) (Синема УС)","update":"2021-08-04 13:08:11","iframe_src":"//5091.svetacdn.in/IAF0wWTdNYZm/movie/49776"},{"id":9888,"title":"Это грех","kp_id":"1311396","imdb_id":"tt9140342","world_art_id":null,"type":"serial","add":"2021-02-09 06:58:33","orig_title":"It's a Sin","year":"2021-01-22","translations":["Профессиональный (многоголосый закадровый) (Amedia)"],"seasons_count":1,"episodes_count":5,"episodes":5,"update":"2021-02-09 09:46:17","iframe_src":"//5091.svetacdn.in/IAF0wWTdNYZm/tv-series/9888"},{"id":9877,"title":"Трое","kp_id":"633650","imdb_id":"tt2071322","world_art_id":null,"type":"serial","add":"2021-02-08 09:47:29","orig_title":"Threesome","year":"2011-10-17","translations":["Профессиональный (многоголосый закадровый) (Кравец)"],"seasons_count":1,"episodes_count":7,"episodes":7,"update":"2021-02-09 08:17:54","iframe_src":"//5091.svetacdn.in/IAF0wWTdNYZm/tv-series/9877"},{"id":9873,"title":"Закаты и рассветы","kp_id":"1399263","imdb_id":null,"world_art_id":null,"type":"serial","add":"2021-02-08 06:08:41","orig_title":"Закаты и рассветы","year":"2021-02-07","translations":["Оригинальная дорожка"],"seasons_count":1,"episodes_count":4,"episodes":4,"update":"2021-02-08 14:55:43","iframe_src":"//5091.svetacdn.in/IAF0wWTdNYZm/tv-series/9873"},{"id":9872,"title":"Отключение","kp_id":"1315179","imdb_id":"tt11011882","world_art_id":null,"type":"serial","add":"2021-02-08 05:56:31","orig_title":"Black-out","year":"2020-11-22","translations":["Профессиональный (многоголосый закадровый) (Contentica)"],"seasons_count":1,"episodes_count":10,"episodes":10,"update":"2021-02-08 08:09:41","iframe_src":"//5091.svetacdn.in/IAF0wWTdNYZm/tv-series/9872"},{"id":9868,"title":"Безумная любовь","kp_id":"541919","imdb_id":"tt1684910","world_art_id":null,"type":"serial","add":"2021-02-08 05:14:17","orig_title":"Mad Love","year":"2011-02-14","translations":["Профессиональный (многоголосый закадровый) (SET)"],"seasons_count":1,"episodes_count":13,"episodes":13,"update":"2021-02-09 08:27:19","iframe_src":"//5091.svetacdn.in/IAF0wWTdNYZm/tv-series/9868"},{"id":9866,"title":"В королевстве растений","kp_id":"732799","imdb_id":"tt2117380","world_art_id":null,"type":"serial","add":"2021-02-07 15:53:24","orig_title":"Kingdom of Plants 3D","year":"2012-05-06","translations":["Профессиональный (одноголосый закадровый)"],"seasons_count":1,"episodes_count":3,"episodes":3,"update":"2021-02-08 12:19:13","iframe_src":"//5091.svetacdn.in/IAF0wWTdNYZm/tv-series/9866"},{"id":9848,"title":"Полицейские на велосипедах","kp_id":"258349","imdb_id":"tt0112112","world_art_id":null,"type":"serial","add":"2021-02-04 11:39:20","orig_title":"Pacific Blue","year":"1996-03-02","translations":["Профессиональный (двухголосый закадровый) (CBS Drama)"],"seasons_count":5,"episodes_count":101,"episodes":22,"update":"2021-02-09 09:30:10","iframe_src":"//5091.svetacdn.in/IAF0wWTdNYZm/tv-series/9848"},{"id":9844,"title":"Любовь вдовца","kp_id":"257387","imdb_id":"tt0318883","world_art_id":null,"type":"serial","add":"2021-02-04 10:22:56","orig_title":"Everwood","year":"2002-09-16","translations":["Профессиональный (многоголосый закадровый)"],"seasons_count":4,"episodes_count":89,"episodes":22,"update":"2021-02-08 16:42:04","iframe_src":"//5091.svetacdn.in/IAF0wWTdNYZm/tv-series/9844"},{"id":9843,"title":"Моя ненаглядная девочка","kp_id":"419538","imdb_id":"tt0357390","world_art_id":null,"type":"serial","add":"2021-02-04 09:48:45","orig_title":"La niña de mis ojos","year":"2001-10-24","translations":["Любительский (одноголосый закадровый)"],"seasons_count":1,"episodes_count":130,"episodes":130,"update":"2021-02-09 09:12:51","iframe_src":"//5091.svetacdn.in/IAF0wWTdNYZm/tv-series/9843"},{"id":9841,"title":"Два Антона","kp_id":"478852","imdb_id":"tt2329435","world_art_id":null,"type":"serial","add":"2021-02-03 18:39:03","orig_title":"Dva Antona","year":"2009-12-31","translations":["Оригинальная дорожка"],"seasons_count":1,"episodes_count":24,"episodes":24,"update":"2021-02-08 20:00:17","iframe_src":"//5091.svetacdn.in/IAF0wWTdNYZm/tv-series/9841"},{"id":9836,"title":"У каждого своя ложь","kp_id":"2003367","imdb_id":null,"world_art_id":null,"type":"serial","add":"2021-02-02 20:13:34","orig_title":"У каждого своя ложь","year":"2020-12-01","translations":["Оригинальная дорожка"],"seasons_count":1,"episodes_count":12,"episodes":12,"update":"2021-02-08 16:24:24","iframe_src":"//5091.svetacdn.in/IAF0wWTdNYZm/tv-series/9836"},{"id":9774,"title":"Талисман","kp_id":"251950","imdb_id":"tt0420382","world_art_id":null,"type":"serial","add":"2021-01-21 19:55:34","orig_title":"Começar de Novo","year":"2004-01-01","translations":["Профессиональный (многоголосый закадровый)"],"seasons_count":1,"episodes_count":130,"episodes":130,"update":"2021-02-08 21:17:24","iframe_src":"//5091.svetacdn.in/IAF0wWTdNYZm/tv-series/9774"},{"id":9773,"title":"Чертенок","kp_id":"392548","imdb_id":"tt0247890","world_art_id":null,"type":"serial","add":"2021-01-21 19:53:08","orig_title":"Pobre diabla","year":"2000-05-02","translations":["Профессиональный (многоголосый закадровый)"],"seasons_count":1,"episodes_count":180,"episodes":180,"update":"2021-02-08 19:34:28","iframe_src":"//5091.svetacdn.in/IAF0wWTdNYZm/tv-series/9773"},{"id":7736,"title":"Записки отельера #Гельвеция","kp_id":"1338436","imdb_id":"tt12309068","world_art_id":null,"type":"serial","add":"2020-06-04 10:28:37","orig_title":"Zapiski oteljera #Helvetia","year":"2020-05-19","translations":["Оригинальная дорожка"],"seasons_count":1,"episodes_count":10,"episodes":10,"update":"2021-02-08 15:17:01","iframe_src":"//5091.svetacdn.in/IAF0wWTdNYZm/tv-series/7736"},{"id":4066,"title":"Ничто не случается дважды","kp_id":"1162631","imdb_id":"tt10101830","world_art_id":null,"type":"serial","add":"2019-02-12 18:15:39","orig_title":"Nichto ne sluchaetsya dvazhdy","year":"2019-02-11","translations":["Оригинальная дорожка","Полное дублирование"],"seasons_count":1,"episodes_count":24,"episodes":24,"update":"2021-02-09 09:30:32","iframe_src":"//5091.svetacdn.in/IAF0wWTdNYZm/tv-series/4066"},{"id":3236,"title":"Подозрительная сова","kp_id":"1002913","imdb_id":"tt8463566","world_art_id":null,"type":"serial","add":"2018-09-28 11:28:46","orig_title":"Podozritelnaya sova","year":"2016-08-26","translations":["Оригинальная дорожка"],"seasons_count":8,"episodes_count":158,"episodes":18,"update":"2021-02-08 16:03:55","iframe_src":"//5091.svetacdn.in/IAF0wWTdNYZm/tv-series/3236"},{"id":1787,"title":"Мост","kp_id":"574497","imdb_id":"tt1733785","world_art_id":null,"type":"serial","add":"2017-11-30 09:05:48","orig_title":"Bron/Broen","year":"2011-09-21","translations":["Профессиональный (многоголосый закадровый) (BaibaKo)","Профессиональный (многоголосый закадровый) (Amedia)","Профессиональный (многоголосый закадровый) (ShowJet)","Профессиональный (многоголосый закадровый) (Novamedia)"],"seasons_count":4,"episodes_count":38,"episodes":8,"update":"2021-02-07 13:55:55","iframe_src":"//5091.svetacdn.in/IAF0wWTdNYZm/tv-series/1787"},{"id":1267,"title":"Проводница","kp_id":"1042706","imdb_id":"tt10188478","world_art_id":null,"type":"serial","add":"2017-05-26 09:46:26","orig_title":"Provodnitsa","year":"2017-05-15","translations":["Оригинальная дорожка"],"seasons_count":2,"episodes_count":40,"episodes":20,"update":"2021-02-08 11:55:52","iframe_src":"//5091.svetacdn.in/IAF0wWTdNYZm/tv-series/1267"},{"id":161,"title":"Гоморра","kp_id":"820540","imdb_id":"tt2049116","world_art_id":null,"type":"serial","add":"2016-06-09 04:29:18","orig_title":"Gomorra - La serie","year":"2014-05-06","translations":["Профессиональный (многоголосый закадровый)","Профессиональный (многоголосый закадровый) (HDrezka Studio)","Профессиональный (многоголосый закадровый) (Premier)","Профессиональный (многоголосый закадровый) (Первый канал | ОРТ)","Любительский (двухголосый закадровый) (Sunshine Studio)","Профессиональный (многоголосый закадровый) (ViruseProject)","Профессиональный (многоголосый закадровый) (IdeaFilm)","Профессиональный (многоголосый закадровый) (AMS)"],"seasons_count":4,"episodes_count":48,"episodes":12,"update":"2021-02-07 13:35:51","iframe_src":"//5091.svetacdn.in/IAF0wWTdNYZm/tv-series/161"},{"id":81,"title":"Банши","kp_id":"696973","imdb_id":"tt2017109","world_art_id":null,"type":"serial","add":"2016-05-18 10:23:44","orig_title":"Banshee","year":"2013-01-11","translations":["Профессиональный (многоголосый закадровый) (NewStudio)","Профессиональный (многоголосый закадровый) (Пифагор)"],"seasons_count":4,"episodes_count":38,"episodes":8,"update":"2021-02-07 13:25:15","iframe_src":"//5091.svetacdn.in/IAF0wWTdNYZm/tv-series/81"},{"id":1900,"title":"Слезы солнца","kp_id":"855","imdb_id":"tt0314353","world_art_id":null,"type":"movie","add":"2016-05-05 12:31:39","orig_title":"Tears of the Sun","year":"2003-03-03","translations":["Полное дублирование","Авторский (одноголосый закадровый) (Карповский Антон)","Полное дублирование","Original (English)","Профессиональный (многоголосый закадровый)"],"quality":"bd","translation":"Полное дублирование","update":"2021-08-04 15:50:22","iframe_src":"//5091.svetacdn.in/IAF0wWTdNYZm/movie/1900"}],"current_page":130,"first_page_url":"https://videocdn.tv/api/short?limit=100&api_token=6Onb1W1alEUrBcKJZD3GoKBbWyAl2uG2&cache3130=3130&page=1","from":12901,"last_page":667,"last_page_url":"https://videocdn.tv/api/short?limit=100&api_token=6Onb1W1alEUrBcKJZD3GoKBbWyAl2uG2&cache3130=3130&page=667","next_page_url":"https://videocdn.tv/api/short?limit=100&api_token=6Onb1W1alEUrBcKJZD3GoKBbWyAl2uG2&cache3130=3130&page=131","path":"https://videocdn.tv/api/short","per_page":100,"prev_page_url":"https://videocdn.tv/api/short?limit=100&api_token=6Onb1W1alEUrBcKJZD3GoKBbWyAl2uG2&cache3130=3130&page=129","to":12940,"total":66648}