{"result":true,"data":[{"id":51383,"title":"Прикасаясь вплотную","kp_id":"275386","imdb_id":"tt0497148","world_art_id":null,"type":"movie","add":"2021-06-23 15:56:43","orig_title":"À bras le corps","year":"2005-11-29","translations":["Любительский (одноголосый закадровый) (Водяной Александр)"],"quality":"webdl","translation":"Любительский (одноголосый закадровый) (Водяной Александр)","update":"2021-06-24 05:29:27","iframe_src":"//7741.svetacdn.in/IAF0wWTdNYZm/movie/51383"},{"id":51372,"title":"Жажда мира","kp_id":"677938","imdb_id":"tt2364729","world_art_id":null,"type":"movie","add":"2021-06-23 09:19:02","orig_title":"La soif du monde","year":"2012-03-20","translations":["Авторский (одноголосый закадровый) (Курдов Владимир)"],"quality":"bd","translation":"Авторский (одноголосый закадровый) (Курдов Владимир)","update":"2021-06-24 06:26:10","iframe_src":"//7741.svetacdn.in/IAF0wWTdNYZm/movie/51372"},{"id":51369,"title":"Приятный разговор","kp_id":"9241","imdb_id":"tt0090037","world_art_id":null,"type":"movie","add":"2021-06-23 07:27:12","orig_title":"Smooth Talk","year":"1985-09-10","translations":["Авторский (одноголосый закадровый) (Воротилин Олег)"],"quality":"bd","translation":"Авторский (одноголосый закадровый) (Воротилин Олег)","update":"2021-06-24 06:24:47","iframe_src":"//7741.svetacdn.in/IAF0wWTdNYZm/movie/51369"},{"id":51365,"title":"История солдата 2: Воскрешение из мертвых","kp_id":"1113683","imdb_id":"tt7908426","world_art_id":null,"type":"movie","add":"2021-06-23 04:31:05","orig_title":"A Soldier's Story 2: Return from the Dead","year":"2020-12-11","translations":["Любительский (многоголосый закадровый) (Синема УС)"],"quality":"webdl","translation":"Любительский (многоголосый закадровый) (Синема УС)","update":"2021-06-23 20:19:04","iframe_src":"//7741.svetacdn.in/IAF0wWTdNYZm/movie/51365"},{"id":51364,"title":"Нянька должна умереть","kp_id":"1342777","imdb_id":"tt11505682","world_art_id":null,"type":"movie","add":"2021-06-23 04:29:54","orig_title":"Josie Jane: Kill the Babysitter","year":"2020-10-23","translations":["Любительский (многоголосый закадровый) (@MUZOBOZ@)","Любительский (одноголосый закадровый) (datynet | Агапов Антон)"],"quality":"webdl","translation":"Любительский (многоголосый закадровый) (@MUZOBOZ@)","update":"2021-06-24 05:27:59","iframe_src":"//7741.svetacdn.in/IAF0wWTdNYZm/movie/51364"},{"id":51360,"title":"Белая смерть","kp_id":"1370383","imdb_id":"tt12137660","world_art_id":null,"type":"movie","add":"2021-06-23 04:23:17","orig_title":"White Demise","year":"2021-06-22","translations":["Любительский (многоголосый закадровый) (Синема УС)"],"quality":"webdl","translation":"Любительский (многоголосый закадровый) (Синема УС)","update":"2021-06-23 20:17:48","iframe_src":"//7741.svetacdn.in/IAF0wWTdNYZm/movie/51360"},{"id":51353,"title":"Дом с деньгами","kp_id":"54344","imdb_id":"tt0175615","world_art_id":null,"type":"movie","add":"2021-06-22 17:16:49","orig_title":"Fleur d'oseille","year":"1967-09-22","translations":["Любительский (одноголосый закадровый) (dimadima)"],"quality":"bd","translation":"Любительский (одноголосый закадровый) (dimadima)","update":"2021-06-24 06:23:47","iframe_src":"//7741.svetacdn.in/IAF0wWTdNYZm/movie/51353"},{"id":51351,"title":"Хищники океанов 3D","kp_id":"788422","imdb_id":"tt3241768","world_art_id":null,"type":"movie","add":"2021-06-22 11:40:19","orig_title":"Ocean Predators","year":"2013-11-12","translations":["Полное дублирование"],"quality":"bd","translation":"Полное дублирование","update":"2021-06-24 06:18:38","iframe_src":"//7741.svetacdn.in/IAF0wWTdNYZm/movie/51351"},{"id":51350,"title":"Бурдж-Халифа. Вертикальный город","kp_id":null,"imdb_id":"tt4890496","world_art_id":null,"type":"movie","add":"2021-06-22 11:37:02","orig_title":"Burj Khalifa: Dubai's Vertical City","year":"2011-01-01","translations":["Профессиональный (двухголосый закадровый) (Видеофильм)"],"quality":"webdl","translation":"Профессиональный (двухголосый закадровый) (Видеофильм)","update":"2021-06-24 06:16:03","iframe_src":"//7741.svetacdn.in/IAF0wWTdNYZm/movie/51350"},{"id":50307,"title":"Вместе-вместе","kp_id":"1321809","imdb_id":"tt11285280","world_art_id":null,"type":"movie","add":"2021-05-11 19:54:12","orig_title":"Together Together","year":"2021-01-31","translations":["Профессиональный (многоголосый закадровый) (iTunes)","[EN] Original (English)"],"quality":"webdl","translation":"Профессиональный (многоголосый закадровый) (iTunes)","update":"2021-06-24 05:31:31","iframe_src":"//7741.svetacdn.in/IAF0wWTdNYZm/movie/50307"},{"id":35048,"title":"Душа на кожаном шнурке","kp_id":"997810","imdb_id":"tt5974624","world_art_id":null,"type":"movie","add":"2020-01-14 22:30:13","orig_title":"Pi sheng shang de hun","year":"2016-06-15","translations":["Любительский (одноголосый закадровый) (BadBajo | Важенин Андрей)","Любительский (одноголосый закадровый) (BadBajo | Важенин Андрей)"],"quality":"dvdrip","translation":"Любительский (одноголосый закадровый) (BadBajo | Важенин Андрей)","update":"2021-06-24 05:33:05","iframe_src":"//7741.svetacdn.in/IAF0wWTdNYZm/movie/35048"},{"id":29309,"title":"Добровольцы","kp_id":"44239","imdb_id":"tt0051541","world_art_id":null,"type":"movie","add":"2019-07-23 06:33:28","orig_title":"Dobrovoltsy","year":"1958-10-20","translations":["Оригинальная дорожка","Оригинальная дорожка"],"quality":"dvdrip","translation":"Оригинальная дорожка","update":"2021-06-24 06:25:37","iframe_src":"//7741.svetacdn.in/IAF0wWTdNYZm/movie/29309"},{"id":26833,"title":"Дом, в котором я живу","kp_id":"44270","imdb_id":"tt0167900","world_art_id":null,"type":"movie","add":"2019-05-21 17:28:50","orig_title":"Dom, v kotorom ya zhivu","year":"1957-12-23","translations":["Оригинальная дорожка","Оригинальная дорожка"],"quality":"dvdrip","translation":"Оригинальная дорожка","update":"2021-06-24 06:22:03","iframe_src":"//7741.svetacdn.in/IAF0wWTdNYZm/movie/26833"},{"id":26354,"title":"Александр Маленький","kp_id":"43451","imdb_id":"tt0081998","world_art_id":null,"type":"movie","add":"2019-05-11 21:51:36","orig_title":"Aleksandr malenkiy","year":"1981-03-28","translations":["Оригинальная дорожка"],"quality":"webdl","translation":"Оригинальная дорожка","update":"2021-06-24 06:17:44","iframe_src":"//7741.svetacdn.in/IAF0wWTdNYZm/movie/26354"},{"id":4442,"title":"Мастер охоты на единорога","kp_id":"1185928","imdb_id":null,"world_art_id":null,"type":"serial","add":"2019-05-02 16:46:06","orig_title":"Мастер охоты на единорога","year":"2019-05-02","translations":["Оригинальная дорожка"],"seasons_count":1,"episodes_count":4,"episodes":4,"update":"2019-05-02 17:40:45","iframe_src":"//7741.svetacdn.in/IAF0wWTdNYZm/tv-series/4442"},{"id":4440,"title":"Вкус убийства","kp_id":"94701","imdb_id":"tt0439329","world_art_id":null,"type":"serial","add":"2019-05-02 09:18:08","orig_title":"Vkus ubiystva","year":"2003-09-23","translations":["Оригинальная дорожка"],"seasons_count":1,"episodes_count":4,"episodes":4,"update":"2019-05-02 16:30:17","iframe_src":"//7741.svetacdn.in/IAF0wWTdNYZm/tv-series/4440"},{"id":4439,"title":"Пассажир без багажа","kp_id":"301321","imdb_id":"tt0785039","world_art_id":null,"type":"serial","add":"2019-05-02 09:16:31","orig_title":"Passazhir bez bagazha","year":"2003-01-01","translations":["Оригинальная дорожка"],"seasons_count":1,"episodes_count":4,"episodes":4,"update":"2019-05-02 16:34:19","iframe_src":"//7741.svetacdn.in/IAF0wWTdNYZm/tv-series/4439"},{"id":4438,"title":"Ходят слухи","kp_id":"893139","imdb_id":"tt4507456","world_art_id":null,"type":"serial","add":"2019-05-02 08:43:24","orig_title":"Poongmooneuro Deuleotso","year":"2015-02-23","translations":["Любительский (одноголосый закадровый)"],"seasons_count":1,"episodes_count":30,"episodes":30,"update":"2019-05-03 06:36:24","iframe_src":"//7741.svetacdn.in/IAF0wWTdNYZm/tv-series/4438"},{"id":4437,"title":"Зачем тебе алиби?","kp_id":"405655","imdb_id":"tt0870983","world_art_id":null,"type":"serial","add":"2019-05-02 08:39:27","orig_title":"Zachem tebe alibi?","year":"2003-01-01","translations":["Оригинальная дорожка"],"seasons_count":1,"episodes_count":4,"episodes":4,"update":"2019-05-02 13:12:07","iframe_src":"//7741.svetacdn.in/IAF0wWTdNYZm/tv-series/4437"},{"id":4436,"title":"Печальная история любви","kp_id":"1219238","imdb_id":"tt9829586","world_art_id":null,"type":"serial","add":"2019-05-02 08:26:00","orig_title":"Seulpool Ddae Saranghanda","year":"2019-02-23","translations":["Любительский (двухголосый закадровый) (SoftBox)"],"seasons_count":1,"episodes_count":20,"episodes":20,"update":"2019-05-04 09:30:46","iframe_src":"//7741.svetacdn.in/IAF0wWTdNYZm/tv-series/4436"},{"id":4433,"title":"Женщина-зима","kp_id":"471568","imdb_id":null,"world_art_id":null,"type":"serial","add":"2019-05-01 23:29:31","orig_title":"Женщина-зима","year":"2009-10-10","translations":["Оригинальная дорожка"],"seasons_count":1,"episodes_count":2,"episodes":2,"update":"2019-05-02 07:18:29","iframe_src":"//7741.svetacdn.in/IAF0wWTdNYZm/tv-series/4433"},{"id":4431,"title":"Бабье царство","kp_id":"627304","imdb_id":"tt3304628","world_art_id":null,"type":"serial","add":"2019-05-01 10:01:45","orig_title":"Babye tsarstvo","year":"2012-01-01","translations":["Оригинальная дорожка"],"seasons_count":1,"episodes_count":4,"episodes":4,"update":"2019-05-02 09:04:28","iframe_src":"//7741.svetacdn.in/IAF0wWTdNYZm/tv-series/4431"},{"id":4426,"title":"Кассирши","kp_id":"1224114","imdb_id":null,"world_art_id":null,"type":"serial","add":"2019-04-29 11:53:44","orig_title":"Кассирши","year":"2019-04-27","translations":["Оригинальная дорожка"],"seasons_count":1,"episodes_count":4,"episodes":4,"update":"2019-05-02 16:39:31","iframe_src":"//7741.svetacdn.in/IAF0wWTdNYZm/tv-series/4426"},{"id":4414,"title":"Солдаты","kp_id":"257766","imdb_id":"tt0870060","world_art_id":null,"type":"serial","add":"2019-04-25 15:26:02","orig_title":"Soldaty","year":"2004-08-23","translations":["Оригинальная дорожка"],"seasons_count":1,"episodes_count":16,"episodes":16,"update":"2019-04-29 22:08:11","iframe_src":"//7741.svetacdn.in/IAF0wWTdNYZm/tv-series/4414"},{"id":4413,"title":"Черная жемчужина","kp_id":"255346","imdb_id":"tt0199260","world_art_id":null,"type":"serial","add":"2019-04-25 15:02:11","orig_title":"Perla negra","year":"1994-12-05","translations":["Профессиональный (многоголосый закадровый) (5-й канал СПб)"],"seasons_count":1,"episodes_count":200,"episodes":200,"update":"2019-04-29 18:37:51","iframe_src":"//7741.svetacdn.in/IAF0wWTdNYZm/tv-series/4413"},{"id":25180,"title":"Спокойный день в конце войны","kp_id":"43945","imdb_id":"tt0066399","world_art_id":null,"type":"movie","add":"2019-04-23 08:35:50","orig_title":"Spokoynyy den v kontse voyny","year":"1970-01-26","translations":["Оригинальная дорожка"],"quality":"webdl","translation":"Оригинальная дорожка","update":"2021-06-24 06:20:09","iframe_src":"//7741.svetacdn.in/IAF0wWTdNYZm/movie/25180"},{"id":4399,"title":"Подсудимый","kp_id":"1178003","imdb_id":null,"world_art_id":null,"type":"serial","add":"2019-04-23 06:04:08","orig_title":"Подсудимый","year":"2019-04-22","translations":["Оригинальная дорожка"],"seasons_count":1,"episodes_count":16,"episodes":16,"update":"2019-05-01 06:50:44","iframe_src":"//7741.svetacdn.in/IAF0wWTdNYZm/tv-series/4399"},{"id":4396,"title":"Московские тайны. Графский парк","kp_id":"1235977","imdb_id":null,"world_art_id":null,"type":"serial","add":"2019-04-22 22:26:43","orig_title":"Московские тайны. Графский парк","year":"2019-04-19","translations":["Оригинальная дорожка"],"seasons_count":1,"episodes_count":2,"episodes":2,"update":"2019-04-29 17:08:01","iframe_src":"//7741.svetacdn.in/IAF0wWTdNYZm/tv-series/4396"},{"id":4355,"title":"Буря столетия","kp_id":"94583","imdb_id":"tt0135659","world_art_id":null,"type":"serial","add":"2019-04-03 23:39:38","orig_title":"Storm of the Century","year":"1999-02-10","translations":["Профессиональный (многоголосый закадровый)"],"seasons_count":1,"episodes_count":2,"episodes":2,"update":"2019-04-29 18:33:53","iframe_src":"//7741.svetacdn.in/IAF0wWTdNYZm/tv-series/4355"},{"id":4345,"title":"У моего мужа слишком большой","kp_id":"1245925","imdb_id":"tt10027946","world_art_id":null,"type":"serial","add":"2019-04-01 04:30:17","orig_title":"My Husband Won't Fit","year":"2019-03-20","translations":["Любительский (двухголосый закадровый) (KosharaSerials)"],"seasons_count":1,"episodes_count":10,"episodes":10,"update":"2019-05-02 10:38:52","iframe_src":"//7741.svetacdn.in/IAF0wWTdNYZm/tv-series/4345"},{"id":4340,"title":"Другая жизнь","kp_id":"444492","imdb_id":"tt1496703","world_art_id":null,"type":"serial","add":"2019-04-01 04:06:03","orig_title":"Drugaya zhizn","year":"2003-09-04","translations":["Оригинальная дорожка"],"seasons_count":1,"episodes_count":10,"episodes":10,"update":"2019-05-02 10:29:07","iframe_src":"//7741.svetacdn.in/IAF0wWTdNYZm/tv-series/4340"},{"id":4333,"title":"Холодный дом","kp_id":"256126","imdb_id":"tt0442632","world_art_id":null,"type":"serial","add":"2019-03-29 14:26:02","orig_title":"Bleak House","year":"2005-10-27","translations":["Профессиональный (многоголосый закадровый)"],"seasons_count":1,"episodes_count":15,"episodes":15,"update":"2019-05-02 10:09:38","iframe_src":"//7741.svetacdn.in/IAF0wWTdNYZm/tv-series/4333"},{"id":4316,"title":"Похищенный","kp_id":"472326","imdb_id":"tt0771329","world_art_id":null,"type":"serial","add":"2019-03-26 06:09:22","orig_title":"Kidnapped","year":"2006-09-20","translations":["Профессиональный (многоголосый закадровый) (СТС)"],"seasons_count":1,"episodes_count":13,"episodes":13,"update":"2019-04-29 17:28:53","iframe_src":"//7741.svetacdn.in/IAF0wWTdNYZm/tv-series/4316"},{"id":3874,"title":"Вторая жизнь","kp_id":"405442","imdb_id":"tt0459683","world_art_id":null,"type":"serial","add":"2019-01-14 09:27:21","orig_title":"El Cuerpo del Deseo","year":"2005-07-18","translations":["Профессиональный (многоголосый закадровый)"],"seasons_count":1,"episodes_count":143,"episodes":143,"update":"2019-04-29 18:14:54","iframe_src":"//7741.svetacdn.in/IAF0wWTdNYZm/tv-series/3874"},{"id":20396,"title":"Подчиняйся","kp_id":"1009440","imdb_id":"tt6145764","world_art_id":null,"type":"movie","add":"2018-11-30 00:15:13","orig_title":"Obey","year":"2018-04-22","translations":["Любительский (многоголосый закадровый) (Синема УС)","Любительский (двухголосый закадровый) (HiWayGrope)","Профессиональный (многоголосый закадровый) (HDrezka Studio)","Профессиональный (многоголосый закадровый) (HDrezka Studio)"],"quality":"webdl","translation":"Любительский (многоголосый закадровый) (Синема УС)","update":"2021-06-23 20:21:16","iframe_src":"//7741.svetacdn.in/IAF0wWTdNYZm/movie/20396"},{"id":20362,"title":"Без тебя","kp_id":"271969","imdb_id":"tt0290326","world_art_id":null,"type":"movie","add":"2018-11-29 08:47:24","orig_title":"Tum Bin...: Love Will Find a Way","year":"2001-07-13","translations":["Профессиональный (двухголосый закадровый)","Профессиональный (двухголосый закадровый)"],"quality":"webdl","translation":"Профессиональный (двухголосый закадровый)","update":"2021-06-23 22:24:31","iframe_src":"//7741.svetacdn.in/IAF0wWTdNYZm/movie/20362"},{"id":19600,"title":"Мадмуазель Паради","kp_id":"973126","imdb_id":"tt5584756","world_art_id":null,"type":"movie","add":"2018-10-16 23:36:26","orig_title":"Mademoiselle Paradis","year":"2017-09-08","translations":["Любительский (многоголосый закадровый) (Синема УС)","Любительский (двухголосый закадровый) (LakeFilms)","Профессиональный (многоголосый закадровый) (HDrezka Studio)"],"quality":"bd","translation":"Любительский (многоголосый закадровый) (Синема УС)","update":"2021-06-23 20:19:39","iframe_src":"//7741.svetacdn.in/IAF0wWTdNYZm/movie/19600"},{"id":14320,"title":"Квадрат","kp_id":"980367","imdb_id":"tt4995790","world_art_id":null,"type":"movie","add":"2017-11-11 18:30:52","orig_title":"The Square","year":"2017-05-20","translations":["Любительский (многоголосый закадровый) (Синема УС)","Профессиональный (многоголосый закадровый)","Профессиональный (многоголосый закадровый) (Мельница)","Профессиональный (многоголосый закадровый) (AB-Video)"],"quality":"webdl","translation":"Любительский (многоголосый закадровый) (Синема УС)","update":"2021-06-24 06:22:45","iframe_src":"//7741.svetacdn.in/IAF0wWTdNYZm/movie/14320"},{"id":1392,"title":"Кот Саймона","kp_id":"501985","imdb_id":"tt2057193","world_art_id":null,"type":"serial","add":"2017-07-13 17:04:46","orig_title":"Simon's Cat","year":"2008-03-04","translations":["Оригинальная дорожка"],"seasons_count":1,"episodes_count":108,"episodes":108,"update":"2019-04-29 17:59:14","iframe_src":"//7741.svetacdn.in/IAF0wWTdNYZm/tv-series/1392"},{"id":1473,"title":"Я есть гнев","kp_id":"800676","imdb_id":"tt3212232","world_art_id":null,"type":"movie","add":"2016-04-22 06:06:23","orig_title":"I Am Wrath","year":"2016-04-14","translations":["Любительский (многоголосый закадровый)","Любительский (двухголосый закадровый)","Авторский (одноголосый закадровый) (Котов Вячеслав)"],"quality":"webdl","translation":"Любительский (многоголосый закадровый)","update":"2021-06-24 06:20:09","iframe_src":"//7741.svetacdn.in/IAF0wWTdNYZm/movie/1473"}],"current_page":456,"first_page_url":"https://videocdn.tv/api/short?limit=100&api_token=6Onb1W1alEUrBcKJZD3GoKBbWyAl2uG2&cache3456=3456&page=1","from":45501,"last_page":706,"last_page_url":"https://videocdn.tv/api/short?limit=100&api_token=6Onb1W1alEUrBcKJZD3GoKBbWyAl2uG2&cache3456=3456&page=706","next_page_url":"https://videocdn.tv/api/short?limit=100&api_token=6Onb1W1alEUrBcKJZD3GoKBbWyAl2uG2&cache3456=3456&page=457","path":"https://videocdn.tv/api/short","per_page":100,"prev_page_url":"https://videocdn.tv/api/short?limit=100&api_token=6Onb1W1alEUrBcKJZD3GoKBbWyAl2uG2&cache3456=3456&page=455","to":45540,"total":70558}