{"result":true,"data":[{"id":44235,"title":"Трамп против иллюминатов","kp_id":"1404020","imdb_id":"tt12969958","world_art_id":null,"type":"movie","add":"2020-10-08 09:05:10","orig_title":"Trump vs the Illuminati","year":"2020-10-06","translations":["Любительский (многоголосый закадровый) (@MUZOBOZ@)"],"quality":"webdl","translation":"Любительский (многоголосый закадровый) (@MUZOBOZ@)","update":"2020-10-08 12:43:41","iframe_src":"//8543.svetacdn.in/si4jsFRrtgrT/movie/44235"},{"id":44232,"title":"Королева","kp_id":"1162784","imdb_id":null,"world_art_id":null,"type":"movie","add":"2020-10-08 07:31:07","orig_title":"Королева","year":"2020-09-10","translations":["Оригинальная дорожка"],"quality":"webdl","translation":"Оригинальная дорожка","update":"2020-10-08 13:55:39","iframe_src":"//8543.svetacdn.in/si4jsFRrtgrT/movie/44232"},{"id":44231,"title":"Классика Тайди Тима","kp_id":"1142301","imdb_id":"tt8005256","world_art_id":null,"type":"movie","add":"2020-10-08 06:36:19","orig_title":"Tidy Tim's","year":"2020-02-15","translations":["Любительский (многоголосый закадровый) (@MUZOBOZ@)"],"quality":"webdl","translation":"Любительский (многоголосый закадровый) (@MUZOBOZ@)","update":"2020-10-08 12:37:41","iframe_src":"//8543.svetacdn.in/si4jsFRrtgrT/movie/44231"},{"id":44230,"title":"Под контролем","kp_id":"789324","imdb_id":"tt3107252","world_art_id":null,"type":"movie","add":"2020-10-08 06:33:33","orig_title":"Trolls World","year":"2020-01-01","translations":["Любительский (многоголосый закадровый) (@MUZOBOZ@)"],"quality":"webdl","translation":"Любительский (многоголосый закадровый) (@MUZOBOZ@)","update":"2020-10-08 12:37:07","iframe_src":"//8543.svetacdn.in/si4jsFRrtgrT/movie/44230"},{"id":44229,"title":"Мир полон тайн","kp_id":"1203466","imdb_id":"tt9143604","world_art_id":null,"type":"movie","add":"2020-10-08 05:35:01","orig_title":"The World Is Full of Secrets","year":"2019-10-31","translations":["Любительский (многоголосый закадровый) (@MUZOBOZ@)"],"quality":"webdl","translation":"Любительский (многоголосый закадровый) (@MUZOBOZ@)","update":"2020-10-08 09:32:25","iframe_src":"//8543.svetacdn.in/si4jsFRrtgrT/movie/44229"},{"id":44228,"title":"Тень пастыря","kp_id":"954776","imdb_id":"tt4887002","world_art_id":null,"type":"movie","add":"2020-10-08 05:31:22","orig_title":"The Shade Shepherd","year":"2020-10-16","translations":["Любительский (многоголосый закадровый) (@MUZOBOZ@)"],"quality":"webdl","translation":"Любительский (многоголосый закадровый) (@MUZOBOZ@)","update":"2020-10-08 12:36:42","iframe_src":"//8543.svetacdn.in/si4jsFRrtgrT/movie/44228"},{"id":44227,"title":"Колдовство Уиджи","kp_id":"1306090","imdb_id":"tt10990970","world_art_id":null,"type":"movie","add":"2020-10-08 05:28:03","orig_title":"Ouija Craft","year":"2020-06-10","translations":["Любительский (многоголосый закадровый) (@MUZOBOZ@)"],"quality":"webdl","translation":"Любительский (многоголосый закадровый) (@MUZOBOZ@)","update":"2020-10-08 12:36:08","iframe_src":"//8543.svetacdn.in/si4jsFRrtgrT/movie/44227"},{"id":44226,"title":"Вера охотника","kp_id":"1093417","imdb_id":"tt7036254","world_art_id":null,"type":"movie","add":"2020-10-08 05:25:20","orig_title":"Hunter's Creed","year":"2020-10-06","translations":["Любительский (многоголосый закадровый) (@MUZOBOZ@)"],"quality":"webdl","translation":"Любительский (многоголосый закадровый) (@MUZOBOZ@)","update":"2020-10-08 12:35:36","iframe_src":"//8543.svetacdn.in/si4jsFRrtgrT/movie/44226"},{"id":44224,"title":"Песня о любви для Латаши","kp_id":"1390186","imdb_id":"tt8993180","world_art_id":null,"type":"movie","add":"2020-10-08 04:58:29","orig_title":"A Love Song for Latasha","year":"2020-09-21","translations":["Любительский (многоголосый закадровый) (Синема УС)"],"quality":"webdl","translation":"Любительский (многоголосый закадровый) (Синема УС)","update":"2020-10-08 08:14:09","iframe_src":"//8543.svetacdn.in/si4jsFRrtgrT/movie/44224"},{"id":44190,"title":"Чирлидерша-убийца","kp_id":"1277904","imdb_id":"tt10466526","world_art_id":null,"type":"movie","add":"2020-10-07 09:50:36","orig_title":"Killer Cheerleader","year":"2020-10-03","translations":["Любительский (многоголосый закадровый) (Синема УС)"],"quality":"webdl","translation":"Любительский (многоголосый закадровый) (Синема УС)","update":"2020-10-08 07:38:40","iframe_src":"//8543.svetacdn.in/si4jsFRrtgrT/movie/44190"},{"id":44186,"title":"Как я стал гангстером. Правдивая история","kp_id":"1292336","imdb_id":"tt10804178","world_art_id":null,"type":"movie","add":"2020-10-07 09:27:33","orig_title":"Jak zostalem gangsterem. Historia prawdziwa","year":"2019-12-12","translations":["Любительский (многоголосый закадровый) (@MUZOBOZ@)"],"quality":"webdl","translation":"Любительский (многоголосый закадровый) (@MUZOBOZ@)","update":"2020-10-08 07:27:47","iframe_src":"//8543.svetacdn.in/si4jsFRrtgrT/movie/44186"},{"id":44185,"title":"Женщина-мать","kp_id":"1087788","imdb_id":"tt6845328","world_art_id":null,"type":"movie","add":"2020-10-07 09:24:58","orig_title":"FrauMutterTier","year":"2019-03-12","translations":["Любительский (многоголосый закадровый) (@MUZOBOZ@)"],"quality":"bd","translation":"Любительский (многоголосый закадровый) (@MUZOBOZ@)","update":"2020-10-08 07:25:49","iframe_src":"//8543.svetacdn.in/si4jsFRrtgrT/movie/44185"},{"id":44153,"title":"Портфолио","kp_id":"1055598","imdb_id":"tt7145276","world_art_id":null,"type":"movie","add":"2020-10-06 11:15:44","orig_title":"Headshots","year":"2018-12-05","translations":["Любительский (многоголосый закадровый) (Синема УС)"],"quality":"webdl","translation":"Любительский (многоголосый закадровый) (Синема УС)","update":"2020-10-08 06:13:07","iframe_src":"//8543.svetacdn.in/si4jsFRrtgrT/movie/44153"},{"id":44149,"title":"Я научу тебя любить","kp_id":"717750","imdb_id":"tt5470258","world_art_id":null,"type":"movie","add":"2020-10-06 07:46:53","orig_title":"I'll Teach You Love","year":"2010-10-10","translations":["Любительский (двухголосый закадровый) (GREEN TEA)"],"quality":"hdtv","translation":"Любительский (двухголосый закадровый) (GREEN TEA)","update":"2020-10-08 06:55:23","iframe_src":"//8543.svetacdn.in/si4jsFRrtgrT/movie/44149"},{"id":44148,"title":"Польская невеста","kp_id":"36771","imdb_id":"tt0142772","world_art_id":null,"type":"movie","add":"2020-10-06 07:34:33","orig_title":"De Poolse bruid","year":"1998-03-26","translations":["Любительский (одноголосый закадровый)"],"quality":"dvdrip","translation":"Любительский (одноголосый закадровый)","update":"2020-10-08 06:57:14","iframe_src":"//8543.svetacdn.in/si4jsFRrtgrT/movie/44148"},{"id":44143,"title":"Сынок, где же ты?","kp_id":"1309235","imdb_id":"tt10875374","world_art_id":null,"type":"movie","add":"2020-10-05 19:23:49","orig_title":"Mat Troi, Con O Dâu?","year":"2018-12-05","translations":["Любительский (многоголосый закадровый) (Синема УС)"],"quality":"webdl","translation":"Любительский (многоголосый закадровый) (Синема УС)","update":"2020-10-08 06:58:26","iframe_src":"//8543.svetacdn.in/si4jsFRrtgrT/movie/44143"},{"id":44142,"title":"Маникюр","kp_id":"1149929","imdb_id":"tt8362736","world_art_id":null,"type":"movie","add":"2020-10-05 19:22:01","orig_title":"Make Up","year":"2019-10-04","translations":["Любительский (многоголосый закадровый) (Синема УС)"],"quality":"webdl","translation":"Любительский (многоголосый закадровый) (Синема УС)","update":"2020-10-08 06:23:15","iframe_src":"//8543.svetacdn.in/si4jsFRrtgrT/movie/44142"},{"id":44139,"title":"Аморальная любовь","kp_id":"1188986","imdb_id":"tt8603004","world_art_id":null,"type":"movie","add":"2020-10-05 18:24:51","orig_title":"Immoral Love","year":"2018-03-30","translations":["Любительский (многоголосый закадровый) (Синема УС)"],"quality":"webdl","translation":"Любительский (многоголосый закадровый) (Синема УС)","update":"2020-10-08 06:59:41","iframe_src":"//8543.svetacdn.in/si4jsFRrtgrT/movie/44139"},{"id":44037,"title":"Парни в группе","kp_id":"1258151","imdb_id":"tt10199914","world_art_id":null,"type":"movie","add":"2020-10-01 15:20:42","orig_title":"The Boys in the Band","year":"2020-09-30","translations":["Любительский (многоголосый закадровый) (@MUZOBOZ@)","Original (English)","Профессиональный (многоголосый закадровый) (HDrezka Studio)","Профессиональный (многоголосый закадровый) (HDrezka Studio)"],"quality":"webdl","translation":"Любительский (многоголосый закадровый) (@MUZOBOZ@)","update":"2020-10-08 09:39:15","iframe_src":"//8543.svetacdn.in/si4jsFRrtgrT/movie/44037"},{"id":43259,"title":"Свободная страна","kp_id":"1222167","imdb_id":"tt9407490","world_art_id":null,"type":"movie","add":"2020-09-08 06:50:04","orig_title":"Freies Land","year":"2020-01-09","translations":["Любительский (многоголосый закадровый) (AlphaProject)","Профессиональный (многоголосый закадровый) (HDrezka Studio)"],"quality":"webdl","translation":"Любительский (многоголосый закадровый) (AlphaProject)","update":"2020-10-08 12:34:58","iframe_src":"//8543.svetacdn.in/si4jsFRrtgrT/movie/43259"},{"id":5699,"title":"Убийства по пятницам-2","kp_id":"1291185","imdb_id":null,"world_art_id":null,"type":"serial","add":"2019-11-08 21:04:27","orig_title":"Убийства по пятницам-2","year":"2019-01-01","translations":["Оригинальная дорожка"],"seasons_count":1,"episodes_count":4,"episodes":4,"update":"2019-11-09 06:03:47","iframe_src":"//8543.svetacdn.in/si4jsFRrtgrT/tv-series/5699"},{"id":5698,"title":"Подъем с глубины","kp_id":"1218682","imdb_id":null,"world_art_id":null,"type":"serial","add":"2019-11-08 15:01:59","orig_title":"Подъем с глубины","year":"2018-11-25","translations":["Оригинальная дорожка"],"seasons_count":1,"episodes_count":4,"episodes":4,"update":"2019-11-09 15:09:43","iframe_src":"//8543.svetacdn.in/si4jsFRrtgrT/tv-series/5698"},{"id":5697,"title":"Избранница","kp_id":"986642","imdb_id":null,"world_art_id":null,"type":"serial","add":"2019-11-08 14:59:35","orig_title":"Избранница","year":"2015-01-01","translations":["Оригинальная дорожка"],"seasons_count":1,"episodes_count":4,"episodes":4,"update":"2019-11-09 15:12:37","iframe_src":"//8543.svetacdn.in/si4jsFRrtgrT/tv-series/5697"},{"id":5696,"title":"Цена прошлого","kp_id":"1169272","imdb_id":null,"world_art_id":null,"type":"serial","add":"2019-11-08 14:54:45","orig_title":"Цена прошлого","year":"2018-08-21","translations":["Оригинальная дорожка"],"seasons_count":1,"episodes_count":4,"episodes":4,"update":"2019-11-09 18:02:13","iframe_src":"//8543.svetacdn.in/si4jsFRrtgrT/tv-series/5696"},{"id":5691,"title":"Лондонский шпион","kp_id":"927601","imdb_id":"tt4108134","world_art_id":null,"type":"serial","add":"2019-11-07 12:05:58","orig_title":"London Spy","year":"2015-11-09","translations":["Профессиональный (многоголосый закадровый) (BaibaKo)"],"seasons_count":1,"episodes_count":5,"episodes":5,"update":"2019-11-08 22:35:11","iframe_src":"//8543.svetacdn.in/si4jsFRrtgrT/tv-series/5691"},{"id":5684,"title":"Джекпот","kp_id":"958584","imdb_id":"tt5569038","world_art_id":null,"type":"serial","add":"2019-11-07 09:48:25","orig_title":"Daebak","year":"2016-03-28","translations":["Любительский (двухголосый закадровый) (STEPonee)"],"seasons_count":1,"episodes_count":24,"episodes":24,"update":"2019-11-09 12:13:00","iframe_src":"//8543.svetacdn.in/si4jsFRrtgrT/tv-series/5684"},{"id":5682,"title":"Скрытое","kp_id":"933819","imdb_id":"tt5057932","world_art_id":null,"type":"serial","add":"2019-11-07 09:08:02","orig_title":"Undercover","year":"2016-04-03","translations":["Профессиональный (двухголосый закадровый) (ViruseProject)"],"seasons_count":1,"episodes_count":6,"episodes":6,"update":"2019-11-09 06:57:28","iframe_src":"//8543.svetacdn.in/si4jsFRrtgrT/tv-series/5682"},{"id":5673,"title":"Взгляд в прошлое","kp_id":"840341","imdb_id":"tt3597470","world_art_id":null,"type":"serial","add":"2019-11-07 08:14:54","orig_title":"Hindsight","year":"2015-01-07","translations":["Любительский (двухголосый закадровый) (Hamster Studio)"],"seasons_count":1,"episodes_count":10,"episodes":10,"update":"2019-11-08 22:29:09","iframe_src":"//8543.svetacdn.in/si4jsFRrtgrT/tv-series/5673"},{"id":5672,"title":"Общественная мораль","kp_id":"839977","imdb_id":"tt3597854","world_art_id":null,"type":"serial","add":"2019-11-06 19:56:17","orig_title":"Public Morals","year":"2015-08-25","translations":["Профессиональный (многоголосый закадровый) (NewStudio)"],"seasons_count":1,"episodes_count":10,"episodes":10,"update":"2019-11-08 22:24:11","iframe_src":"//8543.svetacdn.in/si4jsFRrtgrT/tv-series/5672"},{"id":5660,"title":"Зеленые просторы","kp_id":"280144","imdb_id":"tt0058808","world_art_id":null,"type":"serial","add":"2019-11-06 11:53:14","orig_title":"Green Acres","year":"1965-09-15","translations":["Профессиональный (многоголосый закадровый)"],"seasons_count":6,"episodes_count":160,"episodes":24,"update":"2019-11-09 13:02:17","iframe_src":"//8543.svetacdn.in/si4jsFRrtgrT/tv-series/5660"},{"id":5621,"title":"Барсы","kp_id":"906418","imdb_id":"tt4993926","world_art_id":null,"type":"serial","add":"2019-11-03 10:49:33","orig_title":"Barsy","year":"2015-05-15","translations":["Оригинальная дорожка"],"seasons_count":1,"episodes_count":4,"episodes":4,"update":"2019-11-09 18:26:36","iframe_src":"//8543.svetacdn.in/si4jsFRrtgrT/tv-series/5621"},{"id":5618,"title":"Мелодия любви","kp_id":"1199835","imdb_id":null,"world_art_id":null,"type":"serial","add":"2019-11-03 09:24:17","orig_title":"Мелодия любви","year":"2018-10-03","translations":["Оригинальная дорожка"],"seasons_count":1,"episodes_count":4,"episodes":4,"update":"2019-11-09 18:51:38","iframe_src":"//8543.svetacdn.in/si4jsFRrtgrT/tv-series/5618"},{"id":5617,"title":"Ветер перемен","kp_id":"1101272","imdb_id":null,"world_art_id":null,"type":"serial","add":"2019-11-03 09:22:17","orig_title":"Ветер перемен","year":"2017-11-03","translations":["Оригинальная дорожка"],"seasons_count":1,"episodes_count":2,"episodes":2,"update":"2019-11-09 18:53:10","iframe_src":"//8543.svetacdn.in/si4jsFRrtgrT/tv-series/5617"},{"id":5616,"title":"Боевая единичка","kp_id":"1044231","imdb_id":null,"world_art_id":null,"type":"serial","add":"2019-11-03 09:18:18","orig_title":"Боевая единичка","year":"2017-02-23","translations":["Оригинальная дорожка"],"seasons_count":1,"episodes_count":4,"episodes":4,"update":"2019-11-09 18:44:09","iframe_src":"//8543.svetacdn.in/si4jsFRrtgrT/tv-series/5616"},{"id":5615,"title":"Опасные связи","kp_id":"1049338","imdb_id":null,"world_art_id":null,"type":"serial","add":"2019-11-03 09:13:45","orig_title":"Опасные связи","year":"2017-09-22","translations":["Оригинальная дорожка"],"seasons_count":1,"episodes_count":4,"episodes":4,"update":"2019-11-09 18:40:54","iframe_src":"//8543.svetacdn.in/si4jsFRrtgrT/tv-series/5615"},{"id":5614,"title":"День расплаты","kp_id":"1188050","imdb_id":null,"world_art_id":null,"type":"serial","add":"2019-11-03 09:11:19","orig_title":"День расплаты","year":"2017-01-01","translations":["Оригинальная дорожка"],"seasons_count":1,"episodes_count":4,"episodes":4,"update":"2019-11-09 18:21:12","iframe_src":"//8543.svetacdn.in/si4jsFRrtgrT/tv-series/5614"},{"id":5418,"title":"Бедлам","kp_id":"579666","imdb_id":"tt1822448","world_art_id":null,"type":"serial","add":"2019-10-07 19:27:03","orig_title":"Bedlam","year":"2011-02-07","translations":["Профессиональный (многоголосый закадровый) (TVShows)"],"seasons_count":2,"episodes_count":12,"episodes":6,"update":"2019-11-09 06:52:53","iframe_src":"//8543.svetacdn.in/si4jsFRrtgrT/tv-series/5418"},{"id":5200,"title":"Автошкола","kp_id":"1159416","imdb_id":null,"world_art_id":null,"type":"serial","add":"2019-09-16 08:18:36","orig_title":"Автошкола","year":"2018-08-06","translations":["Оригинальная дорожка"],"seasons_count":1,"episodes_count":8,"episodes":8,"update":"2019-11-09 18:15:33","iframe_src":"//8543.svetacdn.in/si4jsFRrtgrT/tv-series/5200"},{"id":5138,"title":"Тот, кто убивает – Узник тьмы","kp_id":"1221677","imdb_id":"tt9466596","world_art_id":null,"type":"serial","add":"2019-09-04 11:03:39","orig_title":"Den som dræber - Fanget af mørket","year":"2019-03-01","translations":["Профессиональный (многоголосый закадровый)","Профессиональный (двухголосый закадровый) (ViruseProject)"],"seasons_count":1,"episodes_count":8,"episodes":8,"update":"2019-11-09 07:06:07","iframe_src":"//8543.svetacdn.in/si4jsFRrtgrT/tv-series/5138"},{"id":3131,"title":"Майянцы","kp_id":"1008307","imdb_id":"tt5715524","world_art_id":null,"type":"serial","add":"2018-09-06 08:23:32","orig_title":"Mayans M.C.","year":"2018-09-04","translations":["Профессиональный (многоголосый закадровый) (BaibaKo)","Профессиональный (многоголосый закадровый) (LostFilm)","Профессиональный (многоголосый закадровый) (HDrezka Studio)"],"seasons_count":2,"episodes_count":20,"episodes":10,"update":"2019-11-09 14:56:11","iframe_src":"//8543.svetacdn.in/si4jsFRrtgrT/tv-series/3131"}],"current_page":278,"first_page_url":"https://videocdn.tv/api/short?limit=100&api_token=X6EwAUfE5M9xbo7y0Bp0aPf3uXxG2KLL&cache2278=2278&page=1","from":27701,"last_page":596,"last_page_url":"https://videocdn.tv/api/short?limit=100&api_token=X6EwAUfE5M9xbo7y0Bp0aPf3uXxG2KLL&cache2278=2278&page=596","next_page_url":"https://videocdn.tv/api/short?limit=100&api_token=X6EwAUfE5M9xbo7y0Bp0aPf3uXxG2KLL&cache2278=2278&page=279","path":"https://videocdn.tv/api/short","per_page":100,"prev_page_url":"https://videocdn.tv/api/short?limit=100&api_token=X6EwAUfE5M9xbo7y0Bp0aPf3uXxG2KLL&cache2278=2278&page=277","to":27740,"total":59506}