{"result":true,"data":[{"id":24697,"title":"Круг","kp_id":"963224","imdb_id":"tt5446444","world_art_id":null,"type":"movie","add":"2019-04-16 20:46:52","orig_title":"Colo","year":"2018-03-15","translations":["Любительский (многоголосый закадровый) (Синема УС)"],"quality":"webdl","translation":"Любительский (многоголосый закадровый) (Синема УС)","update":"2019-04-17 07:12:10","iframe_src":"//8965.svetacdn.in/IAF0wWTdNYZm/movie/24697"},{"id":24644,"title":"Последнее дело Казановы","kp_id":"668712","imdb_id":"tt3426192","world_art_id":null,"type":"movie","add":"2019-04-15 07:54:54","orig_title":"Poslednee delo Kazanovy","year":"2012-02-29","translations":["Оригинальная дорожка"],"quality":"sat","translation":"Оригинальная дорожка","update":"2019-04-17 07:17:20","iframe_src":"//8965.svetacdn.in/IAF0wWTdNYZm/movie/24644"},{"id":24540,"title":"Беспокойное хозяйство","kp_id":"46099","imdb_id":"tt0038350","world_art_id":null,"type":"movie","add":"2019-04-13 22:32:46","orig_title":"Bespokoynoe khozyaystvo","year":"1946-05-15","translations":["Оригинальная дорожка"],"quality":"sat","translation":"Оригинальная дорожка","update":"2019-04-17 07:17:52","iframe_src":"//8965.svetacdn.in/IAF0wWTdNYZm/movie/24540"},{"id":24539,"title":"Голубая чашка","kp_id":"44539","imdb_id":"tt0175678","world_art_id":null,"type":"movie","add":"2019-04-13 22:15:38","orig_title":"Golubaya chashka","year":"1965-03-14","translations":["Оригинальная дорожка"],"quality":"tv","translation":"Оригинальная дорожка","update":"2019-04-17 07:16:42","iframe_src":"//8965.svetacdn.in/IAF0wWTdNYZm/movie/24539"},{"id":24538,"title":"Женитьба","kp_id":"45299","imdb_id":"tt0076954","world_art_id":null,"type":"movie","add":"2019-04-13 22:09:18","orig_title":"Zhenitba","year":"1978-05-22","translations":["Оригинальная дорожка"],"quality":"dvdrip","translation":"Оригинальная дорожка","update":"2019-04-17 07:15:48","iframe_src":"//8965.svetacdn.in/IAF0wWTdNYZm/movie/24538"},{"id":24537,"title":"Остров ржавого генерала","kp_id":"230744","imdb_id":"tt0307295","world_art_id":null,"type":"movie","add":"2019-04-13 22:03:02","orig_title":"Ostrov rzhavogo generala","year":"1988-01-01","translations":["Оригинальная дорожка"],"quality":"sat","translation":"Оригинальная дорожка","update":"2019-04-17 07:14:17","iframe_src":"//8965.svetacdn.in/IAF0wWTdNYZm/movie/24537"},{"id":24536,"title":"Свадьба","kp_id":"44043","imdb_id":"tt0037332","world_art_id":null,"type":"movie","add":"2019-04-13 21:54:34","orig_title":"Svadba","year":"1944-07-14","translations":["Оригинальная дорожка"],"quality":"sat","translation":"Оригинальная дорожка","update":"2019-04-17 07:12:55","iframe_src":"//8965.svetacdn.in/IAF0wWTdNYZm/movie/24536"},{"id":24534,"title":"Солдатский декамерон","kp_id":"251966","imdb_id":"tt0758933","world_art_id":null,"type":"movie","add":"2019-04-13 21:36:36","orig_title":"Soldatskiy dekameron","year":"2005-08-26","translations":["Оригинальная дорожка"],"quality":"dvdrip","translation":"Оригинальная дорожка","update":"2019-04-17 07:06:30","iframe_src":"//8965.svetacdn.in/IAF0wWTdNYZm/movie/24534"},{"id":24533,"title":"Танк «Клим Ворошилов-2»","kp_id":"42204","imdb_id":"tt0100743","world_art_id":null,"type":"movie","add":"2019-04-13 21:10:38","orig_title":"Tank 'Klim Voroshilov-2'","year":"1990-01-01","translations":["Оригинальная дорожка"],"quality":"tv","translation":"Оригинальная дорожка","update":"2019-04-17 07:05:02","iframe_src":"//8965.svetacdn.in/IAF0wWTdNYZm/movie/24533"},{"id":24532,"title":"Точка, точка, запятая ...","kp_id":"42262","imdb_id":"tt0164204","world_art_id":null,"type":"movie","add":"2019-04-13 21:03:11","orig_title":"Tochka, tochka, zapyataya...","year":"1972-12-30","translations":["Оригинальная дорожка"],"quality":"dvdrip","translation":"Оригинальная дорожка","update":"2019-04-17 07:04:08","iframe_src":"//8965.svetacdn.in/IAF0wWTdNYZm/movie/24532"},{"id":24531,"title":"Только ты","kp_id":"271692","imdb_id":"tt4714098","world_art_id":null,"type":"movie","add":"2019-04-13 20:57:36","orig_title":"Tolko ty","year":"1972-12-14","translations":["Оригинальная дорожка"],"quality":"dvdrip","translation":"Оригинальная дорожка","update":"2019-04-17 07:03:40","iframe_src":"//8965.svetacdn.in/IAF0wWTdNYZm/movie/24531"},{"id":24529,"title":"В последнюю очередь","kp_id":"45627","imdb_id":"tt0083270","world_art_id":null,"type":"movie","add":"2019-04-13 20:36:10","orig_title":"V poslednyuyu ochered","year":"1982-07-01","translations":["Оригинальная дорожка"],"quality":"hdtv","translation":"Оригинальная дорожка","update":"2019-04-17 07:02:59","iframe_src":"//8965.svetacdn.in/IAF0wWTdNYZm/movie/24529"},{"id":24528,"title":"Весенние перевертыши","kp_id":"45743","imdb_id":"tt0332811","world_art_id":null,"type":"movie","add":"2019-04-13 20:28:02","orig_title":"Vesenniye perevyortyshi","year":"1975-12-15","translations":["Оригинальная дорожка"],"quality":"sat","translation":"Оригинальная дорожка","update":"2019-04-17 07:01:15","iframe_src":"//8965.svetacdn.in/IAF0wWTdNYZm/movie/24528"},{"id":24527,"title":"Яма","kp_id":"42419","imdb_id":"tt0100977","world_art_id":null,"type":"movie","add":"2019-04-13 20:23:40","orig_title":"Yama","year":"1990-01-01","translations":["Оригинальная дорожка"],"quality":"dvdrip","translation":"Оригинальная дорожка","update":"2019-04-17 06:59:54","iframe_src":"//8965.svetacdn.in/IAF0wWTdNYZm/movie/24527"},{"id":24526,"title":"Загадка Эндхауза","kp_id":"45199","imdb_id":"tt0136618","world_art_id":null,"type":"movie","add":"2019-04-13 20:18:08","orig_title":"Zagadka Endkhauza","year":"1990-07-01","translations":["Оригинальная дорожка"],"quality":"dvdrip","translation":"Оригинальная дорожка","update":"2019-04-17 06:56:43","iframe_src":"//8965.svetacdn.in/IAF0wWTdNYZm/movie/24526"},{"id":24525,"title":"Еще люблю, еще надеюсь","kp_id":"149923","imdb_id":"tt0266076","world_art_id":null,"type":"movie","add":"2019-04-13 20:13:05","orig_title":"Eshchyo lyublyu, eshchyo nadeyus","year":"1985-07-13","translations":["Оригинальная дорожка"],"quality":"dvdrip","translation":"Оригинальная дорожка","update":"2019-04-17 06:56:08","iframe_src":"//8965.svetacdn.in/IAF0wWTdNYZm/movie/24525"},{"id":24524,"title":"Жил-был настройщик","kp_id":"95345","imdb_id":"tt0080171","world_art_id":null,"type":"movie","add":"2019-04-13 19:51:19","orig_title":"Zhil-byl nastroyshchik...","year":"1980-04-25","translations":["Оригинальная дорожка"],"quality":"sat","translation":"Оригинальная дорожка","update":"2019-04-17 06:55:05","iframe_src":"//8965.svetacdn.in/IAF0wWTdNYZm/movie/24524"},{"id":24523,"title":"Завещание профессора Доуэля","kp_id":"45242","imdb_id":"tt0088447","world_art_id":null,"type":"movie","add":"2019-04-13 19:45:58","orig_title":"Zaveshchaniye professora Douelya","year":"1984-08-06","translations":["Оригинальная дорожка"],"quality":"dvdrip","translation":"Оригинальная дорожка","update":"2019-04-17 06:54:12","iframe_src":"//8965.svetacdn.in/IAF0wWTdNYZm/movie/24523"},{"id":24521,"title":"Мертвый сезон","kp_id":"46770","imdb_id":"tt0063332","world_art_id":null,"type":"movie","add":"2019-04-13 19:30:25","orig_title":"Myortvyy sezon","year":"1968-12-06","translations":["Оригинальная дорожка"],"quality":"dvdrip","translation":"Оригинальная дорожка","update":"2019-04-17 06:51:55","iframe_src":"//8965.svetacdn.in/IAF0wWTdNYZm/movie/24521"},{"id":24520,"title":"Начальник Чукотки","kp_id":"46293","imdb_id":"tt0169069","world_art_id":null,"type":"movie","add":"2019-04-13 19:23:46","orig_title":"Nachalnik Chukotki","year":"1967-04-21","translations":["Оригинальная дорожка"],"quality":"dvdrip","translation":"Оригинальная дорожка","update":"2019-04-17 06:50:33","iframe_src":"//8965.svetacdn.in/IAF0wWTdNYZm/movie/24520"}],"current_page":1902,"first_page_url":"https://videocdn.tv/api/short?limit=100&api_token=6Onb1W1alEUrBcKJZD3GoKBbWyAl2uG2&cache31902=31902&page=1","from":190101,"last_page":708,"last_page_url":"https://videocdn.tv/api/short?limit=100&api_token=6Onb1W1alEUrBcKJZD3GoKBbWyAl2uG2&cache31902=31902&page=708","next_page_url":null,"path":"https://videocdn.tv/api/short","per_page":100,"prev_page_url":"https://videocdn.tv/api/short?limit=100&api_token=6Onb1W1alEUrBcKJZD3GoKBbWyAl2uG2&cache31902=31902&page=1901","to":190120,"total":70792}