{"result":true,"data":[{"id":46328,"title":"Кающийся вор","kp_id":"951997","imdb_id":"tt5122626","world_art_id":null,"type":"movie","add":"2020-12-23 06:18:53","orig_title":"The Penitent Thief","year":"2020-12-22","translations":["Любительский (многоголосый закадровый) (@MUZOBOZ@)"],"quality":"webdl","translation":"Любительский (многоголосый закадровый) (@MUZOBOZ@)","update":"2020-12-23 12:38:02","iframe_src":"//5322.svetacdn.in/71tsRs29n5tZ/movie/46328"},{"id":46324,"title":"Под морем огней","kp_id":"1149116","imdb_id":"tt8070042","world_art_id":null,"type":"movie","add":"2020-12-23 06:03:26","orig_title":"Beneath a Sea of Lights","year":"2020-12-01","translations":["Любительский (многоголосый закадровый) (@MUZOBOZ@)"],"quality":"webdl","translation":"Любительский (многоголосый закадровый) (@MUZOBOZ@)","update":"2020-12-23 12:37:45","iframe_src":"//5322.svetacdn.in/71tsRs29n5tZ/movie/46324"},{"id":46323,"title":"Антонио ум дойс трес","kp_id":"1080252","imdb_id":"tt6275840","world_art_id":null,"type":"movie","add":"2020-12-23 06:01:51","orig_title":"António Um Dois Três","year":"2019-03-28","translations":["Любительский (многоголосый закадровый) (Синема УС)"],"quality":"webdl","translation":"Любительский (многоголосый закадровый) (Синема УС)","update":"2020-12-23 12:37:30","iframe_src":"//5322.svetacdn.in/71tsRs29n5tZ/movie/46323"},{"id":46316,"title":"Рождество в Солвенге","kp_id":"1356364","imdb_id":"tt11929008","world_art_id":null,"type":"movie","add":"2020-12-22 18:49:08","orig_title":"A Very Charming Christmas Town","year":"2020-11-08","translations":["Любительский (многоголосый закадровый) (Синема УС)"],"quality":"webdl","translation":"Любительский (многоголосый закадровый) (Синема УС)","update":"2020-12-23 05:05:19","iframe_src":"//5322.svetacdn.in/71tsRs29n5tZ/movie/46316"},{"id":46314,"title":"Ночь, когда они постучались","kp_id":"1142172","imdb_id":"tt7588822","world_art_id":null,"type":"movie","add":"2020-12-22 18:44:17","orig_title":"The Night They Knocked","year":"2020-11-06","translations":["Любительский (многоголосый закадровый) (Синема УС)"],"quality":"webdl","translation":"Любительский (многоголосый закадровый) (Синема УС)","update":"2020-12-23 05:05:42","iframe_src":"//5322.svetacdn.in/71tsRs29n5tZ/movie/46314"},{"id":46298,"title":"Бог войны Чжао Цзылун","kp_id":null,"imdb_id":"tt13575948","world_art_id":null,"type":"movie","add":"2020-12-22 13:25:44","orig_title":"God of War: Zhao Zilong","year":"2020-11-29","translations":["Любительский (многоголосый закадровый) (Синема УС)"],"quality":"webdl","translation":"Любительский (многоголосый закадровый) (Синема УС)","update":"2020-12-23 06:32:52","iframe_src":"//5322.svetacdn.in/71tsRs29n5tZ/movie/46298"},{"id":46295,"title":"Лихой декабрь","kp_id":"1449172","imdb_id":"tt13454498","world_art_id":null,"type":"movie","add":"2020-12-22 10:13:38","orig_title":"Dashing in December","year":"2020-12-13","translations":["Любительский (многоголосый закадровый) (Синема УС)"],"quality":"webdl","translation":"Любительский (многоголосый закадровый) (Синема УС)","update":"2020-12-22 19:17:10","iframe_src":"//5322.svetacdn.in/71tsRs29n5tZ/movie/46295"},{"id":46182,"title":"Коп-доберман","kp_id":"55447","imdb_id":"tt0165237","world_art_id":null,"type":"movie","add":"2020-12-18 07:21:59","orig_title":"Doberuman deka","year":"1977-07-02","translations":["Любительский (одноголосый закадровый) (neko64)"],"quality":"bd","translation":"Любительский (одноголосый закадровый) (neko64)","update":"2020-12-22 14:49:41","iframe_src":"//5322.svetacdn.in/71tsRs29n5tZ/movie/46182"},{"id":46179,"title":"Данвичский ужас","kp_id":"7279","imdb_id":"tt0065669","world_art_id":null,"type":"movie","add":"2020-12-18 06:30:22","orig_title":"The Dunwich Horror","year":"1970-01-14","translations":["Любительский (одноголосый закадровый)"],"quality":"bd","translation":"Любительский (одноголосый закадровый)","update":"2020-12-22 14:52:20","iframe_src":"//5322.svetacdn.in/71tsRs29n5tZ/movie/46179"},{"id":46177,"title":"Ванда Невада","kp_id":"9953","imdb_id":"tt0080116","world_art_id":null,"type":"movie","add":"2020-12-18 06:26:01","orig_title":"Wanda Nevada","year":"1979-06-01","translations":["Профессиональный (двухголосый закадровый) (НТВ)"],"quality":"bd","translation":"Профессиональный (двухголосый закадровый) (НТВ)","update":"2020-12-22 14:41:02","iframe_src":"//5322.svetacdn.in/71tsRs29n5tZ/movie/46177"},{"id":46171,"title":"Миссия близнецов","kp_id":"278279","imdb_id":"tt0934949","world_art_id":null,"type":"movie","add":"2020-12-18 06:18:24","orig_title":"Seung chi sun tau","year":"2007-02-14","translations":["Авторский (одноголосый закадровый) (Дольский Андрей)"],"quality":"webdl","translation":"Авторский (одноголосый закадровый) (Дольский Андрей)","update":"2020-12-22 14:44:16","iframe_src":"//5322.svetacdn.in/71tsRs29n5tZ/movie/46171"},{"id":44207,"title":"Хандра","kp_id":"1199541","imdb_id":null,"world_art_id":null,"type":"movie","add":"2020-10-07 16:01:33","orig_title":"Хандра","year":"2020-10-01","translations":["Оригинальная дорожка"],"quality":"webdl","translation":"Оригинальная дорожка","update":"2020-12-22 14:53:38","iframe_src":"//5322.svetacdn.in/71tsRs29n5tZ/movie/44207"},{"id":40333,"title":"Угнать и продать","kp_id":"1309926","imdb_id":"tt11056594","world_art_id":null,"type":"movie","add":"2020-05-12 18:19:53","orig_title":"Rev","year":"2020-05-12","translations":["Original (English)","Полное дублирование (iTunes)"],"quality":"webdl","translation":"Original (English)","update":"2020-12-22 14:36:42","iframe_src":"//5322.svetacdn.in/71tsRs29n5tZ/movie/40333"},{"id":40310,"title":"Лара","kp_id":"1049464","imdb_id":"tt7275830","world_art_id":null,"type":"movie","add":"2020-05-11 21:04:26","orig_title":"Lara","year":"2019-06-30","translations":["Любительский (многоголосый закадровый) (Синема УС)","Авторский (одноголосый закадровый) (Сербин Юрий)"],"quality":"bd","translation":"Любительский (многоголосый закадровый) (Синема УС)","update":"2020-12-22 14:51:05","iframe_src":"//5322.svetacdn.in/71tsRs29n5tZ/movie/40310"},{"id":39813,"title":"Криминальные боссы","kp_id":"1202417","imdb_id":"tt9139586","world_art_id":null,"type":"movie","add":"2020-04-25 03:43:55","orig_title":"Arkansas","year":"2020-05-05","translations":["Любительский (многоголосый закадровый) (AlphaProject)","Original (English)","Полное дублирование (iTunes)"],"quality":"bd","translation":"Любительский (многоголосый закадровый) (AlphaProject)","update":"2020-12-23 13:35:39","iframe_src":"//5322.svetacdn.in/71tsRs29n5tZ/movie/39813"},{"id":35422,"title":"Стендап по дружбе","kp_id":"799742","imdb_id":"tt3174890","world_art_id":null,"type":"movie","add":"2020-01-24 19:21:27","orig_title":"Standing Up for Sunny","year":"2019-06-12","translations":["Полное дублирование (iTunes)"],"quality":"webdl","translation":"Полное дублирование (iTunes)","update":"2020-12-22 15:12:03","iframe_src":"//5322.svetacdn.in/71tsRs29n5tZ/movie/35422"},{"id":34792,"title":"10 обещаний моей собаке","kp_id":"407831","imdb_id":"tt1179271","world_art_id":null,"type":"movie","add":"2020-01-06 15:19:26","orig_title":"Inu to watashi no 10 no yakusoku","year":"2008-03-15","translations":["Любительский (одноголосый закадровый) (D.I.M.)"],"quality":"webdl","translation":"Любительский (одноголосый закадровый) (D.I.M.)","update":"2020-12-22 14:45:38","iframe_src":"//5322.svetacdn.in/71tsRs29n5tZ/movie/34792"},{"id":5371,"title":"Доктор Живаго","kp_id":"89676","imdb_id":"tt0417319","world_art_id":null,"type":"serial","add":"2019-10-02 08:35:33","orig_title":"Doktor Zhivago","year":"2006-01-01","translations":["Оригинальная дорожка"],"seasons_count":1,"episodes_count":11,"episodes":11,"update":"2019-10-03 06:44:29","iframe_src":"//5322.svetacdn.in/71tsRs29n5tZ/tv-series/5371"},{"id":5370,"title":"М.У.Р","kp_id":"539681","imdb_id":null,"world_art_id":null,"type":"serial","add":"2019-10-02 08:32:08","orig_title":"М.У.Р","year":"2012-04-01","translations":["Оригинальная дорожка"],"seasons_count":1,"episodes_count":20,"episodes":20,"update":"2019-10-03 07:08:18","iframe_src":"//5322.svetacdn.in/71tsRs29n5tZ/tv-series/5370"},{"id":5348,"title":"Особняк «Красная роза»","kp_id":"94588","imdb_id":"tt0259153","world_art_id":null,"type":"serial","add":"2019-10-01 06:50:30","orig_title":"Rose Red","year":"2002-01-27","translations":["Профессиональный (многоголосый закадровый)"],"seasons_count":1,"episodes_count":3,"episodes":3,"update":"2019-10-02 11:38:47","iframe_src":"//5322.svetacdn.in/71tsRs29n5tZ/tv-series/5348"},{"id":5347,"title":"Бивис и Батт-Хед","kp_id":"94667","imdb_id":"tt0105950","world_art_id":null,"type":"serial","add":"2019-09-30 20:33:08","orig_title":"Beavis and Butt-Head","year":"1993-03-08","translations":["Любительский (одноголосый закадровый)"],"seasons_count":8,"episodes_count":208,"episodes":12,"update":"2019-10-03 13:08:57","iframe_src":"//5322.svetacdn.in/71tsRs29n5tZ/tv-series/5347"},{"id":5327,"title":"Ждите неожиданного","kp_id":"1049716","imdb_id":null,"world_art_id":null,"type":"serial","add":"2019-09-27 11:41:09","orig_title":"Ждите неожиданного","year":"2017-10-21","translations":["Оригинальная дорожка"],"seasons_count":1,"episodes_count":4,"episodes":4,"update":"2019-10-03 11:56:10","iframe_src":"//5322.svetacdn.in/71tsRs29n5tZ/tv-series/5327"},{"id":5325,"title":"Тихие люди","kp_id":"1112714","imdb_id":null,"world_art_id":null,"type":"serial","add":"2019-09-27 11:38:54","orig_title":"Тихие люди","year":"2018-02-24","translations":["Оригинальная дорожка"],"seasons_count":1,"episodes_count":4,"episodes":4,"update":"2019-10-03 11:51:50","iframe_src":"//5322.svetacdn.in/71tsRs29n5tZ/tv-series/5325"},{"id":5324,"title":"Исключение","kp_id":"1046628","imdb_id":"tt5995370","world_art_id":null,"type":"serial","add":"2019-09-27 11:34:34","orig_title":"Striking Out","year":"2017-01-01","translations":["Любительский (многоголосый закадровый) (CoralMedia)","Любительский (многоголосый закадровый) (ColdFilm)"],"seasons_count":2,"episodes_count":10,"episodes":6,"update":"2019-10-02 11:36:09","iframe_src":"//5322.svetacdn.in/71tsRs29n5tZ/tv-series/5324"},{"id":5322,"title":"Счастье из осколков","kp_id":"1044400","imdb_id":null,"world_art_id":null,"type":"serial","add":"2019-09-27 11:32:39","orig_title":"Счастье из осколков","year":"2017-10-07","translations":["Оригинальная дорожка"],"seasons_count":1,"episodes_count":2,"episodes":2,"update":"2019-10-03 11:47:34","iframe_src":"//5322.svetacdn.in/71tsRs29n5tZ/tv-series/5322"},{"id":5321,"title":"Пока смерть не разлучит нас","kp_id":"1049611","imdb_id":null,"world_art_id":null,"type":"serial","add":"2019-09-27 11:30:49","orig_title":"Пока смерть не разлучит нас","year":"2017-10-28","translations":["Оригинальная дорожка"],"seasons_count":1,"episodes_count":2,"episodes":2,"update":"2019-10-03 11:45:51","iframe_src":"//5322.svetacdn.in/71tsRs29n5tZ/tv-series/5321"},{"id":5320,"title":"Долгое странное путешествие","kp_id":"1008908","imdb_id":"tt4143508","world_art_id":null,"type":"serial","add":"2019-09-27 11:27:55","orig_title":"Long Strange Trip","year":"2017-01-23","translations":["Любительский (двухголосый закадровый) (GoldTeam)"],"seasons_count":1,"episodes_count":6,"episodes":6,"update":"2019-10-03 11:43:13","iframe_src":"//5322.svetacdn.in/71tsRs29n5tZ/tv-series/5320"},{"id":5319,"title":"Хочу быть счастливой","kp_id":"1048523","imdb_id":null,"world_art_id":null,"type":"serial","add":"2019-09-27 11:26:01","orig_title":"Хочу быть счастливой","year":"2017-09-16","translations":["Оригинальная дорожка"],"seasons_count":1,"episodes_count":2,"episodes":2,"update":"2019-10-03 11:37:39","iframe_src":"//5322.svetacdn.in/71tsRs29n5tZ/tv-series/5319"},{"id":5308,"title":"Только между влюблёнными","kp_id":"1047915","imdb_id":"tt7521898","world_art_id":null,"type":"serial","add":"2019-09-26 14:09:22","orig_title":"Geunyang saranghaneun sai","year":"2017-12-11","translations":["Любительский (двухголосый закадровый) (JoyStudio)"],"seasons_count":1,"episodes_count":16,"episodes":16,"update":"2019-10-02 11:24:18","iframe_src":"//5322.svetacdn.in/71tsRs29n5tZ/tv-series/5308"},{"id":5221,"title":"Замок из песка","kp_id":"1162917","imdb_id":null,"world_art_id":null,"type":"serial","add":"2019-09-17 08:51:39","orig_title":"Замок из песка","year":"2019-09-16","translations":["Оригинальная дорожка"],"seasons_count":1,"episodes_count":8,"episodes":8,"update":"2019-10-02 19:18:30","iframe_src":"//5322.svetacdn.in/71tsRs29n5tZ/tv-series/5221"},{"id":5136,"title":"Шоу Лимми!","kp_id":"525844","imdb_id":"tt1495848","world_art_id":null,"type":"serial","add":"2019-09-03 13:36:44","orig_title":"Limmy's Show!","year":"2010-01-11","translations":["Профессиональный (двухголосый закадровый) (Ozz.tv)"],"seasons_count":1,"episodes_count":6,"episodes":6,"update":"2019-10-02 21:14:20","iframe_src":"//5322.svetacdn.in/71tsRs29n5tZ/tv-series/5136"},{"id":5045,"title":"Миссия невыполнима","kp_id":"229293","imdb_id":"tt0060009","world_art_id":null,"type":"serial","add":"2019-08-16 14:33:56","orig_title":"Mission: Impossible","year":"1966-09-17","translations":["Авторский (одноголосый закадровый) (Белов Вадим)"],"seasons_count":7,"episodes_count":171,"episodes":22,"update":"2019-10-03 15:02:40","iframe_src":"//5322.svetacdn.in/71tsRs29n5tZ/tv-series/5045"},{"id":4981,"title":"Новичок-историк Ку Хэ-рён","kp_id":"1237989","imdb_id":"tt10406128","world_art_id":null,"type":"serial","add":"2019-08-01 07:23:46","orig_title":"Shinibsagwan Goohaeryung","year":"2019-07-17","translations":["Любительский (многоголосый закадровый)"],"seasons_count":1,"episodes_count":20,"episodes":20,"update":"2019-10-03 09:19:08","iframe_src":"//5322.svetacdn.in/71tsRs29n5tZ/tv-series/4981"},{"id":23526,"title":"Зависть богов","kp_id":"20872","imdb_id":"tt0261450","world_art_id":null,"type":"movie","add":"2019-03-27 07:56:31","orig_title":"Zavist bogov","year":"2000-10-15","translations":["Оригинальная дорожка"],"quality":"webdl","translation":"Оригинальная дорожка","update":"2020-12-22 14:40:05","iframe_src":"//5322.svetacdn.in/71tsRs29n5tZ/movie/23526"},{"id":3925,"title":"Огги и тараканы","kp_id":"260398","imdb_id":"tt0213363","world_art_id":null,"type":"serial","add":"2019-01-22 08:19:16","orig_title":"Oggy et les cafards","year":"1998-09-06","translations":["Оригинальная дорожка"],"seasons_count":4,"episodes_count":269,"episodes":74,"update":"2019-10-03 07:37:53","iframe_src":"//5322.svetacdn.in/71tsRs29n5tZ/tv-series/3925"},{"id":3788,"title":"Польский учитель","kp_id":"1118208","imdb_id":"tt6281238","world_art_id":null,"type":"serial","add":"2018-12-30 12:44:30","orig_title":"Belfer","year":"2016-10-02","translations":["Любительский (многоголосый закадровый) (GreenРай Studio)"],"seasons_count":2,"episodes_count":18,"episodes":8,"update":"2019-10-03 08:42:00","iframe_src":"//5322.svetacdn.in/71tsRs29n5tZ/tv-series/3788"},{"id":1727,"title":"Охотники за наживой","kp_id":"1071368","imdb_id":"tt7350790","world_art_id":null,"type":"serial","add":"2017-11-13 06:24:22","orig_title":"Bounty Hunters","year":"2017-10-25","translations":["Профессиональный (многоголосый закадровый) (Ozz.tv)","Профессиональный (многоголосый закадровый) (Amedia)","Профессиональный (многоголосый закадровый) (TVShows)"],"seasons_count":2,"episodes_count":11,"episodes":5,"update":"2019-10-03 08:07:20","iframe_src":"//5322.svetacdn.in/71tsRs29n5tZ/tv-series/1727"},{"id":1167,"title":"Воронины","kp_id":"479090","imdb_id":"tt2301092","world_art_id":null,"type":"serial","add":"2017-04-05 09:13:13","orig_title":"Voroniny","year":"2009-11-16","translations":["Оригинальная дорожка"],"seasons_count":24,"episodes_count":553,"episodes":22,"update":"2019-10-03 17:44:52","iframe_src":"//5322.svetacdn.in/71tsRs29n5tZ/tv-series/1167"},{"id":7926,"title":"Человек года","kp_id":"195235","imdb_id":"tt0483726","world_art_id":null,"type":"movie","add":"2016-12-08 07:53:05","orig_title":"Man of the Year","year":"2006-10-13","translations":["Original (English)","Полное дублирование"],"quality":"bd","translation":"Original (English)","update":"2020-12-22 14:38:13","iframe_src":"//5322.svetacdn.in/71tsRs29n5tZ/movie/7926"},{"id":855,"title":"Девушка моих кошмаров","kp_id":"81856","imdb_id":"tt0408839","world_art_id":null,"type":"movie","add":"2016-04-08 18:17:29","orig_title":"The Heartbreak Kid","year":"2007-09-27","translations":["Полное дублирование"],"quality":"webdl","translation":"Полное дублирование","update":"2020-12-22 14:46:47","iframe_src":"//5322.svetacdn.in/71tsRs29n5tZ/movie/855"}],"current_page":328,"first_page_url":"https://videocdn.tv/api/short?limit=100&api_token=EnbO9h8pv1VyjbCJhg0WM9nG259n7mtz&cache3328=3328&page=1","from":32701,"last_page":626,"last_page_url":"https://videocdn.tv/api/short?limit=100&api_token=EnbO9h8pv1VyjbCJhg0WM9nG259n7mtz&cache3328=3328&page=626","next_page_url":"https://videocdn.tv/api/short?limit=100&api_token=EnbO9h8pv1VyjbCJhg0WM9nG259n7mtz&cache3328=3328&page=329","path":"https://videocdn.tv/api/short","per_page":100,"prev_page_url":"https://videocdn.tv/api/short?limit=100&api_token=EnbO9h8pv1VyjbCJhg0WM9nG259n7mtz&cache3328=3328&page=327","to":32740,"total":62573}