{"result":true,"data":[{"id":50679,"title":"Второй шанс или Грэй Вэлли","kp_id":"1393982","imdb_id":"tt12616296","world_art_id":null,"type":"movie","add":"2021-05-26 12:33:56","orig_title":"Second Chance aka Grey Valley","year":"2021-05-15","translations":["Любительский (многоголосый закадровый) (Синема УС)"],"quality":"webdl","translation":"Любительский (многоголосый закадровый) (Синема УС)","update":"2021-05-26 14:54:17","iframe_src":"//7720.svetacdn.in/si4jsFRrtgrT/movie/50679"},{"id":50678,"title":"Тайны сестринства","kp_id":"4307858","imdb_id":"tt13716060","world_art_id":null,"type":"movie","add":"2021-05-26 11:50:21","orig_title":"Secrets on Sorority Row","year":"2021-05-15","translations":["Любительский (многоголосый закадровый) (AlphaProject)"],"quality":"webdl","translation":"Любительский (многоголосый закадровый) (AlphaProject)","update":"2021-05-26 17:11:02","iframe_src":"//7720.svetacdn.in/si4jsFRrtgrT/movie/50678"},{"id":50676,"title":"Щепотка любви","kp_id":"1394221","imdb_id":"tt12739938","world_art_id":null,"type":"movie","add":"2021-05-26 10:27:12","orig_title":"Hint of Love","year":"2020-07-07","translations":["Любительский (многоголосый закадровый) (Синема УС)"],"quality":"webdl","translation":"Любительский (многоголосый закадровый) (Синема УС)","update":"2021-05-26 13:26:07","iframe_src":"//7720.svetacdn.in/si4jsFRrtgrT/movie/50676"},{"id":50666,"title":"Рай - новая жизнь","kp_id":"1255317","imdb_id":"tt10189540","world_art_id":null,"type":"movie","add":"2021-05-25 16:12:14","orig_title":"Paradise - Una nuova vita","year":"2020-10-08","translations":["Любительский (многоголосый закадровый) (Синема УС)"],"quality":"webdl","translation":"Любительский (многоголосый закадровый) (Синема УС)","update":"2021-05-26 08:20:47","iframe_src":"//7720.svetacdn.in/si4jsFRrtgrT/movie/50666"},{"id":50659,"title":"Секс-клуб с клубничкой","kp_id":"403595","imdb_id":"tt1175503","world_art_id":null,"type":"movie","add":"2021-05-25 15:15:00","orig_title":"Kinky Sex Club","year":"2004-01-01","translations":["Профессиональный (многоголосый закадровый)"],"quality":"dvdrip","translation":"Профессиональный (многоголосый закадровый)","update":"2021-05-26 08:07:54","iframe_src":"//7720.svetacdn.in/si4jsFRrtgrT/movie/50659"},{"id":50658,"title":"Громовержец и Виннету","kp_id":"225818","imdb_id":"tt0061198","world_art_id":null,"type":"movie","add":"2021-05-25 15:12:57","orig_title":"Winnetou und sein Freund Old Firehand","year":"1966-12-13","translations":["Профессиональный (многоголосый закадровый)"],"quality":"bd","translation":"Профессиональный (многоголосый закадровый)","update":"2021-05-26 08:11:06","iframe_src":"//7720.svetacdn.in/si4jsFRrtgrT/movie/50658"},{"id":50657,"title":"Виннету в долине смерти","kp_id":"81281","imdb_id":"tt0063818","world_art_id":null,"type":"movie","add":"2021-05-25 15:09:43","orig_title":"Winnetou und Shatterhand im Tal der Toten","year":"1968-12-12","translations":["Профессиональный (многоголосый закадровый)"],"quality":"bd","translation":"Профессиональный (многоголосый закадровый)","update":"2021-05-26 08:09:54","iframe_src":"//7720.svetacdn.in/si4jsFRrtgrT/movie/50657"},{"id":50656,"title":"Секс-салон 2","kp_id":"830219","imdb_id":"tt1039634","world_art_id":null,"type":"movie","add":"2021-05-25 14:57:01","orig_title":"The Sex Spa II: Body Work","year":"2005-09-02","translations":["Профессиональный (двухголосый закадровый)"],"quality":"dvdrip","translation":"Профессиональный (двухголосый закадровый)","update":"2021-05-26 08:06:11","iframe_src":"//7720.svetacdn.in/si4jsFRrtgrT/movie/50656"},{"id":50655,"title":"Филофобия","kp_id":"1082512","imdb_id":"tt7201744","world_art_id":null,"type":"movie","add":"2021-05-25 14:45:46","orig_title":"Philophobia","year":"2020-10-30","translations":["Любительский (многоголосый закадровый) (Синема УС)"],"quality":"webdl","translation":"Любительский (многоголосый закадровый) (Синема УС)","update":"2021-05-26 08:19:03","iframe_src":"//7720.svetacdn.in/si4jsFRrtgrT/movie/50655"},{"id":49520,"title":"Роллербол","kp_id":"7243","imdb_id":"tt0073631","world_art_id":null,"type":"movie","add":"2021-04-11 17:33:29","orig_title":"Rollerball","year":"1975-06-25","translations":["Профессиональный (многоголосый закадровый) (5-й канал СПб)","Авторский (одноголосый закадровый) (Гаврилов Андрей)","Original (English)","Профессиональный (многоголосый закадровый) (5-й канал СПб)","Профессиональный (многоголосый закадровый) (НТВ)"],"quality":"bd","translation":"Профессиональный (многоголосый закадровый) (5-й канал СПб)","update":"2021-05-26 07:14:54","iframe_src":"//7720.svetacdn.in/si4jsFRrtgrT/movie/49520"},{"id":9227,"title":"Не отпускай","kp_id":"1390588","imdb_id":null,"world_art_id":null,"type":"serial","add":"2020-11-07 16:36:31","orig_title":"Не отпускай","year":"2019-01-01","translations":["Оригинальная дорожка"],"seasons_count":1,"episodes_count":8,"episodes":8,"update":"2020-11-08 06:40:45","iframe_src":"//7720.svetacdn.in/si4jsFRrtgrT/tv-series/9227"},{"id":9214,"title":"Воровка","kp_id":"584957","imdb_id":"tt1763664","world_art_id":null,"type":"serial","add":"2020-11-06 11:08:57","orig_title":"La ladra","year":"2010-09-19","translations":["Профессиональный (двухголосый закадровый) (ViruseProject)"],"seasons_count":1,"episodes_count":6,"episodes":6,"update":"2020-11-07 10:50:26","iframe_src":"//7720.svetacdn.in/si4jsFRrtgrT/tv-series/9214"},{"id":9203,"title":"Неправильная мама","kp_id":"891677","imdb_id":"tt4324796","world_art_id":null,"type":"serial","add":"2020-11-05 09:58:18","orig_title":"Odd Mom Out","year":"2015-06-08","translations":["Профессиональный (многоголосый закадровый) (ViruseProject)"],"seasons_count":3,"episodes_count":29,"episodes":10,"update":"2020-11-06 15:08:42","iframe_src":"//7720.svetacdn.in/si4jsFRrtgrT/tv-series/9203"},{"id":9190,"title":"Игрушки","kp_id":"468239","imdb_id":"tt3136238","world_art_id":null,"type":"serial","add":"2020-11-04 08:00:47","orig_title":"Igrushki","year":"2010-04-05","translations":["Оригинальная дорожка"],"seasons_count":2,"episodes_count":40,"episodes":20,"update":"2020-11-06 12:25:20","iframe_src":"//7720.svetacdn.in/si4jsFRrtgrT/tv-series/9190"},{"id":9185,"title":"Мелочи жизни","kp_id":"405656","imdb_id":"tt0103490","world_art_id":null,"type":"serial","add":"2020-11-03 12:50:26","orig_title":"Melochi zhizni","year":"1992-01-01","translations":["Оригинальная дорожка"],"seasons_count":1,"episodes_count":74,"episodes":74,"update":"2020-11-06 12:15:40","iframe_src":"//7720.svetacdn.in/si4jsFRrtgrT/tv-series/9185"},{"id":9183,"title":"Цыганка","kp_id":"255347","imdb_id":"tt0199287","world_art_id":null,"type":"serial","add":"2020-11-02 21:29:15","orig_title":"Zíngara","year":"1996-03-11","translations":["Профессиональный (многоголосый закадровый)"],"seasons_count":1,"episodes_count":202,"episodes":202,"update":"2020-11-05 20:40:56","iframe_src":"//7720.svetacdn.in/si4jsFRrtgrT/tv-series/9183"},{"id":9179,"title":"Земля лицемерия","kp_id":"1226951","imdb_id":"tt9516224","world_art_id":null,"type":"serial","add":"2020-11-02 15:56:23","orig_title":"Ard Al Nefaq","year":"2018-05-17","translations":["Любительский (многоголосый закадровый) (WestFilm)"],"seasons_count":1,"episodes_count":30,"episodes":30,"update":"2020-11-07 20:59:44","iframe_src":"//7720.svetacdn.in/si4jsFRrtgrT/tv-series/9179"},{"id":9178,"title":"Неоконченный бой","kp_id":"840571","imdb_id":null,"world_art_id":null,"type":"serial","add":"2020-11-02 14:34:10","orig_title":"Neokonchennyy boy","year":"2016-01-01","translations":["Оригинальная дорожка"],"seasons_count":1,"episodes_count":8,"episodes":8,"update":"2020-11-05 18:49:23","iframe_src":"//7720.svetacdn.in/si4jsFRrtgrT/tv-series/9178"},{"id":9176,"title":"Провинциал","kp_id":"762275","imdb_id":null,"world_art_id":null,"type":"serial","add":"2020-11-02 12:32:32","orig_title":"Provincial","year":"2013-05-06","translations":["Оригинальная дорожка"],"seasons_count":1,"episodes_count":16,"episodes":16,"update":"2020-11-05 18:34:22","iframe_src":"//7720.svetacdn.in/si4jsFRrtgrT/tv-series/9176"},{"id":9175,"title":"Хищные птицы","kp_id":"447695","imdb_id":"tt0312098","world_art_id":null,"type":"serial","add":"2020-11-02 12:17:05","orig_title":"Birds of Prey","year":"2002-10-02","translations":["Любительский (двухголосый закадровый)"],"seasons_count":1,"episodes_count":13,"episodes":13,"update":"2020-11-05 18:28:12","iframe_src":"//7720.svetacdn.in/si4jsFRrtgrT/tv-series/9175"},{"id":9122,"title":"Два озера","kp_id":null,"imdb_id":"tt6343514","world_art_id":null,"type":"serial","add":"2020-10-26 11:12:47","orig_title":"Dos Lagos","year":"2017-11-09","translations":["Любительский (многоголосый закадровый) (WestFilm)"],"seasons_count":1,"episodes_count":12,"episodes":12,"update":"2020-11-06 07:53:55","iframe_src":"//7720.svetacdn.in/si4jsFRrtgrT/tv-series/9122"},{"id":9121,"title":"Тобол","kp_id":"958592","imdb_id":null,"world_art_id":null,"type":"serial","add":"2020-10-26 11:07:13","orig_title":"Тобол","year":"2020-10-26","translations":["Оригинальная дорожка"],"seasons_count":1,"episodes_count":8,"episodes":8,"update":"2020-11-06 03:10:14","iframe_src":"//7720.svetacdn.in/si4jsFRrtgrT/tv-series/9121"},{"id":8952,"title":"Призраки усадьбы Блай","kp_id":"1346006","imdb_id":"tt10970552","world_art_id":null,"type":"serial","add":"2020-10-09 10:12:53","orig_title":"The Haunting of Bly Manor","year":"2020-10-09","translations":["Полное дублирование (SDI Media)","Любительский (многоголосый закадровый) (ColdFilm)","Любительский (многоголосый закадровый) (Ultradox)","Профессиональный (двухголосый закадровый) (IdeaFilm)","Профессиональный (многоголосый закадровый) (HDrezka Studio)","Профессиональный (многоголосый закадровый) (BaibaKo)","Профессиональный (многоголосый закадровый) (LostFilm)","Профессиональный (многоголосый закадровый) (OMSKBIRD records)","Профессиональный (многоголосый закадровый) (NewStudio)","Профессиональный (многоголосый закадровый) (Jaskier)"],"seasons_count":1,"episodes_count":9,"episodes":9,"update":"2020-11-07 06:43:20","iframe_src":"//7720.svetacdn.in/si4jsFRrtgrT/tv-series/8952"},{"id":44174,"title":"Чёрный ящик","kp_id":"1379736","imdb_id":"tt12298506","world_art_id":null,"type":"movie","add":"2020-10-06 19:54:09","orig_title":"Black Box","year":"2020-10-06","translations":["Original (English)","Профессиональный (многоголосый закадровый) (HDrezka Studio)","Любительский (многоголосый закадровый) (@MUZOBOZ@)"],"quality":"webdl","translation":"Original (English)","update":"2021-05-26 17:17:24","iframe_src":"//7720.svetacdn.in/si4jsFRrtgrT/movie/44174"},{"id":8569,"title":"Синие тени","kp_id":"966671","imdb_id":"tt5507426","world_art_id":null,"type":"serial","add":"2020-08-29 19:04:56","orig_title":"Modré stíny","year":"2016-02-28","translations":["Любительский (многоголосый закадровый) (WestFilm)","Профессиональный (двухголосый закадровый) (ViruseProject)"],"seasons_count":1,"episodes_count":4,"episodes":4,"update":"2020-11-07 12:51:40","iframe_src":"//7720.svetacdn.in/si4jsFRrtgrT/tv-series/8569"},{"id":8417,"title":"Монстр из Мартфу","kp_id":"1260404","imdb_id":"tt10242558","world_art_id":null,"type":"serial","add":"2020-08-12 20:35:34","orig_title":"A Martfüi Rém - A Sorozat","year":"2020-08-01","translations":["Любительский (многоголосый закадровый) (Octopus)","Профессиональный (двухголосый закадровый) (ViruseProject)"],"seasons_count":1,"episodes_count":4,"episodes":4,"update":"2020-11-06 22:19:42","iframe_src":"//7720.svetacdn.in/si4jsFRrtgrT/tv-series/8417"},{"id":7560,"title":"Живые мишени","kp_id":"1219789","imdb_id":"tt9429690","world_art_id":null,"type":"serial","add":"2020-05-18 17:35:08","orig_title":"Zivé terce","year":"2019-04-28","translations":["Любительский (многоголосый закадровый) (WestFilm)","Профессиональный (двухголосый закадровый) (ViruseProject)"],"seasons_count":1,"episodes_count":3,"episodes":3,"update":"2020-11-07 07:29:19","iframe_src":"//7720.svetacdn.in/si4jsFRrtgrT/tv-series/7560"},{"id":5599,"title":"Первобытный","kp_id":"1263399","imdb_id":"tt10332508","world_art_id":null,"type":"serial","add":"2019-11-01 18:07:47","orig_title":"Primal","year":"2019-10-07","translations":["Оригинальная дорожка"],"seasons_count":1,"episodes_count":10,"episodes":10,"update":"2020-11-07 11:36:22","iframe_src":"//7720.svetacdn.in/si4jsFRrtgrT/tv-series/5599"},{"id":21979,"title":"Под покровом ночи","kp_id":"997344","imdb_id":"tt5909334","world_art_id":null,"type":"movie","add":"2019-01-31 23:04:30","orig_title":"Beyond the Night","year":"2018-10-25","translations":["Любительский (многоголосый закадровый) (Синема УС)","Любительский (двухголосый закадровый) (HiWayGrope)","Любительский (двухголосый закадровый) (LakeFilms)","Профессиональный (многоголосый закадровый) (HDrezka Studio)","Профессиональный (многоголосый закадровый) (HDrezka Studio)"],"quality":"webdl","translation":"Любительский (многоголосый закадровый) (Синема УС)","update":"2021-05-26 08:20:32","iframe_src":"//7720.svetacdn.in/si4jsFRrtgrT/movie/21979"},{"id":20037,"title":"Эко-парк","kp_id":"997681","imdb_id":"tt5932330","world_art_id":null,"type":"movie","add":"2018-11-09 06:52:35","orig_title":"In Echo Park","year":"2018-02-23","translations":["Любительский (многоголосый закадровый) (Синема УС)","Профессиональный (многоголосый закадровый) (HDrezka Studio)"],"quality":"webdl","translation":"Любительский (многоголосый закадровый) (Синема УС)","update":"2021-05-26 10:34:33","iframe_src":"//7720.svetacdn.in/si4jsFRrtgrT/movie/20037"},{"id":19676,"title":"Вечерняя школа","kp_id":"1044912","imdb_id":"tt6781982","world_art_id":null,"type":"movie","add":"2018-10-22 00:58:06","orig_title":"Night School","year":"2018-09-26","translations":["Полное дублирование","Original (English)","Профессиональный (многоголосый закадровый) (HDrezka Studio)"],"quality":"bd","translation":"Полное дублирование","update":"2021-05-26 10:31:17","iframe_src":"//7720.svetacdn.in/si4jsFRrtgrT/movie/19676"},{"id":19094,"title":"Агент Джонни Инглиш 3.0","kp_id":"1045478","imdb_id":"tt6921996","world_art_id":null,"type":"movie","add":"2018-09-20 22:32:29","orig_title":"Johnny English Strikes Again","year":"2018-09-13","translations":["Любительский (многоголосый закадровый) (@MUZOBOZ@)","Профессиональный (многоголосый закадровый) (HDrezka Studio)","Полное дублирование","Профессиональный (многоголосый закадровый) (HDrezka Studio)"],"quality":"bd","translation":"Любительский (многоголосый закадровый) (@MUZOBOZ@)","update":"2021-05-26 10:30:10","iframe_src":"//7720.svetacdn.in/si4jsFRrtgrT/movie/19094"},{"id":2131,"title":"Богомол","kp_id":"1111975","imdb_id":"tt6467482","world_art_id":null,"type":"serial","add":"2018-02-22 04:30:43","orig_title":"La Mante","year":"2017-08-28","translations":["Любительский (двухголосый закадровый) (Sunshine Studio)","Профессиональный (двухголосый закадровый) (ViruseProject)"],"seasons_count":1,"episodes_count":6,"episodes":6,"update":"2020-11-07 10:55:48","iframe_src":"//7720.svetacdn.in/si4jsFRrtgrT/tv-series/2131"},{"id":1914,"title":"Арчер","kp_id":"491547","imdb_id":"tt1486217","world_art_id":null,"type":"serial","add":"2018-01-03 18:30:05","orig_title":"Archer","year":"2009-09-17","translations":["Профессиональный (многоголосый закадровый) (NovaFilm)","Профессиональный (многоголосый закадровый) (NewStudio)","Профессиональный (многоголосый закадровый)","Любительский (многоголосый закадровый) (Octopus)","Любительский (многоголосый закадровый) (ColdFilm)","Профессиональный (двухголосый закадровый) (IdeaFilm)","Профессиональный (многоголосый закадровый) (BaibaKo)"],"seasons_count":11,"episodes_count":118,"episodes":8,"update":"2020-11-07 14:24:17","iframe_src":"//7720.svetacdn.in/si4jsFRrtgrT/tv-series/1914"},{"id":13800,"title":"Кто прав, кто виноват","kp_id":"406480","imdb_id":"tt1191130","world_art_id":null,"type":"movie","add":"2017-10-10 07:43:43","orig_title":"Right Yaaa Wrong","year":"2010-03-12","translations":["Профессиональный (многоголосый закадровый) (SDI Media)"],"quality":"webdl","translation":"Профессиональный (многоголосый закадровый) (SDI Media)","update":"2021-05-26 15:04:24","iframe_src":"//7720.svetacdn.in/si4jsFRrtgrT/movie/13800"},{"id":2627,"title":"Пало-Альто","kp_id":"714101","imdb_id":"tt2479800","world_art_id":null,"type":"movie","add":"2016-05-26 17:32:46","orig_title":"Palo Alto","year":"2013-08-29","translations":["Любительский (одноголосый закадровый)","Original (English)","Любительский (одноголосый закадровый) (datynet | Агапов Антон)"],"quality":"bd","translation":"Любительский (одноголосый закадровый)","update":"2021-05-26 12:54:37","iframe_src":"//7720.svetacdn.in/si4jsFRrtgrT/movie/2627"},{"id":90,"title":"Марсель","kp_id":"891828","imdb_id":"tt4003966","world_art_id":null,"type":"serial","add":"2016-05-24 13:51:04","orig_title":"Marseille","year":"2016-05-05","translations":["Профессиональный (многоголосый закадровый) (NewStudio)","Профессиональный (многоголосый закадровый) (Jaskier)","Профессиональный (многоголосый закадровый) (BaibaKo)"],"seasons_count":2,"episodes_count":16,"episodes":8,"update":"2020-11-05 19:30:57","iframe_src":"//7720.svetacdn.in/si4jsFRrtgrT/tv-series/90"},{"id":2222,"title":"Девушка с татуировкой дракона","kp_id":"491724","imdb_id":"tt1568346","world_art_id":null,"type":"movie","add":"2016-05-16 13:54:45","orig_title":"The Girl with the Dragon Tattoo","year":"2011-12-12","translations":["Полное дублирование","Original (English)","Авторский (одноголосый закадровый) (Матвеев Алексей | Doctor Joker)","Авторский (одноголосый закадровый) (Визгунов Сергей)","Original (English)"],"quality":"bd","translation":"Полное дублирование","update":"2021-05-26 08:46:32","iframe_src":"//7720.svetacdn.in/si4jsFRrtgrT/movie/2222"},{"id":1815,"title":"Свой человек","kp_id":"467","imdb_id":"tt0140352","world_art_id":null,"type":"movie","add":"2016-05-03 06:00:38","orig_title":"The Insider","year":"1999-10-28","translations":["Профессиональный (многоголосый закадровый)","Авторский (одноголосый закадровый) (Живов Юрий)","Original (English)","Профессиональный (многоголосый закадровый)"],"quality":"bd","translation":"Профессиональный (многоголосый закадровый)","update":"2021-05-26 07:18:30","iframe_src":"//7720.svetacdn.in/si4jsFRrtgrT/movie/1815"},{"id":834,"title":"Человек со звезды","kp_id":"4011","imdb_id":"tt0088172","world_art_id":null,"type":"movie","add":"2016-04-08 17:14:22","orig_title":"Starman","year":"1984-12-14","translations":["Полное дублирование","Авторский (одноголосый закадровый) (Живов Юрий)","Полное дублирование","Original (English)","Авторский (одноголосый закадровый) (Леша-прапорщик)","Профессиональный (двухголосый закадровый) (Sony Sci-Fi)"],"quality":"bd","translation":"Полное дублирование","update":"2021-05-26 08:53:52","iframe_src":"//7720.svetacdn.in/si4jsFRrtgrT/movie/834"}],"current_page":145,"first_page_url":"https://videocdn.tv/api/short?limit=100&api_token=X6EwAUfE5M9xbo7y0Bp0aPf3uXxG2KLL&cache3145=3145&page=1","from":14401,"last_page":648,"last_page_url":"https://videocdn.tv/api/short?limit=100&api_token=X6EwAUfE5M9xbo7y0Bp0aPf3uXxG2KLL&cache3145=3145&page=648","next_page_url":"https://videocdn.tv/api/short?limit=100&api_token=X6EwAUfE5M9xbo7y0Bp0aPf3uXxG2KLL&cache3145=3145&page=146","path":"https://videocdn.tv/api/short","per_page":100,"prev_page_url":"https://videocdn.tv/api/short?limit=100&api_token=X6EwAUfE5M9xbo7y0Bp0aPf3uXxG2KLL&cache3145=3145&page=144","to":14440,"total":64745}