{"result":true,"data":[{"id":29046,"title":"Хризантема и Гильотина","kp_id":"1023902","imdb_id":"tt6178388","world_art_id":null,"type":"movie","add":"2019-07-15 21:35:05","orig_title":"Kiku to girochin onnazumo to anakisuto","year":"2018-07-07","translations":["Любительский (многоголосый закадровый) (Синема УС)"],"quality":"webdl","translation":"Любительский (многоголосый закадровый) (Синема УС)","update":"2019-07-16 05:32:26","iframe_src":"//7043.svetacdn.in/71tsRs29n5tZ/movie/29046"},{"id":29045,"title":"Цыплячья вечеринка","kp_id":"1066145","imdb_id":"tt7423450","world_art_id":null,"type":"movie","add":"2019-07-15 21:33:27","orig_title":"The Chicken Party","year":"2018-04-18","translations":["Любительский (многоголосый закадровый) (Синема УС)"],"quality":"webdl","translation":"Любительский (многоголосый закадровый) (Синема УС)","update":"2019-07-16 05:56:07","iframe_src":"//7043.svetacdn.in/71tsRs29n5tZ/movie/29045"},{"id":29044,"title":"Помпошки","kp_id":"973244","imdb_id":"tt5125894","world_art_id":null,"type":"movie","add":"2019-07-15 21:29:15","orig_title":"Poms","year":"2019-05-09","translations":["Любительский (многоголосый закадровый) (Синема УС)"],"quality":"webdl","translation":"Любительский (многоголосый закадровый) (Синема УС)","update":"2019-07-16 05:44:55","iframe_src":"//7043.svetacdn.in/71tsRs29n5tZ/movie/29044"},{"id":29043,"title":"Приезжай ко мне","kp_id":"1010048","imdb_id":"tt6353976","world_art_id":null,"type":"movie","add":"2019-07-15 21:28:04","orig_title":"Please Come With Me","year":"2019-05-01","translations":["Любительский (многоголосый закадровый) (Синема УС)"],"quality":"webdl","translation":"Любительский (многоголосый закадровый) (Синема УС)","update":"2019-07-16 05:31:21","iframe_src":"//7043.svetacdn.in/71tsRs29n5tZ/movie/29043"},{"id":29042,"title":"Смерть, мрак и отчаяние","kp_id":"1186016","imdb_id":"tt8900984","world_art_id":null,"type":"movie","add":"2019-07-15 21:26:33","orig_title":"Dark, Deadly & Dreadful","year":"2018-07-28","translations":["Любительский (многоголосый закадровый) (Синема УС)"],"quality":"webdl","translation":"Любительский (многоголосый закадровый) (Синема УС)","update":"2019-07-16 05:23:13","iframe_src":"//7043.svetacdn.in/71tsRs29n5tZ/movie/29042"},{"id":29041,"title":"Кунсан: Гусиная песня","kp_id":"1045895","imdb_id":"tt6931170","world_art_id":null,"type":"movie","add":"2019-07-15 21:25:08","orig_title":"Gunsan: geowireul noraehada","year":"2018-10-05","translations":["Любительский (многоголосый закадровый) (Синема УС)"],"quality":"bd","translation":"Любительский (многоголосый закадровый) (Синема УС)","update":"2019-07-16 05:29:37","iframe_src":"//7043.svetacdn.in/71tsRs29n5tZ/movie/29041"},{"id":29028,"title":"Парни музкоманды","kp_id":"169977","imdb_id":"tt0361966","world_art_id":null,"type":"movie","add":"2019-07-15 20:32:32","orig_title":"Nvagakhmbi tghanere","year":"1961-04-10","translations":["Оригинальная дорожка"],"quality":"sat","translation":"Оригинальная дорожка","update":"2019-07-16 06:32:35","iframe_src":"//7043.svetacdn.in/71tsRs29n5tZ/movie/29028"},{"id":29027,"title":"Путешествие в апрель","kp_id":"43362","imdb_id":"tt0237624","world_art_id":null,"type":"movie","add":"2019-07-15 20:29:18","orig_title":"Puteshestviye v aprel","year":"1963-04-06","translations":["Оригинальная дорожка"],"quality":"vhs","translation":"Оригинальная дорожка","update":"2019-07-16 06:29:56","iframe_src":"//7043.svetacdn.in/71tsRs29n5tZ/movie/29027"},{"id":29026,"title":"Платки","kp_id":"412502","imdb_id":null,"world_art_id":null,"type":"movie","add":"2019-07-15 20:26:19","orig_title":"Платки","year":"2008-01-07","translations":["Оригинальная дорожка"],"quality":"dvdrip","translation":"Оригинальная дорожка","update":"2019-07-16 06:20:27","iframe_src":"//7043.svetacdn.in/71tsRs29n5tZ/movie/29026"},{"id":29025,"title":"Потерянная фотография","kp_id":"43176","imdb_id":"tt0173027","world_art_id":null,"type":"movie","add":"2019-07-15 20:16:42","orig_title":"Poteryannaya fotografiya","year":"1960-05-12","translations":["Оригинальная дорожка"],"quality":"sat","translation":"Оригинальная дорожка","update":"2019-07-16 06:13:26","iframe_src":"//7043.svetacdn.in/71tsRs29n5tZ/movie/29025"},{"id":29024,"title":"Шторм","kp_id":"43767","imdb_id":"tt0050966","world_art_id":null,"type":"movie","add":"2019-07-15 20:13:34","orig_title":"Shtorm","year":"1957-10-15","translations":["Оригинальная дорожка"],"quality":"dvdrip","translation":"Оригинальная дорожка","update":"2019-07-16 06:10:39","iframe_src":"//7043.svetacdn.in/71tsRs29n5tZ/movie/29024"},{"id":29023,"title":"Верные сердца","kp_id":"45729","imdb_id":"tt0053413","world_art_id":null,"type":"movie","add":"2019-07-15 20:10:08","orig_title":"Vernye serdtsa","year":"1959-11-16","translations":["Оригинальная дорожка"],"quality":"webdl","translation":"Оригинальная дорожка","update":"2019-07-16 06:08:21","iframe_src":"//7043.svetacdn.in/71tsRs29n5tZ/movie/29023"},{"id":29022,"title":"Первоклашки","kp_id":"683783","imdb_id":"tt4094436","world_art_id":null,"type":"movie","add":"2019-07-15 20:03:12","orig_title":"Pervoklashki","year":"2012-11-25","translations":["Оригинальная дорожка"],"quality":"sat","translation":"Оригинальная дорожка","update":"2019-07-16 06:07:01","iframe_src":"//7043.svetacdn.in/71tsRs29n5tZ/movie/29022"},{"id":29021,"title":"Билборд","kp_id":"684775","imdb_id":"tt1713991","world_art_id":null,"type":"movie","add":"2019-07-15 19:40:22","orig_title":"Billboard","year":"2019-04-05","translations":["Профессиональный (многоголосый закадровый) (AlphaProject)"],"quality":"webdl","translation":"Профессиональный (многоголосый закадровый) (AlphaProject)","update":"2019-07-16 05:40:29","iframe_src":"//7043.svetacdn.in/71tsRs29n5tZ/movie/29021"},{"id":29020,"title":"Оксиденталь","kp_id":"1009406","imdb_id":"tt6230134","world_art_id":null,"type":"movie","add":"2019-07-15 18:15:28","orig_title":"Occidental","year":"2017-01-23","translations":["Любительский (многоголосый закадровый) (Синема УС)"],"quality":"webdl","translation":"Любительский (многоголосый закадровый) (Синема УС)","update":"2019-07-15 19:12:01","iframe_src":"//7043.svetacdn.in/71tsRs29n5tZ/movie/29020"},{"id":29019,"title":"Разбитые воспоминания","kp_id":"1179110","imdb_id":"tt8678108","world_art_id":null,"type":"movie","add":"2019-07-15 18:13:00","orig_title":"Last Night","year":"2018-11-15","translations":["Профессиональный (многоголосый закадровый) (AlphaProject)"],"quality":"hdtv","translation":"Профессиональный (многоголосый закадровый) (AlphaProject)","update":"2019-07-15 19:26:16","iframe_src":"//7043.svetacdn.in/71tsRs29n5tZ/movie/29019"},{"id":28961,"title":"4 канистры","kp_id":"1134550","imdb_id":"tt8242160","world_art_id":null,"type":"movie","add":"2019-07-13 20:05:32","orig_title":"4 latas","year":"2019-03-01","translations":["Любительский (многоголосый закадровый) (Синема УС)","Любительский (многоголосый закадровый) (Mallorn Studio)"],"quality":"webdl","translation":"Любительский (многоголосый закадровый) (Синема УС)","update":"2019-07-16 05:49:48","iframe_src":"//7043.svetacdn.in/71tsRs29n5tZ/movie/28961"},{"id":28851,"title":"Тьма внутри","kp_id":"1062826","imdb_id":"tt6842446","world_art_id":null,"type":"movie","add":"2019-07-10 19:43:32","orig_title":"The Dark Within","year":"2019-07-01","translations":["Любительский (многоголосый закадровый) (Синема УС)","Любительский (многоголосый закадровый) (Mallorn Studio)"],"quality":"webdl","translation":"Любительский (многоголосый закадровый) (Синема УС)","update":"2019-07-16 05:48:07","iframe_src":"//7043.svetacdn.in/71tsRs29n5tZ/movie/28851"},{"id":28263,"title":"Мисс и миссис Коп","kp_id":"1115830","imdb_id":null,"world_art_id":null,"type":"movie","add":"2019-06-25 16:19:26","orig_title":"Geolkapseu","year":"2019-05-09","translations":["Любительский (многоголосый закадровый) (Колобок)","Любительский (многоголосый закадровый) (STEPonee)"],"quality":"webdl","translation":"Любительский (многоголосый закадровый) (Колобок)","update":"2019-07-16 05:34:29","iframe_src":"//7043.svetacdn.in/71tsRs29n5tZ/movie/28263"},{"id":21732,"title":"Растяжки","kp_id":"1054994","imdb_id":"tt7088028","world_art_id":null,"type":"movie","add":"2019-01-22 10:54:22","orig_title":"Stretch Marks","year":"2018-01-01","translations":["Любительский (двухголосый закадровый) (HiWayGrope)","Любительский (многоголосый закадровый) (Колобок)","Профессиональный (многоголосый закадровый) (HDrezka Studio)"],"quality":"webdl","translation":"Любительский (двухголосый закадровый) (HiWayGrope)","update":"2019-07-16 05:58:03","iframe_src":"//7043.svetacdn.in/71tsRs29n5tZ/movie/21732"}],"current_page":1205,"first_page_url":"https://videocdn.tv/api/short?limit=100&api_token=EnbO9h8pv1VyjbCJhg0WM9nG259n7mtz&cache31205=31205&page=1","from":120401,"last_page":612,"last_page_url":"https://videocdn.tv/api/short?limit=100&api_token=EnbO9h8pv1VyjbCJhg0WM9nG259n7mtz&cache31205=31205&page=612","next_page_url":null,"path":"https://videocdn.tv/api/short","per_page":100,"prev_page_url":"https://videocdn.tv/api/short?limit=100&api_token=EnbO9h8pv1VyjbCJhg0WM9nG259n7mtz&cache31205=31205&page=1204","to":120420,"total":61189}