{"result":true,"data":[{"id":52250,"title":"Мастер Маошаня","kp_id":null,"imdb_id":"tt14741186","world_art_id":null,"type":"movie","add":"2021-08-06 06:44:54","orig_title":"Maoshan Dashi","year":"2021-04-08","translations":["Любительский (двухголосый закадровый) (Колобок)"],"quality":"webdl","translation":"Любительский (двухголосый закадровый) (Колобок)","update":"2021-08-06 08:46:21","iframe_src":"//83.svetacdn.in/PfJ50H0ZBPg3/movie/52250"},{"id":52249,"title":"Нэчжа","kp_id":"4309991","imdb_id":"tt13767804","world_art_id":null,"type":"movie","add":"2021-08-06 06:42:03","orig_title":"Chi Zha Feng Yun","year":"2021-01-15","translations":["Любительский (двухголосый закадровый) (Колобок)"],"quality":"webdl","translation":"Любительский (двухголосый закадровый) (Колобок)","update":"2021-08-06 08:47:12","iframe_src":"//83.svetacdn.in/PfJ50H0ZBPg3/movie/52249"},{"id":52242,"title":"Худшая из женщин","kp_id":"991667","imdb_id":"tt6088370","world_art_id":null,"type":"movie","add":"2021-08-06 06:16:34","orig_title":"Choeakui haru","year":"2016-08-25","translations":["Любительский (двухголосый закадровый) (АрхиAsia)"],"quality":"webdl","translation":"Любительский (двухголосый закадровый) (АрхиAsia)","update":"2021-08-06 11:41:30","iframe_src":"//83.svetacdn.in/PfJ50H0ZBPg3/movie/52242"},{"id":52240,"title":"Мелвин и Говард","kp_id":"9944","imdb_id":"tt0081150","world_art_id":null,"type":"movie","add":"2021-08-05 14:40:10","orig_title":"Melvin and Howard","year":"1980-09-19","translations":["Original (English)","Профессиональный (двухголосый закадровый) (НТВ)"],"quality":"bd","translation":"Original (English)","update":"2021-08-06 11:34:45","iframe_src":"//83.svetacdn.in/PfJ50H0ZBPg3/movie/52240"},{"id":52239,"title":"Эрнест идет в тюрьму","kp_id":"2487","imdb_id":"tt0099512","world_art_id":null,"type":"movie","add":"2021-08-05 14:27:50","orig_title":"Ernest Goes to Jail","year":"1990-04-06","translations":["Авторский (одноголосый закадровый) (Володарский Леонид)"],"quality":"bd","translation":"Авторский (одноголосый закадровый) (Володарский Леонид)","update":"2021-08-06 08:05:08","iframe_src":"//83.svetacdn.in/PfJ50H0ZBPg3/movie/52239"},{"id":52238,"title":"Рождественский гимн","kp_id":"17414","imdb_id":"tt0029992","world_art_id":null,"type":"movie","add":"2021-08-05 14:18:49","orig_title":"A Christmas Carol","year":"1938-12-16","translations":["Любительский (одноголосый закадровый) (Клерик)","Original (English)"],"quality":"bd","translation":"Любительский (одноголосый закадровый) (Клерик)","update":"2021-08-06 11:36:52","iframe_src":"//83.svetacdn.in/PfJ50H0ZBPg3/movie/52238"},{"id":52237,"title":"Рыцарь без доспехов","kp_id":"66722","imdb_id":"tt0208408","world_art_id":null,"type":"movie","add":"2021-08-05 14:17:10","orig_title":"Ritzar bez bronya","year":"1966-02-14","translations":["Любительский (одноголосый закадровый) (Ващенко Семён)"],"quality":"webdl","translation":"Любительский (одноголосый закадровый) (Ващенко Семён)","update":"2021-08-06 11:40:28","iframe_src":"//83.svetacdn.in/PfJ50H0ZBPg3/movie/52237"},{"id":52236,"title":"Девушка и волки","kp_id":"281102","imdb_id":"tt0996952","world_art_id":null,"type":"movie","add":"2021-08-05 14:14:05","orig_title":"La jeune fille et les loups","year":"2008-02-13","translations":["Профессиональный (многоголосый закадровый)"],"quality":"bd","translation":"Профессиональный (многоголосый закадровый)","update":"2021-08-06 11:38:36","iframe_src":"//83.svetacdn.in/PfJ50H0ZBPg3/movie/52236"},{"id":52235,"title":"Падальщик","kp_id":"4515651","imdb_id":"tt12740024","world_art_id":null,"type":"movie","add":"2021-08-05 06:05:47","orig_title":"Carroña","year":"2020-04-30","translations":["Любительский (многоголосый закадровый) (Синема УС)"],"quality":"webdl","translation":"Любительский (многоголосый закадровый) (Синема УС)","update":"2021-08-05 10:21:11","iframe_src":"//83.svetacdn.in/PfJ50H0ZBPg3/movie/52235"},{"id":52234,"title":"Переходя черту","kp_id":"1372092","imdb_id":"tt11946452","world_art_id":null,"type":"movie","add":"2021-08-05 06:03:30","orig_title":"Crossing the Line","year":"2020-10-27","translations":["Любительский (многоголосый закадровый) (Синема УС)"],"quality":"webdl","translation":"Любительский (многоголосый закадровый) (Синема УС)","update":"2021-08-05 10:21:00","iframe_src":"//83.svetacdn.in/PfJ50H0ZBPg3/movie/52234"},{"id":52229,"title":"Огненное кольцо","kp_id":"34616","imdb_id":"tt0102793","world_art_id":null,"type":"movie","add":"2021-08-05 05:14:07","orig_title":"Ring of Fire","year":"1991-11-19","translations":["Original (English)","Авторский (одноголосый закадровый) (Дольский Андрей)"],"quality":"webdl","translation":"Original (English)","update":"2021-08-05 14:46:32","iframe_src":"//83.svetacdn.in/PfJ50H0ZBPg3/movie/52229"},{"id":52221,"title":"Завороженные","kp_id":"1370448","imdb_id":"tt7725374","world_art_id":null,"type":"movie","add":"2021-08-04 19:45:52","orig_title":"Les envoûtés","year":"2019-12-11","translations":["Любительский (многоголосый закадровый) (AlphaProject)"],"quality":"webdl","translation":"Любительский (многоголосый закадровый) (AlphaProject)","update":"2021-08-06 07:31:09","iframe_src":"//83.svetacdn.in/PfJ50H0ZBPg3/movie/52221"},{"id":52127,"title":"Калифорнийский отель","kp_id":"6750","imdb_id":"tt0077289","world_art_id":null,"type":"movie","add":"2021-07-31 16:45:26","orig_title":"California Suite","year":"1978-12-18","translations":["Авторский (одноголосый закадровый) (Сонькин Владимир)","Original (English)","Профессиональный (двухголосый закадровый) (5-й канал СПб)","Профессиональный (двухголосый закадровый) (СВ-Дубль)"],"quality":"webdl","translation":"Авторский (одноголосый закадровый) (Сонькин Владимир)","update":"2021-08-06 11:53:15","iframe_src":"//83.svetacdn.in/PfJ50H0ZBPg3/movie/52127"},{"id":51430,"title":"Бендер: Начало","kp_id":"1305913","imdb_id":"tt15060248","world_art_id":null,"type":"movie","add":"2021-06-27 14:32:20","orig_title":"Bender: Nachalo","year":"2021-06-24","translations":["Оригинальная дорожка","Оригинальная дорожка"],"quality":"ts","translation":"Оригинальная дорожка","update":"2021-08-06 11:30:58","iframe_src":"//83.svetacdn.in/PfJ50H0ZBPg3/movie/51430"},{"id":49078,"title":"Снега больше не будет","kp_id":"1226786","imdb_id":"tt9526784","world_art_id":null,"type":"movie","add":"2021-03-24 21:20:25","orig_title":"Śniegu już nigdy nie będzie","year":"2020-09-06","translations":["Полное дублирование","Полное дублирование (iTunes)"],"quality":"webdl","translation":"Полное дублирование","update":"2021-08-06 11:24:12","iframe_src":"//83.svetacdn.in/PfJ50H0ZBPg3/movie/49078"},{"id":45471,"title":"Бег","kp_id":"1204966","imdb_id":"tt10933000","world_art_id":null,"type":"movie","add":"2020-11-20 20:06:41","orig_title":"Beg","year":"2021-08-06","translations":["Оригинальная дорожка","Оригинальная дорожка"],"quality":"ts","translation":"Оригинальная дорожка","update":"2021-08-06 11:32:18","iframe_src":"//83.svetacdn.in/PfJ50H0ZBPg3/movie/45471"},{"id":44603,"title":"Коп на драйве","kp_id":"1318885","imdb_id":"tt11206302","world_art_id":null,"type":"movie","add":"2020-10-19 19:45:46","orig_title":"30 jours max","year":"2020-10-14","translations":["Любительский (многоголосый закадровый) (@MUZOBOZ@)","Любительский (многоголосый закадровый) (@MUZOBOZ@)","Полное дублирование (iTunes)"],"quality":"webdl","translation":"Любительский (многоголосый закадровый) (@MUZOBOZ@)","update":"2021-08-06 11:26:30","iframe_src":"//83.svetacdn.in/PfJ50H0ZBPg3/movie/44603"},{"id":9051,"title":"Молох","kp_id":"1271762","imdb_id":"tt10370486","world_art_id":null,"type":"serial","add":"2020-10-19 05:57:56","orig_title":"Moloch","year":"2020-10-22","translations":["Профессиональный (многоголосый закадровый) (BaibaKo)"],"seasons_count":1,"episodes_count":6,"episodes":6,"update":"2020-10-19 11:58:13","iframe_src":"//83.svetacdn.in/PfJ50H0ZBPg3/tv-series/9051"},{"id":9038,"title":"Логово Змея","kp_id":"491615","imdb_id":null,"world_art_id":null,"type":"serial","add":"2020-10-17 10:36:16","orig_title":"Логово Змея","year":"2009-12-21","translations":["Оригинальная дорожка"],"seasons_count":1,"episodes_count":10,"episodes":10,"update":"2020-10-20 12:03:34","iframe_src":"//83.svetacdn.in/PfJ50H0ZBPg3/tv-series/9038"},{"id":9034,"title":"Жульничество 1992: История Харшада Мехты","kp_id":"1393461","imdb_id":"tt12392504","world_art_id":null,"type":"serial","add":"2020-10-17 09:05:25","orig_title":"SCAM 1992: The Harshad Mehta Story","year":"2020-10-09","translations":["Любительский (многоголосый закадровый) (ColdFilm)"],"seasons_count":1,"episodes_count":10,"episodes":10,"update":"2020-10-20 10:52:22","iframe_src":"//83.svetacdn.in/PfJ50H0ZBPg3/tv-series/9034"},{"id":9012,"title":"Острый нож","kp_id":"1199940","imdb_id":"tt9100424","world_art_id":null,"type":"serial","add":"2020-10-14 12:09:25","orig_title":"Keskin Bicak","year":"2010-08-05","translations":["Любительский (одноголосый закадровый)"],"seasons_count":1,"episodes_count":8,"episodes":8,"update":"2020-10-20 16:14:02","iframe_src":"//83.svetacdn.in/PfJ50H0ZBPg3/tv-series/9012"},{"id":9006,"title":"Совершенное сердце","kp_id":"569587","imdb_id":"tt1454594","world_art_id":null,"type":"serial","add":"2020-10-13 12:34:18","orig_title":"Perfeito Coração","year":"2009-10-17","translations":["Профессиональный (многоголосый закадровый)"],"seasons_count":1,"episodes_count":140,"episodes":140,"update":"2020-10-19 15:02:31","iframe_src":"//83.svetacdn.in/PfJ50H0ZBPg3/tv-series/9006"},{"id":9005,"title":"Комиссар Хельдт","kp_id":"838620","imdb_id":"tt2487938","world_art_id":null,"type":"serial","add":"2020-10-13 12:19:48","orig_title":"Heldt","year":"2013-01-24","translations":["Профессиональный (двухголосый закадровый) (ViruseProject)"],"seasons_count":2,"episodes_count":18,"episodes":12,"update":"2020-10-20 21:27:04","iframe_src":"//83.svetacdn.in/PfJ50H0ZBPg3/tv-series/9005"},{"id":8966,"title":"Лошадки","kp_id":"573348","imdb_id":"tt0961121","world_art_id":null,"type":"serial","add":"2020-10-10 12:27:41","orig_title":"Horseland","year":"2006-01-01","translations":["Профессиональный (многоголосый закадровый)"],"seasons_count":3,"episodes_count":39,"episodes":13,"update":"2020-10-20 17:58:47","iframe_src":"//83.svetacdn.in/PfJ50H0ZBPg3/tv-series/8966"},{"id":8965,"title":"Улица Далматинцев, 101","kp_id":"1048098","imdb_id":"tt7019028","world_art_id":null,"type":"serial","add":"2020-10-10 12:12:21","orig_title":"101 Dalmatian Street","year":"2018-12-14","translations":["Полное дублирование"],"seasons_count":1,"episodes_count":26,"episodes":26,"update":"2020-10-20 17:42:49","iframe_src":"//83.svetacdn.in/PfJ50H0ZBPg3/tv-series/8965"},{"id":8963,"title":"Макс и Руби","kp_id":"522116","imdb_id":"tt0367367","world_art_id":null,"type":"serial","add":"2020-10-10 11:18:15","orig_title":"Max & Ruby","year":"2002-05-03","translations":["Полное дублирование (SDI Media | Iyuno-SDI Group Russia)"],"seasons_count":1,"episodes_count":61,"episodes":61,"update":"2020-10-20 16:16:01","iframe_src":"//83.svetacdn.in/PfJ50H0ZBPg3/tv-series/8963"},{"id":8962,"title":"Анимагия","kp_id":"470407","imdb_id":"tt1001475","world_art_id":null,"type":"serial","add":"2020-10-10 11:10:20","orig_title":"Magi-Nation","year":"2007-01-01","translations":["Полное дублирование (СТС)"],"seasons_count":1,"episodes_count":26,"episodes":26,"update":"2020-10-20 17:24:05","iframe_src":"//83.svetacdn.in/PfJ50H0ZBPg3/tv-series/8962"},{"id":8937,"title":"Нулевой километр","kp_id":"1155251","imdb_id":"tt8378420","world_art_id":null,"type":"serial","add":"2020-10-07 16:02:22","orig_title":"Zero KMS","year":"2018-05-29","translations":["Любительский (многоголосый закадровый) (Ultradox)"],"seasons_count":1,"episodes_count":12,"episodes":12,"update":"2020-10-21 05:07:21","iframe_src":"//83.svetacdn.in/PfJ50H0ZBPg3/tv-series/8937"},{"id":8935,"title":"Тёмный футбол","kp_id":"1139882","imdb_id":"tt8337014","world_art_id":null,"type":"serial","add":"2020-10-07 15:47:59","orig_title":"Chuteira Preta","year":"2019-07-13","translations":["Любительский (многоголосый закадровый) (Ultradox)"],"seasons_count":1,"episodes_count":13,"episodes":13,"update":"2020-10-20 13:13:49","iframe_src":"//83.svetacdn.in/PfJ50H0ZBPg3/tv-series/8935"},{"id":8772,"title":"Последнее слово","kp_id":null,"imdb_id":"tt10506510","world_art_id":null,"type":"serial","add":"2020-09-18 05:43:58","orig_title":"The Last Word","year":"2020-09-17","translations":["Любительский (двухголосый закадровый) (KerobTV)","Любительский (многоголосый закадровый) (WestFilm)"],"seasons_count":1,"episodes_count":6,"episodes":6,"update":"2020-10-20 12:58:31","iframe_src":"//83.svetacdn.in/PfJ50H0ZBPg3/tv-series/8772"},{"id":8612,"title":"Молодой Валландер","kp_id":"1312745","imdb_id":"tt9359220","world_art_id":null,"type":"serial","add":"2020-09-03 13:02:03","orig_title":"Young Wallander","year":"2020-09-03","translations":["Любительский (многоголосый закадровый) (Octopus)","Любительский (многоголосый закадровый) (ColdFilm)","Профессиональный (многоголосый закадровый) (BaibaKo)","Профессиональный (двухголосый закадровый) (IdeaFilm)","Любительский (многоголосый закадровый) (WestFilm)"],"seasons_count":1,"episodes_count":6,"episodes":6,"update":"2020-10-21 08:17:36","iframe_src":"//83.svetacdn.in/PfJ50H0ZBPg3/tv-series/8612"},{"id":43032,"title":"Начать с нуля","kp_id":"1302958","imdb_id":"tt9114124","world_art_id":null,"type":"movie","add":"2020-09-02 20:43:46","orig_title":"Cambio tutto","year":"2020-06-19","translations":["Любительский (многоголосый закадровый) (AlphaProject)","Профессиональный (многоголосый закадровый) (iTunes)"],"quality":"webdl","translation":"Любительский (многоголосый закадровый) (AlphaProject)","update":"2021-08-06 11:28:16","iframe_src":"//83.svetacdn.in/PfJ50H0ZBPg3/movie/43032"},{"id":8066,"title":"Неразгаданные тайны","kp_id":null,"imdb_id":"tt9642938","world_art_id":null,"type":"serial","add":"2020-07-02 04:27:53","orig_title":"Unsolved Mysteries","year":"2020-07-01","translations":["Профессиональный (многоголосый закадровый) (BaibaKo)","Любительский (многоголосый закадровый) (Octopus)"],"seasons_count":1,"episodes_count":12,"episodes":12,"update":"2020-10-20 12:44:43","iframe_src":"//83.svetacdn.in/PfJ50H0ZBPg3/tv-series/8066"},{"id":5711,"title":"Старик Шику","kp_id":"972283","imdb_id":"tt5620074","world_art_id":null,"type":"serial","add":"2019-11-10 18:01:23","orig_title":"Velho Chico","year":"2016-03-14","translations":["Любительский (многоголосый закадровый)","Любительский (двухголосый закадровый) (RusFilm)"],"seasons_count":1,"episodes_count":82,"episodes":82,"update":"2020-10-20 21:16:14","iframe_src":"//83.svetacdn.in/PfJ50H0ZBPg3/tv-series/5711"},{"id":5180,"title":"Вверх дном","kp_id":"1156854","imdb_id":"tt8430356","world_art_id":null,"type":"serial","add":"2019-09-10 11:13:46","orig_title":"This Way Up","year":"2019-08-08","translations":["Любительский (двухголосый закадровый) (Elysium)","Профессиональный (многоголосый закадровый) (BaibaKo)","Профессиональный (многоголосый закадровый) (Кириллица)"],"seasons_count":1,"episodes_count":6,"episodes":6,"update":"2020-10-19 09:07:18","iframe_src":"//83.svetacdn.in/PfJ50H0ZBPg3/tv-series/5180"},{"id":5075,"title":"Вдребезги","kp_id":"843351","imdb_id":"tt4075038","world_art_id":null,"type":"serial","add":"2019-08-21 12:07:01","orig_title":"Paramparça","year":"2014-12-01","translations":["Профессиональный (многоголосый закадровый)","Полное дублирование (Русский дубляж)","Любительский (одноголосый закадровый) (turok1990)"],"seasons_count":3,"episodes_count":97,"episodes":26,"update":"2020-10-19 19:31:20","iframe_src":"//83.svetacdn.in/PfJ50H0ZBPg3/tv-series/5075"},{"id":4363,"title":"Звонарь","kp_id":"1216724","imdb_id":null,"world_art_id":null,"type":"serial","add":"2019-04-04 23:32:07","orig_title":"Звонарь","year":"2019-01-01","translations":["Оригинальная дорожка"],"seasons_count":1,"episodes_count":24,"episodes":24,"update":"2020-10-19 18:51:13","iframe_src":"//83.svetacdn.in/PfJ50H0ZBPg3/tv-series/4363"},{"id":3266,"title":"Холландс Хоуп","kp_id":"820592","imdb_id":"tt2707150","world_art_id":null,"type":"serial","add":"2018-10-08 12:32:39","orig_title":"Hollands Hoop","year":"2014-09-27","translations":["Профессиональный (двухголосый закадровый) (ViruseProject)","Профессиональный (многоголосый закадровый) (HDrezka Studio)","Любительский (многоголосый закадровый) (Octopus)"],"seasons_count":3,"episodes_count":24,"episodes":8,"update":"2020-10-20 21:21:54","iframe_src":"//83.svetacdn.in/PfJ50H0ZBPg3/tv-series/3266"},{"id":18734,"title":"Спальня епископа","kp_id":"58029","imdb_id":"tt0146289","world_art_id":null,"type":"movie","add":"2018-09-02 09:43:30","orig_title":"La stanza del vescovo","year":"1977-03-18","translations":["Профессиональный (многоголосый закадровый) (НТВ)","Авторский (одноголосый закадровый) (Козлов Сергей)","Профессиональный (многоголосый закадровый)","Профессиональный (многоголосый закадровый) (НТВ)"],"quality":"dvdrip","translation":"Профессиональный (многоголосый закадровый) (НТВ)","update":"2021-08-06 11:47:23","iframe_src":"//83.svetacdn.in/PfJ50H0ZBPg3/movie/18734"},{"id":4282,"title":"Звонок","kp_id":"804","imdb_id":"tt0298130","world_art_id":null,"type":"movie","add":"2016-08-02 14:31:16","orig_title":"The Ring","year":"2002-10-02","translations":["Полное дублирование","Авторский (одноголосый закадровый) (Рудой Евгений)","Авторский (одноголосый закадровый) (Живов Юрий)","Полное дублирование","Original (English)","Профессиональный (двухголосый закадровый) (DDV)"],"quality":"bd","translation":"Полное дублирование","update":"2021-08-05 14:52:55","iframe_src":"//83.svetacdn.in/PfJ50H0ZBPg3/movie/4282"}],"current_page":204,"first_page_url":"https://videocdn.tv/api/short?limit=100&api_token=RgFQdUIR2dRmwv8iYa5SnFNgnw3vpjKj&cache3204=3204&page=1","from":20301,"last_page":681,"last_page_url":"https://videocdn.tv/api/short?limit=100&api_token=RgFQdUIR2dRmwv8iYa5SnFNgnw3vpjKj&cache3204=3204&page=681","next_page_url":"https://videocdn.tv/api/short?limit=100&api_token=RgFQdUIR2dRmwv8iYa5SnFNgnw3vpjKj&cache3204=3204&page=205","path":"https://videocdn.tv/api/short","per_page":100,"prev_page_url":"https://videocdn.tv/api/short?limit=100&api_token=RgFQdUIR2dRmwv8iYa5SnFNgnw3vpjKj&cache3204=3204&page=203","to":20340,"total":68040}