{"result":true,"data":[{"id":45929,"title":"Запчасти","kp_id":"1199049","imdb_id":"tt8493998","world_art_id":null,"type":"movie","add":"2020-12-08 19:42:35","orig_title":"Spare Parts","year":"2020-07-14","translations":["Любительский (многоголосый закадровый) (@MUZOBOZ@)"],"quality":"webdl","translation":"Любительский (многоголосый закадровый) (@MUZOBOZ@)","update":"2020-12-09 08:21:25","iframe_src":"//83.svetacdn.in/PfJ50H0ZBPg3/movie/45929"},{"id":45923,"title":"Идеальные незнакомцы","kp_id":"1254979","imdb_id":"tt9144004","world_art_id":null,"type":"movie","add":"2020-12-08 19:34:09","orig_title":"Perfect Strangers","year":"2020-12-07","translations":["Любительский (многоголосый закадровый) (@MUZOBOZ@)"],"quality":"webdl","translation":"Любительский (многоголосый закадровый) (@MUZOBOZ@)","update":"2020-12-09 08:24:25","iframe_src":"//83.svetacdn.in/PfJ50H0ZBPg3/movie/45923"},{"id":45921,"title":"Женская волейбольная сборная","kp_id":"1248104","imdb_id":"tt10670442","world_art_id":null,"type":"movie","add":"2020-12-08 18:57:32","orig_title":"Duo Guan","year":"2020-09-25","translations":["Любительский (многоголосый закадровый) (Синема УС)"],"quality":"webdl","translation":"Любительский (многоголосый закадровый) (Синема УС)","update":"2020-12-09 08:26:05","iframe_src":"//83.svetacdn.in/PfJ50H0ZBPg3/movie/45921"},{"id":45918,"title":"Рождественский герой","kp_id":"1272646","imdb_id":"tt10399114","world_art_id":null,"type":"movie","add":"2020-12-08 18:52:46","orig_title":"A Christmas Hero","year":"2020-11-23","translations":["Любительский (многоголосый закадровый) (Синема УС)"],"quality":"webdl","translation":"Любительский (многоголосый закадровый) (Синема УС)","update":"2020-12-08 20:30:08","iframe_src":"//83.svetacdn.in/PfJ50H0ZBPg3/movie/45918"},{"id":45917,"title":"Сноровка... и как ее приобрести","kp_id":"7717","imdb_id":"tt0059362","world_art_id":null,"type":"movie","add":"2020-12-08 18:41:35","orig_title":"The Knack ...and How to Get It","year":"1965-05-13","translations":["Авторский (одноголосый закадровый) (Яковлев Алексей)"],"quality":"dvdrip","translation":"Авторский (одноголосый закадровый) (Яковлев Алексей)","update":"2020-12-08 19:14:01","iframe_src":"//83.svetacdn.in/PfJ50H0ZBPg3/movie/45917"},{"id":45915,"title":"Вторая справа звезда","kp_id":"1220068","imdb_id":"tt9356320","world_art_id":null,"type":"movie","add":"2020-12-08 13:43:31","orig_title":"Segunda estrella a la derecha","year":"2019-01-01","translations":["Любительский (многоголосый закадровый) (Синема УС)"],"quality":"webdl","translation":"Любительский (многоголосый закадровый) (Синема УС)","update":"2020-12-08 16:05:23","iframe_src":"//83.svetacdn.in/PfJ50H0ZBPg3/movie/45915"},{"id":45914,"title":"Савант","kp_id":"1051099","imdb_id":"tt7036540","world_art_id":null,"type":"movie","add":"2020-12-08 13:40:06","orig_title":"The Savant","year":"2019-05-01","translations":["Любительский (многоголосый закадровый) (@MUZOBOZ@)"],"quality":"webdl","translation":"Любительский (многоголосый закадровый) (@MUZOBOZ@)","update":"2020-12-08 20:07:20","iframe_src":"//83.svetacdn.in/PfJ50H0ZBPg3/movie/45914"},{"id":45913,"title":"Рождественский переполох","kp_id":"1448778","imdb_id":"tt13446424","world_art_id":null,"type":"movie","add":"2020-12-08 13:36:04","orig_title":"Wir können nicht anders","year":"2020-12-04","translations":["Любительский (многоголосый закадровый) (AlphaProject)"],"quality":"webdl","translation":"Любительский (многоголосый закадровый) (AlphaProject)","update":"2020-12-08 20:07:49","iframe_src":"//83.svetacdn.in/PfJ50H0ZBPg3/movie/45913"},{"id":45912,"title":"Рождественский круиз","kp_id":"1447226","imdb_id":"tt13341592","world_art_id":null,"type":"movie","add":"2020-12-08 13:19:09","orig_title":"USS Christmas","year":"2020-11-28","translations":["Любительский (многоголосый закадровый) (Синема УС)"],"quality":"hdtv","translation":"Любительский (многоголосый закадровый) (Синема УС)","update":"2020-12-08 16:04:42","iframe_src":"//83.svetacdn.in/PfJ50H0ZBPg3/movie/45912"},{"id":45911,"title":"Угри","kp_id":"413879","imdb_id":"tt0815490","world_art_id":null,"type":"movie","add":"2020-12-08 09:04:56","orig_title":"Acné","year":"2008-05-18","translations":["Авторский (одноголосый закадровый) (Кузнецов Сергей)"],"quality":"webdl","translation":"Авторский (одноголосый закадровый) (Кузнецов Сергей)","update":"2020-12-08 13:17:22","iframe_src":"//83.svetacdn.in/PfJ50H0ZBPg3/movie/45911"},{"id":45910,"title":"Чёрный медведь","kp_id":"1237204","imdb_id":"tt9601220","world_art_id":null,"type":"movie","add":"2020-12-08 06:47:46","orig_title":"Black Bear","year":"2020-01-24","translations":["Любительский (многоголосый закадровый) (@MUZOBOZ@)"],"quality":"webdl","translation":"Любительский (многоголосый закадровый) (@MUZOBOZ@)","update":"2020-12-08 18:53:12","iframe_src":"//83.svetacdn.in/PfJ50H0ZBPg3/movie/45910"},{"id":45898,"title":"Тащи мою пушку","kp_id":"1057455","imdb_id":"tt5833412","world_art_id":null,"type":"movie","add":"2020-12-07 18:51:05","orig_title":"Get My Gun","year":"2017-10-14","translations":["Любительский (многоголосый закадровый) (Синема УС)"],"quality":"bd","translation":"Любительский (многоголосый закадровый) (Синема УС)","update":"2020-12-08 07:41:51","iframe_src":"//83.svetacdn.in/PfJ50H0ZBPg3/movie/45898"},{"id":45897,"title":"Длиннная ночь в Блэкстоуне","kp_id":"1145214","imdb_id":"tt8392638","world_art_id":null,"type":"movie","add":"2020-12-07 18:49:01","orig_title":"Long Night at Blackstone","year":"2018-04-02","translations":["Любительский (многоголосый закадровый) (Синема УС)"],"quality":"webdl","translation":"Любительский (многоголосый закадровый) (Синема УС)","update":"2020-12-08 07:42:49","iframe_src":"//83.svetacdn.in/PfJ50H0ZBPg3/movie/45897"},{"id":45896,"title":"Моя семья и волк","kp_id":"1151418","imdb_id":"tt5869404","world_art_id":null,"type":"movie","add":"2020-12-07 18:47:14","orig_title":"Ma famille et le loup","year":"2019-08-02","translations":["Любительский (многоголосый закадровый) (Синема УС)"],"quality":"webdl","translation":"Любительский (многоголосый закадровый) (Синема УС)","update":"2020-12-08 07:44:05","iframe_src":"//83.svetacdn.in/PfJ50H0ZBPg3/movie/45896"},{"id":45895,"title":"Князь мира","kp_id":"1110047","imdb_id":"tt7645288","world_art_id":null,"type":"movie","add":"2020-12-07 18:45:29","orig_title":"Príncipe de paz","year":"2019-02-28","translations":["Любительский (многоголосый закадровый) (Синема УС)"],"quality":"webdl","translation":"Любительский (многоголосый закадровый) (Синема УС)","update":"2020-12-08 07:45:29","iframe_src":"//83.svetacdn.in/PfJ50H0ZBPg3/movie/45895"},{"id":45894,"title":"Время года","kp_id":"1235314","imdb_id":"tt9675804","world_art_id":null,"type":"movie","add":"2020-12-07 18:43:55","orig_title":"Säsong","year":"2019-01-30","translations":["Любительский (многоголосый закадровый) (Синема УС)"],"quality":"webdl","translation":"Любительский (многоголосый закадровый) (Синема УС)","update":"2020-12-08 07:47:08","iframe_src":"//83.svetacdn.in/PfJ50H0ZBPg3/movie/45894"},{"id":45893,"title":"Сестра","kp_id":"1311423","imdb_id":"tt11041136","world_art_id":null,"type":"movie","add":"2020-12-07 18:42:29","orig_title":"Sestra","year":"2019-09-24","translations":["Любительский (многоголосый закадровый) (Синема УС)"],"quality":"webdl","translation":"Любительский (многоголосый закадровый) (Синема УС)","update":"2020-12-08 07:48:29","iframe_src":"//83.svetacdn.in/PfJ50H0ZBPg3/movie/45893"},{"id":45892,"title":"В преддверии Рождества","kp_id":"1436402","imdb_id":"tt13273702","world_art_id":null,"type":"movie","add":"2020-12-07 18:39:25","orig_title":"Too Close for Christmas","year":"2020-11-13","translations":["Любительский (многоголосый закадровый) (Синема УС)"],"quality":"webdl","translation":"Любительский (многоголосый закадровый) (Синема УС)","update":"2020-12-08 07:49:41","iframe_src":"//83.svetacdn.in/PfJ50H0ZBPg3/movie/45892"},{"id":45891,"title":"Зелёная трава","kp_id":"1160409","imdb_id":"tt8474284","world_art_id":null,"type":"movie","add":"2020-12-07 18:37:49","orig_title":"The Green Grass","year":"2019-05-04","translations":["Любительский (многоголосый закадровый) (Синема УС)"],"quality":"webdl","translation":"Любительский (многоголосый закадровый) (Синема УС)","update":"2020-12-08 07:50:21","iframe_src":"//83.svetacdn.in/PfJ50H0ZBPg3/movie/45891"},{"id":3506,"title":"Стража","kp_id":"1044399","imdb_id":"tt6824350","world_art_id":null,"type":"serial","add":"2018-11-15 20:45:27","orig_title":"Pasukkun","year":"2017-05-22","translations":["Любительский (двухголосый закадровый) (Храм Дорам ТВ)"],"seasons_count":1,"episodes_count":32,"episodes":32,"update":"2018-11-16 09:00:36","iframe_src":"//83.svetacdn.in/PfJ50H0ZBPg3/tv-series/3506"},{"id":3505,"title":"Тысяча лет любви","kp_id":"1046884","imdb_id":null,"world_art_id":null,"type":"serial","add":"2018-11-14 23:12:17","orig_title":"Cheonnyeonjjae yeonaejoong","year":"2016-12-05","translations":["Любительский (одноголосый закадровый)"],"seasons_count":1,"episodes_count":10,"episodes":10,"update":"2018-11-15 08:45:49","iframe_src":"//83.svetacdn.in/PfJ50H0ZBPg3/tv-series/3505"},{"id":3503,"title":"Давай, дерзай!","kp_id":"940683","imdb_id":"tt5094306","world_art_id":null,"type":"serial","add":"2018-11-14 09:02:16","orig_title":"Balchikhage gogo","year":"2015-10-05","translations":["Любительский (двухголосый закадровый) (SoftBox)"],"seasons_count":1,"episodes_count":12,"episodes":12,"update":"2018-11-16 11:30:58","iframe_src":"//83.svetacdn.in/PfJ50H0ZBPg3/tv-series/3503"},{"id":3498,"title":"Королева сердец","kp_id":"839178","imdb_id":"tt3609456","world_art_id":null,"type":"serial","add":"2018-11-14 08:17:09","orig_title":"Reina de corazones","year":"2014-04-28","translations":["Профессиональный (многоголосый закадровый) (SET)"],"seasons_count":1,"episodes_count":138,"episodes":138,"update":"2018-11-15 22:03:03","iframe_src":"//83.svetacdn.in/PfJ50H0ZBPg3/tv-series/3498"},{"id":3497,"title":"Каин и Авель","kp_id":"493388","imdb_id":"tt3147968","world_art_id":null,"type":"serial","add":"2018-11-13 23:22:24","orig_title":"Kaingwa Abel","year":"2009-02-18","translations":["Любительский (двухголосый закадровый) (GREEN TEA)"],"seasons_count":1,"episodes_count":20,"episodes":20,"update":"2018-11-14 10:03:12","iframe_src":"//83.svetacdn.in/PfJ50H0ZBPg3/tv-series/3497"},{"id":3495,"title":"Тысяча лет любви","kp_id":"715314","imdb_id":"tt3205964","world_art_id":null,"type":"serial","add":"2018-11-13 19:20:18","orig_title":"Cheonnyeonjiae","year":"2003-01-01","translations":["Любительский (одноголосый закадровый) (GREEN TEA)"],"seasons_count":1,"episodes_count":20,"episodes":20,"update":"2018-11-14 08:54:11","iframe_src":"//83.svetacdn.in/PfJ50H0ZBPg3/tv-series/3495"},{"id":3494,"title":"Трасса №1","kp_id":"577190","imdb_id":"tt2429772","world_art_id":null,"type":"serial","add":"2018-11-13 17:53:41","orig_title":"Rodeu neombeo won","year":"2010-06-23","translations":["Любительский (одноголосый закадровый)"],"seasons_count":1,"episodes_count":20,"episodes":20,"update":"2018-11-15 08:31:08","iframe_src":"//83.svetacdn.in/PfJ50H0ZBPg3/tv-series/3494"},{"id":3493,"title":"Другая О Хэ-ён","kp_id":"986651","imdb_id":"tt5679572","world_art_id":null,"type":"serial","add":"2018-11-13 17:43:59","orig_title":"Tto Oh Hae-yeong","year":"2016-05-02","translations":["Любительский (двухголосый закадровый) (Храм Дорам ТВ)"],"seasons_count":1,"episodes_count":18,"episodes":18,"update":"2018-11-14 08:18:43","iframe_src":"//83.svetacdn.in/PfJ50H0ZBPg3/tv-series/3493"},{"id":3489,"title":"Индийское лето","kp_id":"841145","imdb_id":"tt3706628","world_art_id":null,"type":"serial","add":"2018-11-13 14:10:01","orig_title":"Indian Summers","year":"2015-02-15","translations":["Профессиональный (многоголосый закадровый) (ShowJet)"],"seasons_count":1,"episodes_count":10,"episodes":10,"update":"2018-11-15 10:46:29","iframe_src":"//83.svetacdn.in/PfJ50H0ZBPg3/tv-series/3489"},{"id":3488,"title":"Поле крови","kp_id":"591938","imdb_id":"tt1830332","world_art_id":null,"type":"serial","add":"2018-11-13 14:04:34","orig_title":"The Field of Blood","year":"2011-05-08","translations":["Профессиональный (многоголосый закадровый) (ShowJet)"],"seasons_count":2,"episodes_count":4,"episodes":2,"update":"2018-11-14 12:08:51","iframe_src":"//83.svetacdn.in/PfJ50H0ZBPg3/tv-series/3488"},{"id":3487,"title":"Книга Гор и Морей","kp_id":null,"imdb_id":"tt6935870","world_art_id":null,"type":"serial","add":"2018-11-13 10:01:17","orig_title":"The Classic of Mountains and Seas","year":"2016-03-20","translations":["Любительский (двухголосый закадровый)"],"seasons_count":1,"episodes_count":42,"episodes":42,"update":"2018-11-16 09:00:16","iframe_src":"//83.svetacdn.in/PfJ50H0ZBPg3/tv-series/3487"},{"id":3479,"title":"Сердечные раны","kp_id":"1195658","imdb_id":null,"world_art_id":null,"type":"serial","add":"2018-11-12 09:24:21","orig_title":"Сердечные раны","year":"2018-11-10","translations":["Оригинальная дорожка"],"seasons_count":1,"episodes_count":2,"episodes":2,"update":"2018-11-13 09:18:08","iframe_src":"//83.svetacdn.in/PfJ50H0ZBPg3/tv-series/3479"},{"id":3474,"title":"Аномалия","kp_id":"1006547","imdb_id":"tt2677216","world_art_id":null,"type":"serial","add":"2018-11-11 15:51:58","orig_title":"Anomalia","year":"2016-01-16","translations":["Профессиональный (многоголосый закадровый) (ShowJet)"],"seasons_count":1,"episodes_count":8,"episodes":8,"update":"2018-11-13 09:13:24","iframe_src":"//83.svetacdn.in/PfJ50H0ZBPg3/tv-series/3474"},{"id":3472,"title":"Моя опасная жена","kp_id":"1113064","imdb_id":"tt8020738","world_art_id":null,"type":"serial","add":"2018-11-11 08:40:13","orig_title":"Tehlikeli Karim","year":"2018-03-25","translations":["Профессиональный (многоголосый закадровый) (GreenРай Studio)"],"seasons_count":1,"episodes_count":6,"episodes":6,"update":"2018-11-13 10:49:25","iframe_src":"//83.svetacdn.in/PfJ50H0ZBPg3/tv-series/3472"},{"id":3410,"title":"Мажор 3","kp_id":"1040559","imdb_id":null,"world_art_id":null,"type":"serial","add":"2018-10-29 10:50:48","orig_title":"Мажор 3","year":"2018-10-29","translations":["Оригинальная дорожка"],"seasons_count":1,"episodes_count":16,"episodes":16,"update":"2018-11-16 05:15:04","iframe_src":"//83.svetacdn.in/PfJ50H0ZBPg3/tv-series/3410"},{"id":3380,"title":"Грешники","kp_id":"732547","imdb_id":"tt2582590","world_art_id":null,"type":"serial","add":"2018-10-24 16:52:59","orig_title":"Vicious","year":"2013-04-29","translations":["Профессиональный (многоголосый закадровый) (GreenРай Studio)"],"seasons_count":2,"episodes_count":14,"episodes":7,"update":"2018-11-16 08:50:36","iframe_src":"//83.svetacdn.in/PfJ50H0ZBPg3/tv-series/3380"},{"id":3296,"title":"Трансформеры: Роботы под прикрытием","kp_id":"838535","imdb_id":"tt3604232","world_art_id":null,"type":"serial","add":"2018-10-14 09:26:36","orig_title":"Transformers: Robots in Disguise","year":"2015-03-14","translations":["Полное дублирование"],"seasons_count":4,"episodes_count":71,"episodes":26,"update":"2018-11-13 10:42:50","iframe_src":"//83.svetacdn.in/PfJ50H0ZBPg3/tv-series/3296"},{"id":3263,"title":"Игрок","kp_id":"1115711","imdb_id":"tt8912586","world_art_id":null,"type":"serial","add":"2018-10-06 09:47:17","orig_title":"Peulleieo","year":"2018-09-29","translations":["Любительский (двухголосый закадровый) (HighHopes)"],"seasons_count":1,"episodes_count":14,"episodes":14,"update":"2018-11-15 06:45:08","iframe_src":"//83.svetacdn.in/PfJ50H0ZBPg3/tv-series/3263"},{"id":2435,"title":"Мультачки: Байки Мэтра","kp_id":"490462","imdb_id":"tt1384816","world_art_id":null,"type":"serial","add":"2018-04-21 08:59:16","orig_title":"Mater's Tall Tales","year":"2008-10-27","translations":["Полное дублирование"],"seasons_count":3,"episodes_count":11,"episodes":2,"update":"2018-11-14 12:04:11","iframe_src":"//83.svetacdn.in/PfJ50H0ZBPg3/tv-series/2435"},{"id":15311,"title":"Стеклянный гроб","kp_id":"949954","imdb_id":"tt5082418","world_art_id":null,"type":"movie","add":"2018-02-26 22:07:18","orig_title":"El ataúd de cristal","year":"2016-10-11","translations":["Профессиональный (двухголосый закадровый) (ViruseProject)"],"quality":"webdl","translation":"Профессиональный (двухголосый закадровый) (ViruseProject)","update":"2020-12-08 13:14:54","iframe_src":"//83.svetacdn.in/PfJ50H0ZBPg3/movie/15311"},{"id":353,"title":"Последний корабль","kp_id":"681656","imdb_id":"tt2402207","world_art_id":null,"type":"serial","add":"2016-08-22 15:43:50","orig_title":"The Last Ship","year":"2014-06-22","translations":["Профессиональный (многоголосый закадровый) (LostFilm)"],"seasons_count":5,"episodes_count":56,"episodes":10,"update":"2018-11-15 13:05:06","iframe_src":"//83.svetacdn.in/PfJ50H0ZBPg3/tv-series/353"}],"current_page":418,"first_page_url":"https://videocdn.tv/api/short?limit=100&api_token=RgFQdUIR2dRmwv8iYa5SnFNgnw3vpjKj&cache3418=3418&page=1","from":41701,"last_page":639,"last_page_url":"https://videocdn.tv/api/short?limit=100&api_token=RgFQdUIR2dRmwv8iYa5SnFNgnw3vpjKj&cache3418=3418&page=639","next_page_url":"https://videocdn.tv/api/short?limit=100&api_token=RgFQdUIR2dRmwv8iYa5SnFNgnw3vpjKj&cache3418=3418&page=419","path":"https://videocdn.tv/api/short","per_page":100,"prev_page_url":"https://videocdn.tv/api/short?limit=100&api_token=RgFQdUIR2dRmwv8iYa5SnFNgnw3vpjKj&cache3418=3418&page=417","to":41740,"total":63897}