{"result":true,"data":[{"id":52993,"title":"Саманта Роуз","kp_id":"4293786","imdb_id":"tt13192714","world_art_id":null,"type":"movie","add":"2021-09-09 10:45:01","orig_title":"Samantha Rose","year":"2021-09-07","translations":["Любительский (многоголосый закадровый) (AlphaProject)"],"quality":"webdl","translation":"Любительский (многоголосый закадровый) (AlphaProject)","update":"2021-09-09 13:16:17","iframe_src":"//7741.svetacdn.in/IAF0wWTdNYZm/movie/52993"},{"id":52991,"title":"Студия на Шугар-стрит","kp_id":"4484763","imdb_id":"tt14892192","world_art_id":null,"type":"movie","add":"2021-09-09 10:19:56","orig_title":"Tong gai jai pin chong","year":"2021-07-01","translations":["Любительский (двухголосый закадровый) (Колобок)"],"quality":"webdl","translation":"Любительский (двухголосый закадровый) (Колобок)","update":"2021-09-09 13:16:46","iframe_src":"//7741.svetacdn.in/IAF0wWTdNYZm/movie/52991"},{"id":52983,"title":"План Б","kp_id":"502043","imdb_id":"tt1408972","world_art_id":null,"type":"movie","add":"2021-09-09 07:43:59","orig_title":"Plan B","year":"2009-03-27","translations":["Любительский (одноголосый закадровый) (Кошкин Василий)"],"quality":"dvdrip","translation":"Любительский (одноголосый закадровый) (Кошкин Василий)","update":"2021-09-09 11:52:25","iframe_src":"//7741.svetacdn.in/IAF0wWTdNYZm/movie/52983"},{"id":52980,"title":"Восстание зомби","kp_id":"731207","imdb_id":"tt2633598","world_art_id":null,"type":"movie","add":"2021-09-09 07:28:31","orig_title":"Rise of the Zombie","year":"2013-04-05","translations":["Любительский (одноголосый закадровый) (den904)"],"quality":"dvdrip","translation":"Любительский (одноголосый закадровый) (den904)","update":"2021-09-09 11:16:33","iframe_src":"//7741.svetacdn.in/IAF0wWTdNYZm/movie/52980"},{"id":52978,"title":"День после карантина","kp_id":"4512569","imdb_id":"tt14347138","world_art_id":null,"type":"movie","add":"2021-09-09 07:24:11","orig_title":"The Day After Quarantine","year":"2021-08-16","translations":["Любительский (многоголосый закадровый) (Синема УС)"],"quality":"webdl","translation":"Любительский (многоголосый закадровый) (Синема УС)","update":"2021-09-09 10:44:22","iframe_src":"//7741.svetacdn.in/IAF0wWTdNYZm/movie/52978"},{"id":52977,"title":"Восстание зомби","kp_id":"689785","imdb_id":"tt2236182","world_art_id":null,"type":"movie","add":"2021-09-09 07:19:21","orig_title":"Rise of the Zombies","year":"2012-10-08","translations":["Профессиональный (многоголосый закадровый) (ViruseProject)"],"quality":"hdtv","translation":"Профессиональный (многоголосый закадровый) (ViruseProject)","update":"2021-09-09 11:50:12","iframe_src":"//7741.svetacdn.in/IAF0wWTdNYZm/movie/52977"},{"id":52976,"title":"Удары юности","kp_id":"679570","imdb_id":"tt2375589","world_art_id":null,"type":"movie","add":"2021-09-09 07:11:16","orig_title":"Teenage Kicks","year":"2016-06-11","translations":["Любительский (многоголосый закадровый) (Rainbow World)"],"quality":"dvb","translation":"Любительский (многоголосый закадровый) (Rainbow World)","update":"2021-09-09 10:38:12","iframe_src":"//7741.svetacdn.in/IAF0wWTdNYZm/movie/52976"},{"id":52973,"title":"Конец игры - последняя битва за Бронкс","kp_id":"82331","imdb_id":"tt0089091","world_art_id":null,"type":"movie","add":"2021-09-09 05:53:19","orig_title":"Endgame - Bronx lotta finale","year":"1983-11-05","translations":["Любительский (одноголосый закадровый)"],"quality":"bd","translation":"Любительский (одноголосый закадровый)","update":"2021-09-09 13:16:32","iframe_src":"//7741.svetacdn.in/IAF0wWTdNYZm/movie/52973"},{"id":52971,"title":"Книга легенд: Таинственный лес","kp_id":"574590","imdb_id":"tt3750362","world_art_id":null,"type":"movie","add":"2021-09-09 05:26:59","orig_title":"Kniga legend: Tainstvennyy les","year":"2012-12-10","translations":["Оригинальная дорожка"],"quality":"webdl","translation":"Оригинальная дорожка","update":"2021-09-09 12:53:37","iframe_src":"//7741.svetacdn.in/IAF0wWTdNYZm/movie/52971"},{"id":52965,"title":"Фамильяры","kp_id":null,"imdb_id":"tt15251036","world_art_id":null,"type":"movie","add":"2021-09-08 13:43:42","orig_title":"Familiars","year":"2021-01-01","translations":["Любительский (многоголосый закадровый) (AlphaProject)"],"quality":"webdl","translation":"Любительский (многоголосый закадровый) (AlphaProject)","update":"2021-09-09 10:41:24","iframe_src":"//7741.svetacdn.in/IAF0wWTdNYZm/movie/52965"},{"id":52963,"title":"Плоть","kp_id":null,"imdb_id":"tt15327382","world_art_id":null,"type":"movie","add":"2021-09-08 13:41:56","orig_title":"Flesh","year":"2021-01-01","translations":["Любительский (многоголосый закадровый) (Синема УС)"],"quality":"webdl","translation":"Любительский (многоголосый закадровый) (Синема УС)","update":"2021-09-09 10:40:26","iframe_src":"//7741.svetacdn.in/IAF0wWTdNYZm/movie/52963"},{"id":52962,"title":"Улей","kp_id":"1379164","imdb_id":"tt12285116","world_art_id":null,"type":"movie","add":"2021-09-08 13:37:19","orig_title":"Kovan","year":"2019-10-22","translations":["Любительский (многоголосый закадровый) (Синема УС)"],"quality":"webdl","translation":"Любительский (многоголосый закадровый) (Синема УС)","update":"2021-09-09 10:39:32","iframe_src":"//7741.svetacdn.in/IAF0wWTdNYZm/movie/52962"},{"id":52961,"title":"Дар, посланный с небес","kp_id":"1250472","imdb_id":"tt8650344","world_art_id":null,"type":"movie","add":"2021-09-08 13:35:16","orig_title":"Pane dal Cielo","year":"2018-02-10","translations":["Любительский (многоголосый закадровый) (Синема УС)"],"quality":"webdl","translation":"Любительский (многоголосый закадровый) (Синема УС)","update":"2021-09-09 10:38:24","iframe_src":"//7741.svetacdn.in/IAF0wWTdNYZm/movie/52961"},{"id":52831,"title":"Жил певчий дрозд","kp_id":"42584","imdb_id":"tt0151035","world_art_id":null,"type":"movie","add":"2021-09-02 17:02:38","orig_title":"Iko shashvi mgalobeli","year":"1970-12-06","translations":["Полное дублирование","Профессиональный (одноголосый закадровый)"],"quality":"dvdrip","translation":"Полное дублирование","update":"2021-09-09 13:51:58","iframe_src":"//7741.svetacdn.in/IAF0wWTdNYZm/movie/52831"},{"id":52813,"title":"Свидетельница","kp_id":"588652","imdb_id":"tt1852896","world_art_id":null,"type":"movie","add":"2021-09-01 18:47:53","orig_title":"Sahid qiz","year":"1990-09-15","translations":["Профессиональный (многоголосый закадровый)"],"quality":"webdl","translation":"Профессиональный (многоголосый закадровый)","update":"2021-09-09 13:52:41","iframe_src":"//7741.svetacdn.in/IAF0wWTdNYZm/movie/52813"},{"id":46091,"title":"Контрольная по специальности","kp_id":"44905","imdb_id":"tt0237384","world_art_id":null,"type":"movie","add":"2020-12-15 17:01:35","orig_title":"Kontrolnaya po spetsialnosti","year":"1981-01-01","translations":["Оригинальная дорожка","Оригинальная дорожка"],"quality":"iptv","translation":"Оригинальная дорожка","update":"2021-09-09 13:57:35","iframe_src":"//7741.svetacdn.in/IAF0wWTdNYZm/movie/46091"},{"id":45697,"title":"Всего одна ночь","kp_id":"45926","imdb_id":"tt0337437","world_art_id":null,"type":"movie","add":"2020-11-29 16:50:07","orig_title":"Vsego odna noch","year":"1976-08-01","translations":["Оригинальная дорожка"],"quality":"hdtv","translation":"Оригинальная дорожка","update":"2021-09-09 13:18:06","iframe_src":"//7741.svetacdn.in/IAF0wWTdNYZm/movie/45697"},{"id":9015,"title":"Одно тёплое слово","kp_id":"1435385","imdb_id":null,"world_art_id":null,"type":"serial","add":"2020-10-14 18:53:31","orig_title":"Одно тёплое слово","year":"2020-10-13","translations":["Оригинальная дорожка"],"seasons_count":1,"episodes_count":4,"episodes":4,"update":"2020-10-14 23:16:56","iframe_src":"//7741.svetacdn.in/IAF0wWTdNYZm/tv-series/9015"},{"id":9003,"title":"Серебро","kp_id":"436246","imdb_id":"tt11035942","world_art_id":null,"type":"serial","add":"2020-10-13 08:17:33","orig_title":"Serebro","year":"2008-10-08","translations":["Оригинальная дорожка"],"seasons_count":1,"episodes_count":12,"episodes":12,"update":"2020-10-15 14:34:05","iframe_src":"//7741.svetacdn.in/IAF0wWTdNYZm/tv-series/9003"},{"id":9001,"title":"Моя вторая половинка","kp_id":"668702","imdb_id":"tt4280984","world_art_id":null,"type":"serial","add":"2020-10-13 06:22:40","orig_title":"Moya vtoraya polovinka","year":"2011-05-21","translations":["Оригинальная дорожка"],"seasons_count":1,"episodes_count":4,"episodes":4,"update":"2020-10-15 07:03:28","iframe_src":"//7741.svetacdn.in/IAF0wWTdNYZm/tv-series/9001"},{"id":8996,"title":"Вдали от дома","kp_id":"1044416","imdb_id":"tt6082710","world_art_id":null,"type":"serial","add":"2020-10-12 19:23:27","orig_title":"Loin de chez nous","year":"2016-09-19","translations":["Любительский (многоголосый закадровый) (WestFilm)"],"seasons_count":1,"episodes_count":10,"episodes":10,"update":"2020-10-14 05:45:06","iframe_src":"//7741.svetacdn.in/IAF0wWTdNYZm/tv-series/8996"},{"id":8994,"title":"Маленькая невеста","kp_id":"927714","imdb_id":"tt4830796","world_art_id":null,"type":"serial","add":"2020-10-12 16:42:20","orig_title":"Kucuk Gelin","year":"2013-01-01","translations":["Любительский (одноголосый закадровый) (Мительман Галина)"],"seasons_count":2,"episodes_count":75,"episodes":26,"update":"2020-10-15 05:52:49","iframe_src":"//7741.svetacdn.in/IAF0wWTdNYZm/tv-series/8994"},{"id":8992,"title":"Карл и Макс","kp_id":null,"imdb_id":"tt5206012","world_art_id":null,"type":"serial","add":"2020-10-12 15:08:12","orig_title":"Karl & Max","year":"2015-12-01","translations":["Любительский (многоголосый закадровый) (WestFilm)"],"seasons_count":1,"episodes_count":10,"episodes":10,"update":"2020-10-15 05:53:56","iframe_src":"//7741.svetacdn.in/IAF0wWTdNYZm/tv-series/8992"},{"id":8980,"title":"Король","kp_id":"734108","imdb_id":"tt2522778","world_art_id":null,"type":"serial","add":"2020-10-11 13:51:48","orig_title":"El Rey","year":"2014-10-28","translations":["Любительский (многоголосый закадровый) (WestFilm)"],"seasons_count":1,"episodes_count":6,"episodes":6,"update":"2020-10-14 05:50:46","iframe_src":"//7741.svetacdn.in/IAF0wWTdNYZm/tv-series/8980"},{"id":8936,"title":"Код М","kp_id":"1341337","imdb_id":"tt11536424","world_art_id":null,"type":"serial","add":"2020-10-07 15:51:13","orig_title":"Code M","year":"2020-01-15","translations":["Любительский (многоголосый закадровый) (Ultradox)","Любительский (многоголосый закадровый) (ColdFilm)"],"seasons_count":1,"episodes_count":8,"episodes":8,"update":"2020-10-14 18:35:20","iframe_src":"//7741.svetacdn.in/IAF0wWTdNYZm/tv-series/8936"},{"id":8920,"title":"Особый случай","kp_id":"779450","imdb_id":"tt3329542","world_art_id":null,"type":"serial","add":"2020-10-05 19:25:40","orig_title":"Osobyy sluchay","year":"2013-03-16","translations":["Оригинальная дорожка"],"seasons_count":1,"episodes_count":333,"episodes":333,"update":"2020-10-14 06:55:32","iframe_src":"//7741.svetacdn.in/IAF0wWTdNYZm/tv-series/8920"},{"id":8892,"title":"Доброе утро, Вероника","kp_id":"1403707","imdb_id":"tt12987918","world_art_id":null,"type":"serial","add":"2020-10-01 09:12:17","orig_title":"Bom Dia, Verônica","year":"2020-10-01","translations":["Любительский (многоголосый закадровый) (ColdFilm)","Любительский (многоголосый закадровый) (Octopus)","Профессиональный (двухголосый закадровый) (IdeaFilm)","Профессиональный (многоголосый закадровый) (BaibaKo)","Профессиональный (многоголосый закадровый) (NewStudio)"],"seasons_count":1,"episodes_count":8,"episodes":8,"update":"2020-10-14 15:13:58","iframe_src":"//7741.svetacdn.in/IAF0wWTdNYZm/tv-series/8892"},{"id":8881,"title":"Моя любовь, моя печаль","kp_id":"425816","imdb_id":"tt0142042","world_art_id":null,"type":"serial","add":"2020-09-30 09:27:23","orig_title":"Meu Bem, Meu Mal","year":"1990-01-01","translations":["Профессиональный (многоголосый закадровый)","Профессиональный (многоголосый закадровый) (NewStudio)"],"seasons_count":1,"episodes_count":173,"episodes":173,"update":"2020-10-15 09:55:18","iframe_src":"//7741.svetacdn.in/IAF0wWTdNYZm/tv-series/8881"},{"id":8868,"title":"Дивизион","kp_id":"1130339","imdb_id":"tt8040300","world_art_id":null,"type":"serial","add":"2020-09-28 13:34:53","orig_title":"A Divisão","year":"2019-07-19","translations":["Любительский (многоголосый закадровый) (Octopus)"],"seasons_count":2,"episodes_count":10,"episodes":5,"update":"2020-10-14 04:10:34","iframe_src":"//7741.svetacdn.in/IAF0wWTdNYZm/tv-series/8868"},{"id":8410,"title":"Крошечные существа","kp_id":"1395350","imdb_id":"tt12759334","world_art_id":null,"type":"serial","add":"2020-08-11 09:41:05","orig_title":"Tiny Creatures","year":"2020-08-07","translations":["Любительский (двухголосый закадровый)","Любительский (многоголосый закадровый) (WestFilm)"],"seasons_count":1,"episodes_count":8,"episodes":8,"update":"2020-10-14 08:11:31","iframe_src":"//7741.svetacdn.in/IAF0wWTdNYZm/tv-series/8410"},{"id":5657,"title":"Мы – волна","kp_id":"1309753","imdb_id":"tt11053220","world_art_id":null,"type":"serial","add":"2019-11-06 07:53:19","orig_title":"We are the Wave","year":"2019-11-01","translations":["Профессиональный (многоголосый закадровый) (HDrezka Studio)","Любительский (многоголосый закадровый) (ColdFilm)","Любительский (многоголосый закадровый) (WestFilm)"],"seasons_count":1,"episodes_count":6,"episodes":6,"update":"2020-10-15 09:16:37","iframe_src":"//7741.svetacdn.in/IAF0wWTdNYZm/tv-series/5657"},{"id":28553,"title":"Свадебная ночь","kp_id":"471807","imdb_id":"tt5239952","world_art_id":null,"type":"movie","add":"2019-07-03 18:34:13","orig_title":"Svadebnaya noch","year":"1980-12-01","translations":["Оригинальная дорожка"],"quality":"hdtv","translation":"Оригинальная дорожка","update":"2021-09-09 12:51:18","iframe_src":"//7741.svetacdn.in/IAF0wWTdNYZm/movie/28553"},{"id":28536,"title":"Тревоги первых птиц","kp_id":"225618","imdb_id":"tt0265899","world_art_id":null,"type":"movie","add":"2019-07-03 16:48:16","orig_title":"Trevogi pervykh ptits","year":"1985-02-15","translations":["Оригинальная дорожка","Оригинальная дорожка"],"quality":"dvb","translation":"Оригинальная дорожка","update":"2021-09-09 13:19:32","iframe_src":"//7741.svetacdn.in/IAF0wWTdNYZm/movie/28536"},{"id":27445,"title":"Насреддин в Ходженте, или Очарованный принц","kp_id":"501984","imdb_id":"tt5072522","world_art_id":null,"type":"movie","add":"2019-06-04 21:31:13","orig_title":"Nasreddin v Hodjente, ili Ocharovannyi prints","year":"1959-12-01","translations":["Оригинальная дорожка","Любительский (одноголосый закадровый)"],"quality":"dvdrip","translation":"Оригинальная дорожка","update":"2021-09-09 13:49:19","iframe_src":"//7741.svetacdn.in/IAF0wWTdNYZm/movie/27445"},{"id":3427,"title":"Германия 86","kp_id":"1018221","imdb_id":"tt6148324","world_art_id":null,"type":"serial","add":"2018-11-01 07:35:30","orig_title":"Deutschland 86","year":"2018-10-19","translations":["Любительский (двухголосый закадровый) (Sunshine Studio)","Профессиональный (многоголосый закадровый) (HDrezka Studio)","Профессиональный (многоголосый закадровый) (AlexFilm)"],"seasons_count":1,"episodes_count":11,"episodes":11,"update":"2020-10-15 12:03:38","iframe_src":"//7741.svetacdn.in/IAF0wWTdNYZm/tv-series/3427"},{"id":3318,"title":"Самая плохая ведьма","kp_id":"986553","imdb_id":"tt5721172","world_art_id":null,"type":"serial","add":"2018-10-16 07:28:38","orig_title":"The Worst Witch","year":"2017-01-11","translations":["Любительский (одноголосый закадровый)","Полное дублирование","Любительский (двухголосый закадровый) (GoldTeam)"],"seasons_count":4,"episodes_count":41,"episodes":3,"update":"2020-10-14 16:21:07","iframe_src":"//7741.svetacdn.in/IAF0wWTdNYZm/tv-series/3318"},{"id":3252,"title":"Операция «Сатана»","kp_id":"1195649","imdb_id":null,"world_art_id":null,"type":"serial","add":"2018-10-02 08:41:40","orig_title":"Операция «Сатана»","year":"2018-10-01","translations":["Оригинальная дорожка"],"seasons_count":1,"episodes_count":8,"episodes":8,"update":"2020-10-15 12:18:38","iframe_src":"//7741.svetacdn.in/IAF0wWTdNYZm/tv-series/3252"},{"id":1578,"title":"Паук","kp_id":"861662","imdb_id":"tt4374754","world_art_id":null,"type":"serial","add":"2017-09-28 13:44:55","orig_title":"Goznak","year":"2015-10-19","translations":["Оригинальная дорожка"],"seasons_count":1,"episodes_count":8,"episodes":8,"update":"2020-10-15 12:16:09","iframe_src":"//7741.svetacdn.in/IAF0wWTdNYZm/tv-series/1578"},{"id":534,"title":"Шакал","kp_id":"1006637","imdb_id":"tt6158624","world_art_id":null,"type":"serial","add":"2016-10-18 16:45:03","orig_title":"Shakal","year":"2016-10-17","translations":["Оригинальная дорожка"],"seasons_count":1,"episodes_count":8,"episodes":8,"update":"2020-10-15 12:11:10","iframe_src":"//7741.svetacdn.in/IAF0wWTdNYZm/tv-series/534"},{"id":43,"title":"Палач","kp_id":"838262","imdb_id":"tt4364180","world_art_id":null,"type":"serial","add":"2016-04-01 16:14:49","orig_title":"Palach","year":"2015-01-11","translations":["Оригинальная дорожка"],"seasons_count":1,"episodes_count":10,"episodes":10,"update":"2020-10-15 12:14:00","iframe_src":"//7741.svetacdn.in/IAF0wWTdNYZm/tv-series/43"}],"current_page":222,"first_page_url":"https://videocdn.tv/api/short?limit=100&api_token=6Onb1W1alEUrBcKJZD3GoKBbWyAl2uG2&cache3222=3222&page=1","from":22101,"last_page":693,"last_page_url":"https://videocdn.tv/api/short?limit=100&api_token=6Onb1W1alEUrBcKJZD3GoKBbWyAl2uG2&cache3222=3222&page=693","next_page_url":"https://videocdn.tv/api/short?limit=100&api_token=6Onb1W1alEUrBcKJZD3GoKBbWyAl2uG2&cache3222=3222&page=223","path":"https://videocdn.tv/api/short","per_page":100,"prev_page_url":"https://videocdn.tv/api/short?limit=100&api_token=6Onb1W1alEUrBcKJZD3GoKBbWyAl2uG2&cache3222=3222&page=221","to":22140,"total":69236}