{"result":true,"data":[{"id":49901,"title":"Царь-птица","kp_id":"1117970","imdb_id":"tt9159838","world_art_id":null,"type":"movie","add":"2021-04-26 07:58:55","orig_title":"Toyon kyyl","year":"2018-04-23","translations":["Любительский (двухголосый закадровый) (Храм тысячи струн)"],"quality":"webdl","translation":"Любительский (двухголосый закадровый) (Храм тысячи струн)","update":"2021-04-26 10:52:35","iframe_src":"//7741.svetacdn.in/IAF0wWTdNYZm/movie/49901"},{"id":49900,"title":"Бойцовская птица 2","kp_id":"1122210","imdb_id":"tt7938444","world_art_id":null,"type":"movie","add":"2021-04-26 06:19:03","orig_title":"Sandakozhi 2","year":"2018-10-18","translations":["Любительский (многоголосый закадровый) (OnisFilms)"],"quality":"webdl","translation":"Любительский (многоголосый закадровый) (OnisFilms)","update":"2021-04-26 15:48:19","iframe_src":"//7741.svetacdn.in/IAF0wWTdNYZm/movie/49900"},{"id":49899,"title":"Как не просто любить","kp_id":"224851","imdb_id":"tt0277446","world_art_id":null,"type":"movie","add":"2021-04-26 06:15:05","orig_title":"Yeh Ishq Nahin Aasaan","year":"1984-12-21","translations":["Любительский (одноголосый закадровый)"],"quality":"dvdrip","translation":"Любительский (одноголосый закадровый)","update":"2021-04-26 15:47:53","iframe_src":"//7741.svetacdn.in/IAF0wWTdNYZm/movie/49899"},{"id":49897,"title":"Бриллиант моего сердца","kp_id":"224968","imdb_id":"tt0215717","world_art_id":null,"type":"movie","add":"2021-04-26 06:05:19","orig_title":"Dil Kaa Heera","year":"1979-03-30","translations":["Любительский (двухголосый закадровый)"],"quality":"webdl","translation":"Любительский (двухголосый закадровый)","update":"2021-04-26 15:47:34","iframe_src":"//7741.svetacdn.in/IAF0wWTdNYZm/movie/49897"},{"id":49896,"title":"Борьба с жизнью","kp_id":"97416","imdb_id":"tt0279709","world_art_id":null,"type":"movie","add":"2021-04-26 05:47:17","orig_title":"Budget Padmanabham","year":"2001-03-09","translations":["Профессиональный (двухголосый закадровый)"],"quality":"hdtv","translation":"Профессиональный (двухголосый закадровый)","update":"2021-04-26 15:46:03","iframe_src":"//7741.svetacdn.in/IAF0wWTdNYZm/movie/49896"},{"id":49889,"title":"Эта чёртова любовь","kp_id":"1295922","imdb_id":"tt10443846","world_art_id":null,"type":"movie","add":"2021-04-26 04:05:23","orig_title":"Yeh Saali Aashiqui","year":"2019-11-29","translations":["Любительский (многоголосый закадровый) (FanStudio)"],"quality":"hdrip","translation":"Любительский (многоголосый закадровый) (FanStudio)","update":"2021-04-26 10:52:46","iframe_src":"//7741.svetacdn.in/IAF0wWTdNYZm/movie/49889"},{"id":49888,"title":"Раскрыть тайну за 47 дней","kp_id":"1139638","imdb_id":"tt8004570","world_art_id":null,"type":"movie","add":"2021-04-25 22:34:10","orig_title":"47 Days The Mystery Unfolds","year":"2020-06-30","translations":["Любительский (двухголосый закадровый) (OnisFilms)"],"quality":"hdrip","translation":"Любительский (двухголосый закадровый) (OnisFilms)","update":"2021-04-26 08:59:58","iframe_src":"//7741.svetacdn.in/IAF0wWTdNYZm/movie/49888"},{"id":49880,"title":"Письмо счастья","kp_id":"400215","imdb_id":"tt1148200","world_art_id":null,"type":"movie","add":"2021-04-25 19:19:01","orig_title":"Chain Letter","year":"2010-09-23","translations":["Любительский (двухголосый закадровый)"],"quality":"hdrip","translation":"Любительский (двухголосый закадровый)","update":"2021-04-26 07:48:22","iframe_src":"//7741.svetacdn.in/IAF0wWTdNYZm/movie/49880"},{"id":49879,"title":"Я зависим","kp_id":"1184156","imdb_id":"tt8694668","world_art_id":null,"type":"movie","add":"2021-04-25 18:54:04","orig_title":"I Am an Addict","year":"2019-11-16","translations":["Любительский (многоголосый закадровый) (Синема УС)"],"quality":"webdl","translation":"Любительский (многоголосый закадровый) (Синема УС)","update":"2021-04-26 10:33:56","iframe_src":"//7741.svetacdn.in/IAF0wWTdNYZm/movie/49879"},{"id":49878,"title":"Губернатор Гэбби","kp_id":"1075127","imdb_id":"tt6970194","world_art_id":null,"type":"movie","add":"2021-04-25 18:50:11","orig_title":"Governor Gabbi","year":"2017-12-12","translations":["Любительский (многоголосый закадровый) (Синема УС)"],"quality":"webdl","translation":"Любительский (многоголосый закадровый) (Синема УС)","update":"2021-04-26 10:58:32","iframe_src":"//7741.svetacdn.in/IAF0wWTdNYZm/movie/49878"},{"id":49876,"title":"Тяжелая любовь","kp_id":"1181788","imdb_id":"tt8790694","world_art_id":null,"type":"movie","add":"2021-04-25 18:42:39","orig_title":"Amores de Chumbo","year":"2017-10-01","translations":["Любительский (многоголосый закадровый) (Синема УС)"],"quality":"webdl","translation":"Любительский (многоголосый закадровый) (Синема УС)","update":"2021-04-26 11:14:03","iframe_src":"//7741.svetacdn.in/IAF0wWTdNYZm/movie/49876"},{"id":49875,"title":"Угнать автобус","kp_id":null,"imdb_id":"tt10279092","world_art_id":null,"type":"movie","add":"2021-04-25 18:33:51","orig_title":"Away Bus","year":"2019-01-01","translations":["Любительский (многоголосый закадровый) (Синема УС)"],"quality":"webdl","translation":"Любительский (многоголосый закадровый) (Синема УС)","update":"2021-04-26 10:29:57","iframe_src":"//7741.svetacdn.in/IAF0wWTdNYZm/movie/49875"},{"id":49874,"title":"Жизнь Грейс","kp_id":"1167017","imdb_id":"tt8126072","world_art_id":null,"type":"movie","add":"2021-04-25 18:31:19","orig_title":"Being Grace","year":"2021-03-19","translations":["Любительский (многоголосый закадровый) (AlphaProject)"],"quality":"webdl","translation":"Любительский (многоголосый закадровый) (AlphaProject)","update":"2021-04-26 10:25:15","iframe_src":"//7741.svetacdn.in/IAF0wWTdNYZm/movie/49874"},{"id":49866,"title":"Рухи","kp_id":"1254924","imdb_id":"tt10098288","world_art_id":null,"type":"movie","add":"2021-04-25 06:32:56","orig_title":"Roohi","year":"2021-03-11","translations":["Любительский (многоголосый закадровый) (Honey&Haseena)","Любительский (многоголосый закадровый) (OnisFilms)"],"quality":"webdl","translation":"Любительский (многоголосый закадровый) (Honey&Haseena)","update":"2021-04-26 11:57:14","iframe_src":"//7741.svetacdn.in/IAF0wWTdNYZm/movie/49866"},{"id":49839,"title":"Деревянные человечки","kp_id":"842066","imdb_id":null,"world_art_id":null,"type":"movie","add":"2021-04-23 18:16:51","orig_title":"Деревянные человечки","year":"1982-01-01","translations":["Оригинальная дорожка"],"quality":"dvdrip","translation":"Оригинальная дорожка","update":"2021-04-26 07:34:44","iframe_src":"//7741.svetacdn.in/IAF0wWTdNYZm/movie/49839"},{"id":49838,"title":"Чтобы быть счастливым!","kp_id":"478531","imdb_id":"tt4819072","world_art_id":null,"type":"movie","add":"2021-04-23 18:10:27","orig_title":"Chtoby byt schastlivym!","year":"1973-01-01","translations":["Оригинальная дорожка"],"quality":"sat","translation":"Оригинальная дорожка","update":"2021-04-26 07:33:33","iframe_src":"//7741.svetacdn.in/IAF0wWTdNYZm/movie/49838"},{"id":49837,"title":"Член правительства","kp_id":"45515","imdb_id":"tt0032337","world_art_id":null,"type":"movie","add":"2021-04-23 18:07:23","orig_title":"Chlen pravitelstva","year":"1940-03-08","translations":["Оригинальная дорожка"],"quality":"dvdrip","translation":"Оригинальная дорожка","update":"2021-04-26 07:32:51","iframe_src":"//7741.svetacdn.in/IAF0wWTdNYZm/movie/49837"},{"id":49836,"title":"Апрель","kp_id":"43512","imdb_id":"tt0247184","world_art_id":null,"type":"movie","add":"2021-04-23 18:03:29","orig_title":"April","year":"1961-01-22","translations":["Оригинальная дорожка"],"quality":"tv","translation":"Оригинальная дорожка","update":"2021-04-26 07:31:49","iframe_src":"//7741.svetacdn.in/IAF0wWTdNYZm/movie/49836"},{"id":49308,"title":"Пей Убевай Люби","kp_id":"1002045","imdb_id":"tt5932156","world_art_id":null,"type":"movie","add":"2021-04-03 12:06:17","orig_title":"Drink Slay Love","year":"2017-09-16","translations":["Любительский (многоголосый закадровый) (Синема УС)"],"quality":"webdl","translation":"Любительский (многоголосый закадровый) (Синема УС)","update":"2021-04-26 10:53:18","iframe_src":"//7741.svetacdn.in/IAF0wWTdNYZm/movie/49308"},{"id":26611,"title":"Зачем ты ушел?","kp_id":"422826","imdb_id":"tt4127570","world_art_id":null,"type":"movie","add":"2019-05-16 17:26:10","orig_title":"Zachem ty ushyol?","year":"2008-10-04","translations":["Оригинальная дорожка"],"quality":"iptv","translation":"Оригинальная дорожка","update":"2021-04-26 07:44:11","iframe_src":"//7741.svetacdn.in/IAF0wWTdNYZm/movie/26611"},{"id":1504,"title":"Тринадцатый апостол: Избранный","kp_id":"687481","imdb_id":"tt2204745","world_art_id":null,"type":"serial","add":"2017-09-01 07:32:20","orig_title":"Il tredicesimo apostolo - Il prescelto","year":"2012-01-04","translations":["Полное дублирование (ТВ3)"],"seasons_count":1,"episodes_count":12,"episodes":12,"update":"2017-09-04 07:57:41","iframe_src":"//7741.svetacdn.in/IAF0wWTdNYZm/tv-series/1504"},{"id":1503,"title":"Безопасность","kp_id":"927625","imdb_id":null,"world_art_id":null,"type":"serial","add":"2017-08-31 11:42:52","orig_title":"Безопасность","year":"2017-08-28","translations":["Оригинальная дорожка"],"seasons_count":1,"episodes_count":8,"episodes":8,"update":"2017-09-01 08:25:10","iframe_src":"//7741.svetacdn.in/IAF0wWTdNYZm/tv-series/1503"},{"id":1499,"title":"Тимон и Пумба","kp_id":"94672","imdb_id":"tt0112197","world_art_id":null,"type":"serial","add":"2017-08-30 07:59:46","orig_title":"Timon & Pumbaa","year":"1995-09-08","translations":["Полное дублирование"],"seasons_count":5,"episodes_count":85,"episodes":39,"update":"2017-09-01 13:32:37","iframe_src":"//7741.svetacdn.in/IAF0wWTdNYZm/tv-series/1499"},{"id":1498,"title":"Страна фей","kp_id":"77309","imdb_id":"tt0205214","world_art_id":null,"type":"serial","add":"2017-08-30 06:54:12","orig_title":"The Magical Legend of the Leprechauns","year":"1999-01-01","translations":["Профессиональный (многоголосый закадровый)"],"seasons_count":1,"episodes_count":2,"episodes":2,"update":"2017-08-30 14:19:06","iframe_src":"//7741.svetacdn.in/IAF0wWTdNYZm/tv-series/1498"},{"id":1494,"title":"Карамель","kp_id":"635996","imdb_id":null,"world_art_id":null,"type":"serial","add":"2017-08-29 07:13:35","orig_title":"Карамель","year":"2011-11-07","translations":["Оригинальная дорожка"],"seasons_count":1,"episodes_count":40,"episodes":40,"update":"2017-08-29 09:41:38","iframe_src":"//7741.svetacdn.in/IAF0wWTdNYZm/tv-series/1494"},{"id":1493,"title":"У каждого своя война","kp_id":"490339","imdb_id":"tt3208564","world_art_id":null,"type":"serial","add":"2017-08-29 06:50:01","orig_title":"U kazhdogo svoya voyna","year":"2012-04-30","translations":["Оригинальная дорожка"],"seasons_count":1,"episodes_count":16,"episodes":16,"update":"2017-08-30 11:53:14","iframe_src":"//7741.svetacdn.in/IAF0wWTdNYZm/tv-series/1493"},{"id":1491,"title":"Шарлатаны","kp_id":"971148","imdb_id":"tt6980438","world_art_id":null,"type":"serial","add":"2017-08-28 11:44:50","orig_title":"Quacks","year":"2017-08-15","translations":["Любительский (двухголосый закадровый) (Sunshine Studio)"],"seasons_count":1,"episodes_count":6,"episodes":6,"update":"2017-08-29 06:45:51","iframe_src":"//7741.svetacdn.in/IAF0wWTdNYZm/tv-series/1491"},{"id":1490,"title":"До свидания, мальчики","kp_id":"838628","imdb_id":null,"world_art_id":null,"type":"serial","add":"2017-08-28 05:34:23","orig_title":"До свидания, мальчики","year":"2014-04-28","translations":["Оригинальная дорожка"],"seasons_count":1,"episodes_count":16,"episodes":16,"update":"2017-08-29 13:17:54","iframe_src":"//7741.svetacdn.in/IAF0wWTdNYZm/tv-series/1490"},{"id":1487,"title":"101 далматинец","kp_id":"471870","imdb_id":"tt0144700","world_art_id":null,"type":"serial","add":"2017-08-25 07:08:12","orig_title":"101 Dalmatians: The Series","year":"1997-09-13","translations":["Полное дублирование"],"seasons_count":2,"episodes_count":65,"episodes":53,"update":"2017-08-25 10:28:30","iframe_src":"//7741.svetacdn.in/IAF0wWTdNYZm/tv-series/1487"},{"id":1485,"title":"Русалочка","kp_id":"229458","imdb_id":"tt0103477","world_art_id":null,"type":"serial","add":"2017-08-24 05:54:35","orig_title":"The Little Mermaid","year":"1992-09-12","translations":["Полное дублирование"],"seasons_count":3,"episodes_count":30,"episodes":8,"update":"2017-08-25 07:50:00","iframe_src":"//7741.svetacdn.in/IAF0wWTdNYZm/tv-series/1485"},{"id":1484,"title":"Чип и Дейл спешат на помощь","kp_id":"95231","imdb_id":"tt0096557","world_art_id":null,"type":"serial","add":"2017-08-24 05:53:57","orig_title":"Chip 'n' Dale Rescue Rangers","year":"1989-03-05","translations":["Полное дублирование"],"seasons_count":3,"episodes_count":65,"episodes":5,"update":"2017-08-24 12:56:07","iframe_src":"//7741.svetacdn.in/IAF0wWTdNYZm/tv-series/1484"},{"id":1483,"title":"Скуби-Ду!: Олимпийские игры, Забавные состязания","kp_id":"711873","imdb_id":"tt2375938","world_art_id":null,"type":"serial","add":"2017-08-23 11:13:47","orig_title":"Scooby-Doo! Laff-A-Lympics: Spooky Games","year":"2012-07-17","translations":["Полное дублирование"],"seasons_count":1,"episodes_count":5,"episodes":5,"update":"2017-08-28 10:36:27","iframe_src":"//7741.svetacdn.in/IAF0wWTdNYZm/tv-series/1483"},{"id":1481,"title":"Ящик Пандоры","kp_id":"652773","imdb_id":"tt3256162","world_art_id":null,"type":"serial","add":"2017-08-21 04:45:48","orig_title":"Yashchik Pandory","year":"2012-02-25","translations":["Оригинальная дорожка"],"seasons_count":1,"episodes_count":4,"episodes":4,"update":"2017-08-21 07:19:36","iframe_src":"//7741.svetacdn.in/IAF0wWTdNYZm/tv-series/1481"},{"id":1479,"title":"Шофёр на один рейс","kp_id":"331781","imdb_id":"tt0083068","world_art_id":null,"type":"serial","add":"2017-08-20 06:25:14","orig_title":"Shofyor na odin reys","year":"1981-01-01","translations":["Оригинальная дорожка"],"seasons_count":1,"episodes_count":2,"episodes":2,"update":"2017-08-21 10:34:56","iframe_src":"//7741.svetacdn.in/IAF0wWTdNYZm/tv-series/1479"},{"id":1472,"title":"Короче","kp_id":"839417","imdb_id":"tt2044128","world_art_id":null,"type":"serial","add":"2017-08-15 13:54:26","orig_title":"Bref","year":"2011-08-29","translations":["Профессиональный (многоголосый закадровый) (2x2)"],"seasons_count":2,"episodes_count":82,"episodes":42,"update":"2017-08-18 15:11:10","iframe_src":"//7741.svetacdn.in/IAF0wWTdNYZm/tv-series/1472"},{"id":1443,"title":"Под несчастливой звездой","kp_id":"981323","imdb_id":"tt5165412","world_art_id":null,"type":"serial","add":"2017-08-02 12:39:08","orig_title":"Still Star-Crossed","year":"2017-05-29","translations":["Любительский (двухголосый закадровый) (NEON Studio)"],"seasons_count":1,"episodes_count":7,"episodes":7,"update":"2017-08-23 15:12:35","iframe_src":"//7741.svetacdn.in/IAF0wWTdNYZm/tv-series/1443"},{"id":1356,"title":"З: Начало всего","kp_id":"925036","imdb_id":"tt4878612","world_art_id":null,"type":"serial","add":"2017-07-04 05:29:33","orig_title":"Z: The Beginning of Everything","year":"2015-11-05","translations":["Профессиональный (многоголосый закадровый) (Jaskier)","Профессиональный (многоголосый закадровый) (LostFilm)"],"seasons_count":1,"episodes_count":10,"episodes":10,"update":"2017-08-21 12:10:25","iframe_src":"//7741.svetacdn.in/IAF0wWTdNYZm/tv-series/1356"},{"id":565,"title":"Земляне","kp_id":"1006639","imdb_id":"tt4695530","world_art_id":null,"type":"serial","add":"2016-11-03 10:44:03","orig_title":"People of Earth","year":"2016-10-30","translations":["Профессиональный (многоголосый закадровый) (ColdFilm)"],"seasons_count":2,"episodes_count":15,"episodes":5,"update":"2017-09-01 14:28:46","iframe_src":"//7741.svetacdn.in/IAF0wWTdNYZm/tv-series/565"},{"id":376,"title":"Тёмная материя","kp_id":"861614","imdb_id":"tt4159076","world_art_id":null,"type":"serial","add":"2016-08-26 12:46:27","orig_title":"Dark Matter","year":"2015-06-12","translations":["Профессиональный (многоголосый)","Профессиональный (многоголосый закадровый) (LostFilm)","Профессиональный (многоголосый закадровый)"],"seasons_count":3,"episodes_count":39,"episodes":13,"update":"2017-08-29 05:54:27","iframe_src":"//7741.svetacdn.in/IAF0wWTdNYZm/tv-series/376"},{"id":289,"title":"Все еще король","kp_id":"844766","imdb_id":"tt4172154","world_art_id":null,"type":"serial","add":"2016-07-18 08:47:12","orig_title":"Still the King","year":"2016-06-12","translations":["Профессиональный (многоголосый закадровый) (IdeaFilm)","Профессиональный (многоголосый закадровый) (BaibaKo)"],"seasons_count":2,"episodes_count":19,"episodes":6,"update":"2017-09-04 09:54:08","iframe_src":"//7741.svetacdn.in/IAF0wWTdNYZm/tv-series/289"}],"current_page":562,"first_page_url":"https://videocdn.tv/api/short?limit=100&api_token=6Onb1W1alEUrBcKJZD3GoKBbWyAl2uG2&cache3562=3562&page=1","from":56101,"last_page":706,"last_page_url":"https://videocdn.tv/api/short?limit=100&api_token=6Onb1W1alEUrBcKJZD3GoKBbWyAl2uG2&cache3562=3562&page=706","next_page_url":"https://videocdn.tv/api/short?limit=100&api_token=6Onb1W1alEUrBcKJZD3GoKBbWyAl2uG2&cache3562=3562&page=563","path":"https://videocdn.tv/api/short","per_page":100,"prev_page_url":"https://videocdn.tv/api/short?limit=100&api_token=6Onb1W1alEUrBcKJZD3GoKBbWyAl2uG2&cache3562=3562&page=561","to":56140,"total":70569}