{"result":true,"data":[{"id":45882,"title":"Зомби-брат","kp_id":"1022770","imdb_id":"tt5852314","world_art_id":null,"type":"movie","add":"2020-12-06 12:50:15","orig_title":"Zombie Bro","year":"2020-12-18","translations":["Любительский (многоголосый закадровый) (@MUZOBOZ@)"],"quality":"webdl","translation":"Любительский (многоголосый закадровый) (@MUZOBOZ@)","update":"2020-12-06 20:19:51","iframe_src":"//8543.svetacdn.in/si4jsFRrtgrT/movie/45882"},{"id":45881,"title":"Навыки выживания","kp_id":"1167288","imdb_id":"tt8622348","world_art_id":null,"type":"movie","add":"2020-12-06 12:48:34","orig_title":"Survival Skills","year":"2020-03-06","translations":["Любительский (многоголосый закадровый) (@MUZOBOZ@)"],"quality":"webdl","translation":"Любительский (многоголосый закадровый) (@MUZOBOZ@)","update":"2020-12-06 19:08:15","iframe_src":"//8543.svetacdn.in/si4jsFRrtgrT/movie/45881"},{"id":45879,"title":"Вечные скитальцы","kp_id":"1202623","imdb_id":"tt9121616","world_art_id":null,"type":"movie","add":"2020-12-06 12:44:18","orig_title":"Paradise Drifters","year":"2020-11-03","translations":["Любительский (многоголосый закадровый) (AlphaProject)"],"quality":"bd","translation":"Любительский (многоголосый закадровый) (AlphaProject)","update":"2020-12-06 17:37:28","iframe_src":"//8543.svetacdn.in/si4jsFRrtgrT/movie/45879"},{"id":45878,"title":"Ничто","kp_id":"1290797","imdb_id":"tt10651850","world_art_id":null,"type":"movie","add":"2020-12-06 12:41:44","orig_title":"Nimic","year":"2019-08-09","translations":["Любительский (многоголосый закадровый) (Синема УС)"],"quality":"webdl","translation":"Любительский (многоголосый закадровый) (Синема УС)","update":"2020-12-06 17:37:09","iframe_src":"//8543.svetacdn.in/si4jsFRrtgrT/movie/45878"},{"id":45876,"title":"Ненавижу Новый год","kp_id":"1355739","imdb_id":"tt11441606","world_art_id":null,"type":"movie","add":"2020-12-06 12:36:56","orig_title":"I Hate New Year's","year":"2020-12-04","translations":["Любительский (многоголосый закадровый) (Синема УС)"],"quality":"webdl","translation":"Любительский (многоголосый закадровый) (Синема УС)","update":"2020-12-06 17:36:24","iframe_src":"//8543.svetacdn.in/si4jsFRrtgrT/movie/45876"},{"id":45875,"title":"Возвышенность","kp_id":"1211147","imdb_id":"tt9286908","world_art_id":null,"type":"movie","add":"2020-12-06 12:35:21","orig_title":"High Ground","year":"2020-02-23","translations":["Любительский (многоголосый закадровый) (@MUZOBOZ@)"],"quality":"bd","translation":"Любительский (многоголосый закадровый) (@MUZOBOZ@)","update":"2020-12-06 18:24:42","iframe_src":"//8543.svetacdn.in/si4jsFRrtgrT/movie/45875"},{"id":45863,"title":"Опять Рождество","kp_id":null,"imdb_id":"tt13354204","world_art_id":null,"type":"movie","add":"2020-12-05 14:27:56","orig_title":"Just Another Christmas","year":"2020-12-03","translations":["Любительский (многоголосый закадровый) (Синема УС)"],"quality":"webdl","translation":"Любительский (многоголосый закадровый) (Синема УС)","update":"2020-12-05 22:24:57","iframe_src":"//8543.svetacdn.in/si4jsFRrtgrT/movie/45863"},{"id":45862,"title":"Любовь Дэйва","kp_id":"1389171","imdb_id":"tt12549968","world_art_id":null,"type":"movie","add":"2020-12-05 14:23:25","orig_title":"Love Dave","year":"2020-07-01","translations":["Любительский (многоголосый закадровый) (Синема УС)"],"quality":"webdl","translation":"Любительский (многоголосый закадровый) (Синема УС)","update":"2020-12-05 22:23:15","iframe_src":"//8543.svetacdn.in/si4jsFRrtgrT/movie/45862"},{"id":45861,"title":"Может, я в порядке","kp_id":"1057480","imdb_id":"tt7294234","world_art_id":null,"type":"movie","add":"2020-12-05 14:16:20","orig_title":"Maybe I'm Fine","year":"2018-08-01","translations":["Любительский (многоголосый закадровый) (Синема УС)"],"quality":"webdl","translation":"Любительский (многоголосый закадровый) (Синема УС)","update":"2020-12-05 22:21:08","iframe_src":"//8543.svetacdn.in/si4jsFRrtgrT/movie/45861"},{"id":45856,"title":"Пришей зиму к моей коже","kp_id":"1128071","imdb_id":"tt7416536","world_art_id":null,"type":"movie","add":"2020-12-04 21:12:12","orig_title":"Sew the Winter to My Skin","year":"2019-02-08","translations":["Любительский (многоголосый закадровый) (@MUZOBOZ@)"],"quality":"webdl","translation":"Любительский (многоголосый закадровый) (@MUZOBOZ@)","update":"2020-12-06 09:57:46","iframe_src":"//8543.svetacdn.in/si4jsFRrtgrT/movie/45856"},{"id":45854,"title":"Мускул","kp_id":"1179013","imdb_id":"tt7082742","world_art_id":null,"type":"movie","add":"2020-12-04 21:07:46","orig_title":"Muscle","year":"2019-11-10","translations":["Любительский (многоголосый закадровый) (@MUZOBOZ@)"],"quality":"webdl","translation":"Любительский (многоголосый закадровый) (@MUZOBOZ@)","update":"2020-12-06 09:56:25","iframe_src":"//8543.svetacdn.in/si4jsFRrtgrT/movie/45854"},{"id":45849,"title":"Законы разорения","kp_id":"1000231","imdb_id":"tt5955792","world_art_id":null,"type":"movie","add":"2020-12-04 20:53:46","orig_title":"Las Reglas de la Ruina","year":"2018-09-20","translations":["Любительский (многоголосый закадровый) (Синема УС)"],"quality":"webdl","translation":"Любительский (многоголосый закадровый) (Синема УС)","update":"2020-12-06 09:55:55","iframe_src":"//8543.svetacdn.in/si4jsFRrtgrT/movie/45849"},{"id":45846,"title":"Лунный огонь","kp_id":"1175992","imdb_id":"tt8718786","world_art_id":null,"type":"movie","add":"2020-12-04 20:28:29","orig_title":"Månebrand","year":"2018-10-06","translations":["Любительский (многоголосый закадровый) (Синема УС)"],"quality":"webdl","translation":"Любительский (многоголосый закадровый) (Синема УС)","update":"2020-12-06 09:55:13","iframe_src":"//8543.svetacdn.in/si4jsFRrtgrT/movie/45846"},{"id":45845,"title":"Любовная зависимость","kp_id":"1058082","imdb_id":"tt6960736","world_art_id":null,"type":"movie","add":"2020-12-04 20:25:10","orig_title":"Love Addict","year":"2018-04-17","translations":["Любительский (многоголосый закадровый) (Синема УС)"],"quality":"bd","translation":"Любительский (многоголосый закадровый) (Синема УС)","update":"2020-12-06 09:54:55","iframe_src":"//8543.svetacdn.in/si4jsFRrtgrT/movie/45845"},{"id":45833,"title":"Монолит","kp_id":"2222","imdb_id":"tt0107597","world_art_id":null,"type":"movie","add":"2020-12-04 16:36:40","orig_title":"Monolith","year":"1993-05-01","translations":["Профессиональный (двухголосый закадровый)"],"quality":"dvdrip","translation":"Профессиональный (двухголосый закадровый)","update":"2020-12-06 08:20:09","iframe_src":"//8543.svetacdn.in/si4jsFRrtgrT/movie/45833"},{"id":45681,"title":"Жизнь за год","kp_id":"1044785","imdb_id":"tt6598238","world_art_id":null,"type":"movie","add":"2020-11-28 06:16:33","orig_title":"Life in a Year","year":"2020-11-27","translations":["Original (English)","Профессиональный (многоголосый закадровый) (iTunes)"],"quality":"webdl","translation":"Original (English)","update":"2020-12-06 08:10:32","iframe_src":"//8543.svetacdn.in/si4jsFRrtgrT/movie/45681"},{"id":42117,"title":"Да, боже, да","kp_id":"1188124","imdb_id":"tt8949056","world_art_id":null,"type":"movie","add":"2020-07-29 20:24:49","orig_title":"Yes, God, Yes","year":"2019-03-08","translations":["Любительский (многоголосый закадровый) (AlphaProject)","Original (English)","Профессиональный (многоголосый закадровый) (iTunes)"],"quality":"webdl","translation":"Любительский (многоголосый закадровый) (AlphaProject)","update":"2020-12-06 08:12:33","iframe_src":"//8543.svetacdn.in/si4jsFRrtgrT/movie/42117"},{"id":7435,"title":"Расширяющаяся вселенная Эшли Гарсиа","kp_id":"1307541","imdb_id":"tt10380934","world_art_id":null,"type":"serial","add":"2020-05-07 20:34:56","orig_title":"The Expanding Universe of Ashley Garcia","year":"2020-02-17","translations":["Любительский (многоголосый закадровый) (Octopus)"],"seasons_count":1,"episodes_count":8,"episodes":8,"update":"2020-05-08 05:55:10","iframe_src":"//8543.svetacdn.in/si4jsFRrtgrT/tv-series/7435"},{"id":7430,"title":"Возвращение чемпиона","kp_id":"1033117","imdb_id":"tt5154952","world_art_id":null,"type":"serial","add":"2020-05-07 12:15:33","orig_title":"Vechtershart","year":"2015-11-22","translations":["Профессиональный (многоголосый закадровый) (ShowJet)"],"seasons_count":2,"episodes_count":18,"episodes":10,"update":"2020-05-07 21:27:54","iframe_src":"//8543.svetacdn.in/si4jsFRrtgrT/tv-series/7430"},{"id":7428,"title":"BBC: Чудеса Солнечной системы","kp_id":"573738","imdb_id":"tt1611787","world_art_id":null,"type":"serial","add":"2020-05-07 09:18:57","orig_title":"Wonders of the Solar System","year":"2010-03-07","translations":["Профессиональный (одноголосый закадровый)"],"seasons_count":1,"episodes_count":5,"episodes":5,"update":"2020-05-07 19:01:35","iframe_src":"//8543.svetacdn.in/si4jsFRrtgrT/tv-series/7428"},{"id":7427,"title":"В одну реку дважды","kp_id":"1371989","imdb_id":null,"world_art_id":null,"type":"serial","add":"2020-05-07 08:09:40","orig_title":"В одну реку дважды","year":"2020-05-16","translations":["Оригинальная дорожка"],"seasons_count":1,"episodes_count":4,"episodes":4,"update":"2020-05-07 17:47:38","iframe_src":"//8543.svetacdn.in/si4jsFRrtgrT/tv-series/7427"},{"id":7426,"title":"Идеальный брак","kp_id":"1346402","imdb_id":null,"world_art_id":null,"type":"serial","add":"2020-05-07 08:03:34","orig_title":"Идеальный брак","year":"2020-02-15","translations":["Оригинальная дорожка"],"seasons_count":1,"episodes_count":4,"episodes":4,"update":"2020-05-07 17:39:00","iframe_src":"//8543.svetacdn.in/si4jsFRrtgrT/tv-series/7426"},{"id":7423,"title":"Гнилые","kp_id":"1111973","imdb_id":"tt7763662","world_art_id":null,"type":"serial","add":"2020-05-06 20:04:51","orig_title":"Rotten","year":"2018-01-05","translations":["Любительский (одноголосый закадровый)"],"seasons_count":1,"episodes_count":6,"episodes":6,"update":"2020-05-07 21:16:21","iframe_src":"//8543.svetacdn.in/si4jsFRrtgrT/tv-series/7423"},{"id":7405,"title":"Октонавты","kp_id":"574281","imdb_id":"tt1710177","world_art_id":null,"type":"serial","add":"2020-05-05 11:37:37","orig_title":"The Octonauts","year":"2010-10-04","translations":["Полное дублирование"],"seasons_count":2,"episodes_count":68,"episodes":22,"update":"2020-05-07 14:07:38","iframe_src":"//8543.svetacdn.in/si4jsFRrtgrT/tv-series/7405"},{"id":7400,"title":"Вторая мировая война — день за днём","kp_id":"466550","imdb_id":"tt4621142","world_art_id":null,"type":"serial","add":"2020-05-05 05:14:06","orig_title":"Vtoraya mirovaya voyna: den za dnem","year":"2005-03-01","translations":["Оригинальная дорожка"],"seasons_count":1,"episodes_count":96,"episodes":96,"update":"2020-05-08 11:13:47","iframe_src":"//8543.svetacdn.in/si4jsFRrtgrT/tv-series/7400"},{"id":7396,"title":"Непобедимый Спайдермен","kp_id":"229687","imdb_id":"tt0207120","world_art_id":null,"type":"serial","add":"2020-05-04 12:48:54","orig_title":"Spider-Man Unlimited","year":"1999-10-02","translations":["Полное дублирование (РенТВ)"],"seasons_count":1,"episodes_count":13,"episodes":13,"update":"2020-05-07 19:31:02","iframe_src":"//8543.svetacdn.in/si4jsFRrtgrT/tv-series/7396"},{"id":7395,"title":"Второе восстание Спартака","kp_id":"661143","imdb_id":null,"world_art_id":null,"type":"serial","add":"2020-05-04 12:39:41","orig_title":"Vtoroye vosstaniye Spartaka","year":"2013-02-08","translations":["Оригинальная дорожка"],"seasons_count":1,"episodes_count":8,"episodes":8,"update":"2020-05-07 19:26:44","iframe_src":"//8543.svetacdn.in/si4jsFRrtgrT/tv-series/7395"},{"id":7318,"title":"Черное море","kp_id":"1334732","imdb_id":null,"world_art_id":null,"type":"serial","add":"2020-04-27 10:58:15","orig_title":"Черное море","year":"2020-04-27","translations":["Оригинальная дорожка"],"seasons_count":1,"episodes_count":8,"episodes":8,"update":"2020-05-07 09:15:26","iframe_src":"//8543.svetacdn.in/si4jsFRrtgrT/tv-series/7318"},{"id":7264,"title":"Добровольцы","kp_id":"1253103","imdb_id":"tt10086768","world_art_id":null,"type":"serial","add":"2020-04-22 11:02:22","orig_title":"Dobrovoltsy","year":"2020-04-20","translations":["Оригинальная дорожка"],"seasons_count":1,"episodes_count":16,"episodes":16,"update":"2020-05-07 12:24:53","iframe_src":"//8543.svetacdn.in/si4jsFRrtgrT/tv-series/7264"},{"id":7076,"title":"Домой до темноты","kp_id":"1164676","imdb_id":"tt6053512","world_art_id":null,"type":"serial","add":"2020-04-03 14:50:06","orig_title":"Home Before Dark","year":"2020-04-03","translations":["Любительский (многоголосый закадровый) (ColdFilm)","Любительский (многоголосый закадровый) (Octopus)","Профессиональный (двухголосый закадровый) (Gears Media)","Профессиональный (многоголосый закадровый) (AlexFilm)","Профессиональный (многоголосый закадровый) (TVShows)"],"seasons_count":1,"episodes_count":10,"episodes":10,"update":"2020-05-07 09:58:23","iframe_src":"//8543.svetacdn.in/si4jsFRrtgrT/tv-series/7076"},{"id":7007,"title":"Эпидемия","kp_id":"1321495","imdb_id":"tt11198202","world_art_id":null,"type":"serial","add":"2020-03-27 11:19:47","orig_title":"Épidémie","year":"2020-01-07","translations":["Любительский (многоголосый закадровый) (Octopus)","Любительский (многоголосый закадровый) (ColdFilm)","Полное дублирование"],"seasons_count":1,"episodes_count":10,"episodes":10,"update":"2020-05-07 12:21:40","iframe_src":"//8543.svetacdn.in/si4jsFRrtgrT/tv-series/7007"},{"id":6965,"title":"По кайфу","kp_id":"1352001","imdb_id":"tt10098620","world_art_id":null,"type":"serial","add":"2020-03-23 04:59:36","orig_title":"Feel Good","year":"2020-03-18","translations":["Профессиональный (одноголосый закадровый) (Sound Film)","Любительский (многоголосый закадровый) (Octopus)"],"seasons_count":1,"episodes_count":6,"episodes":6,"update":"2020-05-07 12:37:12","iframe_src":"//8543.svetacdn.in/si4jsFRrtgrT/tv-series/6965"},{"id":35003,"title":"Страна грёз","kp_id":"1076555","imdb_id":"tt5294522","world_art_id":null,"type":"movie","add":"2020-01-13 08:48:29","orig_title":"Dreamland","year":"2019-04-28","translations":["Любительский (многоголосый закадровый) (Синема УС)","Original (English)","Любительский (многоголосый закадровый) (@MUZOBOZ@)","Полное дублирование (iTunes)"],"quality":"webdl","translation":"Любительский (многоголосый закадровый) (Синема УС)","update":"2020-12-05 14:50:08","iframe_src":"//8543.svetacdn.in/si4jsFRrtgrT/movie/35003"},{"id":5421,"title":"Параллельные миры","kp_id":"89587","imdb_id":"tt0112167","world_art_id":null,"type":"serial","add":"2019-10-08 11:59:58","orig_title":"Sliders","year":"1995-03-22","translations":["Профессиональный (многоголосый закадровый) (AXN Sci-Fi)"],"seasons_count":5,"episodes_count":87,"episodes":18,"update":"2020-05-08 09:39:39","iframe_src":"//8543.svetacdn.in/si4jsFRrtgrT/tv-series/5421"},{"id":24756,"title":"Ученик лекаря","kp_id":"42489","imdb_id":"tt0086499","world_art_id":null,"type":"movie","add":"2019-04-17 16:09:58","orig_title":"Uchenik lekarya","year":"1984-02-07","translations":["Оригинальная дорожка"],"quality":"webdl","translation":"Оригинальная дорожка","update":"2020-12-05 08:54:24","iframe_src":"//8543.svetacdn.in/si4jsFRrtgrT/movie/24756"},{"id":2667,"title":"Спаси меня","kp_id":"1115038","imdb_id":"tt6538034","world_art_id":null,"type":"serial","add":"2018-05-27 09:35:20","orig_title":"Save Me","year":"2018-02-28","translations":["Профессиональный (многоголосый закадровый) (BaibaKo)","Профессиональный (многоголосый закадровый) (NewStudio)","Любительский (многоголосый закадровый) (ColdFilm)"],"seasons_count":2,"episodes_count":12,"episodes":6,"update":"2020-05-08 06:04:55","iframe_src":"//8543.svetacdn.in/si4jsFRrtgrT/tv-series/2667"},{"id":1194,"title":"Брокмайр","kp_id":"1008790","imdb_id":"tt5722190","world_art_id":null,"type":"serial","add":"2017-04-18 07:23:27","orig_title":"Brockmire","year":"2017-04-05","translations":["Профессиональный (многоголосый закадровый) (IdeaFilm)","Профессиональный (многоголосый закадровый) (BaibaKo)","Профессиональный (многоголосый закадровый) (TVShows)","Любительский (многоголосый закадровый) (ColdFilm)"],"seasons_count":4,"episodes_count":32,"episodes":8,"update":"2020-05-08 13:05:53","iframe_src":"//8543.svetacdn.in/si4jsFRrtgrT/tv-series/1194"},{"id":914,"title":"Деньги","kp_id":"954289","imdb_id":"tt6574888","world_art_id":null,"type":"serial","add":"2017-01-20 07:02:49","orig_title":"Dengi","year":"2016-04-25","translations":["Оригинальная дорожка"],"seasons_count":1,"episodes_count":8,"episodes":8,"update":"2020-05-07 13:37:33","iframe_src":"//8543.svetacdn.in/si4jsFRrtgrT/tv-series/914"},{"id":679,"title":"Агент Картер","kp_id":"820722","imdb_id":"tt3475734","world_art_id":null,"type":"serial","add":"2016-12-12 13:40:16","orig_title":"Agent Carter","year":"2015-01-06","translations":["Профессиональный (многоголосый закадровый) (LostFilm)","Полное дублирование (Невафильм)"],"seasons_count":2,"episodes_count":18,"episodes":10,"update":"2020-05-07 12:47:56","iframe_src":"//8543.svetacdn.in/si4jsFRrtgrT/tv-series/679"},{"id":4033,"title":"Поездка в Америку","kp_id":"5281","imdb_id":"tt0094898","world_art_id":null,"type":"movie","add":"2016-07-20 09:07:10","orig_title":"Coming To America","year":"1988-06-29","translations":["Профессиональный (многоголосый закадровый)","Original (English)"],"quality":"bd","translation":"Профессиональный (многоголосый закадровый)","update":"2020-12-06 08:18:38","iframe_src":"//8543.svetacdn.in/si4jsFRrtgrT/movie/4033"}],"current_page":182,"first_page_url":"https://videocdn.tv/api/short?limit=100&api_token=X6EwAUfE5M9xbo7y0Bp0aPf3uXxG2KLL&cache2182=2182&page=1","from":18101,"last_page":596,"last_page_url":"https://videocdn.tv/api/short?limit=100&api_token=X6EwAUfE5M9xbo7y0Bp0aPf3uXxG2KLL&cache2182=2182&page=596","next_page_url":"https://videocdn.tv/api/short?limit=100&api_token=X6EwAUfE5M9xbo7y0Bp0aPf3uXxG2KLL&cache2182=2182&page=183","path":"https://videocdn.tv/api/short","per_page":100,"prev_page_url":"https://videocdn.tv/api/short?limit=100&api_token=X6EwAUfE5M9xbo7y0Bp0aPf3uXxG2KLL&cache2182=2182&page=181","to":18140,"total":59506}