{"result":true,"data":[{"id":34389,"title":"Исповедь проститутки-убийцы: Демонатрикс","kp_id":"1193709","imdb_id":"tt9004736","world_art_id":null,"type":"movie","add":"2019-12-23 07:35:51","orig_title":"Confessions Of A Homicidal Prostitute: Demonatrix","year":"2018-12-29","translations":["Любительский (многоголосый закадровый) (Синема УС)"],"quality":"webdl","translation":"Любительский (многоголосый закадровый) (Синема УС)","update":"2019-12-23 10:44:59","iframe_src":"//7923.svetacdn.in/71tsRs29n5tZ/movie/34389"},{"id":34388,"title":"Паранормальная фабрика","kp_id":"958730","imdb_id":"tt4830836","world_art_id":null,"type":"movie","add":"2019-12-23 07:32:55","orig_title":"Factory of Paranormal","year":"2017-07-13","translations":["Любительский (многоголосый закадровый) (Синема УС)"],"quality":"webdl","translation":"Любительский (многоголосый закадровый) (Синема УС)","update":"2019-12-23 10:49:22","iframe_src":"//7923.svetacdn.in/71tsRs29n5tZ/movie/34388"},{"id":34387,"title":"Девочка, которая любила играть со спичками","kp_id":"1021743","imdb_id":"tt6034550","world_art_id":null,"type":"movie","add":"2019-12-23 07:30:18","orig_title":"La petite fille qui aimait trop les allumettes","year":"2017-09-11","translations":["Любительский (многоголосый закадровый) (Колобок)"],"quality":"webdl","translation":"Любительский (многоголосый закадровый) (Колобок)","update":"2019-12-23 10:50:35","iframe_src":"//7923.svetacdn.in/71tsRs29n5tZ/movie/34387"},{"id":34386,"title":"Сваха на Рождество","kp_id":"1254848","imdb_id":"tt10149756","world_art_id":null,"type":"movie","add":"2019-12-23 07:04:50","orig_title":"Matchmaker Christmas","year":"2019-12-14","translations":["Любительский (многоголосый закадровый) (AlphaProject)"],"quality":"webdl","translation":"Любительский (многоголосый закадровый) (AlphaProject)","update":"2019-12-23 10:23:18","iframe_src":"//7923.svetacdn.in/71tsRs29n5tZ/movie/34386"},{"id":34385,"title":"Адская гора","kp_id":"954328","imdb_id":"tt5276332","world_art_id":null,"type":"movie","add":"2019-12-23 06:19:29","orig_title":"Hell Mountain","year":"2017-04-18","translations":["Любительский (многоголосый закадровый) (Синема УС)"],"quality":"webdl","translation":"Любительский (многоголосый закадровый) (Синема УС)","update":"2019-12-23 07:48:10","iframe_src":"//7923.svetacdn.in/71tsRs29n5tZ/movie/34385"},{"id":34383,"title":"Чёрная паутина","kp_id":"645362","imdb_id":"tt2091288","world_art_id":null,"type":"movie","add":"2019-12-22 21:11:35","orig_title":"Easton's Article","year":"2012-06-08","translations":["Профессиональный (многоголосый закадровый) (НТВ)"],"quality":"webdl","translation":"Профессиональный (многоголосый закадровый) (НТВ)","update":"2019-12-23 10:54:15","iframe_src":"//7923.svetacdn.in/71tsRs29n5tZ/movie/34383"},{"id":34382,"title":"Сокрушительный удар","kp_id":"596236","imdb_id":"tt1965118","world_art_id":null,"type":"movie","add":"2019-12-22 21:07:30","orig_title":"Strike One","year":"2014-10-23","translations":["Любительский (многоголосый закадровый)"],"quality":"webdl","translation":"Любительский (многоголосый закадровый)","update":"2019-12-23 10:53:05","iframe_src":"//7923.svetacdn.in/71tsRs29n5tZ/movie/34382"},{"id":34358,"title":"Рождественский наставник","kp_id":"1321456","imdb_id":"tt11241514","world_art_id":null,"type":"movie","add":"2019-12-22 15:12:48","orig_title":"Christmas Coach","year":"2019-12-15","translations":["Любительский (многоголосый закадровый) (AlphaProject)"],"quality":"hdtv","translation":"Любительский (многоголосый закадровый) (AlphaProject)","update":"2019-12-22 18:29:10","iframe_src":"//7923.svetacdn.in/71tsRs29n5tZ/movie/34358"},{"id":34320,"title":"Живые мертвецы в Токио","kp_id":"243541","imdb_id":"tt0225156","world_art_id":null,"type":"movie","add":"2019-12-20 21:22:22","orig_title":"Batoru gâru: Tokyo crisis wars","year":"1991-11-08","translations":["Любительский (одноголосый закадровый) (den904)"],"quality":"dvdrip","translation":"Любительский (одноголосый закадровый) (den904)","update":"2019-12-23 11:17:48","iframe_src":"//7923.svetacdn.in/71tsRs29n5tZ/movie/34320"},{"id":34312,"title":"Хлеб на радость","kp_id":"569160","imdb_id":"tt1726749","world_art_id":null,"type":"movie","add":"2019-12-20 16:38:36","orig_title":"Shiawase no pan","year":"2012-01-21","translations":["Любительский (одноголосый закадровый)"],"quality":"bd","translation":"Любительский (одноголосый закадровый)","update":"2019-12-23 11:16:32","iframe_src":"//7923.svetacdn.in/71tsRs29n5tZ/movie/34312"},{"id":34311,"title":"Китайская история призраков","kp_id":"584447","imdb_id":"tt1861421","world_art_id":null,"type":"movie","add":"2019-12-20 16:33:22","orig_title":"Sien lui yau wan","year":"2011-04-21","translations":["Любительский (одноголосый закадровый)"],"quality":"bd","translation":"Любительский (одноголосый закадровый)","update":"2019-12-23 11:08:14","iframe_src":"//7923.svetacdn.in/71tsRs29n5tZ/movie/34311"},{"id":34310,"title":"Плейбой и банда Черри","kp_id":"1230641","imdb_id":"tt9559888","world_art_id":null,"type":"movie","add":"2019-12-20 16:17:39","orig_title":"PlayBoy (and the Gang of Cherry)","year":"2017-08-31","translations":["Любительский (двухголосый закадровый) (Храм Дорам ТВ)"],"quality":"webdl","translation":"Любительский (двухголосый закадровый) (Храм Дорам ТВ)","update":"2019-12-23 08:51:21","iframe_src":"//7923.svetacdn.in/71tsRs29n5tZ/movie/34310"},{"id":34309,"title":"Убийцы","kp_id":"407608","imdb_id":"tt1202514","world_art_id":null,"type":"movie","add":"2019-12-20 16:04:56","orig_title":"Yi ngoi","year":"2009-09-05","translations":["Авторский (одноголосый закадровый) (Сербин Юрий)"],"quality":"bd","translation":"Авторский (одноголосый закадровый) (Сербин Юрий)","update":"2019-12-23 08:49:03","iframe_src":"//7923.svetacdn.in/71tsRs29n5tZ/movie/34309"},{"id":34308,"title":"Дрожь","kp_id":"65855","imdb_id":"tt0294929","world_art_id":null,"type":"movie","add":"2019-12-20 16:00:13","orig_title":"Sorum","year":"2001-07-20","translations":["Профессиональный (многоголосый закадровый)"],"quality":"bd","translation":"Профессиональный (многоголосый закадровый)","update":"2019-12-23 08:46:36","iframe_src":"//7923.svetacdn.in/71tsRs29n5tZ/movie/34308"},{"id":34307,"title":"Правосудие моей пятки","kp_id":"82465","imdb_id":"tt0105385","world_art_id":null,"type":"movie","add":"2019-12-20 15:54:01","orig_title":"Sam sei goon","year":"1992-07-02","translations":["Любительский (одноголосый закадровый)"],"quality":"bd","translation":"Любительский (одноголосый закадровый)","update":"2019-12-23 08:35:31","iframe_src":"//7923.svetacdn.in/71tsRs29n5tZ/movie/34307"},{"id":34048,"title":"Побег перед Рождеством","kp_id":"1330627","imdb_id":"tt11404430","world_art_id":null,"type":"movie","add":"2019-12-13 06:15:08","orig_title":"Christmas Unleashed","year":"2019-12-07","translations":["Original (English)","Любительский (многоголосый закадровый) (AlphaProject)"],"quality":"webdl","translation":"Original (English)","update":"2019-12-23 10:24:05","iframe_src":"//7923.svetacdn.in/71tsRs29n5tZ/movie/34048"},{"id":22939,"title":"Китайская история призраков","kp_id":"36996","imdb_id":"tt0093978","world_art_id":null,"type":"movie","add":"2019-03-11 21:25:51","orig_title":"Sinnui yauwan","year":"1987-07-18","translations":["Профессиональный (двухголосый закадровый)"],"quality":"bd","translation":"Профессиональный (двухголосый закадровый)","update":"2019-12-23 08:54:26","iframe_src":"//7923.svetacdn.in/71tsRs29n5tZ/movie/22939"},{"id":21499,"title":"А теперь я иду встретиться с тобой","kp_id":"1048223","imdb_id":"tt8092252","world_art_id":null,"type":"movie","add":"2019-01-15 05:40:14","orig_title":"Jigeum Mannareo Gabmida","year":"2018-03-14","translations":["Любительский (многоголосый закадровый) (Синема УС)","Любительский (многоголосый закадровый) (STEPonee)","Любительский (двухголосый закадровый) (SoftBox)"],"quality":"bd","translation":"Любительский (многоголосый закадровый) (Синема УС)","update":"2019-12-23 07:35:38","iframe_src":"//7923.svetacdn.in/71tsRs29n5tZ/movie/21499"},{"id":21498,"title":"Дежавю","kp_id":"1047816","imdb_id":"tt7246052","world_art_id":null,"type":"movie","add":"2019-01-15 05:38:12","orig_title":"Deja Vu","year":"2018-05-30","translations":["Любительский (многоголосый закадровый) (Колобок)","Любительский (двухголосый закадровый) (Храм Дорам ТВ)"],"quality":"webdl","translation":"Любительский (многоголосый закадровый) (Колобок)","update":"2019-12-23 08:48:09","iframe_src":"//7923.svetacdn.in/71tsRs29n5tZ/movie/21498"},{"id":14851,"title":"Ночь воспоминаний","kp_id":"1040827","imdb_id":"tt7057496","world_art_id":null,"type":"movie","add":"2018-01-10 22:13:23","orig_title":"Gieokeui bam","year":"2017-11-29","translations":["Любительский (многоголосый закадровый)","Любительский (многоголосый закадровый) (Синема УС)","Профессиональный (многоголосый закадровый) (GreenРай Studio)","Любительский (многоголосый закадровый) (Колобок)"],"quality":"webdl","translation":"Любительский (многоголосый закадровый)","update":"2019-12-23 08:44:52","iframe_src":"//7923.svetacdn.in/71tsRs29n5tZ/movie/14851"}],"current_page":1064,"first_page_url":"https://videocdn.tv/api/short?limit=100&api_token=EnbO9h8pv1VyjbCJhg0WM9nG259n7mtz&cache31064=31064&page=1","from":106301,"last_page":642,"last_page_url":"https://videocdn.tv/api/short?limit=100&api_token=EnbO9h8pv1VyjbCJhg0WM9nG259n7mtz&cache31064=31064&page=642","next_page_url":null,"path":"https://videocdn.tv/api/short","per_page":100,"prev_page_url":"https://videocdn.tv/api/short?limit=100&api_token=EnbO9h8pv1VyjbCJhg0WM9nG259n7mtz&cache31064=31064&page=1063","to":106320,"total":64126}