{"result":true,"data":[{"id":27351,"title":"Место убийцы вакантно...","kp_id":"46617","imdb_id":"tt0365497","world_art_id":null,"type":"movie","add":"2019-06-02 20:24:42","orig_title":"Mesto ubiytsy vakantno...","year":"1991-06-01","translations":["Оригинальная дорожка"],"quality":"dvdrip","translation":"Оригинальная дорожка","update":"2019-06-03 12:15:16","iframe_src":"//83.svetacdn.in/PfJ50H0ZBPg3/movie/27351"},{"id":27349,"title":"Поживем – увидим","kp_id":"471934","imdb_id":"tt5650288","world_art_id":null,"type":"movie","add":"2019-06-02 20:20:46","orig_title":"Pozhivyom - uvidim","year":"1985-01-01","translations":["Оригинальная дорожка"],"quality":"tv","translation":"Оригинальная дорожка","update":"2019-06-03 12:14:10","iframe_src":"//83.svetacdn.in/PfJ50H0ZBPg3/movie/27349"},{"id":27337,"title":"Звездный крейсер Галактика: Лезвие","kp_id":"308995","imdb_id":"tt0991178","world_art_id":null,"type":"movie","add":"2019-06-02 19:56:58","orig_title":"Battlestar Galactica: Razor","year":"2007-11-24","translations":["Профессиональный (многоголосый закадровый) (Кравец)"],"quality":"bd","translation":"Профессиональный (многоголосый закадровый) (Кравец)","update":"2019-06-03 12:00:17","iframe_src":"//83.svetacdn.in/PfJ50H0ZBPg3/movie/27337"},{"id":27321,"title":"Месть","kp_id":"46615","imdb_id":"tt0140376","world_art_id":null,"type":"movie","add":"2019-06-01 20:07:55","orig_title":"Mest","year":"1960-01-29","translations":["Оригинальная дорожка"],"quality":"tv","translation":"Оригинальная дорожка","update":"2019-06-03 11:58:22","iframe_src":"//83.svetacdn.in/PfJ50H0ZBPg3/movie/27321"},{"id":27320,"title":"Мечта","kp_id":"420154","imdb_id":"tt1326996","world_art_id":null,"type":"movie","add":"2019-06-01 20:01:44","orig_title":"Mechta","year":"2006-01-01","translations":["Оригинальная дорожка"],"quality":"dvdrip","translation":"Оригинальная дорожка","update":"2019-06-03 11:55:49","iframe_src":"//83.svetacdn.in/PfJ50H0ZBPg3/movie/27320"},{"id":27319,"title":"Пятерка отважных","kp_id":"428639","imdb_id":"tt1802511","world_art_id":null,"type":"movie","add":"2019-06-01 19:34:56","orig_title":"Pyatyorka otvazhnykh","year":"1971-05-17","translations":["Оригинальная дорожка"],"quality":"dvdrip","translation":"Оригинальная дорожка","update":"2019-06-03 11:45:55","iframe_src":"//83.svetacdn.in/PfJ50H0ZBPg3/movie/27319"},{"id":27318,"title":"Аномалия","kp_id":"41008","imdb_id":"tt0312364","world_art_id":null,"type":"movie","add":"2019-06-01 19:31:49","orig_title":"Anomaliya","year":"1993-01-01","translations":["Оригинальная дорожка"],"quality":"vhs","translation":"Оригинальная дорожка","update":"2019-06-03 11:44:58","iframe_src":"//83.svetacdn.in/PfJ50H0ZBPg3/movie/27318"},{"id":27317,"title":"Ася","kp_id":"735889","imdb_id":"tt5115026","world_art_id":null,"type":"movie","add":"2019-06-01 19:27:48","orig_title":"Asya","year":"2011-01-01","translations":["Оригинальная дорожка"],"quality":"sat","translation":"Оригинальная дорожка","update":"2019-06-03 11:44:04","iframe_src":"//83.svetacdn.in/PfJ50H0ZBPg3/movie/27317"},{"id":27316,"title":"Безумный день инженера Баркасова","kp_id":"251956","imdb_id":"tt0085239","world_art_id":null,"type":"movie","add":"2019-06-01 19:19:28","orig_title":"Bezumnyy den inzhenera Barkasova","year":"1983-04-09","translations":["Оригинальная дорожка"],"quality":"sat","translation":"Оригинальная дорожка","update":"2019-06-03 11:42:08","iframe_src":"//83.svetacdn.in/PfJ50H0ZBPg3/movie/27316"},{"id":27315,"title":"Царевич Проша","kp_id":"42333","imdb_id":"tt0168231","world_art_id":null,"type":"movie","add":"2019-06-01 19:15:51","orig_title":"Tsarevich Prosha","year":"1974-11-18","translations":["Оригинальная дорожка"],"quality":"dvdrip","translation":"Оригинальная дорожка","update":"2019-06-03 11:40:19","iframe_src":"//83.svetacdn.in/PfJ50H0ZBPg3/movie/27315"},{"id":27314,"title":"Черный принц","kp_id":"45562","imdb_id":"tt0313899","world_art_id":null,"type":"movie","add":"2019-06-01 18:43:24","orig_title":"Chyornyy prints","year":"1973-06-20","translations":["Оригинальная дорожка"],"quality":"dvdrip","translation":"Оригинальная дорожка","update":"2019-06-03 11:39:16","iframe_src":"//83.svetacdn.in/PfJ50H0ZBPg3/movie/27314"},{"id":27313,"title":"Дезертир","kp_id":"89654","imdb_id":"tt0387995","world_art_id":null,"type":"movie","add":"2019-06-01 18:39:04","orig_title":"Dezertir","year":"1997-01-01","translations":["Оригинальная дорожка"],"quality":"dvdrip","translation":"Оригинальная дорожка","update":"2019-06-03 11:38:14","iframe_src":"//83.svetacdn.in/PfJ50H0ZBPg3/movie/27313"},{"id":27312,"title":"Джентльмены, которым не повезло","kp_id":"679775","imdb_id":"tt6212992","world_art_id":null,"type":"movie","add":"2019-06-01 18:06:29","orig_title":"Dzhentlmeny, kotorym ne povezlo","year":"1977-08-07","translations":["Оригинальная дорожка"],"quality":"dvdrip","translation":"Оригинальная дорожка","update":"2019-06-03 11:37:08","iframe_src":"//83.svetacdn.in/PfJ50H0ZBPg3/movie/27312"},{"id":27311,"title":"Эти невероятные музыканты, или Новые сновидения Шурика","kp_id":"469530","imdb_id":"tt6213178","world_art_id":null,"type":"movie","add":"2019-06-01 18:01:02","orig_title":"Eti neveroyatnyye muzykanty ili Novyye snovideniya Shurika","year":"1977-04-01","translations":["Оригинальная дорожка"],"quality":"sat","translation":"Оригинальная дорожка","update":"2019-06-03 11:43:11","iframe_src":"//83.svetacdn.in/PfJ50H0ZBPg3/movie/27311"},{"id":27310,"title":"Где это видано, где это слыхано","kp_id":"94795","imdb_id":"tt0338055","world_art_id":null,"type":"movie","add":"2019-06-01 17:57:32","orig_title":"Gde eto vidano, gde eto slykhano","year":"1973-01-01","translations":["Оригинальная дорожка"],"quality":"dvdrip","translation":"Оригинальная дорожка","update":"2019-06-03 11:28:02","iframe_src":"//83.svetacdn.in/PfJ50H0ZBPg3/movie/27310"},{"id":27292,"title":"Любовь, предвестие печали","kp_id":"208373","imdb_id":"tt0479707","world_art_id":null,"type":"movie","add":"2019-05-31 16:52:01","orig_title":"Lyubov, predvestie pechali","year":"1994-01-01","translations":["Оригинальная дорожка"],"quality":"sat","translation":"Оригинальная дорожка","update":"2019-06-03 11:53:31","iframe_src":"//83.svetacdn.in/PfJ50H0ZBPg3/movie/27292"},{"id":27280,"title":"Гобсек","kp_id":"44520","imdb_id":"tt0264649","world_art_id":null,"type":"movie","add":"2019-05-30 21:50:21","orig_title":"Gobseck","year":"1987-01-01","translations":["Оригинальная дорожка"],"quality":"tv","translation":"Оригинальная дорожка","update":"2019-06-03 11:54:17","iframe_src":"//83.svetacdn.in/PfJ50H0ZBPg3/movie/27280"},{"id":27279,"title":"Проклятие Дюран","kp_id":"401606","imdb_id":"tt0280295","world_art_id":null,"type":"movie","add":"2019-05-30 21:46:35","orig_title":"Proklyatie Dyuran","year":"1983-01-01","translations":["Оригинальная дорожка"],"quality":"dvdrip","translation":"Оригинальная дорожка","update":"2019-06-03 11:51:12","iframe_src":"//83.svetacdn.in/PfJ50H0ZBPg3/movie/27279"},{"id":27276,"title":"Фуэте","kp_id":"44443","imdb_id":"tt0128223","world_art_id":null,"type":"movie","add":"2019-05-30 21:25:18","orig_title":"Fuete","year":"1986-10-15","translations":["Оригинальная дорожка"],"quality":"dvdrip","translation":"Оригинальная дорожка","update":"2019-06-03 11:48:11","iframe_src":"//83.svetacdn.in/PfJ50H0ZBPg3/movie/27276"},{"id":3546,"title":"Вавилон Н.Э.","kp_id":"9458","imdb_id":"tt0364970","world_art_id":null,"type":"movie","add":"2016-06-30 19:07:14","orig_title":"Babylon A.D.","year":"2008-08-20","translations":["Профессиональный (многоголосый закадровый) (Кравец)","Полное дублирование"],"quality":"bd","translation":"Профессиональный (многоголосый закадровый) (Кравец)","update":"2019-06-03 12:03:34","iframe_src":"//83.svetacdn.in/PfJ50H0ZBPg3/movie/3546"}],"current_page":1398,"first_page_url":"https://videocdn.tv/api/short?limit=100&api_token=RgFQdUIR2dRmwv8iYa5SnFNgnw3vpjKj&cache31398=31398&page=1","from":139701,"last_page":635,"last_page_url":"https://videocdn.tv/api/short?limit=100&api_token=RgFQdUIR2dRmwv8iYa5SnFNgnw3vpjKj&cache31398=31398&page=635","next_page_url":null,"path":"https://videocdn.tv/api/short","per_page":100,"prev_page_url":"https://videocdn.tv/api/short?limit=100&api_token=RgFQdUIR2dRmwv8iYa5SnFNgnw3vpjKj&cache31398=31398&page=1397","to":139720,"total":63490}