{"result":true,"data":[{"id":45241,"title":"Рокс","kp_id":"1206605","imdb_id":"tt9067182","world_art_id":null,"type":"movie","add":"2020-11-12 07:42:10","orig_title":"Rocks","year":"2019-09-05","translations":["Любительский (многоголосый закадровый) (Синема УС)"],"quality":"webdl","translation":"Любительский (многоголосый закадровый) (Синема УС)","update":"2020-11-12 11:14:44","iframe_src":"//83.svetacdn.in/PfJ50H0ZBPg3/movie/45241"},{"id":45240,"title":"Наши дети","kp_id":"1220125","imdb_id":"tt9398282","world_art_id":null,"type":"movie","add":"2020-11-12 07:40:06","orig_title":"I nostri figli","year":"2018-12-06","translations":["Любительский (многоголосый закадровый) (Синема УС)"],"quality":"hdtv","translation":"Любительский (многоголосый закадровый) (Синема УС)","update":"2020-11-12 11:14:31","iframe_src":"//83.svetacdn.in/PfJ50H0ZBPg3/movie/45240"},{"id":45239,"title":"То самое время года","kp_id":"1152991","imdb_id":"tt7947470","world_art_id":null,"type":"movie","add":"2020-11-12 07:37:54","orig_title":"Den tid på året","year":"2018-11-08","translations":["Любительский (многоголосый закадровый) (Синема УС)"],"quality":"webdl","translation":"Любительский (многоголосый закадровый) (Синема УС)","update":"2020-11-12 11:14:13","iframe_src":"//83.svetacdn.in/PfJ50H0ZBPg3/movie/45239"},{"id":45106,"title":"Грибок-теремок","kp_id":"256526","imdb_id":"tt2193792","world_art_id":null,"type":"movie","add":"2020-11-08 15:39:39","orig_title":"Gribok-teremok","year":"1958-01-01","translations":["Оригинальная дорожка"],"quality":"dvdrip","translation":"Оригинальная дорожка","update":"2020-11-12 11:54:19","iframe_src":"//83.svetacdn.in/PfJ50H0ZBPg3/movie/45106"},{"id":45105,"title":"Большой секрет для маленькой компании","kp_id":"259897","imdb_id":"tt1389744","world_art_id":null,"type":"movie","add":"2020-11-08 15:36:21","orig_title":"Bolshoy sekret dlya malenkoy kompanii","year":"1979-01-01","translations":["Оригинальная дорожка"],"quality":"dvdrip","translation":"Оригинальная дорожка","update":"2020-11-12 11:52:53","iframe_src":"//83.svetacdn.in/PfJ50H0ZBPg3/movie/45105"},{"id":45104,"title":"Большая полицейская сказка","kp_id":"635114","imdb_id":"tt5894378","world_art_id":null,"type":"movie","add":"2020-11-08 15:32:59","orig_title":"Bolshaya politseyskaya skazka","year":"1991-01-01","translations":["Оригинальная дорожка"],"quality":"dvdrip","translation":"Оригинальная дорожка","update":"2020-11-12 11:51:28","iframe_src":"//83.svetacdn.in/PfJ50H0ZBPg3/movie/45104"},{"id":45103,"title":"Белая шкурка","kp_id":"653735","imdb_id":"tt6114994","world_art_id":null,"type":"movie","add":"2020-11-08 15:29:06","orig_title":"Belaya shkurka","year":"1968-12-20","translations":["Оригинальная дорожка"],"quality":"dvdrip","translation":"Оригинальная дорожка","update":"2020-11-12 11:50:14","iframe_src":"//83.svetacdn.in/PfJ50H0ZBPg3/movie/45103"},{"id":43993,"title":"Мельница и крест","kp_id":"432719","imdb_id":"tt1324055","world_art_id":null,"type":"movie","add":"2020-09-29 21:42:40","orig_title":"Mlyn i krzyz","year":"2011-01-23","translations":["Профессиональный (двухголосый закадровый)","Original (English)"],"quality":"bd","translation":"Профессиональный (двухголосый закадровый)","update":"2020-11-12 11:03:16","iframe_src":"//83.svetacdn.in/PfJ50H0ZBPg3/movie/43993"},{"id":43760,"title":"Река смерти","kp_id":"14502","imdb_id":"tt0098205","world_art_id":null,"type":"movie","add":"2020-09-22 14:24:16","orig_title":"River of Death","year":"1989-05-15","translations":["Профессиональный (многоголосый закадровый)","Original (English)"],"quality":"bd","translation":"Профессиональный (многоголосый закадровый)","update":"2020-11-12 11:04:24","iframe_src":"//83.svetacdn.in/PfJ50H0ZBPg3/movie/43760"},{"id":43759,"title":"Посетитель","kp_id":"2302","imdb_id":"tt0080100","world_art_id":null,"type":"movie","add":"2020-09-22 14:21:03","orig_title":"Stridulum","year":"1979-03-22","translations":["Любительский (одноголосый закадровый) (Horror Maker)","Original (English)"],"quality":"bd","translation":"Любительский (одноголосый закадровый) (Horror Maker)","update":"2020-11-12 11:07:00","iframe_src":"//83.svetacdn.in/PfJ50H0ZBPg3/movie/43759"},{"id":43758,"title":"Пища Богов","kp_id":"8871","imdb_id":"tt0074540","world_art_id":null,"type":"movie","add":"2020-09-22 14:19:25","orig_title":"The Food of the Gods","year":"1976-06-18","translations":["Профессиональный (двухголосый закадровый) (НТВ)","Original (English)"],"quality":"bd","translation":"Профессиональный (двухголосый закадровый) (НТВ)","update":"2020-11-12 11:13:50","iframe_src":"//83.svetacdn.in/PfJ50H0ZBPg3/movie/43758"},{"id":43756,"title":"Луковое поле","kp_id":"15381","imdb_id":"tt0079668","world_art_id":null,"type":"movie","add":"2020-09-22 14:15:44","orig_title":"The Onion Field","year":"1979-05-17","translations":["Профессиональный (двухголосый закадровый) (Tycoon)","Авторский (одноголосый закадровый) (Иванов Михаил)","Original (English)"],"quality":"bd","translation":"Профессиональный (двухголосый закадровый) (Tycoon)","update":"2020-11-12 11:16:56","iframe_src":"//83.svetacdn.in/PfJ50H0ZBPg3/movie/43756"},{"id":43589,"title":"Жестокое море","kp_id":"178096","imdb_id":"tt0045659","world_art_id":null,"type":"movie","add":"2020-09-16 12:39:25","orig_title":"The Cruel Sea","year":"1953-03-24","translations":["Авторский (одноголосый закадровый) (Рябов Сергей)","Original (English)"],"quality":"bd","translation":"Авторский (одноголосый закадровый) (Рябов Сергей)","update":"2020-11-12 11:11:52","iframe_src":"//83.svetacdn.in/PfJ50H0ZBPg3/movie/43589"},{"id":43506,"title":"Криминал","kp_id":"59671","imdb_id":"tt0053740","world_art_id":null,"type":"movie","add":"2020-09-13 21:49:33","orig_title":"The Criminal","year":"1960-10-27","translations":["Авторский (одноголосый закадровый) (Либергал Григорий)","Original (English)"],"quality":"bd","translation":"Авторский (одноголосый закадровый) (Либергал Григорий)","update":"2020-11-12 11:09:43","iframe_src":"//83.svetacdn.in/PfJ50H0ZBPg3/movie/43506"},{"id":43446,"title":"Лоракс","kp_id":"341898","imdb_id":"tt0213065","world_art_id":null,"type":"movie","add":"2020-09-12 15:14:07","orig_title":"The Lorax","year":"1972-02-14","translations":["Авторский (одноголосый закадровый) (Дольский Андрей)","Original (English)"],"quality":"bd","translation":"Авторский (одноголосый закадровый) (Дольский Андрей)","update":"2020-11-12 11:15:43","iframe_src":"//83.svetacdn.in/PfJ50H0ZBPg3/movie/43446"},{"id":43373,"title":"Весь город говорит","kp_id":"12683","imdb_id":"tt0027214","world_art_id":null,"type":"movie","add":"2020-09-10 09:49:33","orig_title":"The Whole Town's Talking","year":"1935-02-21","translations":["Авторский (одноголосый закадровый) (Данилов Владислав | Kenum)","Original (English)"],"quality":"bd","translation":"Авторский (одноголосый закадровый) (Данилов Владислав | Kenum)","update":"2020-11-12 11:19:23","iframe_src":"//83.svetacdn.in/PfJ50H0ZBPg3/movie/43373"},{"id":43354,"title":"Колдиц","kp_id":"15619","imdb_id":"tt0047945","world_art_id":null,"type":"movie","add":"2020-09-09 12:33:08","orig_title":"The Colditz Story","year":"1955-01-25","translations":["Авторский (одноголосый закадровый) (Дольский Андрей)","Original (English)"],"quality":"bd","translation":"Авторский (одноголосый закадровый) (Дольский Андрей)","update":"2020-11-12 11:08:16","iframe_src":"//83.svetacdn.in/PfJ50H0ZBPg3/movie/43354"},{"id":43334,"title":"Суд присяжных","kp_id":"9316","imdb_id":"tt0111488","world_art_id":null,"type":"movie","add":"2020-09-09 09:13:37","orig_title":"Trial by Jury","year":"1994-09-09","translations":["Профессиональный (многоголосый закадровый) (Екатеринбург Арт)","Авторский (одноголосый закадровый) (Пронин Антон)","Original (English)"],"quality":"bd","translation":"Профессиональный (многоголосый закадровый) (Екатеринбург Арт)","update":"2020-11-12 11:21:07","iframe_src":"//83.svetacdn.in/PfJ50H0ZBPg3/movie/43334"},{"id":3507,"title":"Клуб бывших подружек","kp_id":"923502","imdb_id":"tt4686328","world_art_id":null,"type":"serial","add":"2018-11-16 08:07:04","orig_title":"Gooyeochinkeulreob","year":"2015-05-08","translations":["Любительский (двухголосый закадровый) (SoftBox)"],"seasons_count":1,"episodes_count":12,"episodes":12,"update":"2018-11-17 10:55:57","iframe_src":"//83.svetacdn.in/PfJ50H0ZBPg3/tv-series/3507"},{"id":3506,"title":"Стража","kp_id":"1044399","imdb_id":"tt6824350","world_art_id":null,"type":"serial","add":"2018-11-15 20:45:27","orig_title":"Pasukkun","year":"2017-05-22","translations":["Любительский (двухголосый закадровый) (Храм Дорам ТВ)"],"seasons_count":1,"episodes_count":32,"episodes":32,"update":"2018-11-16 09:00:36","iframe_src":"//83.svetacdn.in/PfJ50H0ZBPg3/tv-series/3506"},{"id":3505,"title":"Тысяча лет любви","kp_id":"1046884","imdb_id":null,"world_art_id":null,"type":"serial","add":"2018-11-14 23:12:17","orig_title":"Cheonnyeonjjae yeonaejoong","year":"2016-12-05","translations":["Любительский (одноголосый закадровый)"],"seasons_count":1,"episodes_count":10,"episodes":10,"update":"2018-11-15 08:45:49","iframe_src":"//83.svetacdn.in/PfJ50H0ZBPg3/tv-series/3505"},{"id":3503,"title":"Давай, дерзай!","kp_id":"940683","imdb_id":"tt5094306","world_art_id":null,"type":"serial","add":"2018-11-14 09:02:16","orig_title":"Balchikhage gogo","year":"2015-10-05","translations":["Любительский (двухголосый закадровый) (SoftBox)"],"seasons_count":1,"episodes_count":12,"episodes":12,"update":"2018-11-16 11:30:58","iframe_src":"//83.svetacdn.in/PfJ50H0ZBPg3/tv-series/3503"},{"id":3498,"title":"Королева сердец","kp_id":"839178","imdb_id":"tt3609456","world_art_id":null,"type":"serial","add":"2018-11-14 08:17:09","orig_title":"Reina de corazones","year":"2014-04-28","translations":["Профессиональный (многоголосый закадровый) (SET)"],"seasons_count":1,"episodes_count":138,"episodes":138,"update":"2018-11-15 22:03:03","iframe_src":"//83.svetacdn.in/PfJ50H0ZBPg3/tv-series/3498"},{"id":3497,"title":"Каин и Авель","kp_id":"493388","imdb_id":"tt3147968","world_art_id":null,"type":"serial","add":"2018-11-13 23:22:24","orig_title":"Kaingwa Abel","year":"2009-02-18","translations":["Любительский (двухголосый закадровый) (GREEN TEA)"],"seasons_count":1,"episodes_count":20,"episodes":20,"update":"2018-11-14 10:03:12","iframe_src":"//83.svetacdn.in/PfJ50H0ZBPg3/tv-series/3497"},{"id":3495,"title":"Тысяча лет любви","kp_id":"715314","imdb_id":"tt3205964","world_art_id":null,"type":"serial","add":"2018-11-13 19:20:18","orig_title":"Cheonnyeonjiae","year":"2003-01-01","translations":["Любительский (одноголосый закадровый) (GREEN TEA)"],"seasons_count":1,"episodes_count":20,"episodes":20,"update":"2018-11-14 08:54:11","iframe_src":"//83.svetacdn.in/PfJ50H0ZBPg3/tv-series/3495"},{"id":3494,"title":"Трасса №1","kp_id":"577190","imdb_id":"tt2429772","world_art_id":null,"type":"serial","add":"2018-11-13 17:53:41","orig_title":"Rodeu neombeo won","year":"2010-06-23","translations":["Любительский (одноголосый закадровый)"],"seasons_count":1,"episodes_count":20,"episodes":20,"update":"2018-11-15 08:31:08","iframe_src":"//83.svetacdn.in/PfJ50H0ZBPg3/tv-series/3494"},{"id":3493,"title":"Другая О Хэ-ён","kp_id":"986651","imdb_id":"tt5679572","world_art_id":null,"type":"serial","add":"2018-11-13 17:43:59","orig_title":"Tto Oh Hae-yeong","year":"2016-05-02","translations":["Любительский (двухголосый закадровый) (Храм Дорам ТВ)"],"seasons_count":1,"episodes_count":18,"episodes":18,"update":"2018-11-14 08:18:43","iframe_src":"//83.svetacdn.in/PfJ50H0ZBPg3/tv-series/3493"},{"id":3489,"title":"Индийское лето","kp_id":"841145","imdb_id":"tt3706628","world_art_id":null,"type":"serial","add":"2018-11-13 14:10:01","orig_title":"Indian Summers","year":"2015-02-15","translations":["Профессиональный (многоголосый закадровый) (ShowJet)"],"seasons_count":1,"episodes_count":10,"episodes":10,"update":"2018-11-15 10:46:29","iframe_src":"//83.svetacdn.in/PfJ50H0ZBPg3/tv-series/3489"},{"id":3488,"title":"Поле крови","kp_id":"591938","imdb_id":"tt1830332","world_art_id":null,"type":"serial","add":"2018-11-13 14:04:34","orig_title":"The Field of Blood","year":"2011-05-08","translations":["Профессиональный (многоголосый закадровый) (ShowJet)"],"seasons_count":2,"episodes_count":4,"episodes":2,"update":"2018-11-14 12:08:51","iframe_src":"//83.svetacdn.in/PfJ50H0ZBPg3/tv-series/3488"},{"id":3487,"title":"Книга Гор и Морей","kp_id":null,"imdb_id":"tt6935870","world_art_id":null,"type":"serial","add":"2018-11-13 10:01:17","orig_title":"The Classic of Mountains and Seas","year":"2016-03-20","translations":["Любительский (двухголосый закадровый)"],"seasons_count":1,"episodes_count":42,"episodes":42,"update":"2018-11-16 09:00:16","iframe_src":"//83.svetacdn.in/PfJ50H0ZBPg3/tv-series/3487"},{"id":3486,"title":"Ненастье","kp_id":"1111709","imdb_id":null,"world_art_id":null,"type":"serial","add":"2018-11-13 07:48:48","orig_title":"Ненастье","year":"2018-11-12","translations":["Оригинальная дорожка"],"seasons_count":1,"episodes_count":11,"episodes":11,"update":"2018-11-16 22:46:02","iframe_src":"//83.svetacdn.in/PfJ50H0ZBPg3/tv-series/3486"},{"id":3472,"title":"Моя опасная жена","kp_id":"1113064","imdb_id":"tt8020738","world_art_id":null,"type":"serial","add":"2018-11-11 08:40:13","orig_title":"Tehlikeli Karim","year":"2018-03-25","translations":["Профессиональный (многоголосый закадровый) (GreenРай Studio)"],"seasons_count":1,"episodes_count":6,"episodes":6,"update":"2018-11-13 10:49:25","iframe_src":"//83.svetacdn.in/PfJ50H0ZBPg3/tv-series/3472"},{"id":3410,"title":"Мажор 3","kp_id":"1040559","imdb_id":null,"world_art_id":null,"type":"serial","add":"2018-10-29 10:50:48","orig_title":"Мажор 3","year":"2018-10-29","translations":["Оригинальная дорожка"],"seasons_count":1,"episodes_count":16,"episodes":16,"update":"2018-11-16 05:15:04","iframe_src":"//83.svetacdn.in/PfJ50H0ZBPg3/tv-series/3410"},{"id":3380,"title":"Грешники","kp_id":"732547","imdb_id":"tt2582590","world_art_id":null,"type":"serial","add":"2018-10-24 16:52:59","orig_title":"Vicious","year":"2013-04-29","translations":["Профессиональный (многоголосый закадровый) (GreenРай Studio)"],"seasons_count":2,"episodes_count":14,"episodes":7,"update":"2018-11-16 08:50:36","iframe_src":"//83.svetacdn.in/PfJ50H0ZBPg3/tv-series/3380"},{"id":3296,"title":"Трансформеры: Роботы под прикрытием","kp_id":"838535","imdb_id":"tt3604232","world_art_id":null,"type":"serial","add":"2018-10-14 09:26:36","orig_title":"Transformers: Robots in Disguise","year":"2015-03-14","translations":["Полное дублирование"],"seasons_count":4,"episodes_count":71,"episodes":26,"update":"2018-11-13 10:42:50","iframe_src":"//83.svetacdn.in/PfJ50H0ZBPg3/tv-series/3296"},{"id":3263,"title":"Игрок","kp_id":"1115711","imdb_id":"tt8912586","world_art_id":null,"type":"serial","add":"2018-10-06 09:47:17","orig_title":"Peulleieo","year":"2018-09-29","translations":["Любительский (двухголосый закадровый) (HighHopes)"],"seasons_count":1,"episodes_count":14,"episodes":14,"update":"2018-11-15 06:45:08","iframe_src":"//83.svetacdn.in/PfJ50H0ZBPg3/tv-series/3263"},{"id":19227,"title":"Властелин войны","kp_id":"14002","imdb_id":"tt0059896","world_art_id":null,"type":"movie","add":"2018-09-27 00:18:59","orig_title":"The War Lord","year":"1965-11-17","translations":["Профессиональный (многоголосый закадровый)","Авторский (одноголосый закадровый) (Кашкин Александр | Первомайский)","Original (English)"],"quality":"bd","translation":"Профессиональный (многоголосый закадровый)","update":"2020-11-12 11:17:44","iframe_src":"//83.svetacdn.in/PfJ50H0ZBPg3/movie/19227"},{"id":2435,"title":"Мультачки: Байки Мэтра","kp_id":"490462","imdb_id":"tt1384816","world_art_id":null,"type":"serial","add":"2018-04-21 08:59:16","orig_title":"Mater's Tall Tales","year":"2008-10-27","translations":["Полное дублирование"],"seasons_count":3,"episodes_count":11,"episodes":2,"update":"2018-11-14 12:04:11","iframe_src":"//83.svetacdn.in/PfJ50H0ZBPg3/tv-series/2435"},{"id":353,"title":"Последний корабль","kp_id":"681656","imdb_id":"tt2402207","world_art_id":null,"type":"serial","add":"2016-08-22 15:43:50","orig_title":"The Last Ship","year":"2014-06-22","translations":["Профессиональный (многоголосый закадровый) (LostFilm)"],"seasons_count":5,"episodes_count":56,"episodes":10,"update":"2018-11-15 13:05:06","iframe_src":"//83.svetacdn.in/PfJ50H0ZBPg3/tv-series/353"},{"id":3060,"title":"Робин Гуд: Принц воров","kp_id":"6064","imdb_id":"tt0102798","world_art_id":null,"type":"movie","add":"2016-06-09 17:43:10","orig_title":"Robin Hood: Prince of Thieves","year":"1991-06-14","translations":["Полное дублирование","Авторский (одноголосый закадровый) (Дольский Андрей)","Авторский (одноголосый закадровый) (Гаврилов Андрей)","Авторский (одноголосый закадровый) (Латышев Максим | CDV)","Авторский (одноголосый закадровый) (Михалёв Алексей)","Авторский (одноголосый закадровый) (Живов Юрий)","Полное дублирование","Полное дублирование (Варус-Видео)","Профессиональный (многоголосый закадровый) (Екатеринбург Арт)","Профессиональный (многоголосый закадровый) (Киномания)","Original (English)"],"quality":"bd","translation":"Полное дублирование","update":"2020-11-12 11:05:57","iframe_src":"//83.svetacdn.in/PfJ50H0ZBPg3/movie/3060"}],"current_page":407,"first_page_url":"https://videocdn.tv/api/short?limit=100&api_token=RgFQdUIR2dRmwv8iYa5SnFNgnw3vpjKj&cache3407=3407&page=1","from":40601,"last_page":631,"last_page_url":"https://videocdn.tv/api/short?limit=100&api_token=RgFQdUIR2dRmwv8iYa5SnFNgnw3vpjKj&cache3407=3407&page=631","next_page_url":"https://videocdn.tv/api/short?limit=100&api_token=RgFQdUIR2dRmwv8iYa5SnFNgnw3vpjKj&cache3407=3407&page=408","path":"https://videocdn.tv/api/short","per_page":100,"prev_page_url":"https://videocdn.tv/api/short?limit=100&api_token=RgFQdUIR2dRmwv8iYa5SnFNgnw3vpjKj&cache3407=3407&page=406","to":40640,"total":63003}