{"result":true,"data":[{"id":32926,"title":"Белый шоколад","kp_id":"1150103","imdb_id":"tt8461048","world_art_id":null,"type":"movie","add":"2019-11-11 09:42:50","orig_title":"White Chocolate","year":"2018-08-16","translations":["Любительский (многоголосый закадровый) (Синема УС)"],"quality":"webdl","translation":"Любительский (многоголосый закадровый) (Синема УС)","update":"2019-11-11 12:19:46","iframe_src":"//83.svetacdn.in/PfJ50H0ZBPg3/movie/32926"},{"id":32925,"title":"Тайный брат 2","kp_id":"1212599","imdb_id":"tt6843446","world_art_id":null,"type":"movie","add":"2019-11-11 09:41:42","orig_title":"Undercover Brother 2","year":"2019-11-05","translations":["Любительский (многоголосый закадровый) (Синема УС)"],"quality":"webdl","translation":"Любительский (многоголосый закадровый) (Синема УС)","update":"2019-11-11 15:49:09","iframe_src":"//83.svetacdn.in/PfJ50H0ZBPg3/movie/32925"},{"id":32924,"title":"Сет Мейерс: Малыш Лобби","kp_id":null,"imdb_id":"tt11168100","world_art_id":null,"type":"movie","add":"2019-11-11 09:40:43","orig_title":"Seth Meyers: Lobby Baby","year":"2019-11-05","translations":["Любительский (многоголосый закадровый) (Синема УС)"],"quality":"webdl","translation":"Любительский (многоголосый закадровый) (Синема УС)","update":"2019-11-11 12:23:57","iframe_src":"//83.svetacdn.in/PfJ50H0ZBPg3/movie/32924"},{"id":32923,"title":"Школа проклятых","kp_id":"1256524","imdb_id":"tt10147936","world_art_id":null,"type":"movie","add":"2019-11-11 09:39:11","orig_title":"School of the Damned","year":"2019-11-01","translations":["Любительский (многоголосый закадровый) (Синема УС)"],"quality":"webdl","translation":"Любительский (многоголосый закадровый) (Синема УС)","update":"2019-11-11 15:46:44","iframe_src":"//83.svetacdn.in/PfJ50H0ZBPg3/movie/32923"},{"id":32922,"title":"Скажи","kp_id":"1144391","imdb_id":"tt7742096","world_art_id":null,"type":"movie","add":"2019-11-11 09:38:01","orig_title":"Say","year":"2018-04-01","translations":["Любительский (многоголосый закадровый) (Синема УС)"],"quality":"webdl","translation":"Любительский (многоголосый закадровый) (Синема УС)","update":"2019-11-11 12:16:46","iframe_src":"//83.svetacdn.in/PfJ50H0ZBPg3/movie/32922"},{"id":32921,"title":"Кирка","kp_id":"1291342","imdb_id":"tt10793634","world_art_id":null,"type":"movie","add":"2019-11-11 09:36:31","orig_title":"Pickaxe","year":"2019-11-05","translations":["Любительский (многоголосый закадровый) (Синема УС)"],"quality":"webdl","translation":"Любительский (многоголосый закадровый) (Синема УС)","update":"2019-11-11 12:15:55","iframe_src":"//83.svetacdn.in/PfJ50H0ZBPg3/movie/32921"},{"id":32919,"title":"Ночь клоуна","kp_id":"1001549","imdb_id":"tt6029746","world_art_id":null,"type":"movie","add":"2019-11-11 09:32:40","orig_title":"Night of the Clown","year":"2016-08-19","translations":["Любительский (многоголосый закадровый) (Синема УС)"],"quality":"webdl","translation":"Любительский (многоголосый закадровый) (Синема УС)","update":"2019-11-11 12:35:08","iframe_src":"//83.svetacdn.in/PfJ50H0ZBPg3/movie/32919"},{"id":32918,"title":"Моё приключение с Сантой","kp_id":"1309448","imdb_id":"tt11023738","world_art_id":null,"type":"movie","add":"2019-11-11 09:29:58","orig_title":"My Adventures with Santa","year":"2019-11-05","translations":["Любительский (многоголосый закадровый) (Синема УС)"],"quality":"webdl","translation":"Любительский (многоголосый закадровый) (Синема УС)","update":"2019-11-11 12:45:01","iframe_src":"//83.svetacdn.in/PfJ50H0ZBPg3/movie/32918"},{"id":32917,"title":"Майкл Лоуренс","kp_id":"1001712","imdb_id":"tt6029882","world_art_id":null,"type":"movie","add":"2019-11-11 09:24:30","orig_title":"Michael Lawrence","year":"2017-01-01","translations":["Любительский (многоголосый закадровый) (Синема УС)"],"quality":"webdl","translation":"Любительский (многоголосый закадровый) (Синема УС)","update":"2019-11-11 12:49:25","iframe_src":"//83.svetacdn.in/PfJ50H0ZBPg3/movie/32917"},{"id":32916,"title":"Марла Мэй","kp_id":"937051","imdb_id":"tt4809590","world_art_id":null,"type":"movie","add":"2019-11-11 09:16:08","orig_title":"Marla Mae","year":"2018-04-13","translations":["Любительский (многоголосый закадровый) (Синема УС)"],"quality":"webdl","translation":"Любительский (многоголосый закадровый) (Синема УС)","update":"2019-11-11 15:46:44","iframe_src":"//83.svetacdn.in/PfJ50H0ZBPg3/movie/32916"},{"id":32915,"title":"Прощание","kp_id":"979122","imdb_id":"tt5707754","world_art_id":null,"type":"movie","add":"2019-11-11 09:15:12","orig_title":"Los adioses","year":"2017-10-26","translations":["Любительский (многоголосый закадровый) (Синема УС)"],"quality":"webdl","translation":"Любительский (многоголосый закадровый) (Синема УС)","update":"2019-11-11 12:12:41","iframe_src":"//83.svetacdn.in/PfJ50H0ZBPg3/movie/32915"},{"id":32912,"title":"Горящий тростник","kp_id":"1077605","imdb_id":"tt7358154","world_art_id":null,"type":"movie","add":"2019-11-11 09:11:26","orig_title":"Burning Cane","year":"2019-04-25","translations":["Любительский (многоголосый закадровый) (Синема УС)"],"quality":"webdl","translation":"Любительский (многоголосый закадровый) (Синема УС)","update":"2019-11-11 12:07:17","iframe_src":"//83.svetacdn.in/PfJ50H0ZBPg3/movie/32912"},{"id":32911,"title":"Кровавый миф","kp_id":"1085582","imdb_id":"tt7158904","world_art_id":null,"type":"movie","add":"2019-11-11 09:10:28","orig_title":"Blood Myth","year":"2019-08-09","translations":["Любительский (многоголосый закадровый) (Синема УС)"],"quality":"webdl","translation":"Любительский (многоголосый закадровый) (Синема УС)","update":"2019-11-11 12:01:06","iframe_src":"//83.svetacdn.in/PfJ50H0ZBPg3/movie/32911"},{"id":32910,"title":"Прогулка с Грэйс","kp_id":"1080971","imdb_id":"tt7030194","world_art_id":null,"type":"movie","add":"2019-11-11 09:09:27","orig_title":"A Walk with Grace","year":"2019-11-05","translations":["Любительский (многоголосый закадровый) (AlphaProject)"],"quality":"webdl","translation":"Любительский (многоголосый закадровый) (AlphaProject)","update":"2019-11-11 12:23:57","iframe_src":"//83.svetacdn.in/PfJ50H0ZBPg3/movie/32910"},{"id":32909,"title":"Поцелуй в Переулке Леденцов","kp_id":"1167389","imdb_id":"tt7635550","world_art_id":null,"type":"movie","add":"2019-11-11 09:08:13","orig_title":"A Kiss on Candy Cane Lane","year":"2019-11-05","translations":["Любительский (многоголосый закадровый) (AlphaProject)"],"quality":"webdl","translation":"Любительский (многоголосый закадровый) (AlphaProject)","update":"2019-11-11 11:53:07","iframe_src":"//83.svetacdn.in/PfJ50H0ZBPg3/movie/32909"},{"id":32908,"title":"Рок-н-рольное рождество","kp_id":"1300344","imdb_id":"tt10875028","world_art_id":null,"type":"movie","add":"2019-11-11 09:07:10","orig_title":"Rock and Roll Christmas","year":"2019-11-10","translations":["Любительский (многоголосый закадровый) (AlphaProject)"],"quality":"hdtv","translation":"Любительский (многоголосый закадровый) (AlphaProject)","update":"2019-11-11 12:29:40","iframe_src":"//83.svetacdn.in/PfJ50H0ZBPg3/movie/32908"},{"id":32906,"title":"Мои соседи и их жирная собака","kp_id":"1215841","imdb_id":"tt9265522","world_art_id":null,"type":"movie","add":"2019-11-11 09:04:49","orig_title":"Meine Nachbarn mit dem dicken Hund","year":"2019-07-03","translations":["Любительский (многоголосый закадровый) (Синема УС)"],"quality":"hdtv","translation":"Любительский (многоголосый закадровый) (Синема УС)","update":"2019-11-11 11:50:57","iframe_src":"//83.svetacdn.in/PfJ50H0ZBPg3/movie/32906"},{"id":32903,"title":"Попробуй меня: Смертельный эскорт-сервис. Часть 3","kp_id":"1166584","imdb_id":"tt8514706","world_art_id":null,"type":"movie","add":"2019-11-11 09:01:17","orig_title":"Taste Me: Death-scort Service Part 3","year":"2018-08-25","translations":["Любительский (многоголосый закадровый) (Синема УС)"],"quality":"bd","translation":"Любительский (многоголосый закадровый) (Синема УС)","update":"2019-11-11 12:05:22","iframe_src":"//83.svetacdn.in/PfJ50H0ZBPg3/movie/32903"},{"id":32894,"title":"Бангалорские дни","kp_id":"842725","imdb_id":"tt3668162","world_art_id":null,"type":"movie","add":"2019-11-11 06:14:11","orig_title":"Bangalore Days","year":"2014-05-30","translations":["Профессиональный (многоголосый закадровый)"],"quality":"bd","translation":"Профессиональный (многоголосый закадровый)","update":"2019-11-11 10:13:41","iframe_src":"//83.svetacdn.in/PfJ50H0ZBPg3/movie/32894"},{"id":32823,"title":"7 дней и ночей с Мэрилин","kp_id":"523002","imdb_id":"tt1655420","world_art_id":null,"type":"movie","add":"2019-11-07 12:08:30","orig_title":"My Week with Marilyn","year":"2011-10-09","translations":["Полное дублирование"],"quality":"bd","translation":"Полное дублирование","update":"2019-11-11 11:59:26","iframe_src":"//83.svetacdn.in/PfJ50H0ZBPg3/movie/32823"}],"current_page":1444,"first_page_url":"https://videocdn.tv/api/short?limit=100&api_token=RgFQdUIR2dRmwv8iYa5SnFNgnw3vpjKj&cache31444=31444&page=1","from":144301,"last_page":701,"last_page_url":"https://videocdn.tv/api/short?limit=100&api_token=RgFQdUIR2dRmwv8iYa5SnFNgnw3vpjKj&cache31444=31444&page=701","next_page_url":null,"path":"https://videocdn.tv/api/short","per_page":100,"prev_page_url":"https://videocdn.tv/api/short?limit=100&api_token=RgFQdUIR2dRmwv8iYa5SnFNgnw3vpjKj&cache31444=31444&page=1443","to":144320,"total":70041}