{"result":true,"data":[{"id":35271,"title":"Мистер Хэппи","kp_id":null,"imdb_id":"tt11193212","world_art_id":null,"type":"movie","add":"2020-01-20 20:43:57","orig_title":"Mr Happy","year":"2012-10-24","translations":["Любительский (многоголосый закадровый) (Синема УС)"],"quality":"webdl","translation":"Любительский (многоголосый закадровый) (Синема УС)","update":"2020-01-21 09:22:03","iframe_src":"//83.svetacdn.in/PfJ50H0ZBPg3/movie/35271"},{"id":35270,"title":"Без названия","kp_id":"397560","imdb_id":"tt1132193","world_art_id":null,"type":"movie","add":"2020-01-20 19:38:57","orig_title":"(Untitled)","year":"2009-01-09","translations":["Профессиональный (многоголосый закадровый)"],"quality":"bd","translation":"Профессиональный (многоголосый закадровый)","update":"2020-01-21 05:02:47","iframe_src":"//83.svetacdn.in/PfJ50H0ZBPg3/movie/35270"},{"id":35269,"title":"Гомо Эректус","kp_id":"195606","imdb_id":"tt0484207","world_art_id":null,"type":"movie","add":"2020-01-20 19:35:45","orig_title":"Homo Erectus","year":"2008-07-16","translations":["Полное дублирование"],"quality":"dvdrip","translation":"Полное дублирование","update":"2020-01-21 05:00:28","iframe_src":"//83.svetacdn.in/PfJ50H0ZBPg3/movie/35269"},{"id":35268,"title":"Поиск","kp_id":"733713","imdb_id":"tt2635006","world_art_id":null,"type":"movie","add":"2020-01-20 19:27:25","orig_title":"The Retrieval","year":"2013-03-11","translations":["Любительский (двухголосый закадровый) (ColdFilm)"],"quality":"webdl","translation":"Любительский (двухголосый закадровый) (ColdFilm)","update":"2020-01-21 04:59:37","iframe_src":"//83.svetacdn.in/PfJ50H0ZBPg3/movie/35268"},{"id":35265,"title":"Двойные неприятности","kp_id":"17670","imdb_id":"tt0238948","world_art_id":null,"type":"movie","add":"2020-01-20 19:03:04","orig_title":"Double Take","year":"2001-01-10","translations":["Профессиональный (многоголосый закадровый)"],"quality":"dvdrip","translation":"Профессиональный (многоголосый закадровый)","update":"2020-01-20 19:24:54","iframe_src":"//83.svetacdn.in/PfJ50H0ZBPg3/movie/35265"},{"id":35264,"title":"Мексиканские приключения","kp_id":"255137","imdb_id":"tt0365043","world_art_id":null,"type":"movie","add":"2020-01-20 19:01:32","orig_title":"The Challenge","year":"2003-05-03","translations":["Профессиональный (многоголосый закадровый)"],"quality":"dvdrip","translation":"Профессиональный (многоголосый закадровый)","update":"2020-01-20 19:27:25","iframe_src":"//83.svetacdn.in/PfJ50H0ZBPg3/movie/35264"},{"id":35262,"title":"Князь Дракула","kp_id":"79513","imdb_id":"tt0240793","world_art_id":null,"type":"movie","add":"2020-01-20 18:53:45","orig_title":"Dark Prince: The True Story of Dracula","year":"2000-10-31","translations":["Профессиональный (двухголосый закадровый)"],"quality":"dvdrip","translation":"Профессиональный (двухголосый закадровый)","update":"2020-01-20 19:52:31","iframe_src":"//83.svetacdn.in/PfJ50H0ZBPg3/movie/35262"},{"id":35261,"title":"Нераскрытый потенциал: мы вместе","kp_id":"1313172","imdb_id":"tt11133600","world_art_id":null,"type":"movie","add":"2020-01-20 18:52:24","orig_title":"Untapped Together","year":"2017-09-01","translations":["Любительский (многоголосый закадровый) (Синема УС)"],"quality":"webdl","translation":"Любительский (многоголосый закадровый) (Синема УС)","update":"2020-01-20 19:53:26","iframe_src":"//83.svetacdn.in/PfJ50H0ZBPg3/movie/35261"},{"id":35260,"title":"Одиноки вместе","kp_id":"1228669","imdb_id":"tt9526822","world_art_id":null,"type":"movie","add":"2020-01-20 18:50:17","orig_title":"Alone/Together","year":"2019-02-13","translations":["Любительский (многоголосый закадровый) (Синема УС)"],"quality":"webdl","translation":"Любительский (многоголосый закадровый) (Синема УС)","update":"2020-01-20 20:38:18","iframe_src":"//83.svetacdn.in/PfJ50H0ZBPg3/movie/35260"},{"id":35259,"title":"Ангедония","kp_id":"1269513","imdb_id":"tt10290998","world_art_id":null,"type":"movie","add":"2020-01-20 18:47:02","orig_title":"Anhedonia","year":"2019-05-01","translations":["Любительский (многоголосый закадровый) (Синема УС)"],"quality":"webdl","translation":"Любительский (многоголосый закадровый) (Синема УС)","update":"2020-01-20 20:38:50","iframe_src":"//83.svetacdn.in/PfJ50H0ZBPg3/movie/35259"},{"id":35256,"title":"Дом из костей","kp_id":"433921","imdb_id":"tt1334536","world_art_id":null,"type":"movie","add":"2020-01-20 09:37:07","orig_title":"House of Bones","year":"2010-01-16","translations":["Любительский (одноголосый закадровый)"],"quality":"dvdrip","translation":"Любительский (одноголосый закадровый)","update":"2020-01-20 18:43:45","iframe_src":"//83.svetacdn.in/PfJ50H0ZBPg3/movie/35256"},{"id":35231,"title":"Зажигание","kp_id":"1220977","imdb_id":"tt11454170","world_art_id":null,"type":"movie","add":"2020-01-19 19:01:03","orig_title":"Start-Up","year":"2019-12-18","translations":["Профессиональный (многоголосый закадровый)","Любительский (двухголосый закадровый) (Колобок)"],"quality":"webdl","translation":"Профессиональный (многоголосый закадровый)","update":"2020-01-20 20:38:57","iframe_src":"//83.svetacdn.in/PfJ50H0ZBPg3/movie/35231"},{"id":35209,"title":"Мясник, повар и меченосец","kp_id":"566636","imdb_id":"tt1722513","world_art_id":null,"type":"movie","add":"2020-01-19 14:08:19","orig_title":"Dao jiàn xiào","year":"2010-09-16","translations":["Профессиональный (многоголосый закадровый) (Первый канал | ОРТ)"],"quality":"hdtv","translation":"Профессиональный (многоголосый закадровый) (Первый канал | ОРТ)","update":"2020-01-21 11:15:45","iframe_src":"//83.svetacdn.in/PfJ50H0ZBPg3/movie/35209"},{"id":35208,"title":"Смертельная тайна","kp_id":"212018","imdb_id":"tt0165363","world_art_id":null,"type":"movie","add":"2020-01-19 14:04:26","orig_title":"Lian cheng jue","year":"1980-09-23","translations":["Авторский (одноголосый закадровый) (Кузнецов Сергей)"],"quality":"dvdrip","translation":"Авторский (одноголосый закадровый) (Кузнецов Сергей)","update":"2020-01-21 11:14:15","iframe_src":"//83.svetacdn.in/PfJ50H0ZBPg3/movie/35208"},{"id":35207,"title":"Теплая вода под Красным мостом","kp_id":"84341","imdb_id":"tt0289054","world_art_id":null,"type":"movie","add":"2020-01-19 14:01:55","orig_title":"Akai hashi no shita no nurui mizu","year":"2001-05-19","translations":["Профессиональный (двухголосый закадровый)"],"quality":"dvdrip","translation":"Профессиональный (двухголосый закадровый)","update":"2020-01-21 11:13:06","iframe_src":"//83.svetacdn.in/PfJ50H0ZBPg3/movie/35207"},{"id":35082,"title":"Дело ведёт юный детектив Киндаити: Дело об убийстве в Гонконге","kp_id":"705026","imdb_id":"tt2372296","world_art_id":null,"type":"movie","add":"2020-01-15 19:30:11","orig_title":"Kindaichi shônen no jikenbo: Hong Kong Kowloon zaihô satsujin jiken","year":"2013-01-12","translations":["Любительский (двухголосый закадровый) (GREEN TEA)"],"quality":"bd","translation":"Любительский (двухголосый закадровый) (GREEN TEA)","update":"2020-01-21 06:56:47","iframe_src":"//83.svetacdn.in/PfJ50H0ZBPg3/movie/35082"},{"id":32631,"title":"Пустошь","kp_id":"1265220","imdb_id":"tt10253466","world_art_id":null,"type":"movie","add":"2019-11-03 08:13:52","orig_title":"Badland","year":"2019-11-01","translations":["Любительский (многоголосый закадровый) (AlphaProject)","Original (English)"],"quality":"webdl","translation":"Любительский (многоголосый закадровый) (AlphaProject)","update":"2020-01-21 09:23:35","iframe_src":"//83.svetacdn.in/PfJ50H0ZBPg3/movie/32631"},{"id":31843,"title":"Мистер Америка","kp_id":"1281484","imdb_id":"tt10579992","world_art_id":null,"type":"movie","add":"2019-10-14 05:44:04","orig_title":"Mister America","year":"2019-10-11","translations":["Любительский (многоголосый закадровый) (Синема УС)","Original (English)"],"quality":"webdl","translation":"Любительский (многоголосый закадровый) (Синема УС)","update":"2020-01-21 09:24:21","iframe_src":"//83.svetacdn.in/PfJ50H0ZBPg3/movie/31843"},{"id":28610,"title":"День \"Д\"","kp_id":"1263924","imdb_id":"tt10239930","world_art_id":null,"type":"movie","add":"2019-07-04 20:27:39","orig_title":"D-Day","year":"2019-09-13","translations":["Любительский (многоголосый закадровый) (Синема УС)","Original (English)"],"quality":"webdl","translation":"Любительский (многоголосый закадровый) (Синема УС)","update":"2020-01-21 09:28:09","iframe_src":"//83.svetacdn.in/PfJ50H0ZBPg3/movie/28610"},{"id":27877,"title":"Чужак","kp_id":"1263490","imdb_id":"tt10303892","world_art_id":null,"type":"movie","add":"2019-06-17 06:09:16","orig_title":"The Outsider","year":"2019-06-14","translations":["Любительский (многоголосый закадровый) (@MUZOBOZ@)","Original (English)"],"quality":"webdl","translation":"Любительский (многоголосый закадровый) (@MUZOBOZ@)","update":"2020-01-21 09:25:29","iframe_src":"//83.svetacdn.in/PfJ50H0ZBPg3/movie/27877"}],"current_page":1038,"first_page_url":"https://videocdn.tv/api/short?limit=100&api_token=RgFQdUIR2dRmwv8iYa5SnFNgnw3vpjKj&cache31038=31038&page=1","from":103701,"last_page":646,"last_page_url":"https://videocdn.tv/api/short?limit=100&api_token=RgFQdUIR2dRmwv8iYa5SnFNgnw3vpjKj&cache31038=31038&page=646","next_page_url":null,"path":"https://videocdn.tv/api/short","per_page":100,"prev_page_url":"https://videocdn.tv/api/short?limit=100&api_token=RgFQdUIR2dRmwv8iYa5SnFNgnw3vpjKj&cache31038=31038&page=1037","to":103720,"total":64557}