{"result":true,"data":[{"id":36937,"title":"Винчи, или Ва-банк 3","kp_id":"161153","imdb_id":"tt0425622","world_art_id":null,"type":"movie","add":"2020-02-25 19:58:16","orig_title":"Vinci","year":"2004-09-07","translations":["Профессиональный (многоголосый закадровый)"],"quality":"dvdrip","translation":"Профессиональный (многоголосый закадровый)","update":"2020-02-26 13:23:02","iframe_src":"//8944266443434.svetacdn.in/PfJ50H0ZBPg3/movie/36937"},{"id":36936,"title":"Колыбельная","kp_id":"503578","imdb_id":"tt1623753","world_art_id":null,"type":"movie","add":"2020-02-25 19:55:59","orig_title":"Kolysanka","year":"2010-02-12","translations":["Профессиональный (одноголосый закадровый) (BBC Saint-Petersburg)"],"quality":"hdtv","translation":"Профессиональный (одноголосый закадровый) (BBC Saint-Petersburg)","update":"2020-02-26 13:42:22","iframe_src":"//8944266443434.svetacdn.in/PfJ50H0ZBPg3/movie/36936"},{"id":36935,"title":"Ва-банк II, или Ответный удар","kp_id":"66404","imdb_id":"tt0090246","world_art_id":null,"type":"movie","add":"2020-02-25 19:52:47","orig_title":"Vabank II, czyli riposta","year":"1985-05-06","translations":["Полное дублирование"],"quality":"hdtv","translation":"Полное дублирование","update":"2020-02-26 13:23:40","iframe_src":"//8944266443434.svetacdn.in/PfJ50H0ZBPg3/movie/36935"},{"id":36934,"title":"Тарбозавр 3D: Новый рай","kp_id":"1103221","imdb_id":"tt10443604","world_art_id":null,"type":"movie","add":"2020-02-25 19:48:38","orig_title":"Jeom-Bak-I Han-Ban-Do-Ui Gong-Ryong 2: Sae-Ro-Un Nak-Won","year":"2017-10-14","translations":["Профессиональный (многоголосый закадровый)"],"quality":"webdl","translation":"Профессиональный (многоголосый закадровый)","update":"2020-02-26 13:43:23","iframe_src":"//8944266443434.svetacdn.in/PfJ50H0ZBPg3/movie/36934"},{"id":36933,"title":"Под перекрестным огнем","kp_id":"297108","imdb_id":"tt0218127","world_art_id":null,"type":"movie","add":"2020-02-25 19:46:27","orig_title":"Crossfire Trail","year":"2001-01-21","translations":["Полное дублирование"],"quality":"webdl","translation":"Полное дублирование","update":"2020-02-26 13:44:15","iframe_src":"//8944266443434.svetacdn.in/PfJ50H0ZBPg3/movie/36933"},{"id":36914,"title":"Барашек Шон: Фермагеддон","kp_id":"1022373","imdb_id":"tt6193408","world_art_id":null,"type":"movie","add":"2020-02-25 13:19:55","orig_title":"A Shaun the Sheep Movie: Farmageddon","year":"2019-09-26","translations":["[EN] Original (English)"],"quality":"bd","translation":"[EN] Original (English)","update":"2020-02-26 12:36:02","iframe_src":"//8944266443434.svetacdn.in/PfJ50H0ZBPg3/movie/36914"},{"id":36839,"title":"Ларс и настоящая девушка","kp_id":"256497","imdb_id":"tt0805564","world_art_id":null,"type":"movie","add":"2020-02-24 09:40:58","orig_title":"Lars and the Real Girl","year":"2007-09-16","translations":["Профессиональный (двухголосый закадровый)"],"quality":"bd","translation":"Профессиональный (двухголосый закадровый)","update":"2020-02-26 10:25:08","iframe_src":"//8944266443434.svetacdn.in/PfJ50H0ZBPg3/movie/36839"},{"id":36822,"title":"Дэв.Д","kp_id":"439777","imdb_id":"tt1327035","world_art_id":null,"type":"movie","add":"2020-02-23 19:08:42","orig_title":"Dev.D","year":"2009-02-06","translations":["Профессиональный (двухголосый закадровый)"],"quality":"bd","translation":"Профессиональный (двухголосый закадровый)","update":"2020-02-26 12:49:51","iframe_src":"//8944266443434.svetacdn.in/PfJ50H0ZBPg3/movie/36822"},{"id":36810,"title":"Принцесса и пони","kp_id":"572472","imdb_id":"tt1757944","world_art_id":null,"type":"movie","add":"2020-02-23 17:30:15","orig_title":"Princess and the Pony","year":"2011-01-25","translations":["Профессиональный (многоголосый закадровый)","[EN] Original (English)"],"quality":"bd","translation":"Профессиональный (многоголосый закадровый)","update":"2020-02-26 12:41:41","iframe_src":"//8944266443434.svetacdn.in/PfJ50H0ZBPg3/movie/36810"},{"id":36809,"title":"Отшельник","kp_id":"429532","imdb_id":"tt1307002","world_art_id":null,"type":"movie","add":"2020-02-23 17:29:10","orig_title":"Redemption: A Mile from Hell","year":"2009-02-10","translations":["Профессиональный (многоголосый закадровый)"],"quality":"dvdrip","translation":"Профессиональный (многоголосый закадровый)","update":"2020-02-26 12:39:35","iframe_src":"//8944266443434.svetacdn.in/PfJ50H0ZBPg3/movie/36809"},{"id":36808,"title":"Долтри Кэлхун","kp_id":"84523","imdb_id":"tt0339642","world_art_id":null,"type":"movie","add":"2020-02-23 17:28:13","orig_title":"Daltry Calhoun","year":"2005-09-25","translations":["Профессиональный (многоголосый закадровый)"],"quality":"dvdrip","translation":"Профессиональный (многоголосый закадровый)","update":"2020-02-26 12:38:42","iframe_src":"//8944266443434.svetacdn.in/PfJ50H0ZBPg3/movie/36808"},{"id":36807,"title":"Служить и защищать","kp_id":"432825","imdb_id":"tt1322354","world_art_id":null,"type":"movie","add":"2020-02-23 17:27:00","orig_title":"Protéger & servir","year":"2010-01-22","translations":["Профессиональный (многоголосый закадровый)"],"quality":"bd","translation":"Профессиональный (многоголосый закадровый)","update":"2020-02-26 12:37:41","iframe_src":"//8944266443434.svetacdn.in/PfJ50H0ZBPg3/movie/36807"},{"id":36806,"title":"Ты хочешь, чтобы я его убил?","kp_id":"178810","imdb_id":"tt0485061","world_art_id":null,"type":"movie","add":"2020-02-23 17:25:57","orig_title":"uwantme2killhim?","year":"2013-06-25","translations":["Профессиональный (двухголосый закадровый)"],"quality":"dvdrip","translation":"Профессиональный (двухголосый закадровый)","update":"2020-02-26 12:36:48","iframe_src":"//8944266443434.svetacdn.in/PfJ50H0ZBPg3/movie/36806"},{"id":36805,"title":"Эпоха 2: Эволюция","kp_id":"77326","imdb_id":"tt0374286","world_art_id":null,"type":"movie","add":"2020-02-23 17:24:42","orig_title":"Epoch: Evolution","year":"2003-11-29","translations":["Профессиональный (двухголосый закадровый)","[EN] Original (English)"],"quality":"dvdrip","translation":"Профессиональный (двухголосый закадровый)","update":"2020-02-26 12:46:15","iframe_src":"//8944266443434.svetacdn.in/PfJ50H0ZBPg3/movie/36805"},{"id":36804,"title":"Однажды в лесу","kp_id":"739655","imdb_id":"tt2873250","world_art_id":null,"type":"movie","add":"2020-02-23 17:23:37","orig_title":"Il était une forêt","year":"2013-09-28","translations":["Профессиональный (одноголосый закадровый) (Дроздов Николай)"],"quality":"bd","translation":"Профессиональный (одноголосый закадровый) (Дроздов Николай)","update":"2020-02-26 12:36:01","iframe_src":"//8944266443434.svetacdn.in/PfJ50H0ZBPg3/movie/36804"},{"id":36802,"title":"Побеждать","kp_id":"460411","imdb_id":"tt1156173","world_art_id":null,"type":"movie","add":"2020-02-23 17:20:42","orig_title":"Vincere","year":"2009-05-19","translations":["Любительский (двухголосый закадровый)"],"quality":"dvdrip","translation":"Любительский (двухголосый закадровый)","update":"2020-02-26 12:33:41","iframe_src":"//8944266443434.svetacdn.in/PfJ50H0ZBPg3/movie/36802"},{"id":36801,"title":"Цайлифо","kp_id":"581897","imdb_id":"tt1851871","world_art_id":null,"type":"movie","add":"2020-02-23 17:19:16","orig_title":"Cai li fu","year":"2011-03-31","translations":["Любительский (одноголосый закадровый) (den904)"],"quality":"bd","translation":"Любительский (одноголосый закадровый) (den904)","update":"2020-02-26 12:32:41","iframe_src":"//8944266443434.svetacdn.in/PfJ50H0ZBPg3/movie/36801"},{"id":36800,"title":"Я влюбился в монашку","kp_id":"506366","imdb_id":"tt1618432","world_art_id":null,"type":"movie","add":"2020-02-23 17:16:49","orig_title":"I'm in Love with a Church Girl","year":"2013-10-18","translations":["[EN] Original (English)","Любительский (одноголосый закадровый)"],"quality":"bd","translation":"[EN] Original (English)","update":"2020-02-26 12:31:31","iframe_src":"//8944266443434.svetacdn.in/PfJ50H0ZBPg3/movie/36800"},{"id":36799,"title":"Наш рай","kp_id":"588555","imdb_id":"tt1854568","world_art_id":null,"type":"movie","add":"2020-02-23 17:15:26","orig_title":"Notre paradis","year":"2011-09-28","translations":["Авторский (одноголосый закадровый) (Данилов Владислав | Kenum)"],"quality":"dvdrip","translation":"Авторский (одноголосый закадровый) (Данилов Владислав | Kenum)","update":"2020-02-26 12:29:25","iframe_src":"//8944266443434.svetacdn.in/PfJ50H0ZBPg3/movie/36799"},{"id":36798,"title":"Заложники","kp_id":"9212","imdb_id":"tt0118670","world_art_id":null,"type":"movie","add":"2020-02-23 17:13:54","orig_title":"Bad Day on the Block","year":"1997-08-22","translations":["Авторский (одноголосый закадровый) (Гаврилов Андрей)"],"quality":"dvdrip","translation":"Авторский (одноголосый закадровый) (Гаврилов Андрей)","update":"2020-02-26 12:47:04","iframe_src":"//8944266443434.svetacdn.in/PfJ50H0ZBPg3/movie/36798"}],"current_page":1448,"first_page_url":"https://videocdn.tv/api/short?limit=100&api_token=RgFQdUIR2dRmwv8iYa5SnFNgnw3vpjKj&cache31448=31448&page=1","from":144701,"last_page":730,"last_page_url":"https://videocdn.tv/api/short?limit=100&api_token=RgFQdUIR2dRmwv8iYa5SnFNgnw3vpjKj&cache31448=31448&page=730","next_page_url":null,"path":"https://videocdn.tv/api/short","per_page":100,"prev_page_url":"https://videocdn.tv/api/short?limit=100&api_token=RgFQdUIR2dRmwv8iYa5SnFNgnw3vpjKj&cache31448=31448&page=1447","to":144720,"total":72950}