{"result":true,"data":[{"id":45661,"title":"Драконы. Команда спасения: праздник в Хаттсгалоре","kp_id":"1451355","imdb_id":"tt13353508","world_art_id":null,"type":"movie","add":"2020-11-27 07:07:13","orig_title":"Dragons: Rescue Riders: Huttsgalor Holiday","year":"2020-11-24","translations":["Любительский (многоголосый закадровый) (@MUZOBOZ@)"],"quality":"webdl","translation":"Любительский (многоголосый закадровый) (@MUZOBOZ@)","update":"2020-11-27 11:24:40","iframe_src":"//8422.svetacdn.in/71tsRs29n5tZ/movie/45661"},{"id":45660,"title":"Месть одноклассницы","kp_id":null,"imdb_id":"tt13388018","world_art_id":null,"type":"movie","add":"2020-11-27 07:04:35","orig_title":"Hâ luô shàonû: Girl's Revenge","year":"2020-11-06","translations":["Любительский (многоголосый закадровый) (Синема УС)"],"quality":"webdl","translation":"Любительский (многоголосый закадровый) (Синема УС)","update":"2020-11-27 11:24:18","iframe_src":"//8422.svetacdn.in/71tsRs29n5tZ/movie/45660"},{"id":45659,"title":"Домохранители","kp_id":null,"imdb_id":"tt10540398","world_art_id":null,"type":"movie","add":"2020-11-27 07:01:04","orig_title":"Homesitters","year":"2019-06-12","translations":["Любительский (многоголосый закадровый) (Синема УС)"],"quality":"webdl","translation":"Любительский (многоголосый закадровый) (Синема УС)","update":"2020-11-27 11:23:02","iframe_src":"//8422.svetacdn.in/71tsRs29n5tZ/movie/45659"},{"id":45658,"title":"Касатка","kp_id":"1388250","imdb_id":"tt12427724","world_art_id":null,"type":"movie","add":"2020-11-27 06:59:38","orig_title":"Orca","year":"2020-10-30","translations":["Любительский (многоголосый закадровый) (AlphaProject)"],"quality":"webdl","translation":"Любительский (многоголосый закадровый) (AlphaProject)","update":"2020-11-27 11:22:46","iframe_src":"//8422.svetacdn.in/71tsRs29n5tZ/movie/45658"},{"id":45657,"title":"Последний День благодарения","kp_id":"1297468","imdb_id":"tt10809006","world_art_id":null,"type":"movie","add":"2020-11-27 06:56:53","orig_title":"The Last Thanksgiving","year":"2020-10-02","translations":["Любительский (многоголосый закадровый) (Несмертельное оружие)"],"quality":"bd","translation":"Любительский (многоголосый закадровый) (Несмертельное оружие)","update":"2020-11-27 11:22:16","iframe_src":"//8422.svetacdn.in/71tsRs29n5tZ/movie/45657"},{"id":45609,"title":"Плохая компания","kp_id":"15384","imdb_id":"tt0068245","world_art_id":null,"type":"movie","add":"2020-11-25 14:13:08","orig_title":"Bad Company","year":"1972-10-07","translations":["Профессиональный (многоголосый закадровый)","Original (English)"],"quality":"webdl","translation":"Профессиональный (многоголосый закадровый)","update":"2020-11-27 11:14:26","iframe_src":"//8422.svetacdn.in/71tsRs29n5tZ/movie/45609"},{"id":45448,"title":"Время на исходе","kp_id":"1164251","imdb_id":"tt8599512","world_art_id":null,"type":"movie","add":"2020-11-19 14:52:03","orig_title":"Out of Time","year":"2020-10-29","translations":["Original (English)","Любительский (многоголосый закадровый) (AlphaProject)"],"quality":"webdl","translation":"Original (English)","update":"2020-11-27 11:22:31","iframe_src":"//8422.svetacdn.in/71tsRs29n5tZ/movie/45448"},{"id":45443,"title":"Счастливые дни ужасов","kp_id":"1153430","imdb_id":"tt8456656","world_art_id":null,"type":"movie","add":"2020-11-19 14:40:06","orig_title":"Happy Horror Days","year":"2020-11-01","translations":["Original (English)","Любительский (многоголосый закадровый) (Синема УС)"],"quality":"webdl","translation":"Original (English)","update":"2020-11-27 11:23:17","iframe_src":"//8422.svetacdn.in/71tsRs29n5tZ/movie/45443"},{"id":45442,"title":"Голд Кост Лаунж","kp_id":"1275789","imdb_id":"tt10508774","world_art_id":null,"type":"movie","add":"2020-11-19 14:38:39","orig_title":"Gold Coast Lounge","year":"2020-01-03","translations":["Original (English)","Любительский (многоголосый закадровый) (Синема УС)"],"quality":"webdl","translation":"Original (English)","update":"2020-11-27 11:24:04","iframe_src":"//8422.svetacdn.in/71tsRs29n5tZ/movie/45442"},{"id":44595,"title":"Вечерняя звезда","kp_id":"2215","imdb_id":"tt0116240","world_art_id":null,"type":"movie","add":"2020-10-19 16:34:56","orig_title":"The Evening Star","year":"1996-12-05","translations":["Авторский (одноголосый закадровый) (Карцев Пётр)","Original (English)"],"quality":"webdl","translation":"Авторский (одноголосый закадровый) (Карцев Пётр)","update":"2020-11-27 11:22:42","iframe_src":"//8422.svetacdn.in/71tsRs29n5tZ/movie/44595"},{"id":44594,"title":"Угон школьного автобуса","kp_id":"178712","imdb_id":"tt0117776","world_art_id":null,"type":"movie","add":"2020-10-19 16:26:56","orig_title":"Sudden Terror: The Hijacking of School Bus #17","year":"1996-10-13","translations":["Авторский (одноголосый закадровый) (Дольский Андрей)","Original (English)"],"quality":"webdl","translation":"Авторский (одноголосый закадровый) (Дольский Андрей)","update":"2020-11-27 11:20:46","iframe_src":"//8422.svetacdn.in/71tsRs29n5tZ/movie/44594"},{"id":44589,"title":"Возвращение","kp_id":"296403","imdb_id":"tt0116550","world_art_id":null,"type":"movie","add":"2020-10-19 16:13:28","orig_title":"Homecoming","year":"1996-04-14","translations":["Авторский (одноголосый закадровый) (Алексеев Антон)","Original (English)"],"quality":"webdl","translation":"Авторский (одноголосый закадровый) (Алексеев Антон)","update":"2020-11-27 11:16:58","iframe_src":"//8422.svetacdn.in/71tsRs29n5tZ/movie/44589"},{"id":44588,"title":"Лунная шкатулка","kp_id":"4316","imdb_id":"tt0115738","world_art_id":null,"type":"movie","add":"2020-10-19 16:11:17","orig_title":"Box of Moonlight","year":"1996-08-29","translations":["Профессиональный (двухголосый закадровый)","Авторский (одноголосый закадровый) (Гаврилов Андрей)","Original (English)"],"quality":"webdl","translation":"Профессиональный (двухголосый закадровый)","update":"2020-11-27 11:16:33","iframe_src":"//8422.svetacdn.in/71tsRs29n5tZ/movie/44588"},{"id":44376,"title":"Сын шейха","kp_id":"26916","imdb_id":"tt0017416","world_art_id":null,"type":"movie","add":"2020-10-12 19:27:12","orig_title":"The Son of the Sheik","year":"1926-07-09","translations":["Original (English)","Любительский (одноголосый закадровый)","Original (English)"],"quality":"bd","translation":"Original (English)","update":"2020-11-27 11:08:45","iframe_src":"//8422.svetacdn.in/71tsRs29n5tZ/movie/44376"},{"id":44372,"title":"Папа: Хемингуэй на Кубе","kp_id":"744018","imdb_id":"tt2749282","world_art_id":null,"type":"movie","add":"2020-10-12 19:06:16","orig_title":"Papa Hemingway in Cuba","year":"2015-11-19","translations":["Любительский (двухголосый закадровый)","Original (English)"],"quality":"webdl","translation":"Любительский (двухголосый закадровый)","update":"2020-11-27 11:19:40","iframe_src":"//8422.svetacdn.in/71tsRs29n5tZ/movie/44372"},{"id":44273,"title":"Бросив смертельный взгляд","kp_id":"230355","imdb_id":"tt0101550","world_art_id":null,"type":"movie","add":"2020-10-09 19:37:40","orig_title":"Cast a Deadly Spell","year":"1991-09-07","translations":["Любительский (одноголосый закадровый) (Хихикающий доктор)","Original (English)"],"quality":"hdtv","translation":"Любительский (одноголосый закадровый) (Хихикающий доктор)","update":"2020-11-27 11:12:10","iframe_src":"//8422.svetacdn.in/71tsRs29n5tZ/movie/44273"},{"id":44073,"title":"Хозяева","kp_id":"1226603","imdb_id":"tt9543062","world_art_id":null,"type":"movie","add":"2020-10-02 13:24:57","orig_title":"Hosts","year":"2020-10-02","translations":["Любительский (многоголосый закадровый) (AlphaProject)","Любительский (одноголосый закадровый) (datynet | Агапов Антон)","Original (English)"],"quality":"webdl","translation":"Любительский (многоголосый закадровый) (AlphaProject)","update":"2020-11-27 11:18:57","iframe_src":"//8422.svetacdn.in/71tsRs29n5tZ/movie/44073"},{"id":41031,"title":"Думай как собака","kp_id":"1115863","imdb_id":"tt5929654","world_art_id":null,"type":"movie","add":"2020-06-08 07:19:45","orig_title":"Think Like a Dog","year":"2020-06-09","translations":["Любительский (двухголосый закадровый)","Полное дублирование (iTunes)","Original (English)"],"quality":"dvdrip","translation":"Любительский (двухголосый закадровый)","update":"2020-11-27 11:10:33","iframe_src":"//8422.svetacdn.in/71tsRs29n5tZ/movie/41031"},{"id":36163,"title":"Нашествие пришельцев","kp_id":"1025774","imdb_id":"tt6409856","world_art_id":null,"type":"movie","add":"2020-02-12 20:52:09","orig_title":"Alien Outbreak","year":"2020-02-11","translations":["Любительский (многоголосый закадровый) (Синема УС)","Профессиональный (многоголосый закадровый) (iTunes)","Original (English)"],"quality":"webdl","translation":"Любительский (многоголосый закадровый) (Синема УС)","update":"2020-11-27 11:13:33","iframe_src":"//8422.svetacdn.in/71tsRs29n5tZ/movie/36163"},{"id":14849,"title":"За пределами Вселенной","kp_id":"978979","imdb_id":"tt5723416","world_art_id":null,"type":"movie","add":"2018-01-10 22:04:56","orig_title":"The Beyond","year":"2017-11-17","translations":["Полное дублирование (iTunes)","Любительский (многоголосый закадровый) (@MUZOBOZ@)","Профессиональный (многоголосый закадровый) (HDrezka Studio)","Original (English)"],"quality":"webdl","translation":"Полное дублирование (iTunes)","update":"2020-11-27 11:21:44","iframe_src":"//8422.svetacdn.in/71tsRs29n5tZ/movie/14849"}],"current_page":651,"first_page_url":"https://videocdn.tv/api/short?limit=100&api_token=EnbO9h8pv1VyjbCJhg0WM9nG259n7mtz&cache3651=3651&page=1","from":65001,"last_page":681,"last_page_url":"https://videocdn.tv/api/short?limit=100&api_token=EnbO9h8pv1VyjbCJhg0WM9nG259n7mtz&cache3651=3651&page=681","next_page_url":"https://videocdn.tv/api/short?limit=100&api_token=EnbO9h8pv1VyjbCJhg0WM9nG259n7mtz&cache3651=3651&page=652","path":"https://videocdn.tv/api/short","per_page":100,"prev_page_url":"https://videocdn.tv/api/short?limit=100&api_token=EnbO9h8pv1VyjbCJhg0WM9nG259n7mtz&cache3651=3651&page=650","to":65020,"total":68040}