{"result":true,"data":[{"id":22101,"title":"Бандиты","kp_id":"220319","imdb_id":"tt0487504","world_art_id":null,"type":"movie","add":"2019-02-06 08:29:54","orig_title":"Truands","year":"2007-01-07","translations":["Профессиональный (многоголосый закадровый)"],"quality":"dvdrip","translation":"Профессиональный (многоголосый закадровый)","update":"2019-02-06 12:43:03","iframe_src":"//7043.svetacdn.in/si4jsFRrtgrT/movie/22101"},{"id":22085,"title":"Аманда Силс: Я буду знать","kp_id":null,"imdb_id":"tt9310314","world_art_id":null,"type":"movie","add":"2019-02-06 07:09:00","orig_title":"Amanda Seales: I Be Knowin'","year":"2019-01-26","translations":["Любительский (одноголосый закадровый) (HiWay Grope)"],"quality":"hdtv","translation":"Любительский (одноголосый закадровый) (HiWay Grope)","update":"2019-02-06 11:34:12","iframe_src":"//7043.svetacdn.in/si4jsFRrtgrT/movie/22085"},{"id":22083,"title":"Миссис К","kp_id":"1009252","imdb_id":"tt6132490","world_art_id":null,"type":"movie","add":"2019-02-06 05:04:25","orig_title":"Mrs K","year":"2016-10-07","translations":["Любительский (многоголосый закадровый) (Колобок)"],"quality":"dvdrip","translation":"Любительский (многоголосый закадровый) (Колобок)","update":"2019-02-06 13:59:35","iframe_src":"//7043.svetacdn.in/si4jsFRrtgrT/movie/22083"},{"id":22082,"title":"Звёздные войны: Войны Клонов","kp_id":"405607","imdb_id":"tt1185834","world_art_id":null,"type":"movie","add":"2019-02-06 05:01:03","orig_title":"Star Wars: The Clone Wars","year":"2008-08-10","translations":["Полное дублирование"],"quality":"bd","translation":"Полное дублирование","update":"2019-02-06 06:50:53","iframe_src":"//7043.svetacdn.in/si4jsFRrtgrT/movie/22082"},{"id":22066,"title":"Опасно для жизни!","kp_id":"42775","imdb_id":"tt0089733","world_art_id":null,"type":"movie","add":"2019-02-05 09:17:39","orig_title":"Opasno dlya zhizni!","year":"1985-06-10","translations":["Оригинальная дорожка"],"quality":"dvdrip","translation":"Оригинальная дорожка","update":"2019-02-06 06:01:37","iframe_src":"//7043.svetacdn.in/si4jsFRrtgrT/movie/22066"},{"id":22064,"title":"Бой местного значения","kp_id":"424517","imdb_id":null,"world_art_id":null,"type":"movie","add":"2019-02-05 08:58:06","orig_title":"Бой местного значения","year":"2008-05-08","translations":["Оригинальная дорожка"],"quality":"dvdrip","translation":"Оригинальная дорожка","update":"2019-02-06 06:04:39","iframe_src":"//7043.svetacdn.in/si4jsFRrtgrT/movie/22064"},{"id":22059,"title":"Убийственный соблазн","kp_id":"1140644","imdb_id":"tt8351452","world_art_id":null,"type":"movie","add":"2019-02-04 22:49:51","orig_title":"Cradle Robber","year":"2018-10-01","translations":["Любительский (многоголосый закадровый) (Синема УС)"],"quality":"hdtv","translation":"Любительский (многоголосый закадровый) (Синема УС)","update":"2019-02-05 07:20:08","iframe_src":"//7043.svetacdn.in/si4jsFRrtgrT/movie/22059"},{"id":22055,"title":"Роза Смирны","kp_id":"1025555","imdb_id":"tt6229786","world_art_id":null,"type":"movie","add":"2019-02-04 22:27:44","orig_title":"Roza of Smyrna","year":"2016-12-22","translations":["Любительский (многоголосый закадровый) (Синема УС)"],"quality":"hdrip","translation":"Любительский (многоголосый закадровый) (Синема УС)","update":"2019-02-05 07:29:58","iframe_src":"//7043.svetacdn.in/si4jsFRrtgrT/movie/22055"},{"id":22052,"title":"Italian best shorts 2: Любовь в вечном городе","kp_id":"1115501","imdb_id":null,"world_art_id":null,"type":"movie","add":"2019-02-04 22:20:17","orig_title":"Italian best shorts 2: Lyubov v vechnom gorode","year":"2018-02-18","translations":["Профессиональный (многоголосый закадровый)"],"quality":"webdl","translation":"Профессиональный (многоголосый закадровый)","update":"2019-02-05 07:32:24","iframe_src":"//7043.svetacdn.in/si4jsFRrtgrT/movie/22052"},{"id":22051,"title":"Параллель","kp_id":"891213","imdb_id":"tt4346182","world_art_id":null,"type":"movie","add":"2019-02-04 22:06:43","orig_title":"Parallel","year":"2016-08-11","translations":["Любительский (многоголосый закадровый) (Колобок)"],"quality":"webdl","translation":"Любительский (многоголосый закадровый) (Колобок)","update":"2019-02-05 07:35:00","iframe_src":"//7043.svetacdn.in/si4jsFRrtgrT/movie/22051"},{"id":22049,"title":"Гнев","kp_id":"83208","imdb_id":"tt0086222","world_art_id":null,"type":"movie","add":"2019-02-04 21:57:42","orig_title":"Rush","year":"1983-10-28","translations":["Любительский (одноголосый закадровый)"],"quality":"dvdrip","translation":"Любительский (одноголосый закадровый)","update":"2019-02-06 08:31:47","iframe_src":"//7043.svetacdn.in/si4jsFRrtgrT/movie/22049"},{"id":22047,"title":"Мунафик","kp_id":"982709","imdb_id":"tt5565896","world_art_id":null,"type":"movie","add":"2019-02-04 21:41:11","orig_title":"Munafik","year":"2016-02-25","translations":["Любительский (многоголосый закадровый) (Колобок)"],"quality":"webdl","translation":"Любительский (многоголосый закадровый) (Колобок)","update":"2019-02-05 12:28:06","iframe_src":"//7043.svetacdn.in/si4jsFRrtgrT/movie/22047"},{"id":21870,"title":"Погоня","kp_id":"532779","imdb_id":"tt1496832","world_art_id":null,"type":"movie","add":"2019-01-27 11:15:16","orig_title":"Paiyaa","year":"2010-04-02","translations":["Профессиональный (многоголосый закадровый) (Red Media)"],"quality":"bd","translation":"Профессиональный (многоголосый закадровый) (Red Media)","update":"2019-02-06 06:35:24","iframe_src":"//7043.svetacdn.in/si4jsFRrtgrT/movie/21870"},{"id":21867,"title":"Взаперти","kp_id":"423573","imdb_id":"tt1245774","world_art_id":null,"type":"movie","add":"2019-01-27 11:12:10","orig_title":"Jail","year":"2009-11-06","translations":["Профессиональный (многоголосый закадровый)"],"quality":"bd","translation":"Профессиональный (многоголосый закадровый)","update":"2019-02-06 06:17:01","iframe_src":"//7043.svetacdn.in/si4jsFRrtgrT/movie/21867"},{"id":20195,"title":"Долгая идиотская дорога","kp_id":"1023814","imdb_id":"tt4712076","world_art_id":null,"type":"movie","add":"2018-11-18 20:07:38","orig_title":"The Long Dumb Road","year":"2018-01-26","translations":["Любительский (многоголосый закадровый) (Синема УС)","Профессиональный (многоголосый закадровый) (HDrezka Studio)"],"quality":"webdl","translation":"Любительский (многоголосый закадровый) (Синема УС)","update":"2019-02-05 07:18:43","iframe_src":"//7043.svetacdn.in/si4jsFRrtgrT/movie/20195"},{"id":19934,"title":"Тень закона","kp_id":"1068379","imdb_id":"tt7104984","world_art_id":null,"type":"movie","add":"2018-11-03 22:37:56","orig_title":"La sombra de la ley","year":"2018-10-05","translations":["Любительский (многоголосый закадровый) (Синема УС)","Любительский (двухголосый закадровый) (HiWayGrope)","Профессиональный (многоголосый закадровый) (HDrezka Studio)"],"quality":"webdl","translation":"Любительский (многоголосый закадровый) (Синема УС)","update":"2019-02-05 07:16:05","iframe_src":"//7043.svetacdn.in/si4jsFRrtgrT/movie/19934"},{"id":19530,"title":"Небесный мастер: История летающей семьи","kp_id":"167883","imdb_id":"tt0408681","world_art_id":null,"type":"movie","add":"2018-10-12 23:26:16","orig_title":"Der var engang en dreng - som fik en lillesøster med vinger","year":"2006-10-13","translations":["Авторский (одноголосый закадровый) (Визгунов Сергей)","Профессиональный (многоголосый закадровый) (GreenРай Studio)"],"quality":"dvdrip","translation":"Авторский (одноголосый закадровый) (Визгунов Сергей)","update":"2019-02-05 07:13:45","iframe_src":"//7043.svetacdn.in/si4jsFRrtgrT/movie/19530"},{"id":18949,"title":"Сопротивления банкира","kp_id":"932023","imdb_id":"tt4610378","world_art_id":null,"type":"movie","add":"2018-09-12 23:05:36","orig_title":"Bankier van het Verzet","year":"2018-03-08","translations":["Любительский (многоголосый закадровый) (Синема УС)","Любительский (двухголосый закадровый) (HiWayGrope)","Профессиональный (многоголосый закадровый) (GreenРай Studio)"],"quality":"webdl","translation":"Любительский (многоголосый закадровый) (Синема УС)","update":"2019-02-05 07:28:38","iframe_src":"//7043.svetacdn.in/si4jsFRrtgrT/movie/18949"},{"id":15219,"title":"Разные миры","kp_id":"873179","imdb_id":"tt3909336","world_art_id":null,"type":"movie","add":"2018-02-17 23:25:51","orig_title":"Enas Allos Kosmos","year":"2015-12-17","translations":["Любительский (многоголосый закадровый) (Синема УС)","Профессиональный (многоголосый закадровый) (GreenРай Studio)","Любительский (многоголосый закадровый)"],"quality":"webdl","translation":"Любительский (многоголосый закадровый) (Синема УС)","update":"2019-02-06 06:03:42","iframe_src":"//7043.svetacdn.in/si4jsFRrtgrT/movie/15219"},{"id":9118,"title":"Случайный экзорцист","kp_id":"920800","imdb_id":"tt4834150","world_art_id":null,"type":"movie","add":"2017-01-23 06:04:27","orig_title":"Accidental Exorcist","year":"2016-06-24","translations":["Любительский (одноголосый закадровый) (Хихикающий доктор)","Любительский (многоголосый закадровый) (Колобок)"],"quality":"webdl","translation":"Любительский (одноголосый закадровый) (Хихикающий доктор)","update":"2019-02-05 07:31:06","iframe_src":"//7043.svetacdn.in/si4jsFRrtgrT/movie/9118"}],"current_page":1551,"first_page_url":"https://videocdn.tv/api/short?limit=100&api_token=X6EwAUfE5M9xbo7y0Bp0aPf3uXxG2KLL&cache31551=31551&page=1","from":155001,"last_page":614,"last_page_url":"https://videocdn.tv/api/short?limit=100&api_token=X6EwAUfE5M9xbo7y0Bp0aPf3uXxG2KLL&cache31551=31551&page=614","next_page_url":null,"path":"https://videocdn.tv/api/short","per_page":100,"prev_page_url":"https://videocdn.tv/api/short?limit=100&api_token=X6EwAUfE5M9xbo7y0Bp0aPf3uXxG2KLL&cache31551=31551&page=1550","to":155020,"total":61324}