{"result":true,"data":[{"id":49627,"title":"Геркулес в копях царя Соломона","kp_id":"138778","imdb_id":"tt0183452","world_art_id":null,"type":"movie","add":"2021-04-14 21:30:43","orig_title":"Maciste nelle miniere del re Salomone","year":"1964-06-25","translations":["Любительский (одноголосый закадровый)"],"quality":"dvdrip","translation":"Любительский (одноголосый закадровый)","update":"2021-04-15 06:33:41","iframe_src":"//83.svetacdn.in/PfJ50H0ZBPg3/movie/49627"},{"id":49626,"title":"Мацист и дочери долины","kp_id":"114910","imdb_id":"tt0139696","world_art_id":null,"type":"movie","add":"2021-04-14 21:28:29","orig_title":"La valle dell'eco tonante","year":"1964-10-09","translations":["Профессиональный (многоголосый закадровый)"],"quality":"dvdrip","translation":"Профессиональный (многоголосый закадровый)","update":"2021-04-15 06:51:41","iframe_src":"//83.svetacdn.in/PfJ50H0ZBPg3/movie/49626"},{"id":49610,"title":"Королевская помолвка на рождество","kp_id":"1367638","imdb_id":"tt12110636","world_art_id":null,"type":"movie","add":"2021-04-14 12:51:20","orig_title":"A Royal Christmas Engagement","year":"2020-11-29","translations":["Любительский (многоголосый закадровый) (AlphaProject)"],"quality":"webdl","translation":"Любительский (многоголосый закадровый) (AlphaProject)","update":"2021-04-14 17:03:35","iframe_src":"//83.svetacdn.in/PfJ50H0ZBPg3/movie/49610"},{"id":49609,"title":"Высокий, тёмный и смертоносный","kp_id":"298010","imdb_id":"tt0114611","world_art_id":null,"type":"movie","add":"2021-04-14 12:03:43","orig_title":"Tall, Dark and Deadly","year":"1995-01-24","translations":["Авторский (одноголосый закадровый) (Иванов Михаил)"],"quality":"vhs","translation":"Авторский (одноголосый закадровый) (Иванов Михаил)","update":"2021-04-14 15:21:31","iframe_src":"//83.svetacdn.in/PfJ50H0ZBPg3/movie/49609"},{"id":49607,"title":"Всего лишь время","kp_id":"295372","imdb_id":"tt0249517","world_art_id":null,"type":"movie","add":"2021-04-14 12:01:52","orig_title":"For All Time","year":"2000-10-18","translations":["Профессиональный (многоголосый закадровый)"],"quality":"sat","translation":"Профессиональный (многоголосый закадровый)","update":"2021-04-14 15:20:08","iframe_src":"//83.svetacdn.in/PfJ50H0ZBPg3/movie/49607"},{"id":49605,"title":"Когда Ницше плакал","kp_id":"261475","imdb_id":"tt0760188","world_art_id":null,"type":"movie","add":"2021-04-14 11:59:22","orig_title":"When Nietzsche Wept","year":"2007-07-07","translations":["Любительский (одноголосый закадровый)"],"quality":"dvdrip","translation":"Любительский (одноголосый закадровый)","update":"2021-04-14 17:01:59","iframe_src":"//83.svetacdn.in/PfJ50H0ZBPg3/movie/49605"},{"id":49600,"title":"Все о сексе","kp_id":"1281853","imdb_id":"tt9730822","world_art_id":null,"type":"movie","add":"2021-04-14 04:40:26","orig_title":"Natural Disaster","year":"2020-01-16","translations":["Любительский (многоголосый закадровый) (AlphaProject)"],"quality":"webdl","translation":"Любительский (многоголосый закадровый) (AlphaProject)","update":"2021-04-14 14:52:00","iframe_src":"//83.svetacdn.in/PfJ50H0ZBPg3/movie/49600"},{"id":49510,"title":"Новые боги: Возрождение Нэчжи","kp_id":"1388638","imdb_id":"tt13269670","world_art_id":null,"type":"movie","add":"2021-04-11 16:26:33","orig_title":"Xin shen bang: Na zha chong sheng","year":"2021-02-06","translations":["Любительский (двухголосый закадровый) (Колобок)","Любительский (двухголосый закадровый) (AniStar)","Любительский (двухголосый закадровый) (DeadSno & den904)"],"quality":"webdl","translation":"Любительский (двухголосый закадровый) (Колобок)","update":"2021-04-15 05:55:24","iframe_src":"//83.svetacdn.in/PfJ50H0ZBPg3/movie/49510"},{"id":48617,"title":"Кровь на короне","kp_id":"1302874","imdb_id":"tt10951288","world_art_id":null,"type":"movie","add":"2021-03-10 10:41:47","orig_title":"Just Noise","year":"2021-03-09","translations":["Любительский (многоголосый закадровый) (@MUZOBOZ@)","Original (English)"],"quality":"webdl","translation":"Любительский (многоголосый закадровый) (@MUZOBOZ@)","update":"2021-04-15 06:40:36","iframe_src":"//83.svetacdn.in/PfJ50H0ZBPg3/movie/48617"},{"id":48466,"title":"Странные игры","kp_id":null,"imdb_id":"tt3331986","world_art_id":null,"type":"movie","add":"2021-03-05 09:55:22","orig_title":"Ransum Games","year":"2021-01-01","translations":["Любительский (многоголосый закадровый) (Синема УС)","Любительский (двухголосый закадровый) (Mallorn Studio)","Original (English)"],"quality":"webdl","translation":"Любительский (многоголосый закадровый) (Синема УС)","update":"2021-04-15 06:34:17","iframe_src":"//83.svetacdn.in/PfJ50H0ZBPg3/movie/48466"},{"id":48217,"title":"Обмануть смерть","kp_id":"1230427","imdb_id":"tt9510324","world_art_id":null,"type":"movie","add":"2021-02-24 10:40:26","orig_title":"Death of a Fool","year":"2020-02-20","translations":["Любительский (многоголосый закадровый) (AlphaProject)","Любительский (многоголосый закадровый) (AlphaProject)","Original (English)"],"quality":"webdl","translation":"Любительский (многоголосый закадровый) (AlphaProject)","update":"2021-04-15 06:44:09","iframe_src":"//83.svetacdn.in/PfJ50H0ZBPg3/movie/48217"},{"id":48212,"title":"Меня Зовут Нормандия","kp_id":null,"imdb_id":"tt4924686","world_art_id":null,"type":"movie","add":"2021-02-24 09:43:08","orig_title":"Normandy Is My Name","year":"2020-06-09","translations":["Любительский (многоголосый закадровый) (Синема УС)","Любительский (многоголосый закадровый) (AlphaProject)","Original (English)"],"quality":"webdl","translation":"Любительский (многоголосый закадровый) (Синема УС)","update":"2021-04-15 06:36:21","iframe_src":"//83.svetacdn.in/PfJ50H0ZBPg3/movie/48212"},{"id":48195,"title":"Сладкая жизнь","kp_id":"1344286","imdb_id":"tt11685322","world_art_id":null,"type":"movie","add":"2021-02-23 16:26:20","orig_title":"Sweet Thing","year":"2020-02-24","translations":["Любительский (многоголосый закадровый) (AlphaProject)","Original (English)"],"quality":"webdl","translation":"Любительский (многоголосый закадровый) (AlphaProject)","update":"2021-04-15 06:32:43","iframe_src":"//83.svetacdn.in/PfJ50H0ZBPg3/movie/48195"},{"id":48086,"title":"Нетихая жизнь","kp_id":"1318973","imdb_id":"tt7598106","world_art_id":null,"type":"movie","add":"2021-02-21 08:02:38","orig_title":"To Olivia","year":"2021-02-19","translations":["Любительский (многоголосый закадровый) (@MUZOBOZ@)","Original (English)"],"quality":"webdl","translation":"Любительский (многоголосый закадровый) (@MUZOBOZ@)","update":"2021-04-15 06:30:33","iframe_src":"//83.svetacdn.in/PfJ50H0ZBPg3/movie/48086"},{"id":47134,"title":"Никому не говори","kp_id":"1186112","imdb_id":"tt8046498","world_art_id":null,"type":"movie","add":"2021-01-16 08:51:58","orig_title":"Don't Tell a Soul","year":"2020-09-08","translations":["Любительский (многоголосый закадровый) (@MUZOBOZ@)","Любительский (двухголосый закадровый) (Hamster Studio)","Original (English)"],"quality":"webdl","translation":"Любительский (многоголосый закадровый) (@MUZOBOZ@)","update":"2021-04-15 06:42:09","iframe_src":"//83.svetacdn.in/PfJ50H0ZBPg3/movie/47134"},{"id":45992,"title":"Дикая парочка","kp_id":"1262046","imdb_id":"tt6842770","world_art_id":null,"type":"movie","add":"2020-12-10 19:46:29","orig_title":"Wild Mountain Thyme","year":"2020-12-11","translations":["Любительский (многоголосый закадровый) (@MUZOBOZ@)","Полное дублирование (iTunes)","Original (English)"],"quality":"webdl","translation":"Любительский (многоголосый закадровый) (@MUZOBOZ@)","update":"2021-04-15 06:27:16","iframe_src":"//83.svetacdn.in/PfJ50H0ZBPg3/movie/45992"},{"id":8713,"title":"Участок","kp_id":null,"imdb_id":"tt2359700","world_art_id":null,"type":"serial","add":"2020-09-12 19:24:36","orig_title":"Main courante","year":"2012-11-16","translations":["Любительский (многоголосый закадровый) (WestFilm)"],"seasons_count":1,"episodes_count":8,"episodes":8,"update":"2020-09-14 06:59:32","iframe_src":"//83.svetacdn.in/PfJ50H0ZBPg3/tv-series/8713"},{"id":8711,"title":"И снова будет день","kp_id":"1379065","imdb_id":null,"world_art_id":null,"type":"serial","add":"2020-09-12 18:47:55","orig_title":"И снова будет день","year":"2020-04-18","translations":["Оригинальная дорожка"],"seasons_count":1,"episodes_count":4,"episodes":4,"update":"2020-09-13 06:31:06","iframe_src":"//83.svetacdn.in/PfJ50H0ZBPg3/tv-series/8711"},{"id":8710,"title":"Лучшие детективы","kp_id":"1223573","imdb_id":"tt9332962","world_art_id":null,"type":"serial","add":"2020-09-12 17:00:36","orig_title":"The InBESTigators","year":"2019-06-21","translations":["Любительский (многоголосый закадровый) (WestFilm)"],"seasons_count":2,"episodes_count":20,"episodes":10,"update":"2020-09-13 13:34:03","iframe_src":"//83.svetacdn.in/PfJ50H0ZBPg3/tv-series/8710"},{"id":8707,"title":"Закон Ньютон","kp_id":"1044478","imdb_id":"tt5951152","world_art_id":null,"type":"serial","add":"2020-09-12 07:42:56","orig_title":"Newton’s Law","year":"2017-02-09","translations":["Любительский (многоголосый закадровый) (WestFilm)"],"seasons_count":1,"episodes_count":8,"episodes":8,"update":"2020-09-13 06:48:54","iframe_src":"//83.svetacdn.in/PfJ50H0ZBPg3/tv-series/8707"},{"id":8702,"title":"Эд, Эдд и Эдди","kp_id":"469580","imdb_id":"tt0184111","world_art_id":null,"type":"serial","add":"2020-09-11 15:27:29","orig_title":"Ed, Edd n Eddy","year":"1999-01-04","translations":["Полное дублирование"],"seasons_count":5,"episodes_count":53,"episodes":7,"update":"2020-09-13 16:00:20","iframe_src":"//83.svetacdn.in/PfJ50H0ZBPg3/tv-series/8702"},{"id":8699,"title":"Следователь: британская криминальная история","kp_id":"1046672","imdb_id":"tt5900164","world_art_id":null,"type":"serial","add":"2020-09-11 10:22:36","orig_title":"The Investigator: A British Crime Story","year":"2016-07-14","translations":["Любительский (многоголосый закадровый) (WestFilm)"],"seasons_count":2,"episodes_count":7,"episodes":3,"update":"2020-09-14 06:15:05","iframe_src":"//83.svetacdn.in/PfJ50H0ZBPg3/tv-series/8699"},{"id":8698,"title":"Кавардак","kp_id":"1158250","imdb_id":"tt8297790","world_art_id":null,"type":"serial","add":"2020-09-11 10:02:04","orig_title":"À la valdrague","year":"2018-04-09","translations":["Любительский (многоголосый закадровый) (WestFilm)"],"seasons_count":1,"episodes_count":8,"episodes":8,"update":"2020-09-13 09:45:01","iframe_src":"//83.svetacdn.in/PfJ50H0ZBPg3/tv-series/8698"},{"id":8684,"title":"Охотники на драконов","kp_id":"276206","imdb_id":"tt0488444","world_art_id":null,"type":"serial","add":"2020-09-10 08:52:07","orig_title":"Chasseurs de dragons","year":"2006-03-01","translations":["Профессиональный (многоголосый закадровый)"],"seasons_count":2,"episodes_count":52,"episodes":26,"update":"2020-09-12 13:23:44","iframe_src":"//83.svetacdn.in/PfJ50H0ZBPg3/tv-series/8684"},{"id":8668,"title":"Спутники","kp_id":"840899","imdb_id":null,"world_art_id":null,"type":"serial","add":"2020-09-09 06:12:04","orig_title":"Спутники","year":"2020-09-08","translations":["Оригинальная дорожка"],"seasons_count":1,"episodes_count":8,"episodes":8,"update":"2020-09-12 16:36:40","iframe_src":"//83.svetacdn.in/PfJ50H0ZBPg3/tv-series/8668"},{"id":8659,"title":"Бразильянки","kp_id":"592424","imdb_id":"tt1951552","world_art_id":null,"type":"serial","add":"2020-09-08 17:07:57","orig_title":"As Brasileiras","year":"2012-02-02","translations":["Любительский (двухголосый закадровый) (Alternative Production)"],"seasons_count":1,"episodes_count":22,"episodes":22,"update":"2020-09-12 10:08:30","iframe_src":"//83.svetacdn.in/PfJ50H0ZBPg3/tv-series/8659"},{"id":8637,"title":"Гордость и предубеждение","kp_id":"843689","imdb_id":null,"world_art_id":null,"type":"serial","add":"2020-09-06 13:01:57","orig_title":"Omangwa pyeongyeon","year":"2014-10-27","translations":["Любительский (двухголосый закадровый) (GREEN TEA)"],"seasons_count":1,"episodes_count":21,"episodes":21,"update":"2020-09-12 10:23:59","iframe_src":"//83.svetacdn.in/PfJ50H0ZBPg3/tv-series/8637"},{"id":8636,"title":"Безнадежная любовь","kp_id":"747666","imdb_id":"tt3364858","world_art_id":null,"type":"serial","add":"2020-09-06 12:38:34","orig_title":"Motdoen sarang","year":"2007-12-03","translations":["Любительский (одноголосый закадровый) (GREEN TEA)"],"seasons_count":1,"episodes_count":20,"episodes":20,"update":"2020-09-12 11:57:26","iframe_src":"//83.svetacdn.in/PfJ50H0ZBPg3/tv-series/8636"},{"id":8631,"title":"Сладкая жизнь","kp_id":"736143","imdb_id":"tt2015595","world_art_id":null,"type":"serial","add":"2020-09-05 18:09:29","orig_title":"Dalkomhan insaeng","year":"2008-05-03","translations":["Любительский (двухголосый закадровый) (GREEN TEA)"],"seasons_count":1,"episodes_count":24,"episodes":24,"update":"2020-09-12 10:24:25","iframe_src":"//83.svetacdn.in/PfJ50H0ZBPg3/tv-series/8631"},{"id":8630,"title":"Щенок в моем кармане","kp_id":"656698","imdb_id":"tt1842602","world_art_id":null,"type":"serial","add":"2020-09-05 16:54:40","orig_title":"Cuccioli cerca amici nel regno di Pocketville","year":"2010-10-25","translations":["Профессиональный (многоголосый закадровый)"],"seasons_count":1,"episodes_count":52,"episodes":52,"update":"2020-09-12 11:58:18","iframe_src":"//83.svetacdn.in/PfJ50H0ZBPg3/tv-series/8630"},{"id":8564,"title":"Пацанка","kp_id":"1302161","imdb_id":"tt10955558","world_art_id":null,"type":"serial","add":"2020-08-29 14:23:11","orig_title":"La Garçonne","year":"2020-04-15","translations":["Любительский (многоголосый закадровый) (Octopus)","Любительский (многоголосый закадровый) (ColdFilm)"],"seasons_count":1,"episodes_count":6,"episodes":6,"update":"2020-09-13 16:13:11","iframe_src":"//83.svetacdn.in/PfJ50H0ZBPg3/tv-series/8564"},{"id":8418,"title":"Надежда","kp_id":"1147712","imdb_id":"tt7915124","world_art_id":null,"type":"serial","add":"2020-08-12 20:37:57","orig_title":"Håbet","year":"2018-12-01","translations":["Любительский (многоголосый закадровый) (Octopus)","Любительский (многоголосый закадровый) (WestFilm)"],"seasons_count":1,"episodes_count":4,"episodes":4,"update":"2020-09-13 07:51:25","iframe_src":"//83.svetacdn.in/PfJ50H0ZBPg3/tv-series/8418"},{"id":41778,"title":"Лузеры против пришельцев","kp_id":"1197142","imdb_id":"tt7127184","world_art_id":null,"type":"movie","add":"2020-07-15 23:35:33","orig_title":"Useless Humans","year":"2020-07-14","translations":["Любительский (многоголосый закадровый) (@MUZOBOZ@)","Профессиональный (многоголосый закадровый) (iTunes)","Original (English)"],"quality":"webdl","translation":"Любительский (многоголосый закадровый) (@MUZOBOZ@)","update":"2021-04-15 06:29:06","iframe_src":"//83.svetacdn.in/PfJ50H0ZBPg3/movie/41778"},{"id":8013,"title":"Пакетное соглашение","kp_id":"757127","imdb_id":"tt2559390","world_art_id":null,"type":"serial","add":"2020-06-25 12:05:56","orig_title":"Package Deal","year":"2013-06-18","translations":["Профессиональный (одноголосый закадровый) (Кураж-Бамбей)"],"seasons_count":2,"episodes_count":26,"episodes":13,"update":"2020-09-13 14:46:54","iframe_src":"//83.svetacdn.in/PfJ50H0ZBPg3/tv-series/8013"},{"id":34239,"title":"Люси в небесах","kp_id":"1111893","imdb_id":"tt4682804","world_art_id":null,"type":"movie","add":"2019-12-17 21:08:31","orig_title":"Lucy in the Sky","year":"2019-09-11","translations":["Профессиональный (многоголосый закадровый) (iTunes)","Original (English)"],"quality":"webdl","translation":"Профессиональный (многоголосый закадровый) (iTunes)","update":"2021-04-15 06:38:26","iframe_src":"//83.svetacdn.in/PfJ50H0ZBPg3/movie/34239"},{"id":4740,"title":"Воровки","kp_id":"1200994","imdb_id":"tt9134194","world_art_id":null,"type":"serial","add":"2019-06-24 20:48:13","orig_title":"Trinkets","year":"2019-06-14","translations":["Профессиональный (многоголосый закадровый) (Sound Film)","Полное дублирование (Пифагор)","Любительский (многоголосый закадровый) (ColdFilm)","Любительский (многоголосый закадровый) (Octopus)","Профессиональный (многоголосый закадровый) (BaibaKo)"],"seasons_count":2,"episodes_count":20,"episodes":10,"update":"2020-09-14 05:34:44","iframe_src":"//83.svetacdn.in/PfJ50H0ZBPg3/tv-series/4740"},{"id":4212,"title":"Доказанная невиновность","kp_id":"1115573","imdb_id":"tt7958782","world_art_id":null,"type":"serial","add":"2019-03-06 06:08:41","orig_title":"Proven Innocent","year":"2019-02-15","translations":["Профессиональный (многоголосый закадровый) (NewStudio)","Профессиональный (многоголосый закадровый) (OMSKBIRD records)","Профессиональный (многоголосый закадровый) (HDrezka Studio)"],"seasons_count":1,"episodes_count":13,"episodes":13,"update":"2020-09-12 17:40:33","iframe_src":"//83.svetacdn.in/PfJ50H0ZBPg3/tv-series/4212"},{"id":8111,"title":"Ночь страшного суда","kp_id":"21916","imdb_id":"tt0107286","world_art_id":null,"type":"movie","add":"2016-12-17 09:30:05","orig_title":"Judgment Night","year":"1993-10-15","translations":["Профессиональный (многоголосый закадровый)","Авторский (одноголосый закадровый) (Дохалов Вартан)","Авторский (одноголосый закадровый) (Кузнецов Сергей)","Авторский (одноголосый закадровый) (Яроцкий Михаил | Kyberpunk)","Авторский (одноголосый закадровый) (Живов Юрий)","Original (English)","Профессиональный (многоголосый закадровый) (Первый канал | ОРТ)"],"quality":"bd","translation":"Профессиональный (многоголосый закадровый)","update":"2021-04-14 14:25:22","iframe_src":"//83.svetacdn.in/PfJ50H0ZBPg3/movie/8111"},{"id":668,"title":"Просто нет слов","kp_id":"973092","imdb_id":"tt5592146","world_art_id":null,"type":"serial","add":"2016-12-07 07:13:41","orig_title":"Speechless","year":"2016-09-21","translations":["Профессиональный (двухголосый закадровый) (Sunshine Studio)","Полное дублирование (True Dubbing Studio)","Любительский (двухголосый закадровый) (Sunshine Studio)","Профессиональный (многоголосый закадровый) (BaibaKo)","Профессиональный (многоголосый закадровый) (HDrezka Studio)"],"seasons_count":3,"episodes_count":63,"episodes":22,"update":"2020-09-14 07:41:58","iframe_src":"//83.svetacdn.in/PfJ50H0ZBPg3/tv-series/668"},{"id":5469,"title":"1492: Завоевание рая","kp_id":"2613","imdb_id":"tt0103594","world_art_id":null,"type":"movie","add":"2016-09-23 09:32:52","orig_title":"1492: Conquest of Paradise","year":"1992-10-08","translations":["Профессиональный (многоголосый закадровый)","Авторский (одноголосый закадровый) (Гаврилов Андрей)","Профессиональный (двухголосый закадровый) (ТВ3)","Original (English)","Профессиональный (многоголосый закадровый) (RUSCICO)","Профессиональный (многоголосый закадровый) (ТВЦ)"],"quality":"bd","translation":"Профессиональный (многоголосый закадровый)","update":"2021-04-14 14:15:36","iframe_src":"//83.svetacdn.in/PfJ50H0ZBPg3/movie/5469"}],"current_page":157,"first_page_url":"https://videocdn.tv/api/short?limit=100&api_token=RgFQdUIR2dRmwv8iYa5SnFNgnw3vpjKj&cache3157=3157&page=1","from":15601,"last_page":635,"last_page_url":"https://videocdn.tv/api/short?limit=100&api_token=RgFQdUIR2dRmwv8iYa5SnFNgnw3vpjKj&cache3157=3157&page=635","next_page_url":"https://videocdn.tv/api/short?limit=100&api_token=RgFQdUIR2dRmwv8iYa5SnFNgnw3vpjKj&cache3157=3157&page=158","path":"https://videocdn.tv/api/short","per_page":100,"prev_page_url":"https://videocdn.tv/api/short?limit=100&api_token=RgFQdUIR2dRmwv8iYa5SnFNgnw3vpjKj&cache3157=3157&page=156","to":15640,"total":63490}