{"result":true,"data":[{"id":24683,"title":"Берем всё на себя","kp_id":"46093","imdb_id":null,"world_art_id":null,"type":"movie","add":"2019-04-16 08:07:07","orig_title":"Берем всё на себя","year":"1981-02-14","translations":["Оригинальная дорожка"],"quality":"dvdrip","translation":"Оригинальная дорожка","update":"2019-04-17 07:46:39","iframe_src":"//83.svetacdn.in/PfJ50H0ZBPg3/movie/24683"},{"id":24682,"title":"Скульптор смерти","kp_id":"446119","imdb_id":null,"world_art_id":null,"type":"movie","add":"2019-04-16 07:46:25","orig_title":"Скульптор смерти","year":"2007-12-09","translations":["Оригинальная дорожка"],"quality":"dvdrip","translation":"Оригинальная дорожка","update":"2019-04-17 07:45:31","iframe_src":"//83.svetacdn.in/PfJ50H0ZBPg3/movie/24682"},{"id":24681,"title":"Приключения Васи Куролесова","kp_id":"259992","imdb_id":"tt0260295","world_art_id":null,"type":"movie","add":"2019-04-16 07:44:24","orig_title":"Priklyucheniya Vasi Kurolesova","year":"1981-01-01","translations":["Оригинальная дорожка"],"quality":"bd","translation":"Оригинальная дорожка","update":"2019-04-17 07:45:50","iframe_src":"//83.svetacdn.in/PfJ50H0ZBPg3/movie/24681"},{"id":24680,"title":"Подарок черного колдуна","kp_id":"43041","imdb_id":"tt0078095","world_art_id":null,"type":"movie","add":"2019-04-16 07:42:52","orig_title":"Podarok chyornogo kolduna","year":"1979-09-23","translations":["Оригинальная дорожка"],"quality":"dvdrip","translation":"Оригинальная дорожка","update":"2019-04-17 07:44:01","iframe_src":"//83.svetacdn.in/PfJ50H0ZBPg3/movie/24680"},{"id":24679,"title":"Любимая женщина механика Гаврилова","kp_id":"45137","imdb_id":"tt0155841","world_art_id":null,"type":"movie","add":"2019-04-16 07:40:43","orig_title":"Lyubimaya zhenshchina mekhanika Gavrilova","year":"1982-03-08","translations":["Оригинальная дорожка"],"quality":"dvdrip","translation":"Оригинальная дорожка","update":"2019-04-17 07:42:48","iframe_src":"//83.svetacdn.in/PfJ50H0ZBPg3/movie/24679"},{"id":24676,"title":"Алиса в Зазеркалье","kp_id":"43458","imdb_id":"tt0211192","world_art_id":null,"type":"movie","add":"2019-04-16 07:33:19","orig_title":"Alisa v Zazerkale","year":"1982-01-01","translations":["Оригинальная дорожка"],"quality":"dvdrip","translation":"Оригинальная дорожка","update":"2019-04-17 07:40:49","iframe_src":"//83.svetacdn.in/PfJ50H0ZBPg3/movie/24676"},{"id":24675,"title":"Алиса в стране чудес","kp_id":"43457","imdb_id":"tt0211191","world_art_id":null,"type":"movie","add":"2019-04-16 07:31:12","orig_title":"Alisa v strane chudes","year":"1984-12-26","translations":["Оригинальная дорожка"],"quality":"dvdrip","translation":"Оригинальная дорожка","update":"2019-04-17 07:38:31","iframe_src":"//83.svetacdn.in/PfJ50H0ZBPg3/movie/24675"},{"id":24656,"title":"Русская игра","kp_id":"320031","imdb_id":"tt1140871","world_art_id":null,"type":"movie","add":"2019-04-15 08:33:53","orig_title":"Russkaya igra","year":"2007-10-04","translations":["Оригинальная дорожка"],"quality":"dvdrip","translation":"Оригинальная дорожка","update":"2019-04-17 07:33:00","iframe_src":"//83.svetacdn.in/PfJ50H0ZBPg3/movie/24656"},{"id":24655,"title":"Очкарик","kp_id":"660952","imdb_id":"tt3802920","world_art_id":null,"type":"movie","add":"2019-04-15 08:32:13","orig_title":"Ochkarik","year":"2012-01-22","translations":["Оригинальная дорожка"],"quality":"dvdrip","translation":"Оригинальная дорожка","update":"2019-04-17 07:32:19","iframe_src":"//83.svetacdn.in/PfJ50H0ZBPg3/movie/24655"},{"id":24654,"title":"Антибумер","kp_id":"430442","imdb_id":null,"world_art_id":null,"type":"movie","add":"2019-04-15 08:29:48","orig_title":"Антибумер","year":"2004-01-01","translations":["Оригинальная дорожка"],"quality":"dvdrip","translation":"Оригинальная дорожка","update":"2019-04-17 07:31:27","iframe_src":"//83.svetacdn.in/PfJ50H0ZBPg3/movie/24654"},{"id":24653,"title":"Хвост дьявола","kp_id":"40887","imdb_id":"tt0305922","world_art_id":null,"type":"movie","add":"2019-04-15 08:27:06","orig_title":"Opashkata na dyavola","year":"2001-11-25","translations":["Оригинальная дорожка"],"quality":"dvdrip","translation":"Оригинальная дорожка","update":"2019-04-17 07:30:06","iframe_src":"//83.svetacdn.in/PfJ50H0ZBPg3/movie/24653"},{"id":24652,"title":"Услышь мое сердце","kp_id":"565061","imdb_id":null,"world_art_id":null,"type":"movie","add":"2019-04-15 08:22:56","orig_title":"Услышь мое сердце","year":"2010-08-29","translations":["Оригинальная дорожка"],"quality":"dvdrip","translation":"Оригинальная дорожка","update":"2019-04-17 07:29:18","iframe_src":"//83.svetacdn.in/PfJ50H0ZBPg3/movie/24652"},{"id":24651,"title":"Укротительница тигров","kp_id":"42516","imdb_id":"tt0047628","world_art_id":null,"type":"movie","add":"2019-04-15 08:20:54","orig_title":"Ukrotitelnitsa tigrov","year":"1955-03-11","translations":["Оригинальная дорожка"],"quality":"hdtv","translation":"Оригинальная дорожка","update":"2019-04-17 07:29:18","iframe_src":"//83.svetacdn.in/PfJ50H0ZBPg3/movie/24651"},{"id":24650,"title":"Терапия любовью","kp_id":"494680","imdb_id":null,"world_art_id":null,"type":"movie","add":"2019-04-15 08:16:37","orig_title":"Терапия любовью","year":"2010-01-31","translations":["Оригинальная дорожка"],"quality":"dvdrip","translation":"Оригинальная дорожка","update":"2019-04-17 07:25:48","iframe_src":"//83.svetacdn.in/PfJ50H0ZBPg3/movie/24650"},{"id":24634,"title":"Новые приключения Аленушки и Еремы","kp_id":"414930","imdb_id":"tt1548621","world_art_id":null,"type":"movie","add":"2019-04-15 07:02:04","orig_title":"Novye priklyucheniya Alyonushki i Eryomy","year":"2009-12-24","translations":["Оригинальная дорожка"],"quality":"bd","translation":"Оригинальная дорожка","update":"2019-04-17 07:36:28","iframe_src":"//83.svetacdn.in/PfJ50H0ZBPg3/movie/24634"},{"id":24549,"title":"Спасите утопающего","kp_id":"43943","imdb_id":"tt0062294","world_art_id":null,"type":"movie","add":"2019-04-14 11:01:30","orig_title":"Spasite utopayushchego","year":"1968-06-01","translations":["Оригинальная дорожка"],"quality":"dvdrip","translation":"Оригинальная дорожка","update":"2019-04-17 07:29:30","iframe_src":"//83.svetacdn.in/PfJ50H0ZBPg3/movie/24549"},{"id":24548,"title":"Среди добрых людей","kp_id":"43958","imdb_id":"tt0056519","world_art_id":null,"type":"movie","add":"2019-04-14 09:45:07","orig_title":"Sredi dobrykh lyudey","year":"1962-11-24","translations":["Оригинальная дорожка"],"quality":"sat","translation":"Оригинальная дорожка","update":"2019-04-17 07:29:16","iframe_src":"//83.svetacdn.in/PfJ50H0ZBPg3/movie/24548"},{"id":24547,"title":"Ваня","kp_id":"45661","imdb_id":"tt0142955","world_art_id":null,"type":"movie","add":"2019-04-14 09:39:16","orig_title":"Vanya","year":"1959-06-02","translations":["Оригинальная дорожка"],"quality":"sat","translation":"Оригинальная дорожка","update":"2019-04-17 07:28:27","iframe_src":"//83.svetacdn.in/PfJ50H0ZBPg3/movie/24547"},{"id":24546,"title":"Старая, старая сказка","kp_id":"43974","imdb_id":"tt0166367","world_art_id":null,"type":"movie","add":"2019-04-13 23:23:45","orig_title":"Staraya, staraya skazka","year":"1969-08-20","translations":["Оригинальная дорожка"],"quality":"dvdrip","translation":"Оригинальная дорожка","update":"2019-04-17 07:27:02","iframe_src":"//83.svetacdn.in/PfJ50H0ZBPg3/movie/24546"},{"id":24545,"title":"Стрелец неприкаянный","kp_id":"41094","imdb_id":"tt0108235","world_art_id":null,"type":"movie","add":"2019-04-13 23:20:36","orig_title":"Strelets neprikayannyy","year":"1993-01-27","translations":["Оригинальная дорожка"],"quality":"dvdrip","translation":"Оригинальная дорожка","update":"2019-04-17 07:26:21","iframe_src":"//83.svetacdn.in/PfJ50H0ZBPg3/movie/24545"}],"current_page":1563,"first_page_url":"https://videocdn.tv/api/short?limit=100&api_token=RgFQdUIR2dRmwv8iYa5SnFNgnw3vpjKj&cache31563=31563&page=1","from":156201,"last_page":642,"last_page_url":"https://videocdn.tv/api/short?limit=100&api_token=RgFQdUIR2dRmwv8iYa5SnFNgnw3vpjKj&cache31563=31563&page=642","next_page_url":null,"path":"https://videocdn.tv/api/short","per_page":100,"prev_page_url":"https://videocdn.tv/api/short?limit=100&api_token=RgFQdUIR2dRmwv8iYa5SnFNgnw3vpjKj&cache31563=31563&page=1562","to":156220,"total":64170}