{"result":true,"data":[{"id":51208,"title":"Расходный материал","kp_id":"505869","imdb_id":"tt1622566","world_art_id":null,"type":"movie","add":"2021-06-15 14:12:47","orig_title":"After Effect","year":"2012-02-08","translations":["Профессиональный (двухголосый закадровый) (НТВ)"],"quality":"sat","translation":"Профессиональный (двухголосый закадровый) (НТВ)","update":"2021-06-16 06:53:24","iframe_src":"//2413.svetacdn.in/IAF0wWTdNYZm/movie/51208"},{"id":51185,"title":"Тигр","kp_id":null,"imdb_id":"tt5191308","world_art_id":null,"type":"movie","add":"2021-06-14 19:54:44","orig_title":"Sher","year":"2015-10-10","translations":["Любительский (одноголосый закадровый)"],"quality":"webdl","translation":"Любительский (одноголосый закадровый)","update":"2021-06-16 04:20:01","iframe_src":"//2413.svetacdn.in/IAF0wWTdNYZm/movie/51185"},{"id":51184,"title":"Еще один победитель","kp_id":"262774","imdb_id":"tt0827765","world_art_id":null,"type":"movie","add":"2021-06-14 19:49:19","orig_title":"Ek Aur Sikander","year":"1986-11-01","translations":["Любительский (одноголосый закадровый)"],"quality":"webdl","translation":"Любительский (одноголосый закадровый)","update":"2021-06-16 04:20:13","iframe_src":"//2413.svetacdn.in/IAF0wWTdNYZm/movie/51184"},{"id":51182,"title":"Играть с огнём","kp_id":"86805","imdb_id":"tt0096748","world_art_id":null,"type":"movie","add":"2021-06-14 19:42:16","orig_title":"Aag Se Khelenge","year":"1989-08-15","translations":["Любительский (одноголосый закадровый)"],"quality":"webdl","translation":"Любительский (одноголосый закадровый)","update":"2021-06-16 04:20:30","iframe_src":"//2413.svetacdn.in/IAF0wWTdNYZm/movie/51182"},{"id":51178,"title":"Пути-Дороги","kp_id":"497970","imdb_id":"tt1580017","world_art_id":null,"type":"movie","add":"2021-06-14 19:30:04","orig_title":"Ride","year":"2009-06-05","translations":["Любительский (одноголосый закадровый)"],"quality":"webdl","translation":"Любительский (одноголосый закадровый)","update":"2021-06-16 04:20:43","iframe_src":"//2413.svetacdn.in/IAF0wWTdNYZm/movie/51178"},{"id":51177,"title":"Бирадж Баху","kp_id":"96736","imdb_id":"tt0046780","world_art_id":null,"type":"movie","add":"2021-06-14 19:26:10","orig_title":"Biraj Bahu","year":"1957-02-25","translations":["Любительский (одноголосый закадровый)"],"quality":"webdl","translation":"Любительский (одноголосый закадровый)","update":"2021-06-16 04:20:51","iframe_src":"//2413.svetacdn.in/IAF0wWTdNYZm/movie/51177"},{"id":51175,"title":"Афера Цеплиса","kp_id":"316363","imdb_id":"tt1018881","world_art_id":null,"type":"movie","add":"2021-06-14 18:42:49","orig_title":"Ceplis","year":"1972-02-22","translations":["Профессиональный (многоголосый закадровый)"],"quality":"sat","translation":"Профессиональный (многоголосый закадровый)","update":"2021-06-16 06:47:26","iframe_src":"//2413.svetacdn.in/IAF0wWTdNYZm/movie/51175"},{"id":51174,"title":"Кого мы больше любим","kp_id":"994646","imdb_id":"tt8237766","world_art_id":null,"type":"movie","add":"2021-06-14 18:39:12","orig_title":"Cazibä qüvväsi","year":"1964-12-10","translations":["Полное дублирование"],"quality":"webdl","translation":"Полное дублирование","update":"2021-06-16 06:46:09","iframe_src":"//2413.svetacdn.in/IAF0wWTdNYZm/movie/51174"},{"id":51172,"title":"Беспокойное лето","kp_id":"478634","imdb_id":"tt1677517","world_art_id":null,"type":"movie","add":"2021-06-14 18:34:53","orig_title":"Bespokoynoye leto","year":"1981-01-01","translations":["Оригинальная дорожка"],"quality":"tv","translation":"Оригинальная дорожка","update":"2021-06-16 06:45:30","iframe_src":"//2413.svetacdn.in/IAF0wWTdNYZm/movie/51172"},{"id":51171,"title":"Балтийцы","kp_id":"46024","imdb_id":"tt0030436","world_art_id":null,"type":"movie","add":"2021-06-14 18:31:34","orig_title":"Baltiytsy","year":"1938-01-02","translations":["Оригинальная дорожка"],"quality":"dvdrip","translation":"Оригинальная дорожка","update":"2021-06-16 06:44:35","iframe_src":"//2413.svetacdn.in/IAF0wWTdNYZm/movie/51171"},{"id":51170,"title":"2-Леонид-2","kp_id":"478562","imdb_id":"tt13967656","world_art_id":null,"type":"movie","add":"2021-06-14 18:27:16","orig_title":"2 - Leonid - 2","year":"1971-06-03","translations":["Оригинальная дорожка"],"quality":"vhs","translation":"Оригинальная дорожка","update":"2021-06-16 06:43:41","iframe_src":"//2413.svetacdn.in/IAF0wWTdNYZm/movie/51170"},{"id":51086,"title":"Арифметика любви","kp_id":"43528","imdb_id":"tt0265042","world_art_id":null,"type":"movie","add":"2021-06-10 20:39:29","orig_title":"Arifmetika lyubvi","year":"1987-07-13","translations":["Оригинальная дорожка"],"quality":"sat","translation":"Оригинальная дорожка","update":"2021-06-16 06:42:58","iframe_src":"//2413.svetacdn.in/IAF0wWTdNYZm/movie/51086"},{"id":51083,"title":"Спасибо за нелётную погоду","kp_id":"969883","imdb_id":"tt5573576","world_art_id":null,"type":"movie","add":"2021-06-10 20:36:55","orig_title":"Spasibo za nelyotnuyu pogodu","year":"1981-01-01","translations":["Оригинальная дорожка"],"quality":"sat","translation":"Оригинальная дорожка","update":"2021-06-16 06:42:07","iframe_src":"//2413.svetacdn.in/IAF0wWTdNYZm/movie/51083"},{"id":51050,"title":"Одиннадцатое июля","kp_id":"981324","imdb_id":null,"world_art_id":null,"type":"movie","add":"2021-06-09 19:17:17","orig_title":"Одиннадцатое июля","year":"1938-01-01","translations":["Оригинальная дорожка"],"quality":"webdl","translation":"Оригинальная дорожка","update":"2021-06-16 06:41:24","iframe_src":"//2413.svetacdn.in/IAF0wWTdNYZm/movie/51050"},{"id":51049,"title":"Друзья","kp_id":"44306","imdb_id":"tt0030083","world_art_id":null,"type":"movie","add":"2021-06-09 19:09:20","orig_title":"Druzya","year":"1939-01-01","translations":["Оригинальная дорожка"],"quality":"sat","translation":"Оригинальная дорожка","update":"2021-06-16 06:40:14","iframe_src":"//2413.svetacdn.in/IAF0wWTdNYZm/movie/51049"},{"id":51048,"title":"В одну-единственную жизнь","kp_id":"45620","imdb_id":"tt0267075","world_art_id":null,"type":"movie","add":"2021-06-09 19:04:26","orig_title":"V odnu-yedinstvennuyu zhizn","year":"1986-07-31","translations":["Оригинальная дорожка"],"quality":"vhs","translation":"Оригинальная дорожка","update":"2021-06-16 06:39:41","iframe_src":"//2413.svetacdn.in/IAF0wWTdNYZm/movie/51048"},{"id":51014,"title":"Новоселье Олега Попова","kp_id":"1228674","imdb_id":null,"world_art_id":null,"type":"movie","add":"2021-06-08 18:31:26","orig_title":"Новоселье Олега Попова","year":"1960-01-01","translations":["Оригинальная дорожка"],"quality":"iptv","translation":"Оригинальная дорожка","update":"2021-06-16 06:37:44","iframe_src":"//2413.svetacdn.in/IAF0wWTdNYZm/movie/51014"},{"id":51012,"title":"Кто умрёт сегодня","kp_id":"594868","imdb_id":null,"world_art_id":null,"type":"movie","add":"2021-06-08 18:10:50","orig_title":"Кто умрёт сегодня","year":"1967-01-01","translations":["Оригинальная дорожка"],"quality":"tv","translation":"Оригинальная дорожка","update":"2021-06-16 06:29:46","iframe_src":"//2413.svetacdn.in/IAF0wWTdNYZm/movie/51012"},{"id":5557,"title":"Кровавый округ: 1974","kp_id":"421924","imdb_id":"tt1259574","world_art_id":null,"type":"movie","add":"2016-09-27 11:36:58","orig_title":"Red Riding: In the Year of Our Lord 1974","year":"2009-02-28","translations":["Профессиональный (двухголосый закадровый)","Любительский (одноголосый закадровый)","Профессиональный (многоголосый закадровый) (Неоклассика)","[EN] Original (English)","Профессиональный (двухголосый закадровый) (НТВ)","Профессиональный (многоголосый закадровый) (СТС)"],"quality":"bd","translation":"Профессиональный (двухголосый закадровый)","update":"2021-06-16 08:28:38","iframe_src":"//2413.svetacdn.in/IAF0wWTdNYZm/movie/5557"},{"id":361,"title":"Приговор идеальной пары","kp_id":"957880","imdb_id":null,"world_art_id":null,"type":"serial","add":"2016-08-24 05:19:49","orig_title":"Приговор идеальной пары","year":"2015-02-13","translations":["Оригинальная дорожка"],"seasons_count":1,"episodes_count":4,"episodes":4,"update":"2016-08-24 11:26:54","iframe_src":"//2413.svetacdn.in/IAF0wWTdNYZm/tv-series/361"},{"id":360,"title":"Весной расцветает любовь","kp_id":"843065","imdb_id":"tt4516764","world_art_id":null,"type":"serial","add":"2016-08-24 05:02:45","orig_title":"Vesnoy rastsvetaet lyubov","year":"2015-02-23","translations":["Оригинальная дорожка"],"seasons_count":1,"episodes_count":20,"episodes":20,"update":"2016-08-24 12:15:00","iframe_src":"//2413.svetacdn.in/IAF0wWTdNYZm/tv-series/360"},{"id":351,"title":"Дикий 4","kp_id":"728039","imdb_id":"tt4192508","world_art_id":null,"type":"serial","add":"2016-08-21 09:20:38","orig_title":"Dikiy 4","year":"2014-03-17","translations":["Оригинальная дорожка"],"seasons_count":1,"episodes_count":32,"episodes":32,"update":"2016-08-22 08:18:07","iframe_src":"//2413.svetacdn.in/IAF0wWTdNYZm/tv-series/351"},{"id":350,"title":"Когда плачут цикады","kp_id":"1039398","imdb_id":"tt5757082","world_art_id":null,"type":"serial","add":"2016-08-19 05:50:20","orig_title":"Higurashi no Naku Koro ni: When They Cry","year":"2016-05-20","translations":["Любительский (двухголосый закадровый) (Колобок)"],"seasons_count":1,"episodes_count":6,"episodes":6,"update":"2016-08-19 08:37:50","iframe_src":"//2413.svetacdn.in/IAF0wWTdNYZm/tv-series/350"},{"id":349,"title":"Письма на стекле. Судьба","kp_id":"941545","imdb_id":null,"world_art_id":null,"type":"serial","add":"2016-08-19 04:42:15","orig_title":"Письма на стекле. Судьба","year":"2015-11-02","translations":["Оригинальная дорожка"],"seasons_count":1,"episodes_count":16,"episodes":16,"update":"2016-08-19 13:47:32","iframe_src":"//2413.svetacdn.in/IAF0wWTdNYZm/tv-series/349"},{"id":348,"title":"Письма на стекле","kp_id":"837749","imdb_id":"tt4020974","world_art_id":null,"type":"serial","add":"2016-08-19 04:40:49","orig_title":"Pisma na stekle","year":"2014-08-25","translations":["Оригинальная дорожка"],"seasons_count":1,"episodes_count":16,"episodes":16,"update":"2016-08-19 12:11:21","iframe_src":"//2413.svetacdn.in/IAF0wWTdNYZm/tv-series/348"},{"id":345,"title":"Тут","kp_id":"842682","imdb_id":"tt3214310","world_art_id":null,"type":"serial","add":"2016-08-18 11:50:06","orig_title":"Tut","year":"2015-07-19","translations":["Профессиональный (многоголосый закадровый) (Jaskier)"],"seasons_count":1,"episodes_count":3,"episodes":3,"update":"2016-08-19 06:38:30","iframe_src":"//2413.svetacdn.in/IAF0wWTdNYZm/tv-series/345"},{"id":340,"title":"Игрок","kp_id":"904411","imdb_id":"tt4474310","world_art_id":null,"type":"serial","add":"2016-08-16 14:34:16","orig_title":"The Player","year":"2015-09-24","translations":["Профессиональный (многоголосый закадровый) (AlexFilm)"],"seasons_count":1,"episodes_count":9,"episodes":9,"update":"2016-08-17 15:21:07","iframe_src":"//2413.svetacdn.in/IAF0wWTdNYZm/tv-series/340"},{"id":339,"title":"Обратная сторона Луны 2","kp_id":"838052","imdb_id":null,"world_art_id":null,"type":"serial","add":"2016-08-16 14:27:39","orig_title":"Обратная сторона Луны 2","year":"2016-07-04","translations":["Оригинальная дорожка"],"seasons_count":1,"episodes_count":16,"episodes":16,"update":"2016-08-17 07:06:12","iframe_src":"//2413.svetacdn.in/IAF0wWTdNYZm/tv-series/339"},{"id":336,"title":"Обратная сторона Луны","kp_id":"622652","imdb_id":"tt2827836","world_art_id":null,"type":"serial","add":"2016-08-15 13:02:39","orig_title":"Obratnaya storona Luny","year":"2012-11-05","translations":["Оригинальная дорожка"],"seasons_count":1,"episodes_count":16,"episodes":16,"update":"2016-08-16 07:54:00","iframe_src":"//2413.svetacdn.in/IAF0wWTdNYZm/tv-series/336"},{"id":335,"title":"Перехватчик","kp_id":"843423","imdb_id":"tt3654614","world_art_id":null,"type":"serial","add":"2016-08-15 12:36:17","orig_title":"The Interceptor","year":"2015-06-10","translations":["Профессиональный (многоголосый закадровый) (ViruseProject)"],"seasons_count":1,"episodes_count":8,"episodes":8,"update":"2016-08-22 08:39:01","iframe_src":"//2413.svetacdn.in/IAF0wWTdNYZm/tv-series/335"},{"id":332,"title":"Мадемуазель Мушкетер","kp_id":"79581","imdb_id":"tt0341855","world_art_id":null,"type":"serial","add":"2016-08-11 13:42:52","orig_title":"La Femme Musketeer","year":"2004-07-20","translations":["Профессиональный (многоголосый закадровый)"],"seasons_count":1,"episodes_count":2,"episodes":2,"update":"2016-08-12 06:09:28","iframe_src":"//2413.svetacdn.in/IAF0wWTdNYZm/tv-series/332"},{"id":327,"title":"Кризис нежного возраста","kp_id":"893844","imdb_id":null,"world_art_id":null,"type":"serial","add":"2016-08-08 19:14:07","orig_title":"Кризис нежного возраста","year":"2016-08-08","translations":["Оригинальная дорожка"],"seasons_count":1,"episodes_count":8,"episodes":8,"update":"2016-08-19 05:35:15","iframe_src":"//2413.svetacdn.in/IAF0wWTdNYZm/tv-series/327"},{"id":4168,"title":"Запретное царство","kp_id":"271999","imdb_id":"tt0865556","world_art_id":null,"type":"movie","add":"2016-07-25 15:51:32","orig_title":"The Forbidden Kingdom","year":"2008-04-04","translations":["Полное дублирование","Авторский (одноголосый закадровый) (Гаврилов Андрей)","Авторский (одноголосый закадровый) (Немахов Юрий)","Полное дублирование","[EN] Original (English)","Любительский (одноголосый закадровый) (Солодухин Евгений | Solod)","Профессиональный (многоголосый закадровый) (Superbit)"],"quality":"bd","translation":"Полное дублирование","update":"2021-06-16 07:58:08","iframe_src":"//2413.svetacdn.in/IAF0wWTdNYZm/movie/4168"},{"id":303,"title":"Секретный агент","kp_id":"988800","imdb_id":"tt4902046","world_art_id":null,"type":"serial","add":"2016-07-21 14:48:03","orig_title":"The Secret Agent","year":"2016-07-17","translations":["Профессиональный (многоголосый закадровый) (BaibaKo)"],"seasons_count":1,"episodes_count":3,"episodes":3,"update":"2016-08-17 10:08:41","iframe_src":"//2413.svetacdn.in/IAF0wWTdNYZm/tv-series/303"},{"id":279,"title":"Центральная больница","kp_id":"981350","imdb_id":null,"world_art_id":null,"type":"serial","add":"2016-07-12 04:17:29","orig_title":"Центральная больница","year":"2016-01-01","translations":["Оригинальная дорожка"],"seasons_count":1,"episodes_count":60,"episodes":60,"update":"2016-08-24 08:35:35","iframe_src":"//2413.svetacdn.in/IAF0wWTdNYZm/tv-series/279"},{"id":237,"title":"Коварные горничные","kp_id":"717293","imdb_id":"tt2226342","world_art_id":null,"type":"serial","add":"2016-06-27 11:55:10","orig_title":"Devious Maids","year":"2013-06-23","translations":["Профессиональный (многоголосый закадровый) (LostFilm)","Профессиональный (многоголосый закадровый) (BaibaKo)","Профессиональный (многоголосый закадровый) (Fox Life)"],"seasons_count":4,"episodes_count":49,"episodes":10,"update":"2016-08-12 05:59:03","iframe_src":"//2413.svetacdn.in/IAF0wWTdNYZm/tv-series/237"},{"id":202,"title":"Обвиняемая","kp_id":"978822","imdb_id":"tt5376862","world_art_id":null,"type":"serial","add":"2016-06-19 12:53:15","orig_title":"Guilt","year":"2016-06-13","translations":["Профессиональный (многоголосый закадровый) (NewStudio)"],"seasons_count":1,"episodes_count":10,"episodes":10,"update":"2016-08-25 07:28:37","iframe_src":"//2413.svetacdn.in/IAF0wWTdNYZm/tv-series/202"},{"id":139,"title":"Лопес","kp_id":"971140","imdb_id":"tt5457178","world_art_id":null,"type":"serial","add":"2016-06-06 04:48:10","orig_title":"Lopez","year":"2016-03-30","translations":["Профессиональный (многоголосый закадровый) (KinoView)"],"seasons_count":1,"episodes_count":12,"episodes":12,"update":"2016-08-22 08:45:29","iframe_src":"//2413.svetacdn.in/IAF0wWTdNYZm/tv-series/139"},{"id":136,"title":"Руководство по выживанию от Купера Баррэта","kp_id":"906885","imdb_id":"tt4452688","world_art_id":null,"type":"serial","add":"2016-06-05 13:57:39","orig_title":"Cooper Barrett's Guide to Surviving Life","year":"2016-01-03","translations":["Профессиональный (многоголосый закадровый) (BaibaKo)"],"seasons_count":1,"episodes_count":13,"episodes":13,"update":"2016-08-12 06:14:41","iframe_src":"//2413.svetacdn.in/IAF0wWTdNYZm/tv-series/136"},{"id":78,"title":"Великие умы с Дэном Хэрмоном","kp_id":"968838","imdb_id":"tt5533758","world_art_id":null,"type":"serial","add":"2016-05-15 13:28:32","orig_title":"Great Minds with Dan Harmon","year":"2016-02-25","translations":["Профессиональный (двухголосый закадровый) (Ozz.tv)"],"seasons_count":1,"episodes_count":13,"episodes":13,"update":"2016-08-16 14:21:50","iframe_src":"//2413.svetacdn.in/IAF0wWTdNYZm/tv-series/78"}],"current_page":616,"first_page_url":"https://videocdn.tv/api/short?limit=100&api_token=6Onb1W1alEUrBcKJZD3GoKBbWyAl2uG2&cache3616=3616&page=1","from":61501,"last_page":723,"last_page_url":"https://videocdn.tv/api/short?limit=100&api_token=6Onb1W1alEUrBcKJZD3GoKBbWyAl2uG2&cache3616=3616&page=723","next_page_url":"https://videocdn.tv/api/short?limit=100&api_token=6Onb1W1alEUrBcKJZD3GoKBbWyAl2uG2&cache3616=3616&page=617","path":"https://videocdn.tv/api/short","per_page":100,"prev_page_url":"https://videocdn.tv/api/short?limit=100&api_token=6Onb1W1alEUrBcKJZD3GoKBbWyAl2uG2&cache3616=3616&page=615","to":61540,"total":72256}