{"result":true,"data":[{"id":35784,"title":"Выстрели мне в сердце","kp_id":"880610","imdb_id":"tt4596408","world_art_id":null,"type":"movie","add":"2020-02-03 20:07:56","orig_title":"Nae sim-jang-eool sswa-la","year":"2015-01-28","translations":["Любительский (двухголосый закадровый) (DeadSno & den904)"],"quality":"webdl","translation":"Любительский (двухголосый закадровый) (DeadSno & den904)","update":"2020-02-05 08:35:07","iframe_src":"//83.svetacdn.in/PfJ50H0ZBPg3/movie/35784"},{"id":35783,"title":"Женщина с пирсингом","kp_id":"502035","imdb_id":"tt0287961","world_art_id":null,"type":"movie","add":"2020-02-03 20:05:15","orig_title":"Chikubi ni piasu o shita onna","year":"1983-04-25","translations":["Любительский (одноголосый закадровый)"],"quality":"dvdrip","translation":"Любительский (одноголосый закадровый)","update":"2020-02-05 08:33:48","iframe_src":"//83.svetacdn.in/PfJ50H0ZBPg3/movie/35783"},{"id":35782,"title":"Война ниндзя","kp_id":"24718","imdb_id":"tt0089691","world_art_id":null,"type":"movie","add":"2020-02-03 20:02:35","orig_title":"Iga ninpôchô","year":"1982-12-18","translations":["Авторский (одноголосый закадровый) (Кузнецов Сергей)"],"quality":"bd","translation":"Авторский (одноголосый закадровый) (Кузнецов Сергей)","update":"2020-02-05 08:29:30","iframe_src":"//83.svetacdn.in/PfJ50H0ZBPg3/movie/35782"},{"id":35781,"title":"Великая стена","kp_id":"144020","imdb_id":"tt0056492","world_art_id":null,"type":"movie","add":"2020-02-03 20:00:12","orig_title":"Shin no shikôtei","year":"1962-11-01","translations":["Авторский (одноголосый закадровый) (Кузнецов Сергей)"],"quality":"dvdrip","translation":"Авторский (одноголосый закадровый) (Кузнецов Сергей)","update":"2020-02-05 08:26:27","iframe_src":"//83.svetacdn.in/PfJ50H0ZBPg3/movie/35781"},{"id":35780,"title":"Сентиментальный меченосец","kp_id":"116304","imdb_id":"tt0076827","world_art_id":null,"type":"movie","add":"2020-02-03 19:53:14","orig_title":"Duo qing jian ke wu qing jian","year":"1977-10-14","translations":["Любительский (одноголосый закадровый) (Береговых Виктор | Jet)"],"quality":"bd","translation":"Любительский (одноголосый закадровый) (Береговых Виктор | Jet)","update":"2020-02-05 08:25:52","iframe_src":"//83.svetacdn.in/PfJ50H0ZBPg3/movie/35780"},{"id":35778,"title":"Заявка на убийство","kp_id":"893090","imdb_id":"tt4432058","world_art_id":null,"type":"movie","add":"2020-02-03 19:45:25","orig_title":"Salineuiloe","year":"2015-03-12","translations":["Любительский (двухголосый закадровый) (DeadSno & den904)"],"quality":"bd","translation":"Любительский (двухголосый закадровый) (DeadSno & den904)","update":"2020-02-05 08:18:20","iframe_src":"//83.svetacdn.in/PfJ50H0ZBPg3/movie/35778"},{"id":35777,"title":"Запаска","kp_id":"778641","imdb_id":"tt3039174","world_art_id":null,"type":"movie","add":"2020-02-03 19:43:18","orig_title":"Seupeeo","year":"2008-08-26","translations":["Любительский (двухголосый закадровый) (Колобок)"],"quality":"dvdrip","translation":"Любительский (двухголосый закадровый) (Колобок)","update":"2020-02-05 08:16:58","iframe_src":"//83.svetacdn.in/PfJ50H0ZBPg3/movie/35777"},{"id":35776,"title":"Смертельная осада","kp_id":"53099","imdb_id":"tt0105842","world_art_id":null,"type":"movie","add":"2020-02-03 19:41:12","orig_title":"Wu Lin sheng dou shi","year":"1992-08-06","translations":["Любительский (одноголосый закадровый)"],"quality":"dvdrip","translation":"Любительский (одноголосый закадровый)","update":"2020-02-05 08:16:28","iframe_src":"//83.svetacdn.in/PfJ50H0ZBPg3/movie/35776"},{"id":35775,"title":"Сеул","kp_id":"139292","imdb_id":"tt0307440","world_art_id":null,"type":"movie","add":"2020-02-03 19:38:58","orig_title":"Seoul","year":"2002-02-09","translations":["Любительский (одноголосый закадровый)"],"quality":"dvdrip","translation":"Любительский (одноголосый закадровый)","update":"2020-02-05 08:13:43","iframe_src":"//83.svetacdn.in/PfJ50H0ZBPg3/movie/35775"},{"id":35774,"title":"Китайский боксёр","kp_id":"266605","imdb_id":"tt0073621","world_art_id":null,"type":"movie","add":"2020-02-03 19:36:24","orig_title":"Shen quan da zhan kuai qiang shou","year":"1977-11-12","translations":["Авторский (одноголосый закадровый) (Дольский Андрей)"],"quality":"bd","translation":"Авторский (одноголосый закадровый) (Дольский Андрей)","update":"2020-02-05 08:12:40","iframe_src":"//83.svetacdn.in/PfJ50H0ZBPg3/movie/35774"},{"id":35773,"title":"При исполнении 3","kp_id":"37098","imdb_id":"tt0095337","world_art_id":null,"type":"movie","add":"2020-02-03 19:32:55","orig_title":"Huang jia shi jie zhi III: Ci xiong da dao","year":"1988-09-23","translations":["Профессиональный (одноголосый закадровый)"],"quality":"dvdrip","translation":"Профессиональный (одноголосый закадровый)","update":"2020-02-05 08:11:15","iframe_src":"//83.svetacdn.in/PfJ50H0ZBPg3/movie/35773"},{"id":35771,"title":"Обреченный на одиночество","kp_id":"77496","imdb_id":"tt0165348","world_art_id":null,"type":"movie","add":"2020-02-03 19:27:54","orig_title":"Kenka karate kyokushinken","year":"1975-08-09","translations":["Полное дублирование"],"quality":"dvdrip","translation":"Полное дублирование","update":"2020-02-05 08:09:59","iframe_src":"//83.svetacdn.in/PfJ50H0ZBPg3/movie/35771"},{"id":35770,"title":"Ниндзя-стервятник","kp_id":"65205","imdb_id":"tt0387445","world_art_id":null,"type":"movie","add":"2020-02-03 19:25:05","orig_title":"Ninjas, Condors 13","year":"1987-01-01","translations":["Авторский (одноголосый закадровый) (Кузнецов Сергей)"],"quality":"vhs","translation":"Авторский (одноголосый закадровый) (Кузнецов Сергей)","update":"2020-02-05 08:09:16","iframe_src":"//83.svetacdn.in/PfJ50H0ZBPg3/movie/35770"},{"id":35769,"title":"Китайский боксер","kp_id":"135460","imdb_id":"tt0065999","world_art_id":null,"type":"movie","add":"2020-02-03 19:18:07","orig_title":"Long hu dou","year":"1970-11-27","translations":["Авторский (одноголосый закадровый) (Дольский Андрей)"],"quality":"bd","translation":"Авторский (одноголосый закадровый) (Дольский Андрей)","update":"2020-02-05 08:05:15","iframe_src":"//83.svetacdn.in/PfJ50H0ZBPg3/movie/35769"},{"id":35768,"title":"Болото Дракона","kp_id":"116293","imdb_id":"tt0064258","world_art_id":null,"type":"movie","add":"2020-02-03 19:15:57","orig_title":"Du long tan","year":"1969-03-25","translations":["Любительский (одноголосый закадровый)"],"quality":"dvdrip","translation":"Любительский (одноголосый закадровый)","update":"2020-02-05 08:04:30","iframe_src":"//83.svetacdn.in/PfJ50H0ZBPg3/movie/35768"},{"id":35767,"title":"Азиатский связной","kp_id":"37030","imdb_id":"tt0114641","world_art_id":null,"type":"movie","add":"2020-02-03 19:13:45","orig_title":"Te jing ji xian feng","year":"1995-10-06","translations":["Любительский (одноголосый закадровый) (Хоррор Мэйкер)"],"quality":"dvdrip","translation":"Любительский (одноголосый закадровый) (Хоррор Мэйкер)","update":"2020-02-05 08:02:43","iframe_src":"//83.svetacdn.in/PfJ50H0ZBPg3/movie/35767"},{"id":35766,"title":"18 бронзовых девушек Шаолиня","kp_id":"246247","imdb_id":"tt0165602","world_art_id":null,"type":"movie","add":"2020-02-03 19:09:33","orig_title":"Shao Lin shi ba pa tung nu","year":"1983-01-01","translations":["Любительский (одноголосый закадровый) (Прокс)"],"quality":"sat","translation":"Любительский (одноголосый закадровый) (Прокс)","update":"2020-02-05 08:00:01","iframe_src":"//83.svetacdn.in/PfJ50H0ZBPg3/movie/35766"},{"id":9092,"title":"Асура: Безумный город","kp_id":"994668","imdb_id":"tt5918028","world_art_id":null,"type":"movie","add":"2017-01-22 12:05:46","orig_title":"Asura","year":"2016-09-12","translations":["Любительский (двухголосый закадровый) (Колобок)"],"quality":"bd","translation":"Любительский (двухголосый закадровый) (Колобок)","update":"2020-02-05 08:01:12","iframe_src":"//83.svetacdn.in/PfJ50H0ZBPg3/movie/9092"},{"id":5117,"title":"Мистер Крутой","kp_id":"24691","imdb_id":"tt0117786","world_art_id":null,"type":"movie","add":"2016-09-08 06:53:44","orig_title":"Yat goh ho yan","year":"1997-01-31","translations":["Профессиональный (многоголосый закадровый)","Авторский (одноголосый закадровый) (Кашкин Александр | Первомайский)","Профессиональный (многоголосый закадровый) (West Video)"],"quality":"webdl","translation":"Профессиональный (многоголосый закадровый)","update":"2020-02-05 08:06:50","iframe_src":"//83.svetacdn.in/PfJ50H0ZBPg3/movie/5117"},{"id":4267,"title":"Старый телохранитель","kp_id":"842738","imdb_id":"tt4076934","world_art_id":null,"type":"movie","add":"2016-08-02 04:41:18","orig_title":"Wo de te gong ye ye","year":"2016-04-01","translations":["Любительский (многоголосый закадровый) (Студия Пиратского Дубляжа)","Авторский (одноголосый закадровый) (Алексеев Антон)"],"quality":"bd","translation":"Любительский (многоголосый закадровый) (Студия Пиратского Дубляжа)","update":"2020-02-05 08:08:40","iframe_src":"//83.svetacdn.in/PfJ50H0ZBPg3/movie/4267"}],"current_page":860,"first_page_url":"https://videocdn.tv/api/short?limit=100&api_token=RgFQdUIR2dRmwv8iYa5SnFNgnw3vpjKj&cache3860=3860&page=1","from":85901,"last_page":616,"last_page_url":"https://videocdn.tv/api/short?limit=100&api_token=RgFQdUIR2dRmwv8iYa5SnFNgnw3vpjKj&cache3860=3860&page=616","next_page_url":null,"path":"https://videocdn.tv/api/short","per_page":100,"prev_page_url":"https://videocdn.tv/api/short?limit=100&api_token=RgFQdUIR2dRmwv8iYa5SnFNgnw3vpjKj&cache3860=3860&page=859","to":85920,"total":61594}