{"result":true,"data":[{"id":49924,"title":"Хищники","kp_id":"1392490","imdb_id":"tt14332642","world_art_id":null,"type":"movie","add":"2021-04-27 05:15:54","orig_title":"Khishchniki","year":"2020-09-17","translations":["Оригинальная дорожка"],"quality":"webdl","translation":"Оригинальная дорожка","update":"2021-04-27 07:50:58","iframe_src":"//7720.svetacdn.in/IAF0wWTdNYZm/movie/49924"},{"id":49915,"title":"Что страшнее?","kp_id":"1046123","imdb_id":null,"world_art_id":null,"type":"movie","add":"2021-04-26 15:50:11","orig_title":"Что страшнее?","year":"1973-01-01","translations":["Оригинальная дорожка"],"quality":"webdl","translation":"Оригинальная дорожка","update":"2021-04-27 06:11:34","iframe_src":"//7720.svetacdn.in/IAF0wWTdNYZm/movie/49915"},{"id":49914,"title":"Чудесный сад","kp_id":"460423","imdb_id":"tt7781576","world_art_id":null,"type":"movie","add":"2021-04-26 15:48:39","orig_title":"Chudesnyy sad","year":"1962-01-01","translations":["Оригинальная дорожка"],"quality":"webdl","translation":"Оригинальная дорожка","update":"2021-04-27 06:12:31","iframe_src":"//7720.svetacdn.in/IAF0wWTdNYZm/movie/49914"},{"id":49913,"title":"Яртыгулак и лентяи","kp_id":"841195","imdb_id":null,"world_art_id":null,"type":"movie","add":"2021-04-26 15:43:59","orig_title":"Яртыгулак и лентяи","year":"1987-01-01","translations":["Оригинальная дорожка"],"quality":"tc","translation":"Оригинальная дорожка","update":"2021-04-27 06:13:27","iframe_src":"//7720.svetacdn.in/IAF0wWTdNYZm/movie/49913"},{"id":49912,"title":"Наследство волшебника Бахрама","kp_id":"46345","imdb_id":"tt0212374","world_art_id":null,"type":"movie","add":"2021-04-26 15:38:03","orig_title":"Nasledstvo volshebnika Bakhrama","year":"1975-01-01","translations":["Оригинальная дорожка"],"quality":"webdl","translation":"Оригинальная дорожка","update":"2021-04-27 06:19:39","iframe_src":"//7720.svetacdn.in/IAF0wWTdNYZm/movie/49912"},{"id":49911,"title":"Сказка о солдате","kp_id":"533103","imdb_id":"tt5524336","world_art_id":null,"type":"movie","add":"2021-04-26 15:31:14","orig_title":"Skazka o soldate","year":"1948-01-01","translations":["Оригинальная дорожка"],"quality":"webdl","translation":"Оригинальная дорожка","update":"2021-04-27 06:22:09","iframe_src":"//7720.svetacdn.in/IAF0wWTdNYZm/movie/49911"},{"id":49910,"title":"Сказка о старом кедре","kp_id":"627871","imdb_id":"tt8157066","world_art_id":null,"type":"movie","add":"2021-04-26 15:21:26","orig_title":"Skazka o starom kedre","year":"1963-01-01","translations":["Оригинальная дорожка"],"quality":"webdl","translation":"Оригинальная дорожка","update":"2021-04-27 06:26:48","iframe_src":"//7720.svetacdn.in/IAF0wWTdNYZm/movie/49910"},{"id":49909,"title":"Пастушка и Трубочист","kp_id":"259995","imdb_id":"tt6016490","world_art_id":null,"type":"movie","add":"2021-04-26 15:20:02","orig_title":"Pastushka i Trubochist","year":"1965-01-01","translations":["Оригинальная дорожка"],"quality":"webdl","translation":"Оригинальная дорожка","update":"2021-04-27 07:08:37","iframe_src":"//7720.svetacdn.in/IAF0wWTdNYZm/movie/49909"},{"id":49908,"title":"Спор о винограде","kp_id":"841190","imdb_id":null,"world_art_id":null,"type":"movie","add":"2021-04-26 15:16:22","orig_title":"Спор о винограде","year":"1989-01-01","translations":["Оригинальная дорожка"],"quality":"tc","translation":"Оригинальная дорожка","update":"2021-04-27 07:16:25","iframe_src":"//7720.svetacdn.in/IAF0wWTdNYZm/movie/49908"},{"id":45558,"title":"Влюбленное облако","kp_id":"259979","imdb_id":"tt7068350","world_art_id":null,"type":"movie","add":"2020-11-24 15:27:31","orig_title":"Vlyublyonnoe oblako","year":"1959-01-01","translations":["Оригинальная дорожка","Оригинальная дорожка"],"quality":"dvdrip","translation":"Оригинальная дорожка","update":"2021-04-27 07:17:40","iframe_src":"//7720.svetacdn.in/IAF0wWTdNYZm/movie/45558"},{"id":45343,"title":"Трубка и медведь","kp_id":"615792","imdb_id":"tt6923430","world_art_id":null,"type":"movie","add":"2020-11-16 16:45:07","orig_title":"Trubka i medved","year":"1955-01-01","translations":["Оригинальная дорожка","Оригинальная дорожка"],"quality":"dvdrip","translation":"Оригинальная дорожка","update":"2021-04-27 06:23:17","iframe_src":"//7720.svetacdn.in/IAF0wWTdNYZm/movie/45343"},{"id":45001,"title":"Каша из топора","kp_id":"481589","imdb_id":"tt2962168","world_art_id":null,"type":"movie","add":"2020-11-03 18:54:12","orig_title":"Kasha iz topora","year":"1982-01-01","translations":["Оригинальная дорожка","Оригинальная дорожка"],"quality":"dvdrip","translation":"Оригинальная дорожка","update":"2021-04-27 07:52:02","iframe_src":"//7720.svetacdn.in/IAF0wWTdNYZm/movie/45001"},{"id":44406,"title":"Сказка сказывается","kp_id":"490365","imdb_id":"tt6347186","world_art_id":null,"type":"movie","add":"2020-10-13 17:55:37","orig_title":"Skazka skazyvaetsya","year":"1970-01-01","translations":["Оригинальная дорожка","Оригинальная дорожка"],"quality":"dvdrip","translation":"Оригинальная дорожка","update":"2021-04-27 06:25:33","iframe_src":"//7720.svetacdn.in/IAF0wWTdNYZm/movie/44406"},{"id":44254,"title":"Дом, который построил Джек","kp_id":"433761","imdb_id":"tt1405766","world_art_id":null,"type":"movie","add":"2020-10-08 20:45:22","orig_title":"Dom, kotoryy postroil Dzhek","year":"1976-01-01","translations":["Оригинальная дорожка","Оригинальная дорожка"],"quality":"dvdrip","translation":"Оригинальная дорожка","update":"2021-04-27 07:19:23","iframe_src":"//7720.svetacdn.in/IAF0wWTdNYZm/movie/44254"},{"id":44159,"title":"Зимовье зверей","kp_id":"460618","imdb_id":"tt1842547","world_art_id":null,"type":"movie","add":"2020-10-06 15:58:03","orig_title":"Zimove zverey","year":"1981-01-01","translations":["Оригинальная дорожка","Оригинальная дорожка"],"quality":"dvdrip","translation":"Оригинальная дорожка","update":"2021-04-27 06:16:22","iframe_src":"//7720.svetacdn.in/IAF0wWTdNYZm/movie/44159"},{"id":43727,"title":"Не любо — не слушай","kp_id":"585234","imdb_id":"tt6011646","world_art_id":null,"type":"movie","add":"2020-09-21 18:29:29","orig_title":"Ne lubo - ne slushay","year":"1977-10-13","translations":["Оригинальная дорожка","Оригинальная дорожка"],"quality":"dvdrip","translation":"Оригинальная дорожка","update":"2021-04-27 06:20:29","iframe_src":"//7720.svetacdn.in/IAF0wWTdNYZm/movie/43727"},{"id":43495,"title":"На лесной тропе","kp_id":"260222","imdb_id":"tt7042966","world_art_id":null,"type":"movie","add":"2020-09-13 20:19:43","orig_title":"Na lesnoy trope","year":"1975-01-01","translations":["Оригинальная дорожка","Оригинальная дорожка"],"quality":"dvdrip","translation":"Оригинальная дорожка","update":"2021-04-27 07:09:32","iframe_src":"//7720.svetacdn.in/IAF0wWTdNYZm/movie/43495"},{"id":42747,"title":"Мальчик с пальчик","kp_id":"477316","imdb_id":"tt4852398","world_art_id":null,"type":"movie","add":"2020-08-24 21:25:25","orig_title":"Malchik s palchik","year":"1938-01-01","translations":["Оригинальная дорожка","Оригинальная дорожка"],"quality":"dvdrip","translation":"Оригинальная дорожка","update":"2021-04-27 06:18:39","iframe_src":"//7720.svetacdn.in/IAF0wWTdNYZm/movie/42747"},{"id":41987,"title":"Дикие лебеди","kp_id":"44200","imdb_id":"tt0238938","world_art_id":null,"type":"movie","add":"2020-07-24 19:44:58","orig_title":"Dikie lebedi","year":"1963-05-10","translations":["Оригинальная дорожка","Оригинальная дорожка"],"quality":"dvdrip","translation":"Оригинальная дорожка","update":"2021-04-27 06:17:42","iframe_src":"//7720.svetacdn.in/IAF0wWTdNYZm/movie/41987"},{"id":8099,"title":"Адвокат. Продолжение","kp_id":"1006674","imdb_id":"tt6058130","world_art_id":null,"type":"serial","add":"2020-07-06 09:16:47","orig_title":"Advokat. Prodolzhenie","year":"2016-01-01","translations":["Оригинальная дорожка"],"seasons_count":1,"episodes_count":40,"episodes":40,"update":"2020-07-06 18:49:41","iframe_src":"//7720.svetacdn.in/IAF0wWTdNYZm/tv-series/8099"},{"id":8092,"title":"Домовой","kp_id":"1008043","imdb_id":null,"world_art_id":null,"type":"serial","add":"2020-07-05 07:30:12","orig_title":"Домовой","year":"2016-01-01","translations":["Оригинальная дорожка"],"seasons_count":1,"episodes_count":2,"episodes":2,"update":"2020-07-06 06:24:53","iframe_src":"//7720.svetacdn.in/IAF0wWTdNYZm/tv-series/8092"},{"id":8090,"title":"Текст. Реальность","kp_id":"1374289","imdb_id":null,"world_art_id":null,"type":"serial","add":"2020-07-04 17:21:19","orig_title":"Текст. Реальность","year":"2020-07-03","translations":[],"seasons_count":1,"episodes_count":5,"episodes":5,"update":"2020-07-04 22:37:15","iframe_src":"//7720.svetacdn.in/IAF0wWTdNYZm/tv-series/8090"},{"id":8082,"title":"Новые приключения Бэтмена","kp_id":"230052","imdb_id":"tt0075543","world_art_id":null,"type":"serial","add":"2020-07-03 13:05:56","orig_title":"The New Adventures of Batman","year":"1977-02-12","translations":["Профессиональный (многоголосый закадровый) (2x2)"],"seasons_count":1,"episodes_count":16,"episodes":16,"update":"2020-07-06 13:53:03","iframe_src":"//7720.svetacdn.in/IAF0wWTdNYZm/tv-series/8082"},{"id":8081,"title":"Госпожа Дила","kp_id":"728555","imdb_id":"tt2544156","world_art_id":null,"type":"serial","add":"2020-07-03 10:33:44","orig_title":"Dila Hanim","year":"2012-01-01","translations":["Профессиональный (многоголосый закадровый)","Любительский (одноголосый закадровый) (turok1990)"],"seasons_count":2,"episodes_count":90,"episodes":27,"update":"2020-07-05 18:18:54","iframe_src":"//7720.svetacdn.in/IAF0wWTdNYZm/tv-series/8081"},{"id":8069,"title":"Королевство","kp_id":"94852","imdb_id":"tt0108906","world_art_id":null,"type":"serial","add":"2020-07-02 09:57:07","orig_title":"Riget","year":"1997-11-01","translations":["Авторский (одноголосый закадровый) (Алексеев Антон)"],"seasons_count":2,"episodes_count":8,"episodes":4,"update":"2020-07-06 07:05:32","iframe_src":"//7720.svetacdn.in/IAF0wWTdNYZm/tv-series/8069"},{"id":8067,"title":"Граф Монте-Кристо: Великая месть","kp_id":"1123503","imdb_id":"tt8217122","world_art_id":null,"type":"serial","add":"2020-07-02 09:52:33","orig_title":"Monte Cristo Haku","year":"2018-04-19","translations":["Любительский (двухголосый закадровый) (AniDUB)"],"seasons_count":1,"episodes_count":9,"episodes":9,"update":"2020-07-05 18:26:22","iframe_src":"//7720.svetacdn.in/IAF0wWTdNYZm/tv-series/8067"},{"id":8060,"title":"Нападение на дворец Чыраган","kp_id":"841662","imdb_id":"tt3920576","world_art_id":null,"type":"serial","add":"2020-07-01 11:38:00","orig_title":"Çiragan Baskini","year":"2014-08-03","translations":["Любительский (одноголосый закадровый)"],"seasons_count":1,"episodes_count":4,"episodes":4,"update":"2020-07-04 10:35:32","iframe_src":"//7720.svetacdn.in/IAF0wWTdNYZm/tv-series/8060"},{"id":8025,"title":"Кволик","kp_id":"980498","imdb_id":"tt4558858","world_art_id":null,"type":"serial","add":"2020-06-25 20:32:24","orig_title":"Wabbit: A Looney Tunes Production","year":"2015-09-21","translations":["Полное дублирование"],"seasons_count":1,"episodes_count":52,"episodes":52,"update":"2020-07-03 21:31:09","iframe_src":"//7720.svetacdn.in/IAF0wWTdNYZm/tv-series/8025"},{"id":7955,"title":"Разбивающая сердца","kp_id":"584096","imdb_id":"tt1618952","world_art_id":null,"type":"serial","add":"2020-06-19 12:40:37","orig_title":"Gönülçelen","year":"2010-02-26","translations":["Профессиональный (многоголосый закадровый) (Astana TV)"],"seasons_count":2,"episodes_count":56,"episodes":28,"update":"2020-07-05 11:03:23","iframe_src":"//7720.svetacdn.in/IAF0wWTdNYZm/tv-series/7955"},{"id":7434,"title":"Совет отцов","kp_id":"1246398","imdb_id":"tt9165830","world_art_id":null,"type":"serial","add":"2020-05-07 20:22:47","orig_title":"Council of Dads","year":"2020-03-24","translations":["Любительский (многоголосый закадровый) (Octopus)"],"seasons_count":1,"episodes_count":10,"episodes":10,"update":"2020-07-04 11:12:31","iframe_src":"//7720.svetacdn.in/IAF0wWTdNYZm/tv-series/7434"},{"id":7291,"title":"Страшные сказки: Город ангелов","kp_id":"1254206","imdb_id":"tt10361016","world_art_id":null,"type":"serial","add":"2020-04-25 02:38:59","orig_title":"Penny Dreadful: City of Angels","year":"2020-04-26","translations":["Любительский (многоголосый закадровый) (Octopus)","Любительский (многоголосый закадровый) (ColdFilm)","Профессиональный (многоголосый закадровый) (HDrezka Studio)","Профессиональный (многоголосый закадровый) (Greb&Creative)","Профессиональный (многоголосый закадровый) (LostFilm)","Профессиональный (многоголосый закадровый) (NewStudio)","Профессиональный (многоголосый закадровый) (AlexFilm)","Профессиональный (двухголосый закадровый) (Gears Media)","Любительский (многоголосый закадровый) (KerobTV)","Профессиональный (двухголосый закадровый) (ViruseProject)"],"seasons_count":1,"episodes_count":10,"episodes":10,"update":"2020-07-05 06:42:37","iframe_src":"//7720.svetacdn.in/IAF0wWTdNYZm/tv-series/7291"},{"id":4872,"title":"Как долго я тебя ждала","kp_id":"1254419","imdb_id":"tt10137936","world_art_id":null,"type":"serial","add":"2019-07-17 11:06:31","orig_title":"Как долго я тебя ждала","year":"2019-04-01","translations":["Оригинальная дорожка"],"seasons_count":1,"episodes_count":20,"episodes":20,"update":"2020-07-04 08:03:50","iframe_src":"//7720.svetacdn.in/IAF0wWTdNYZm/tv-series/4872"},{"id":4716,"title":"Полицейский отряд!","kp_id":"260912","imdb_id":"tt0083466","world_art_id":null,"type":"serial","add":"2019-06-19 10:53:55","orig_title":"Police Squad!","year":"1982-03-04","translations":["Профессиональный (многоголосый закадровый)","Профессиональный (двухголосый закадровый) (Кубик в Кубе)","Авторский (одноголосый закадровый) (Михалёв Алексей)"],"seasons_count":1,"episodes_count":6,"episodes":6,"update":"2020-07-06 12:08:25","iframe_src":"//7720.svetacdn.in/IAF0wWTdNYZm/tv-series/4716"},{"id":3646,"title":"Пелена","kp_id":"1172866","imdb_id":null,"world_art_id":null,"type":"serial","add":"2018-12-09 14:32:56","orig_title":"Пелена","year":"2018-06-04","translations":["Оригинальная дорожка"],"seasons_count":1,"episodes_count":10,"episodes":10,"update":"2020-07-05 09:24:25","iframe_src":"//7720.svetacdn.in/IAF0wWTdNYZm/tv-series/3646"},{"id":3590,"title":"Доверься мне","kp_id":"1047701","imdb_id":"tt6708260","world_art_id":null,"type":"serial","add":"2018-11-29 14:59:59","orig_title":"Trust Me","year":"2017-08-08","translations":["Профессиональный (многоголосый закадровый) (ShowJet)","Профессиональный (многоголосый закадровый) (КонтентикOFF)","Профессиональный (двухголосый закадровый) (ViruseProject)"],"seasons_count":2,"episodes_count":8,"episodes":4,"update":"2020-07-06 12:20:02","iframe_src":"//7720.svetacdn.in/IAF0wWTdNYZm/tv-series/3590"},{"id":2422,"title":"Схватка","kp_id":"712882","imdb_id":"tt4075246","world_art_id":null,"type":"serial","add":"2018-04-18 12:05:18","orig_title":"Shvatka","year":"2013-03-22","translations":["Оригинальная дорожка"],"seasons_count":1,"episodes_count":4,"episodes":4,"update":"2020-07-04 16:47:54","iframe_src":"//7720.svetacdn.in/IAF0wWTdNYZm/tv-series/2422"},{"id":2053,"title":"Вербное воскресенье","kp_id":"487573","imdb_id":"tt2913010","world_art_id":null,"type":"serial","add":"2018-02-09 10:25:29","orig_title":"Verbnoe voskresene","year":"2009-12-07","translations":["Оригинальная дорожка"],"seasons_count":1,"episodes_count":8,"episodes":8,"update":"2020-07-05 17:11:28","iframe_src":"//7720.svetacdn.in/IAF0wWTdNYZm/tv-series/2053"},{"id":14141,"title":"Храбрый олененок","kp_id":"257997","imdb_id":"tt2368864","world_art_id":null,"type":"movie","add":"2017-10-29 11:30:48","orig_title":"Khrabryy olenyonok","year":"1957-01-01","translations":["Оригинальная дорожка","Оригинальная дорожка"],"quality":"dvdrip","translation":"Оригинальная дорожка","update":"2021-04-27 06:24:23","iframe_src":"//7720.svetacdn.in/IAF0wWTdNYZm/movie/14141"},{"id":911,"title":"Вольтрон: Легендарный защитник","kp_id":"984256","imdb_id":"tt5580664","world_art_id":null,"type":"serial","add":"2017-01-20 06:27:05","orig_title":"Voltron: Legendary Defender","year":"2016-06-10","translations":["Профессиональный (многоголосый закадровый) (NewStudio)","Любительский (одноголосый закадровый) (AniDUB)","Любительский (двухголосый закадровый) (AniDUB)","Любительский (многоголосый закадровый) (AniDUB)","Любительский (двухголосый закадровый) (KinoGolos)"],"seasons_count":8,"episodes_count":76,"episodes":13,"update":"2020-07-05 16:36:38","iframe_src":"//7720.svetacdn.in/IAF0wWTdNYZm/tv-series/911"},{"id":218,"title":"Степные волки","kp_id":"943405","imdb_id":null,"world_art_id":null,"type":"serial","add":"2016-06-22 10:55:17","orig_title":"Степные волки","year":"2016-01-01","translations":["Оригинальная дорожка"],"seasons_count":1,"episodes_count":24,"episodes":24,"update":"2020-07-05 18:23:15","iframe_src":"//7720.svetacdn.in/IAF0wWTdNYZm/tv-series/218"}],"current_page":217,"first_page_url":"https://videocdn.tv/api/short?limit=100&api_token=6Onb1W1alEUrBcKJZD3GoKBbWyAl2uG2&cache3217=3217&page=1","from":21601,"last_page":650,"last_page_url":"https://videocdn.tv/api/short?limit=100&api_token=6Onb1W1alEUrBcKJZD3GoKBbWyAl2uG2&cache3217=3217&page=650","next_page_url":"https://videocdn.tv/api/short?limit=100&api_token=6Onb1W1alEUrBcKJZD3GoKBbWyAl2uG2&cache3217=3217&page=218","path":"https://videocdn.tv/api/short","per_page":100,"prev_page_url":"https://videocdn.tv/api/short?limit=100&api_token=6Onb1W1alEUrBcKJZD3GoKBbWyAl2uG2&cache3217=3217&page=216","to":21640,"total":64957}