{"result":true,"data":[{"id":16123,"title":"Девушка без рук","kp_id":"977822","imdb_id":"tt5698496","world_art_id":null,"type":"movie","add":"2018-04-07 23:05:11","orig_title":"La jeune fille sans mains","year":"2016-12-14","translations":["Любительский (многоголосый закадровый) (Колобок)"],"quality":"bd","translation":"Любительский (многоголосый закадровый) (Колобок)","update":"2018-04-09 08:06:51","iframe_src":"//7720.svetacdn.in/IAF0wWTdNYZm/movie/16123"},{"id":16118,"title":"Школьные байки","kp_id":null,"imdb_id":"tt6389600","world_art_id":null,"type":"movie","add":"2018-04-07 22:53:10","orig_title":"School Tales","year":"2017-01-12","translations":["Любительский (многоголосый закадровый) (Колобок)"],"quality":"dvdrip","translation":"Любительский (многоголосый закадровый) (Колобок)","update":"2018-04-09 06:33:17","iframe_src":"//7720.svetacdn.in/IAF0wWTdNYZm/movie/16118"},{"id":16115,"title":"План Б: Нафиг план А","kp_id":"1011961","imdb_id":"tt6333284","world_art_id":null,"type":"movie","add":"2018-04-07 22:45:43","orig_title":"Plan B: Scheiß auf Plan A","year":"2016-10-13","translations":["Любительский (двухголосый закадровый)"],"quality":"bd","translation":"Любительский (двухголосый закадровый)","update":"2018-04-09 07:58:47","iframe_src":"//7720.svetacdn.in/IAF0wWTdNYZm/movie/16115"},{"id":16109,"title":"Джайланкун: Призыв мёртвых","kp_id":"1090326","imdb_id":"tt7076668","world_art_id":null,"type":"movie","add":"2018-04-07 22:20:07","orig_title":"Jailangkung","year":"2017-06-25","translations":["Любительский (многоголосый закадровый) (Колобок)"],"quality":"webdl","translation":"Любительский (многоголосый закадровый) (Колобок)","update":"2018-04-09 06:38:08","iframe_src":"//7720.svetacdn.in/IAF0wWTdNYZm/movie/16109"},{"id":16108,"title":"Проклятое общежитие: Повелитель Кукол","kp_id":"1074553","imdb_id":"tt6953274","world_art_id":null,"type":"movie","add":"2018-04-07 22:17:10","orig_title":"Dào líng sùshè wáwá laoshi","year":"2017-04-14","translations":["Любительский (многоголосый закадровый) (Колобок)"],"quality":"webdl","translation":"Любительский (многоголосый закадровый) (Колобок)","update":"2018-04-09 06:40:09","iframe_src":"//7720.svetacdn.in/IAF0wWTdNYZm/movie/16108"},{"id":16106,"title":"Автор","kp_id":"1000815","imdb_id":"tt5451244","world_art_id":null,"type":"movie","add":"2018-04-07 22:11:53","orig_title":"El autor","year":"2017-09-08","translations":["Любительский (многоголосый закадровый) (Синема УС)"],"quality":"bd","translation":"Любительский (многоголосый закадровый) (Синема УС)","update":"2018-04-09 06:45:15","iframe_src":"//7720.svetacdn.in/IAF0wWTdNYZm/movie/16106"},{"id":16105,"title":"Дневник машиниста","kp_id":"766881","imdb_id":"tt6327236","world_art_id":null,"type":"movie","add":"2018-04-07 22:06:36","orig_title":"Dnevnik masinovodje","year":"2016-07-02","translations":["Любительский (многоголосый закадровый) (Синема УС)"],"quality":"hdtv","translation":"Любительский (многоголосый закадровый) (Синема УС)","update":"2018-04-09 08:10:39","iframe_src":"//7720.svetacdn.in/IAF0wWTdNYZm/movie/16105"},{"id":16103,"title":"Чёрное или белое","kp_id":"760718","imdb_id":"tt2883434","world_art_id":null,"type":"movie","add":"2018-04-07 21:59:23","orig_title":"Black or White","year":"2014-09-06","translations":["Профессиональный (многоголосый закадровый) (GreenРай Studio)"],"quality":"bd","translation":"Профессиональный (многоголосый закадровый) (GreenРай Studio)","update":"2018-04-09 08:00:07","iframe_src":"//7720.svetacdn.in/IAF0wWTdNYZm/movie/16103"},{"id":16098,"title":"Преданный любовник","kp_id":"1050370","imdb_id":"tt7262820","world_art_id":null,"type":"movie","add":"2018-04-07 21:47:21","orig_title":"A Lover Betrayed","year":"2017-07-24","translations":["Любительский (многоголосый закадровый) (Синема УС)"],"quality":"hdtv","translation":"Любительский (многоголосый закадровый) (Синема УС)","update":"2018-04-09 07:46:19","iframe_src":"//7720.svetacdn.in/IAF0wWTdNYZm/movie/16098"},{"id":16087,"title":"Время счастья","kp_id":"433634","imdb_id":"tt3641494","world_art_id":null,"type":"movie","add":"2018-04-05 19:00:08","orig_title":"Vremya schastya","year":"2008-12-14","translations":["Оригинальная дорожка"],"quality":"hdtv","translation":"Оригинальная дорожка","update":"2018-04-09 11:56:34","iframe_src":"//7720.svetacdn.in/IAF0wWTdNYZm/movie/16087"},{"id":16084,"title":"Отдамся в хорошие руки","kp_id":"416088","imdb_id":"tt1477047","world_art_id":null,"type":"movie","add":"2018-04-05 18:51:45","orig_title":"Otdamsya v khoroshie ruki","year":"2009-07-24","translations":["Оригинальная дорожка"],"quality":"hdtv","translation":"Оригинальная дорожка","update":"2018-04-09 11:55:24","iframe_src":"//7720.svetacdn.in/IAF0wWTdNYZm/movie/16084"},{"id":16073,"title":"Жить","kp_id":"645910","imdb_id":"tt2190483","world_art_id":null,"type":"movie","add":"2018-04-05 00:44:25","orig_title":"Zhit","year":"2012-01-31","translations":["Оригинальная дорожка"],"quality":"hdtv","translation":"Оригинальная дорожка","update":"2018-04-09 11:07:13","iframe_src":"//7720.svetacdn.in/IAF0wWTdNYZm/movie/16073"},{"id":16072,"title":"Все должны умереть","kp_id":"401163","imdb_id":null,"world_art_id":null,"type":"movie","add":"2018-04-05 00:39:23","orig_title":"Все должны умереть","year":"2007-11-24","translations":["Оригинальная дорожка"],"quality":"hdtv","translation":"Оригинальная дорожка","update":"2018-04-09 11:03:34","iframe_src":"//7720.svetacdn.in/IAF0wWTdNYZm/movie/16072"},{"id":16071,"title":"Три дня в Одессе","kp_id":"279043","imdb_id":"tt4177398","world_art_id":null,"type":"movie","add":"2018-04-05 00:36:59","orig_title":"Tri dnya v Odesse","year":"2007-03-15","translations":["Оригинальная дорожка"],"quality":"hdtv","translation":"Оригинальная дорожка","update":"2018-04-09 11:00:51","iframe_src":"//7720.svetacdn.in/IAF0wWTdNYZm/movie/16071"},{"id":16067,"title":"Больше – Меньше","kp_id":"716630","imdb_id":"tt2902340","world_art_id":null,"type":"movie","add":"2018-04-04 23:36:53","orig_title":"Bolshe - Menshe","year":"2013-01-01","translations":["Оригинальная дорожка"],"quality":"hdtv","translation":"Оригинальная дорожка","update":"2018-04-09 10:59:21","iframe_src":"//7720.svetacdn.in/IAF0wWTdNYZm/movie/16067"},{"id":16039,"title":"Зимний вальс","kp_id":"734858","imdb_id":"tt7275742","world_art_id":null,"type":"movie","add":"2018-04-03 13:01:50","orig_title":"Zimniy vals","year":"2013-04-16","translations":["Оригинальная дорожка"],"quality":"hdtv","translation":"Оригинальная дорожка","update":"2018-04-09 10:57:33","iframe_src":"//7720.svetacdn.in/IAF0wWTdNYZm/movie/16039"},{"id":15923,"title":"9 рота","kp_id":"84674","imdb_id":"tt0417397","world_art_id":null,"type":"movie","add":"2018-03-30 20:47:56","orig_title":"9 rota","year":"2005-09-29","translations":["Оригинальная дорожка"],"quality":"bd","translation":"Оригинальная дорожка","update":"2018-04-09 10:56:36","iframe_src":"//7720.svetacdn.in/IAF0wWTdNYZm/movie/15923"},{"id":15204,"title":"Избавь меня от сомнений","kp_id":"983590","imdb_id":"tt5629340","world_art_id":null,"type":"movie","add":"2018-02-17 22:44:51","orig_title":"Ôtez-moi d'un doute","year":"2017-05-20","translations":["Профессиональный (многоголосый закадровый)","Авторский (одноголосый закадровый) (Карповский Антон)"],"quality":"bd","translation":"Профессиональный (многоголосый закадровый)","update":"2018-04-09 06:36:08","iframe_src":"//7720.svetacdn.in/IAF0wWTdNYZm/movie/15204"},{"id":15044,"title":"Расхождение","kp_id":"814621","imdb_id":"tt3321470","world_art_id":null,"type":"movie","add":"2018-02-02 21:37:55","orig_title":"Diverge","year":"2016-06-09","translations":["Любительский (многоголосый закадровый) (Синема УС)","Профессиональный (многоголосый закадровый) (GreenРай Studio)"],"quality":"bd","translation":"Любительский (многоголосый закадровый) (Синема УС)","update":"2018-04-09 07:52:59","iframe_src":"//7720.svetacdn.in/IAF0wWTdNYZm/movie/15044"},{"id":13683,"title":"Гоголь. Начало","kp_id":"945391","imdb_id":"tt6628228","world_art_id":null,"type":"movie","add":"2017-10-02 13:07:42","orig_title":"Gogol. Nachalo","year":"2017-08-31","translations":["Оригинальная дорожка"],"quality":"bd","translation":"Оригинальная дорожка","update":"2018-04-09 06:41:50","iframe_src":"//7720.svetacdn.in/IAF0wWTdNYZm/movie/13683"}],"current_page":1986,"first_page_url":"https://videocdn.tv/api/short?limit=100&api_token=6Onb1W1alEUrBcKJZD3GoKBbWyAl2uG2&cache31986=31986&page=1","from":198501,"last_page":648,"last_page_url":"https://videocdn.tv/api/short?limit=100&api_token=6Onb1W1alEUrBcKJZD3GoKBbWyAl2uG2&cache31986=31986&page=648","next_page_url":null,"path":"https://videocdn.tv/api/short","per_page":100,"prev_page_url":"https://videocdn.tv/api/short?limit=100&api_token=6Onb1W1alEUrBcKJZD3GoKBbWyAl2uG2&cache31986=31986&page=1985","to":198520,"total":64704}