{"result":true,"data":[{"id":14791,"title":"Крысобургер","kp_id":"1076973","imdb_id":"tt7136060","world_art_id":null,"type":"movie","add":"2018-01-04 02:46:34","orig_title":"Ratburger","year":"2017-12-24","translations":["Любительский (многоголосый закадровый) (Синема УС)"],"quality":"hdtv","translation":"Любительский (многоголосый закадровый) (Синема УС)","update":"2018-01-04 11:58:41","iframe_src":"//8332.svetacdn.in/IAF0wWTdNYZm/movie/14791"},{"id":14790,"title":"Дьявольская тропа","kp_id":null,"imdb_id":"tt7741530","world_art_id":null,"type":"movie","add":"2018-01-04 02:22:43","orig_title":"Devil's Trail","year":"2017-12-12","translations":["Любительский (многоголосый закадровый) (Синема УС)"],"quality":"webdl","translation":"Любительский (многоголосый закадровый) (Синема УС)","update":"2018-01-04 11:55:26","iframe_src":"//8332.svetacdn.in/IAF0wWTdNYZm/movie/14790"},{"id":14789,"title":"Убийственная драма","kp_id":"1088493","imdb_id":"tt6957816","world_art_id":null,"type":"movie","add":"2018-01-04 01:17:35","orig_title":"Bloody Drama","year":"2017-10-30","translations":["Любительский (многоголосый закадровый) (Синема УС)"],"quality":"webdl","translation":"Любительский (многоголосый закадровый) (Синема УС)","update":"2018-01-04 11:41:13","iframe_src":"//8332.svetacdn.in/IAF0wWTdNYZm/movie/14789"},{"id":14788,"title":"Тихое Рождество","kp_id":"1085057","imdb_id":"tt7001906","world_art_id":null,"type":"movie","add":"2018-01-04 00:44:56","orig_title":"A Very Country Christmas","year":"2017-11-12","translations":["Любительский (многоголосый закадровый) (Синема УС)"],"quality":"hdtv","translation":"Любительский (многоголосый закадровый) (Синема УС)","update":"2018-01-04 11:37:32","iframe_src":"//8332.svetacdn.in/IAF0wWTdNYZm/movie/14788"},{"id":14786,"title":"Рождественский отпуск","kp_id":null,"imdb_id":"tt7688990","world_art_id":null,"type":"movie","add":"2018-01-04 00:23:45","orig_title":"Christmas Getaway","year":"2017-12-23","translations":["Любительский (многоголосый закадровый) (Синема УС)"],"quality":"hdtv","translation":"Любительский (многоголосый закадровый) (Синема УС)","update":"2018-01-04 11:27:20","iframe_src":"//8332.svetacdn.in/IAF0wWTdNYZm/movie/14786"},{"id":14783,"title":"Перед Рождеством не устоять","kp_id":"1057374","imdb_id":"tt7281472","world_art_id":null,"type":"movie","add":"2018-01-04 00:14:18","orig_title":"You Can't Fight Christmas","year":"2017-11-01","translations":["Любительский (многоголосый закадровый) (Синема УС)"],"quality":"hdtv","translation":"Любительский (многоголосый закадровый) (Синема УС)","update":"2018-01-04 11:21:58","iframe_src":"//8332.svetacdn.in/IAF0wWTdNYZm/movie/14783"},{"id":14781,"title":"В поисках Санты","kp_id":"1088788","imdb_id":"tt7385392","world_art_id":null,"type":"movie","add":"2018-01-03 21:35:15","orig_title":"Finding Santa","year":"2017-11-24","translations":["Любительский (многоголосый закадровый) (Синема УС)"],"quality":"hdtv","translation":"Любительский (многоголосый закадровый) (Синема УС)","update":"2018-01-04 22:48:31","iframe_src":"//8332.svetacdn.in/IAF0wWTdNYZm/movie/14781"},{"id":14780,"title":"Рождество в Роки-Маунтин","kp_id":"1102987","imdb_id":"tt7643644","world_art_id":null,"type":"movie","add":"2018-01-03 21:32:27","orig_title":"Rocky Mountain Christmas","year":"2017-12-19","translations":["Любительский (многоголосый закадровый) (Синема УС)"],"quality":"hdtv","translation":"Любительский (многоголосый закадровый) (Синема УС)","update":"2018-01-04 11:31:19","iframe_src":"//8332.svetacdn.in/IAF0wWTdNYZm/movie/14780"},{"id":14778,"title":"Рождество по соседству","kp_id":"1100503","imdb_id":"tt7616668","world_art_id":null,"type":"movie","add":"2018-01-03 21:21:00","orig_title":"Christmas Next Door","year":"2017-12-16","translations":["Любительский (многоголосый закадровый) (Синема УС)"],"quality":"hdtv","translation":"Любительский (многоголосый закадровый) (Синема УС)","update":"2018-01-04 11:49:14","iframe_src":"//8332.svetacdn.in/IAF0wWTdNYZm/movie/14778"},{"id":14777,"title":"Рождественский круиз","kp_id":"1082088","imdb_id":"tt7396738","world_art_id":null,"type":"movie","add":"2018-01-03 21:12:43","orig_title":"A Christmas Cruise","year":"2017-12-16","translations":["Любительский (многоголосый закадровый) (Синема УС)"],"quality":"hdtv","translation":"Любительский (многоголосый закадровый) (Синема УС)","update":"2018-01-04 11:34:50","iframe_src":"//8332.svetacdn.in/IAF0wWTdNYZm/movie/14777"},{"id":14776,"title":"Карлсон, который живет на крыше","kp_id":"63114","imdb_id":"tt0307050","world_art_id":null,"type":"movie","add":"2018-01-03 20:55:09","orig_title":"Karlsson på taket","year":"2002-09-27","translations":["Полное дублирование"],"quality":"dvdrip","translation":"Полное дублирование","update":"2018-01-04 22:52:31","iframe_src":"//8332.svetacdn.in/IAF0wWTdNYZm/movie/14776"},{"id":14774,"title":"Сказки рублевского леса","kp_id":"1111661","imdb_id":null,"world_art_id":null,"type":"movie","add":"2018-01-03 20:40:41","orig_title":"Сказки рублевского леса","year":"2017-12-29","translations":["Оригинальная дорожка"],"quality":"webdl","translation":"Оригинальная дорожка","update":"2018-01-04 22:53:31","iframe_src":"//8332.svetacdn.in/IAF0wWTdNYZm/movie/14774"},{"id":14773,"title":"Новогодний папа","kp_id":"882282","imdb_id":null,"world_art_id":null,"type":"movie","add":"2018-01-03 20:31:57","orig_title":"Новогодний папа","year":"2015-01-02","translations":["Оригинальная дорожка"],"quality":"webdl","translation":"Оригинальная дорожка","update":"2018-01-04 22:55:24","iframe_src":"//8332.svetacdn.in/IAF0wWTdNYZm/movie/14773"},{"id":14241,"title":"Новизна","kp_id":"1009120","imdb_id":"tt6408226","world_art_id":null,"type":"movie","add":"2017-11-05 22:52:47","orig_title":"Newness","year":"2017-01-25","translations":["Любительский (многоголосый закадровый) (@MUZOBOZ@)","Любительский (двухголосый закадровый) (RecentFilms)","Полное дублирование (iTunes)"],"quality":"webdl","translation":"Любительский (многоголосый закадровый) (@MUZOBOZ@)","update":"2018-01-04 11:16:24","iframe_src":"//8332.svetacdn.in/IAF0wWTdNYZm/movie/14241"},{"id":14237,"title":"Фиксики: Большой секрет","kp_id":"905038","imdb_id":"tt6106526","world_art_id":null,"type":"movie","add":"2017-11-05 22:20:17","orig_title":"Fiksiki: Bolshoy sekret","year":"2017-10-28","translations":["Оригинальная дорожка"],"quality":"webdl","translation":"Оригинальная дорожка","update":"2018-01-04 11:36:57","iframe_src":"//8332.svetacdn.in/IAF0wWTdNYZm/movie/14237"},{"id":13957,"title":"Тэд-путешественник и тайна царя Мидаса","kp_id":"841397","imdb_id":"tt3896102","world_art_id":null,"type":"movie","add":"2017-10-22 19:57:18","orig_title":"Tadeo Jones 2: El secreto del Rey Midas","year":"2017-06-13","translations":["Полное дублирование (iTunes)"],"quality":"bd","translation":"Полное дублирование (iTunes)","update":"2018-01-04 14:42:23","iframe_src":"//8332.svetacdn.in/IAF0wWTdNYZm/movie/13957"},{"id":13572,"title":"Kingsman: Золотое кольцо","kp_id":"906654","imdb_id":"tt4649466","world_art_id":null,"type":"movie","add":"2017-09-21 22:00:47","orig_title":"Kingsman: The Golden Circle","year":"2017-09-20","translations":["Любительский (многоголосый закадровый) (@MUZOBOZ@)","Полное дублирование"],"quality":"webdl","translation":"Любительский (многоголосый закадровый) (@MUZOBOZ@)","update":"2018-01-04 11:33:20","iframe_src":"//8332.svetacdn.in/IAF0wWTdNYZm/movie/13572"},{"id":13059,"title":"Тайна 7 сестер","kp_id":"484628","imdb_id":"tt1536537","world_art_id":null,"type":"movie","add":"2017-08-20 20:05:48","orig_title":"Seven Sisters","year":"2017-08-06","translations":["Любительский (многоголосый закадровый) (@MUZOBOZ@)","Полное дублирование"],"quality":"webdl","translation":"Любительский (многоголосый закадровый) (@MUZOBOZ@)","update":"2018-01-04 15:48:26","iframe_src":"//8332.svetacdn.in/IAF0wWTdNYZm/movie/13059"},{"id":11899,"title":"Города-побратимы","kp_id":"919750","imdb_id":"tt4795692","world_art_id":null,"type":"movie","add":"2017-06-10 05:16:22","orig_title":"Sister Cities","year":"2016-09-17","translations":["Любительский (многоголосый закадровый) (Синема УС)","Профессиональный (многоголосый закадровый)"],"quality":"hdtv","translation":"Любительский (многоголосый закадровый) (Синема УС)","update":"2018-01-04 11:57:31","iframe_src":"//8332.svetacdn.in/IAF0wWTdNYZm/movie/11899"},{"id":9681,"title":"Хэвенхёрст","kp_id":"821315","imdb_id":"tt3424690","world_art_id":null,"type":"movie","add":"2017-02-14 08:28:32","orig_title":"Havenhurst","year":"2016-05-14","translations":["Любительский (одноголосый закадровый)","Любительский (одноголосый закадровый) (BadBajo)","Полное дублирование"],"quality":"hdrip","translation":"Любительский (одноголосый закадровый)","update":"2018-01-04 15:49:53","iframe_src":"//8332.svetacdn.in/IAF0wWTdNYZm/movie/9681"}],"current_page":1983,"first_page_url":"https://videocdn.tv/api/short?limit=100&api_token=6Onb1W1alEUrBcKJZD3GoKBbWyAl2uG2&cache31983=31983&page=1","from":198201,"last_page":632,"last_page_url":"https://videocdn.tv/api/short?limit=100&api_token=6Onb1W1alEUrBcKJZD3GoKBbWyAl2uG2&cache31983=31983&page=632","next_page_url":null,"path":"https://videocdn.tv/api/short","per_page":100,"prev_page_url":"https://videocdn.tv/api/short?limit=100&api_token=6Onb1W1alEUrBcKJZD3GoKBbWyAl2uG2&cache31983=31983&page=1982","to":198220,"total":63189}