{"result":true,"data":[{"id":20409,"title":"Рыжик","kp_id":"298641","imdb_id":"tt0362029","world_art_id":null,"type":"movie","add":"2018-11-30 09:44:19","orig_title":"Poil de carotte","year":"2003-04-14","translations":["Любительский (одноголосый закадровый)"],"quality":"dvdrip","translation":"Любительский (одноголосый закадровый)","update":"2018-11-30 13:49:20","iframe_src":"//8965.svetacdn.in/71tsRs29n5tZ/movie/20409"},{"id":20408,"title":"Безмолвие","kp_id":"979747","imdb_id":"tt5585946","world_art_id":null,"type":"movie","add":"2018-11-30 09:41:10","orig_title":"Sprakeloos","year":"2017-03-06","translations":["Любительский (многоголосый закадровый) (Синема УС)"],"quality":"dvdrip","translation":"Любительский (многоголосый закадровый) (Синема УС)","update":"2018-11-30 13:47:50","iframe_src":"//8965.svetacdn.in/71tsRs29n5tZ/movie/20408"},{"id":20407,"title":"Тем летом","kp_id":"1115734","imdb_id":"tt7057306","world_art_id":null,"type":"movie","add":"2018-11-30 09:39:54","orig_title":"That Summer","year":"2017-09-01","translations":["Любительский (многоголосый закадровый) (Синема УС)"],"quality":"webdl","translation":"Любительский (многоголосый закадровый) (Синема УС)","update":"2018-11-30 13:46:52","iframe_src":"//8965.svetacdn.in/71tsRs29n5tZ/movie/20407"},{"id":20405,"title":"Дерево","kp_id":"1029068","imdb_id":"tt6206204","world_art_id":null,"type":"movie","add":"2018-11-30 09:36:04","orig_title":"The Tree","year":"2017-04-01","translations":["Любительский (многоголосый закадровый) (Синема УС)"],"quality":"webdl","translation":"Любительский (многоголосый закадровый) (Синема УС)","update":"2018-11-30 13:44:20","iframe_src":"//8965.svetacdn.in/71tsRs29n5tZ/movie/20405"},{"id":20403,"title":"Отдушина","kp_id":"1158977","imdb_id":"tt7899352","world_art_id":null,"type":"movie","add":"2018-11-30 09:24:13","orig_title":"Vent","year":"2018-11-16","translations":["Любительский (многоголосый закадровый) (Синема УС)"],"quality":"webdl","translation":"Любительский (многоголосый закадровый) (Синема УС)","update":"2018-11-30 13:36:26","iframe_src":"//8965.svetacdn.in/71tsRs29n5tZ/movie/20403"},{"id":20355,"title":"Рев","kp_id":"20859","imdb_id":"tt0083001","world_art_id":null,"type":"movie","add":"2018-11-29 08:37:40","orig_title":"Roar","year":"1981-11-12","translations":["[EN] Original (English)"],"quality":"bd","translation":"[EN] Original (English)","update":"2018-11-30 13:29:25","iframe_src":"//8965.svetacdn.in/71tsRs29n5tZ/movie/20355"},{"id":19638,"title":"Покрашенный дом","kp_id":"271767","imdb_id":"tt0362001","world_art_id":null,"type":"movie","add":"2018-10-19 05:39:49","orig_title":"A Painted House","year":"2003-04-27","translations":["Профессиональный (двухголосый закадровый)","[EN] Original (English)"],"quality":"webdl","translation":"Профессиональный (двухголосый закадровый)","update":"2018-11-30 13:56:29","iframe_src":"//8965.svetacdn.in/71tsRs29n5tZ/movie/19638"},{"id":19637,"title":"Вкус крови Дракулы","kp_id":"5691","imdb_id":"tt0065073","world_art_id":null,"type":"movie","add":"2018-10-19 05:38:17","orig_title":"Taste the Blood of Dracula","year":"1970-05-07","translations":["Профессиональный (двухголосый закадровый) (НТВ)","[EN] Original (English)"],"quality":"bd","translation":"Профессиональный (двухголосый закадровый) (НТВ)","update":"2018-11-30 13:55:42","iframe_src":"//8965.svetacdn.in/71tsRs29n5tZ/movie/19637"},{"id":19636,"title":"Кто-то наблюдает за мной!","kp_id":"330018","imdb_id":"tt0078295","world_art_id":null,"type":"movie","add":"2018-10-19 05:37:16","orig_title":"Someone's Watching Me!","year":"1978-11-29","translations":["Профессиональный (двухголосый закадровый)","[EN] Original (English)"],"quality":"bd","translation":"Профессиональный (двухголосый закадровый)","update":"2018-11-30 13:27:23","iframe_src":"//8965.svetacdn.in/71tsRs29n5tZ/movie/19636"},{"id":19634,"title":"Земля Чато","kp_id":"13592","imdb_id":"tt0066907","world_art_id":null,"type":"movie","add":"2018-10-19 05:33:46","orig_title":"Chato's Land","year":"1972-05-25","translations":["Профессиональный (двухголосый закадровый) (НТВ)","[EN] Original (English)"],"quality":"bd","translation":"Профессиональный (двухголосый закадровый) (НТВ)","update":"2018-11-30 13:26:13","iframe_src":"//8965.svetacdn.in/71tsRs29n5tZ/movie/19634"},{"id":19631,"title":"Малыш","kp_id":"62770","imdb_id":"tt0069754","world_art_id":null,"type":"movie","add":"2018-10-18 12:54:39","orig_title":"The Baby","year":"1973-03-01","translations":["Любительский (двухголосый закадровый) (DeadSno & den904)","[EN] Original (English)"],"quality":"bd","translation":"Любительский (двухголосый закадровый) (DeadSno & den904)","update":"2018-11-30 13:25:29","iframe_src":"//8965.svetacdn.in/71tsRs29n5tZ/movie/19631"},{"id":19630,"title":"Дымовой сигнал","kp_id":"15505","imdb_id":"tt0048634","world_art_id":null,"type":"movie","add":"2018-10-18 12:53:10","orig_title":"Smoke Signal","year":"1955-08-15","translations":["Любительский (одноголосый закадровый)","[EN] Original (English)"],"quality":"webdl","translation":"Любительский (одноголосый закадровый)","update":"2018-11-30 13:23:59","iframe_src":"//8965.svetacdn.in/71tsRs29n5tZ/movie/19630"},{"id":19629,"title":"Кошмар зомби","kp_id":"8357","imdb_id":"tt0092297","world_art_id":null,"type":"movie","add":"2018-10-18 12:52:15","orig_title":"Zombie Nightmare","year":"1987-10-13","translations":["Любительский (одноголосый закадровый) (fiendover)","[EN] Original (English)"],"quality":"bd","translation":"Любительский (одноголосый закадровый) (fiendover)","update":"2018-11-30 13:22:42","iframe_src":"//8965.svetacdn.in/71tsRs29n5tZ/movie/19629"},{"id":19628,"title":"Кабобланко","kp_id":"13562","imdb_id":"tt0080485","world_art_id":null,"type":"movie","add":"2018-10-18 12:51:24","orig_title":"Caboblanco","year":"1980-01-23","translations":["Любительский (одноголосый закадровый)","[EN] Original (English)"],"quality":"bd","translation":"Любительский (одноголосый закадровый)","update":"2018-11-30 13:18:25","iframe_src":"//8965.svetacdn.in/71tsRs29n5tZ/movie/19628"},{"id":19627,"title":"Зло","kp_id":"32135","imdb_id":"tt0077524","world_art_id":null,"type":"movie","add":"2018-10-18 12:49:19","orig_title":"The Evil","year":"1978-05-05","translations":["Любительский (одноголосый закадровый)","[EN] Original (English)"],"quality":"webdl","translation":"Любительский (одноголосый закадровый)","update":"2018-11-30 13:24:37","iframe_src":"//8965.svetacdn.in/71tsRs29n5tZ/movie/19627"},{"id":19505,"title":"Очищение","kp_id":"78168","imdb_id":"tt0388838","world_art_id":null,"type":"movie","add":"2018-10-12 06:39:29","orig_title":"Clean","year":"2004-03-27","translations":["Профессиональный (двухголосый закадровый)","[EN] Original (English)"],"quality":"webdl","translation":"Профессиональный (двухголосый закадровый)","update":"2018-11-30 13:59:13","iframe_src":"//8965.svetacdn.in/71tsRs29n5tZ/movie/19505"},{"id":19504,"title":"Кофейня","kp_id":"181686","imdb_id":"tt0460732","world_art_id":null,"type":"movie","add":"2018-10-12 06:37:58","orig_title":"Caffeine","year":"2006-08-10","translations":["Профессиональный (двухголосый закадровый)","[EN] Original (English)"],"quality":"webdl","translation":"Профессиональный (двухголосый закадровый)","update":"2018-11-30 13:57:48","iframe_src":"//8965.svetacdn.in/71tsRs29n5tZ/movie/19504"},{"id":19499,"title":"Так держать... Ковбой","kp_id":"32067","imdb_id":"tt0059014","world_art_id":null,"type":"movie","add":"2018-10-12 06:31:06","orig_title":"Carry on Cowboy","year":"1965-11-26","translations":["Любительский (одноголосый закадровый)","[EN] Original (English)"],"quality":"bd","translation":"Любительский (одноголосый закадровый)","update":"2018-11-30 13:19:19","iframe_src":"//8965.svetacdn.in/71tsRs29n5tZ/movie/19499"},{"id":18803,"title":"Зама","kp_id":"819158","imdb_id":"tt3409848","world_art_id":null,"type":"movie","add":"2018-09-05 23:22:19","orig_title":"Zama","year":"2017-08-31","translations":["Любительский (многоголосый закадровый) (Колобок)","Любительский (одноголосый закадровый)","Любительский (двухголосый закадровый) (LakeFilms)"],"quality":"webdl","translation":"Любительский (многоголосый закадровый) (Колобок)","update":"2018-11-30 13:38:28","iframe_src":"//8965.svetacdn.in/71tsRs29n5tZ/movie/18803"},{"id":14271,"title":"Злодейка","kp_id":"1044197","imdb_id":"tt6777338","world_art_id":null,"type":"movie","add":"2017-11-06 23:42:41","orig_title":"Aknyeo","year":"2017-05-21","translations":["Любительский (одноголосый закадровый) (Хихикающий доктор)","Любительский (многоголосый закадровый) (Синема УС)","Профессиональный (многоголосый закадровый) (AlexFilm)","Профессиональный (многоголосый закадровый) (GreenРай Studio)","Профессиональный (многоголосый закадровый)"],"quality":"hdrip","translation":"Любительский (одноголосый закадровый) (Хихикающий доктор)","update":"2018-11-30 13:48:38","iframe_src":"//8965.svetacdn.in/71tsRs29n5tZ/movie/14271"}],"current_page":2091,"first_page_url":"https://videocdn.tv/api/short?limit=100&api_token=EnbO9h8pv1VyjbCJhg0WM9nG259n7mtz&cache32091=32091&page=1","from":209001,"last_page":709,"last_page_url":"https://videocdn.tv/api/short?limit=100&api_token=EnbO9h8pv1VyjbCJhg0WM9nG259n7mtz&cache32091=32091&page=709","next_page_url":null,"path":"https://videocdn.tv/api/short","per_page":100,"prev_page_url":"https://videocdn.tv/api/short?limit=100&api_token=EnbO9h8pv1VyjbCJhg0WM9nG259n7mtz&cache32091=32091&page=2090","to":209020,"total":70884}