{"result":true,"data":[{"id":41484,"title":"Эрик Андре: узаконить все","kp_id":"1390616","imdb_id":"tt12327104","world_art_id":null,"type":"movie","add":"2020-06-30 04:54:29","orig_title":"Eric Andre: Legalize Everything","year":"2020-06-23","translations":["Любительский (многоголосый закадровый) (Синема УС)"],"quality":"webdl","translation":"Любительский (многоголосый закадровый) (Синема УС)","update":"2020-06-30 09:36:45","iframe_src":"//8332.svetacdn.in/71tsRs29n5tZ/movie/41484"},{"id":41483,"title":"Ласточки Кабула","kp_id":"1133703","imdb_id":"tt7534102","world_art_id":null,"type":"movie","add":"2020-06-30 04:52:10","orig_title":"Les hirondelles de Kaboul","year":"2019-05-16","translations":["Любительский (одноголосый закадровый) (datynet | Агапов Антон)"],"quality":"webdl","translation":"Любительский (одноголосый закадровый) (datynet | Агапов Антон)","update":"2020-06-30 10:16:00","iframe_src":"//8332.svetacdn.in/71tsRs29n5tZ/movie/41483"},{"id":41475,"title":"Реквием","kp_id":"144273","imdb_id":"tt0454931","world_art_id":null,"type":"movie","add":"2020-06-29 21:05:39","orig_title":"Requiem","year":"2006-02-17","translations":["Профессиональный (многоголосый закадровый)"],"quality":"dvdrip","translation":"Профессиональный (многоголосый закадровый)","update":"2020-06-30 13:16:07","iframe_src":"//8332.svetacdn.in/71tsRs29n5tZ/movie/41475"},{"id":41474,"title":"Женские игры","kp_id":"5966","imdb_id":"tt0102283","world_art_id":null,"type":"movie","add":"2020-06-29 21:01:23","orig_title":"Legal Tender","year":"1991-10-03","translations":["Профессиональный (двухголосый закадровый)"],"quality":"vhs","translation":"Профессиональный (двухголосый закадровый)","update":"2020-06-30 13:15:50","iframe_src":"//8332.svetacdn.in/71tsRs29n5tZ/movie/41474"},{"id":41467,"title":"Завтра","kp_id":"898654","imdb_id":"tt4449576","world_art_id":null,"type":"movie","add":"2020-06-29 14:43:02","orig_title":"Demain","year":"2015-11-11","translations":["Любительский (многоголосый закадровый)"],"quality":"webdl","translation":"Любительский (многоголосый закадровый)","update":"2020-06-30 06:51:07","iframe_src":"//8332.svetacdn.in/71tsRs29n5tZ/movie/41467"},{"id":41466,"title":"Вор и сапожник","kp_id":"14494","imdb_id":"tt0112389","world_art_id":null,"type":"movie","add":"2020-06-29 14:37:51","orig_title":"The Thief and the Cobbler","year":"1992-05-15","translations":["Авторский (одноголосый закадровый) (Дольский Андрей)"],"quality":"vhs","translation":"Авторский (одноголосый закадровый) (Дольский Андрей)","update":"2020-06-30 06:48:18","iframe_src":"//8332.svetacdn.in/71tsRs29n5tZ/movie/41466"},{"id":41465,"title":"Гласленд","kp_id":"817938","imdb_id":"tt3407428","world_art_id":null,"type":"movie","add":"2020-06-29 14:12:05","orig_title":"Glassland","year":"2014-07-11","translations":["Любительский (одноголосый закадровый)"],"quality":"bd","translation":"Любительский (одноголосый закадровый)","update":"2020-06-30 06:46:07","iframe_src":"//8332.svetacdn.in/71tsRs29n5tZ/movie/41465"},{"id":41371,"title":"Мусаси Миямото","kp_id":"311141","imdb_id":"tt0070761","world_art_id":null,"type":"movie","add":"2020-06-24 22:16:33","orig_title":"Miyamoto Musashi","year":"1973-07-14","translations":["Авторский (одноголосый закадровый) (Яковлев Алексей)"],"quality":"bd","translation":"Авторский (одноголосый закадровый) (Яковлев Алексей)","update":"2020-06-30 06:35:40","iframe_src":"//8332.svetacdn.in/71tsRs29n5tZ/movie/41371"},{"id":41370,"title":"Зипанг","kp_id":"171845","imdb_id":"tt0104559","world_art_id":null,"type":"movie","add":"2020-06-24 22:11:14","orig_title":"Jipangu","year":"1990-01-27","translations":["Авторский (одноголосый закадровый) (Сербин Юрий)"],"quality":"dvdrip","translation":"Авторский (одноголосый закадровый) (Сербин Юрий)","update":"2020-06-30 06:32:22","iframe_src":"//8332.svetacdn.in/71tsRs29n5tZ/movie/41370"},{"id":41369,"title":"Не сожалею о своей юности","kp_id":"161211","imdb_id":"tt0039090","world_art_id":null,"type":"movie","add":"2020-06-24 22:08:03","orig_title":"Waga seishun ni kuinashi","year":"1946-10-29","translations":["Профессиональный (двухголосый закадровый) (Инис)"],"quality":"bd","translation":"Профессиональный (двухголосый закадровый) (Инис)","update":"2020-06-30 06:31:30","iframe_src":"//8332.svetacdn.in/71tsRs29n5tZ/movie/41369"},{"id":36362,"title":"Ганц: Идеальный ответ","kp_id":"478707","imdb_id":"tt1525836","world_art_id":null,"type":"movie","add":"2020-02-16 19:40:26","orig_title":"Gantz: Perfect Answer","year":"2011-04-23","translations":["Любительский (одноголосый закадровый)  (zamez | Замез Вячеслав)","Любительский (двухголосый закадровый)"],"quality":"bd","translation":"Любительский (одноголосый закадровый)  (zamez | Замез Вячеслав)","update":"2020-06-30 07:02:30","iframe_src":"//8332.svetacdn.in/71tsRs29n5tZ/movie/36362"},{"id":31808,"title":"Шелковый путь","kp_id":"127006","imdb_id":"tt0095071","world_art_id":null,"type":"movie","add":"2019-10-13 07:15:18","orig_title":"Tonkô","year":"1988-06-25","translations":["Любительский (одноголосый закадровый) (Воротилин Олег)","Любительский (двухголосый закадровый) (East Dream)"],"quality":"webdl","translation":"Любительский (одноголосый закадровый) (Воротилин Олег)","update":"2020-06-30 06:33:46","iframe_src":"//8332.svetacdn.in/71tsRs29n5tZ/movie/31808"},{"id":31687,"title":"Храбрецы","kp_id":"1258553","imdb_id":"tt10218674","world_art_id":null,"type":"movie","add":"2019-10-10 08:10:02","orig_title":"Lie huo ying xiong","year":"2019-08-01","translations":["Любительский (многоголосый закадровый) (Колобок)","Любительский (одноголосый закадровый) (Береговых Виктор | Jet)","Любительский (двухголосый закадровый) (Колобок)","Любительский (одноголосый закадровый)  (zamez | Замез Вячеслав)","Профессиональный (многоголосый закадровый) (SDI Media)"],"quality":"webdl","translation":"Любительский (многоголосый закадровый) (Колобок)","update":"2020-06-30 07:07:29","iframe_src":"//8332.svetacdn.in/71tsRs29n5tZ/movie/31687"},{"id":21996,"title":"Измени или умри","kp_id":"1173686","imdb_id":"tt8620646","world_art_id":null,"type":"movie","add":"2019-02-02 14:06:14","orig_title":"An Affair to Die For","year":"2019-02-01","translations":["Любительский (многоголосый закадровый) (Синема УС)","Любительский (двухголосый закадровый) (HiWayGrope)","Полное дублирование","Профессиональный (многоголосый закадровый) (HDrezka Studio)","Профессиональный (многоголосый закадровый)","Профессиональный (многоголосый закадровый) (HDrezka Studio)"],"quality":"webdl","translation":"Любительский (многоголосый закадровый) (Синема УС)","update":"2020-06-30 09:37:58","iframe_src":"//8332.svetacdn.in/71tsRs29n5tZ/movie/21996"},{"id":21941,"title":"Воин","kp_id":"13730","imdb_id":"tt0275083","world_art_id":null,"type":"movie","add":"2019-01-30 18:09:03","orig_title":"Musa","year":"2001-09-07","translations":["Профессиональный (многоголосый закадровый)","Любительский (двухголосый закадровый)"],"quality":"dvdrip","translation":"Профессиональный (многоголосый закадровый)","update":"2020-06-30 06:37:08","iframe_src":"//8332.svetacdn.in/71tsRs29n5tZ/movie/21941"},{"id":19110,"title":"Боевые ангелы","kp_id":"36953","imdb_id":"tt0300620","world_art_id":null,"type":"movie","add":"2018-09-21 10:49:16","orig_title":"Xi yang tian shi","year":"2002-08-22","translations":["Профессиональный (многоголосый закадровый)","Профессиональный (многоголосый закадровый)"],"quality":"webdl","translation":"Профессиональный (многоголосый закадровый)","update":"2020-06-30 07:06:17","iframe_src":"//8332.svetacdn.in/71tsRs29n5tZ/movie/19110"},{"id":16035,"title":"Любовники полярного круга","kp_id":"58524","imdb_id":"tt0133363","world_art_id":null,"type":"movie","add":"2018-04-03 12:36:11","orig_title":"Los amantes del Círculo Polar","year":"1998-09-04","translations":["Любительский (одноголосый закадровый) (liosaa)","Авторский (одноголосый закадровый) (Алексеев Антон)"],"quality":"webdl","translation":"Любительский (одноголосый закадровый) (liosaa)","update":"2020-06-30 06:12:12","iframe_src":"//8332.svetacdn.in/71tsRs29n5tZ/movie/16035"},{"id":9655,"title":"Зверь-преследователь","kp_id":"432555","imdb_id":"tt1330525","world_art_id":null,"type":"movie","add":"2017-02-13 11:00:48","orig_title":"Ching yan","year":"2008-11-27","translations":["Авторский (одноголосый закадровый) (Кузнецов Сергей)","Авторский (одноголосый закадровый) (Сербин Юрий)"],"quality":"bd","translation":"Авторский (одноголосый закадровый) (Кузнецов Сергей)","update":"2020-06-30 06:54:58","iframe_src":"//8332.svetacdn.in/71tsRs29n5tZ/movie/9655"},{"id":9549,"title":"Жандарм и жандарметки","kp_id":"94571","imdb_id":"tt0083996","world_art_id":null,"type":"movie","add":"2017-02-09 11:32:43","orig_title":"Le gendarme et les gendarmettes","year":"1982-10-06","translations":["Профессиональный (многоголосый закадровый)","Профессиональный (многоголосый закадровый) (РенТВ)","Профессиональный (многоголосый закадровый) (НТВ)","Авторский (одноголосый закадровый) (Володарский Леонид)","Профессиональный (многоголосый закадровый) (НТВ)","Профессиональный (многоголосый закадровый) (Первый канал | ОРТ)","Профессиональный (многоголосый закадровый) (Останкино)"],"quality":"hddvd","translation":"Профессиональный (многоголосый закадровый)","update":"2020-06-30 06:28:37","iframe_src":"//8332.svetacdn.in/71tsRs29n5tZ/movie/9549"},{"id":3927,"title":"Кундо: Эпоха угрозы","kp_id":"770755","imdb_id":"tt2972482","world_art_id":null,"type":"movie","add":"2016-07-14 12:22:26","orig_title":"Kundo: minranui sidae","year":"2014-07-23","translations":["Профессиональный (двухголосый закадровый)","Любительский (двухголосый закадровый) (DeadSno & den904)"],"quality":"bd","translation":"Профессиональный (двухголосый закадровый)","update":"2020-06-30 07:04:36","iframe_src":"//8332.svetacdn.in/71tsRs29n5tZ/movie/3927"}],"current_page":619,"first_page_url":"https://videocdn.tv/api/short?limit=100&api_token=EnbO9h8pv1VyjbCJhg0WM9nG259n7mtz&cache3619=3619&page=1","from":61801,"last_page":632,"last_page_url":"https://videocdn.tv/api/short?limit=100&api_token=EnbO9h8pv1VyjbCJhg0WM9nG259n7mtz&cache3619=3619&page=632","next_page_url":"https://videocdn.tv/api/short?limit=100&api_token=EnbO9h8pv1VyjbCJhg0WM9nG259n7mtz&cache3619=3619&page=620","path":"https://videocdn.tv/api/short","per_page":100,"prev_page_url":"https://videocdn.tv/api/short?limit=100&api_token=EnbO9h8pv1VyjbCJhg0WM9nG259n7mtz&cache3619=3619&page=618","to":61820,"total":63136}