{"result":true,"data":[{"id":44449,"title":"Всё под контролем","kp_id":"1406442","imdb_id":"tt13065386","world_art_id":null,"type":"movie","add":"2020-10-14 23:23:59","orig_title":"Totally Under Control","year":"2020-10-13","translations":["Любительский (многоголосый закадровый) (Синема УС)"],"quality":"webdl","translation":"Любительский (многоголосый закадровый) (Синема УС)","update":"2020-10-15 05:26:20","iframe_src":"//8543.svetacdn.in/71tsRs29n5tZ/movie/44449"},{"id":44375,"title":"Шейх","kp_id":"12059","imdb_id":"tt0012675","world_art_id":null,"type":"movie","add":"2020-10-12 19:19:18","orig_title":"The Sheik","year":"1921-10-30","translations":["Original (English)"],"quality":"bd","translation":"Original (English)","update":"2020-10-15 05:44:09","iframe_src":"//8543.svetacdn.in/71tsRs29n5tZ/movie/44375"},{"id":44360,"title":"Погружение","kp_id":"1175263","imdb_id":"tt8731156","world_art_id":null,"type":"movie","add":"2020-10-12 17:50:37","orig_title":"Hatzlila","year":"2018-08-01","translations":["Любительский (многоголосый закадровый) (Синема УС)"],"quality":"webdl","translation":"Любительский (многоголосый закадровый) (Синема УС)","update":"2020-10-15 07:17:54","iframe_src":"//8543.svetacdn.in/71tsRs29n5tZ/movie/44360"},{"id":44353,"title":"Абердин","kp_id":"1169301","imdb_id":"tt8648232","world_art_id":null,"type":"movie","add":"2020-10-12 16:59:48","orig_title":"Aberdeen","year":"2019-02-24","translations":["Любительский (многоголосый закадровый) (@MUZOBOZ@)"],"quality":"webdl","translation":"Любительский (многоголосый закадровый) (@MUZOBOZ@)","update":"2020-10-15 04:56:18","iframe_src":"//8543.svetacdn.in/71tsRs29n5tZ/movie/44353"},{"id":44330,"title":"Пустыня Тартари","kp_id":"15163","imdb_id":"tt0074400","world_art_id":null,"type":"movie","add":"2020-10-12 08:04:27","orig_title":"Il deserto dei tartari","year":"1976-10-29","translations":["Профессиональный (многоголосый закадровый) (СВ-Дубль)"],"quality":"bd","translation":"Профессиональный (многоголосый закадровый) (СВ-Дубль)","update":"2020-10-14 16:02:11","iframe_src":"//8543.svetacdn.in/71tsRs29n5tZ/movie/44330"},{"id":44270,"title":"Яркий летний день","kp_id":"165366","imdb_id":"tt0101985","world_art_id":null,"type":"movie","add":"2020-10-09 19:34:30","orig_title":"Guling jie shaonian sha ren shijian","year":"1991-07-27","translations":["Авторский (одноголосый закадровый) (Воротилин Олег)"],"quality":"bd","translation":"Авторский (одноголосый закадровый) (Воротилин Олег)","update":"2020-10-15 07:05:11","iframe_src":"//8543.svetacdn.in/71tsRs29n5tZ/movie/44270"},{"id":42769,"title":"Йентл","kp_id":"1705","imdb_id":"tt0086619","world_art_id":null,"type":"movie","add":"2020-08-25 16:54:25","orig_title":"Yentl","year":"1983-11-16","translations":["Профессиональный (многоголосый закадровый) (НТВ)","Original (English)"],"quality":"bd","translation":"Профессиональный (многоголосый закадровый) (НТВ)","update":"2020-10-15 07:24:32","iframe_src":"//8543.svetacdn.in/71tsRs29n5tZ/movie/42769"},{"id":42767,"title":"Знак четырёх","kp_id":"298064","imdb_id":"tt0086310","world_art_id":null,"type":"movie","add":"2020-08-25 16:52:04","orig_title":"The Sign of Four","year":"1983-12-07","translations":["Профессиональный (многоголосый закадровый)","Original (English)"],"quality":"bd","translation":"Профессиональный (многоголосый закадровый)","update":"2020-10-15 07:22:50","iframe_src":"//8543.svetacdn.in/71tsRs29n5tZ/movie/42767"},{"id":42765,"title":"Местный герой","kp_id":"18260","imdb_id":"tt0085859","world_art_id":null,"type":"movie","add":"2020-08-25 16:49:13","orig_title":"Local Hero","year":"1983-02-17","translations":["Профессиональный (многоголосый закадровый) (ТВЦ)","Original (English)"],"quality":"bd","translation":"Профессиональный (многоголосый закадровый) (ТВЦ)","update":"2020-10-15 07:18:00","iframe_src":"//8543.svetacdn.in/71tsRs29n5tZ/movie/42765"},{"id":42763,"title":"Бегство Эдди Мэйкона","kp_id":"11916","imdb_id":"tt0085473","world_art_id":null,"type":"movie","add":"2020-08-25 16:45:00","orig_title":"Eddie Macon's Run","year":"1983-03-25","translations":["Профессиональный (многоголосый закадровый) (СТС)","Original (English)"],"quality":"bd","translation":"Профессиональный (многоголосый закадровый) (СТС)","update":"2020-10-15 07:16:02","iframe_src":"//8543.svetacdn.in/71tsRs29n5tZ/movie/42763"},{"id":39891,"title":"Ассистентка","kp_id":"1192747","imdb_id":"tt9000224","world_art_id":null,"type":"movie","add":"2020-04-28 03:24:51","orig_title":"The Assistant","year":"2019-08-30","translations":["Любительский (двухголосый закадровый) (LakeFilms)","Original (English)","Профессиональный (многоголосый закадровый) (iTunes)"],"quality":"webdl","translation":"Любительский (двухголосый закадровый) (LakeFilms)","update":"2020-10-14 12:00:39","iframe_src":"//8543.svetacdn.in/71tsRs29n5tZ/movie/39891"},{"id":36419,"title":"Омен IV: пробуждение","kp_id":"81024","imdb_id":"tt0102585","world_art_id":null,"type":"movie","add":"2020-02-17 13:30:54","orig_title":"Omen IV: The Awakening","year":"1991-05-20","translations":["Профессиональный (многоголосый закадровый)","Авторский (одноголосый закадровый) (Гаврилов Андрей)","Авторский (одноголосый закадровый) (Горчаков Василий)","Любительский (многоголосый закадровый)","Original (English)"],"quality":"dvdrip","translation":"Профессиональный (многоголосый закадровый)","update":"2020-10-15 07:18:52","iframe_src":"//8543.svetacdn.in/71tsRs29n5tZ/movie/36419"},{"id":32867,"title":"Скупой","kp_id":"95357","imdb_id":"tt0078813","world_art_id":null,"type":"movie","add":"2019-11-08 21:10:38","orig_title":"L'avare","year":"1980-03-05","translations":["Полное дублирование","Полное дублирование (Киностудия им. Горького)"],"quality":"hdtv","translation":"Полное дублирование","update":"2020-10-14 11:59:11","iframe_src":"//8543.svetacdn.in/71tsRs29n5tZ/movie/32867"},{"id":28106,"title":"Путешественник. Начало","kp_id":"1251128","imdb_id":null,"world_art_id":null,"type":"movie","add":"2019-06-20 23:32:10","orig_title":"Путешественник. Начало","year":"2019-02-26","translations":["Оригинальная дорожка","Оригинальная дорожка"],"quality":"hdtv","translation":"Оригинальная дорожка","update":"2020-10-15 05:41:21","iframe_src":"//8543.svetacdn.in/71tsRs29n5tZ/movie/28106"},{"id":4566,"title":"Фронт в тылу врага","kp_id":"44439","imdb_id":"tt0082421","world_art_id":null,"type":"serial","add":"2019-05-28 15:04:09","orig_title":"Front v tylu vraga","year":"1982-05-01","translations":["Оригинальная дорожка"],"seasons_count":1,"episodes_count":2,"episodes":2,"update":"2019-05-28 17:16:03","iframe_src":"//8543.svetacdn.in/71tsRs29n5tZ/tv-series/4566"},{"id":4560,"title":"Возраст против красоты","kp_id":"1181558","imdb_id":"tt6268466","world_art_id":null,"type":"serial","add":"2019-05-27 07:44:37","orig_title":"Age Before Beauty","year":"2018-07-31","translations":["Любительский (двухголосый закадровый) (Victory-Films)"],"seasons_count":1,"episodes_count":6,"episodes":6,"update":"2019-05-28 10:13:16","iframe_src":"//8543.svetacdn.in/71tsRs29n5tZ/tv-series/4560"},{"id":4556,"title":"Синее озеро","kp_id":"1263381","imdb_id":null,"world_art_id":null,"type":"serial","add":"2019-05-27 02:56:49","orig_title":"Синее озеро","year":"2019-05-26","translations":["Оригинальная дорожка"],"seasons_count":1,"episodes_count":2,"episodes":2,"update":"2019-05-27 08:43:21","iframe_src":"//8543.svetacdn.in/71tsRs29n5tZ/tv-series/4556"},{"id":4551,"title":"Старая гвардия","kp_id":"1235983","imdb_id":null,"world_art_id":null,"type":"serial","add":"2019-05-26 08:24:32","orig_title":"Старая гвардия","year":"2019-05-25","translations":["Оригинальная дорожка"],"seasons_count":1,"episodes_count":4,"episodes":4,"update":"2019-05-26 11:10:42","iframe_src":"//8543.svetacdn.in/71tsRs29n5tZ/tv-series/4551"},{"id":4541,"title":"ЧС. Чрезвычайная ситуация","kp_id":"533112","imdb_id":"tt2316058","world_art_id":null,"type":"serial","add":"2019-05-23 06:51:51","orig_title":"ChS [Chrezvychaynaya situatsiya]","year":"2012-01-01","translations":["Оригинальная дорожка"],"seasons_count":1,"episodes_count":24,"episodes":24,"update":"2019-05-24 16:00:06","iframe_src":"//8543.svetacdn.in/71tsRs29n5tZ/tv-series/4541"},{"id":4538,"title":"Дыши со мной","kp_id":"470828","imdb_id":null,"world_art_id":null,"type":"serial","add":"2019-05-22 13:12:55","orig_title":"Дыши со мной","year":"2010-05-16","translations":["Оригинальная дорожка"],"seasons_count":1,"episodes_count":20,"episodes":20,"update":"2019-05-23 18:10:44","iframe_src":"//8543.svetacdn.in/71tsRs29n5tZ/tv-series/4538"},{"id":4537,"title":"В круге первом","kp_id":"252044","imdb_id":"tt0804892","world_art_id":null,"type":"serial","add":"2019-05-22 03:29:41","orig_title":"V kruge pervom","year":"2006-01-29","translations":["Оригинальная дорожка"],"seasons_count":1,"episodes_count":10,"episodes":10,"update":"2019-05-23 18:27:19","iframe_src":"//8543.svetacdn.in/71tsRs29n5tZ/tv-series/4537"},{"id":4519,"title":"Гуманоиды в Королёве","kp_id":"412082","imdb_id":"tt4113962","world_art_id":null,"type":"serial","add":"2019-05-18 14:59:20","orig_title":"Gunanoydy v Korolyove","year":"2008-05-12","translations":["Оригинальная дорожка"],"seasons_count":1,"episodes_count":40,"episodes":40,"update":"2019-05-23 11:26:08","iframe_src":"//8543.svetacdn.in/71tsRs29n5tZ/tv-series/4519"},{"id":4507,"title":"Хозяйка судьбы","kp_id":"161228","imdb_id":"tt0420449","world_art_id":null,"type":"serial","add":"2019-05-15 08:17:49","orig_title":"Senhora do Destino","year":"2004-06-28","translations":["Профессиональный (многоголосый закадровый)"],"seasons_count":1,"episodes_count":181,"episodes":181,"update":"2019-05-28 09:16:07","iframe_src":"//8543.svetacdn.in/71tsRs29n5tZ/tv-series/4507"},{"id":4504,"title":"Больше жизни","kp_id":"1008253","imdb_id":null,"world_art_id":null,"type":"serial","add":"2019-05-15 07:43:08","orig_title":"Больше жизни","year":"2016-01-01","translations":["Оригинальная дорожка"],"seasons_count":1,"episodes_count":16,"episodes":16,"update":"2019-05-25 07:27:40","iframe_src":"//8543.svetacdn.in/71tsRs29n5tZ/tv-series/4504"},{"id":4417,"title":"Максимо в моем сердце","kp_id":"494528","imdb_id":"tt0332957","world_art_id":null,"type":"serial","add":"2019-04-25 17:43:59","orig_title":"Máximo corazón","year":"2002-08-26","translations":["Профессиональный (многоголосый закадровый)"],"seasons_count":1,"episodes_count":139,"episodes":139,"update":"2019-05-24 13:51:31","iframe_src":"//8543.svetacdn.in/71tsRs29n5tZ/tv-series/4417"},{"id":4172,"title":"Запретная страсть","kp_id":"731868","imdb_id":"tt2636446","world_art_id":null,"type":"serial","add":"2019-02-27 10:54:51","orig_title":"Pasión Prohibida","year":"2013-01-22","translations":["Любительский (одноголосый закадровый)"],"seasons_count":1,"episodes_count":44,"episodes":44,"update":"2019-05-28 10:09:17","iframe_src":"//8543.svetacdn.in/71tsRs29n5tZ/tv-series/4172"},{"id":4006,"title":"Вавилон","kp_id":"1206874","imdb_id":"tt9467014","world_art_id":null,"type":"serial","add":"2019-01-31 09:24:43","orig_title":"Babel","year":"2019-01-27","translations":["Любительский (двухголосый закадровый) (SoftBox)","Любительский (двухголосый закадровый) (HighHopes)"],"seasons_count":1,"episodes_count":16,"episodes":16,"update":"2019-05-22 13:52:32","iframe_src":"//8543.svetacdn.in/71tsRs29n5tZ/tv-series/4006"},{"id":3401,"title":"Масяня","kp_id":"447446","imdb_id":null,"world_art_id":null,"type":"serial","add":"2018-10-27 09:44:16","orig_title":"Масяня","year":"2001-10-22","translations":["Оригинальная дорожка"],"seasons_count":6,"episodes_count":131,"episodes":13,"update":"2019-05-28 08:02:46","iframe_src":"//8543.svetacdn.in/71tsRs29n5tZ/tv-series/3401"},{"id":3314,"title":"Катя и Эф. Куда-угодно-дверь","kp_id":"1199602","imdb_id":null,"world_art_id":null,"type":"serial","add":"2018-10-15 19:38:36","orig_title":"Катя и Эф. Куда-угодно-дверь","year":"2018-05-31","translations":["Оригинальная дорожка"],"seasons_count":1,"episodes_count":22,"episodes":22,"update":"2019-05-26 11:13:12","iframe_src":"//8543.svetacdn.in/71tsRs29n5tZ/tv-series/3314"},{"id":1752,"title":"Ангел или демон","kp_id":"732571","imdb_id":"tt3189138","world_art_id":null,"type":"serial","add":"2017-11-21 05:48:04","orig_title":"Angel ili demon","year":"2013-04-05","translations":["Оригинальная дорожка"],"seasons_count":2,"episodes_count":40,"episodes":20,"update":"2019-05-24 13:53:45","iframe_src":"//8543.svetacdn.in/71tsRs29n5tZ/tv-series/1752"},{"id":13857,"title":"Няня","kp_id":"855462","imdb_id":"tt4225622","world_art_id":null,"type":"movie","add":"2017-10-15 22:37:18","orig_title":"The Babysitter","year":"2017-10-13","translations":["Любительский (многоголосый закадровый) (@MUZOBOZ@)","Профессиональный (многоголосый закадровый) (GreenРай Studio)","Профессиональный (многоголосый закадровый) (HDrezka Studio)","Профессиональный (многоголосый закадровый) (Jaskier)","Профессиональный (многоголосый закадровый) (Good People)","Профессиональный (многоголосый закадровый) (HDrezka Studio)","Любительский (многоголосый закадровый) (Flarrow Films)"],"quality":"webdl","translation":"Любительский (многоголосый закадровый) (@MUZOBOZ@)","update":"2020-10-15 07:14:31","iframe_src":"//8543.svetacdn.in/71tsRs29n5tZ/movie/13857"},{"id":1492,"title":"Раскосяченные","kp_id":"1044418","imdb_id":"tt5884792","world_art_id":null,"type":"serial","add":"2017-08-29 05:34:33","orig_title":"Disjointed","year":"2017-08-25","translations":["Профессиональный (многоголосый закадровый) (NewStudio)"],"seasons_count":1,"episodes_count":20,"episodes":20,"update":"2019-05-23 07:29:29","iframe_src":"//8543.svetacdn.in/71tsRs29n5tZ/tv-series/1492"},{"id":1166,"title":"Консультант","kp_id":"984307","imdb_id":"tt12020980","world_art_id":null,"type":"serial","add":"2017-04-05 08:41:58","orig_title":"Консультант","year":"2017-04-03","translations":["Оригинальная дорожка"],"seasons_count":2,"episodes_count":20,"episodes":10,"update":"2019-05-25 08:05:02","iframe_src":"//8543.svetacdn.in/71tsRs29n5tZ/tv-series/1166"},{"id":6867,"title":"Жизнь дерьмо","kp_id":"5065","imdb_id":"tt0102303","world_art_id":null,"type":"movie","add":"2016-10-31 12:25:10","orig_title":"Life Stinks","year":"1991-05-15","translations":["Профессиональный (многоголосый закадровый)","Авторский (одноголосый закадровый) (Котов Вячеслав)","Профессиональный (многоголосый закадровый)","Авторский (одноголосый закадровый) (Михалёв Алексей)","Original (English)"],"quality":"bd","translation":"Профессиональный (многоголосый закадровый)","update":"2020-10-15 07:16:59","iframe_src":"//8543.svetacdn.in/71tsRs29n5tZ/movie/6867"},{"id":547,"title":"Любовь не понимает слов","kp_id":"994676","imdb_id":"tt5768632","world_art_id":null,"type":"serial","add":"2016-10-21 12:19:03","orig_title":"Ask Laftan Anlamaz","year":"2016-06-15","translations":["Любительский (одноголосый закадровый)","Авторский (одноголосый закадровый) (Котова Ирина)"],"seasons_count":1,"episodes_count":31,"episodes":31,"update":"2019-05-22 13:24:26","iframe_src":"//8543.svetacdn.in/71tsRs29n5tZ/tv-series/547"},{"id":5762,"title":"Совершенный мир","kp_id":"8178","imdb_id":"tt0107808","world_art_id":null,"type":"movie","add":"2016-10-03 05:24:55","orig_title":"A Perfect World","year":"1993-11-24","translations":["Профессиональный (многоголосый закадровый)","Авторский (одноголосый закадровый) (Гаврилов Андрей)","Авторский (одноголосый закадровый) (Горчаков Василий)","Авторский (одноголосый закадровый) (Живов Юрий)","Полное дублирование (Варус-Видео)","Профессиональный (двухголосый закадровый) (НТВ)","Профессиональный (многоголосый закадровый) (РТР | Россия)","Original (English)"],"quality":"bd","translation":"Профессиональный (многоголосый закадровый)","update":"2020-10-15 07:20:38","iframe_src":"//8543.svetacdn.in/71tsRs29n5tZ/movie/5762"},{"id":317,"title":"Теория большого взрыва","kp_id":"306084","imdb_id":"tt0898266","world_art_id":null,"type":"serial","add":"2016-07-31 12:02:32","orig_title":"The Big Bang Theory","year":"2007-09-24","translations":["Профессиональный (одноголосый закадровый) (Кураж-Бамбей)"],"seasons_count":12,"episodes_count":279,"episodes":24,"update":"2019-05-27 17:25:54","iframe_src":"//8543.svetacdn.in/71tsRs29n5tZ/tv-series/317"},{"id":4144,"title":"Голый пистолет 2 1/2: Запах страха","kp_id":"2388","imdb_id":"tt0102510","world_art_id":null,"type":"movie","add":"2016-07-25 10:34:53","orig_title":"The Naked Gun 2½: The Smell of Fear","year":"1991-06-28","translations":["Профессиональный (многоголосый закадровый)","Авторский (одноголосый закадровый) (Михалёв Алексей)","Авторский (одноголосый закадровый) (Живов Юрий)","Профессиональный (одноголосый закадровый) (диктор CDV)","Профессиональный (двухголосый закадровый) (Гланц + Королёва)","Профессиональный (многоголосый закадровый) (СТС)","Профессиональный (многоголосый закадровый) (ТВЦ)","Профессиональный (многоголосый закадровый) (VideoBIZ)","Авторский (одноголосый закадровый) (Горчаков Василий)","Профессиональный (двухголосый закадровый)","Профессиональный (двухголосый закадровый) (НТВ)","Профессиональный (многоголосый закадровый) (РТР | Россия)","Original (English)"],"quality":"bd","translation":"Профессиональный (многоголосый закадровый)","update":"2020-10-15 07:21:28","iframe_src":"//8543.svetacdn.in/71tsRs29n5tZ/movie/4144"},{"id":2403,"title":"Взрыв из прошлого","kp_id":"2408","imdb_id":"tt0124298","world_art_id":null,"type":"movie","add":"2016-05-20 14:55:56","orig_title":"Blast from the Past","year":"1999-01-27","translations":["Полное дублирование","Полное дублирование","Авторский (одноголосый закадровый) (Гаврилов Андрей)","Авторский (одноголосый закадровый) (Живов Юрий)","Полное дублирование (SDI Media)","Профессиональный (многоголосый закадровый) (Сонотек)","Original (English)"],"quality":"bd","translation":"Полное дублирование","update":"2020-10-15 07:26:01","iframe_src":"//8543.svetacdn.in/71tsRs29n5tZ/movie/2403"},{"id":1640,"title":"Молчание ягнят","kp_id":"345","imdb_id":"tt0102926","world_art_id":null,"type":"movie","add":"2016-04-24 16:42:56","orig_title":"Silence of the Lambs","year":"1991-01-30","translations":["Полное дублирование","Авторский (одноголосый закадровый) (Либергал Григорий)","Авторский (одноголосый закадровый) (Михалёв Алексей)","Авторский (одноголосый закадровый) (Сербин Юрий)","Авторский (одноголосый закадровый) (Живов Юрий)","Полное дублирование","Профессиональный (многоголосый закадровый) (НТВ)","Профессиональный (многоголосый закадровый) (Киномания)","Профессиональный (многоголосый закадровый) (Lazer Video)","Профессиональный (многоголосый закадровый) (Позитив)","Профессиональный (многоголосый закадровый) (Союз Видео)","Профессиональный (многоголосый закадровый) (Видеосервис)","Original (English)"],"quality":"bd","translation":"Полное дублирование","update":"2020-10-15 07:23:35","iframe_src":"//8543.svetacdn.in/71tsRs29n5tZ/movie/1640"}],"current_page":341,"first_page_url":"https://videocdn.tv/api/short?limit=100&api_token=EnbO9h8pv1VyjbCJhg0WM9nG259n7mtz&cache3341=3341&page=1","from":34001,"last_page":608,"last_page_url":"https://videocdn.tv/api/short?limit=100&api_token=EnbO9h8pv1VyjbCJhg0WM9nG259n7mtz&cache3341=3341&page=608","next_page_url":"https://videocdn.tv/api/short?limit=100&api_token=EnbO9h8pv1VyjbCJhg0WM9nG259n7mtz&cache3341=3341&page=342","path":"https://videocdn.tv/api/short","per_page":100,"prev_page_url":"https://videocdn.tv/api/short?limit=100&api_token=EnbO9h8pv1VyjbCJhg0WM9nG259n7mtz&cache3341=3341&page=340","to":34040,"total":60756}