{"result":true,"data":[{"id":16968,"title":"Представление","kp_id":"22934","imdb_id":"tt0066214","world_art_id":null,"type":"movie","add":"2018-05-30 10:33:31","orig_title":"Performance","year":"1970-08-03","translations":["Авторский (одноголосый закадровый) (Алексеев Антон)"],"quality":"bd","translation":"Авторский (одноголосый закадровый) (Алексеев Антон)","update":"2018-05-31 06:35:07","iframe_src":"//83.svetacdn.in/PfJ50H0ZBPg3/movie/16968"},{"id":16967,"title":"Приключения отца и сына","kp_id":"948107","imdb_id":"tt5077538","world_art_id":null,"type":"movie","add":"2018-05-30 10:31:33","orig_title":"Père fils thérapie!","year":"2016-12-28","translations":["Любительский (многоголосый закадровый) (Синема УС)"],"quality":"dvdrip","translation":"Любительский (многоголосый закадровый) (Синема УС)","update":"2018-05-31 06:35:33","iframe_src":"//83.svetacdn.in/PfJ50H0ZBPg3/movie/16967"},{"id":16966,"title":"Дело ведет мохнатый","kp_id":"1123605","imdb_id":"tt8064262","world_art_id":null,"type":"movie","add":"2018-05-30 10:29:06","orig_title":"Paws P.I.","year":"2018-05-29","translations":["Любительский (многоголосый закадровый) (Синема УС)"],"quality":"dvdrip","translation":"Любительский (многоголосый закадровый) (Синема УС)","update":"2018-05-31 06:36:25","iframe_src":"//83.svetacdn.in/PfJ50H0ZBPg3/movie/16966"},{"id":16961,"title":"Только не без моей дочери","kp_id":"9285","imdb_id":"tt0102555","world_art_id":null,"type":"movie","add":"2018-05-30 10:19:00","orig_title":"Not Without My Daughter","year":"1991-01-11","translations":["Профессиональный (двухголосый закадровый) (НТВ)"],"quality":"webdl","translation":"Профессиональный (двухголосый закадровый) (НТВ)","update":"2018-05-31 06:38:22","iframe_src":"//83.svetacdn.in/PfJ50H0ZBPg3/movie/16961"},{"id":16958,"title":"Проклятое дитя","kp_id":"64023","imdb_id":"tt0084298","world_art_id":null,"type":"movie","add":"2018-05-30 10:13:45","orig_title":"Manhattan Baby","year":"1982-08-12","translations":["Авторский (одноголосый закадровый) (Живов Юрий)"],"quality":"bd","translation":"Авторский (одноголосый закадровый) (Живов Юрий)","update":"2018-05-31 06:40:14","iframe_src":"//83.svetacdn.in/PfJ50H0ZBPg3/movie/16958"},{"id":16957,"title":"Властелин Шанхая","kp_id":"965104","imdb_id":"tt5482570","world_art_id":null,"type":"movie","add":"2018-05-30 10:09:18","orig_title":"Shang Hai Wang","year":"2016-06-19","translations":["Любительский (многоголосый закадровый) (Колобок)"],"quality":"webdl","translation":"Любительский (многоголосый закадровый) (Колобок)","update":"2018-05-31 06:40:13","iframe_src":"//83.svetacdn.in/PfJ50H0ZBPg3/movie/16957"},{"id":16951,"title":"Я – группи","kp_id":"102064","imdb_id":"tt0065877","world_art_id":null,"type":"movie","add":"2018-05-30 09:55:03","orig_title":"Ich - Ein Groupie","year":"1970-11-26","translations":["Авторский (одноголосый закадровый) (Алексеев Антон)"],"quality":"bd","translation":"Авторский (одноголосый закадровый) (Алексеев Антон)","update":"2018-05-31 03:58:05","iframe_src":"//83.svetacdn.in/PfJ50H0ZBPg3/movie/16951"},{"id":16949,"title":"Голливудские шлюхи с бензопилами","kp_id":"34249","imdb_id":"tt0095312","world_art_id":null,"type":"movie","add":"2018-05-30 09:51:03","orig_title":"Hollywood Chainsaw Hookers","year":"1988-04-29","translations":["Авторский (одноголосый закадровый) (Дольский Андрей)"],"quality":"bd","translation":"Авторский (одноголосый закадровый) (Дольский Андрей)","update":"2018-05-31 04:05:58","iframe_src":"//83.svetacdn.in/PfJ50H0ZBPg3/movie/16949"},{"id":16948,"title":"Учитель и чудовища","kp_id":"5122","imdb_id":"tt0116531","world_art_id":null,"type":"movie","add":"2018-05-30 09:47:38","orig_title":"High School High","year":"1996-10-25","translations":["Профессиональный (многоголосый закадровый) (Первый канал | ОРТ)"],"quality":"webdl","translation":"Профессиональный (многоголосый закадровый) (Первый канал | ОРТ)","update":"2018-05-31 04:04:35","iframe_src":"//83.svetacdn.in/PfJ50H0ZBPg3/movie/16948"},{"id":16947,"title":"Привет, призрак","kp_id":"581202","imdb_id":"tt1848926","world_art_id":null,"type":"movie","add":"2018-05-30 09:44:00","orig_title":"Hellowoo goseuteu","year":"2010-12-23","translations":["Любительский (одноголосый закадровый)"],"quality":"bd","translation":"Любительский (одноголосый закадровый)","update":"2018-05-31 04:00:10","iframe_src":"//83.svetacdn.in/PfJ50H0ZBPg3/movie/16947"},{"id":16946,"title":"Парни и куколки","kp_id":"7162","imdb_id":"tt0048140","world_art_id":null,"type":"movie","add":"2018-05-30 09:38:07","orig_title":"Guys and Dolls","year":"1955-11-03","translations":["Профессиональный (многоголосый закадровый)"],"quality":"bd","translation":"Профессиональный (многоголосый закадровый)","update":"2018-05-31 04:03:51","iframe_src":"//83.svetacdn.in/PfJ50H0ZBPg3/movie/16946"},{"id":16945,"title":"Ильза – свирепая тюремщица","kp_id":"78993","imdb_id":"tt0076112","world_art_id":null,"type":"movie","add":"2018-05-30 09:36:21","orig_title":"Greta - Haus ohne Männer","year":"1977-01-21","translations":["Авторский (одноголосый закадровый) (Алексеев Антон)"],"quality":"bd","translation":"Авторский (одноголосый закадровый) (Алексеев Антон)","update":"2018-05-31 04:07:51","iframe_src":"//83.svetacdn.in/PfJ50H0ZBPg3/movie/16945"},{"id":16944,"title":"Горячая точка","kp_id":"281341","imdb_id":"tt0992911","world_art_id":null,"type":"movie","add":"2018-05-30 09:34:09","orig_title":"Dou fo sin","year":"2007-06-26","translations":["Авторский (одноголосый закадровый) (Белов Вадим)"],"quality":"bd","translation":"Авторский (одноголосый закадровый) (Белов Вадим)","update":"2018-05-31 04:08:47","iframe_src":"//83.svetacdn.in/PfJ50H0ZBPg3/movie/16944"},{"id":16942,"title":"Потерянная девушка","kp_id":"802068","imdb_id":"tt3115906","world_art_id":null,"type":"movie","add":"2018-05-30 09:24:24","orig_title":"Nowhereland","year":"2018-05-26","translations":["Любительский (многоголосый закадровый) (Синема УС)"],"quality":"webdl","translation":"Любительский (многоголосый закадровый) (Синема УС)","update":"2018-05-31 04:10:53","iframe_src":"//83.svetacdn.in/PfJ50H0ZBPg3/movie/16942"},{"id":16941,"title":"Совместная опека","kp_id":"1079289","imdb_id":"tt7217028","world_art_id":null,"type":"movie","add":"2018-05-30 09:21:46","orig_title":"Garde alternée","year":"2017-12-20","translations":["Любительский (многоголосый закадровый) (Синема УС)"],"quality":"bd","translation":"Любительский (многоголосый закадровый) (Синема УС)","update":"2018-05-31 04:13:28","iframe_src":"//83.svetacdn.in/PfJ50H0ZBPg3/movie/16941"},{"id":16940,"title":"День, когда остановилась Земля","kp_id":"495","imdb_id":"tt0043456","world_art_id":null,"type":"movie","add":"2018-05-30 09:12:55","orig_title":"The Day the Earth Stood Still","year":"1951-09-18","translations":["Полное дублирование"],"quality":"bd","translation":"Полное дублирование","update":"2018-05-31 04:20:18","iframe_src":"//83.svetacdn.in/PfJ50H0ZBPg3/movie/16940"},{"id":16937,"title":"Инопланетный психоз","kp_id":"1140730","imdb_id":"tt8327962","world_art_id":null,"type":"movie","add":"2018-05-30 08:59:58","orig_title":"Alien Psychosis","year":"2018-01-01","translations":["Любительский (многоголосый закадровый) (Синема УС)"],"quality":"webdl","translation":"Любительский (многоголосый закадровый) (Синема УС)","update":"2018-05-31 04:34:43","iframe_src":"//83.svetacdn.in/PfJ50H0ZBPg3/movie/16937"},{"id":15183,"title":"Проклятое выпускное фото 2","kp_id":"1121092","imdb_id":"tt7773446","world_art_id":null,"type":"movie","add":"2018-02-15 20:50:25","orig_title":"Haunted Road 2","year":"2017-10-12","translations":["Любительский (многоголосый закадровый) (Колобок)"],"quality":"bd","translation":"Любительский (многоголосый закадровый) (Колобок)","update":"2018-05-31 04:01:18","iframe_src":"//83.svetacdn.in/PfJ50H0ZBPg3/movie/15183"},{"id":14821,"title":"Дьявольские врата","kp_id":"898300","imdb_id":"tt4610748","world_art_id":null,"type":"movie","add":"2018-01-08 07:12:02","orig_title":"Devil's Gate","year":"2017-04-24","translations":["Любительский (многоголосый закадровый) (Синема УС)","Любительский (многоголосый закадровый) (@MUZOBOZ@)","Профессиональный (многоголосый закадровый) (Jaskier)"],"quality":"webdl","translation":"Любительский (многоголосый закадровый) (Синема УС)","update":"2018-05-31 04:18:58","iframe_src":"//83.svetacdn.in/PfJ50H0ZBPg3/movie/14821"},{"id":13848,"title":"Я заберу твои деньги","kp_id":"845128","imdb_id":"tt3758852","world_art_id":null,"type":"movie","add":"2017-10-15 22:12:44","orig_title":"Blood Money","year":"2017-12-14","translations":["Любительский (многоголосый закадровый) (@MUZOBOZ@)","Любительский (многоголосый закадровый) (Синема УС)","Полное дублирование"],"quality":"webdl","translation":"Любительский (многоголосый закадровый) (@MUZOBOZ@)","update":"2018-05-31 04:31:59","iframe_src":"//83.svetacdn.in/PfJ50H0ZBPg3/movie/13848"}],"current_page":1904,"first_page_url":"https://videocdn.tv/api/short?limit=100&api_token=RgFQdUIR2dRmwv8iYa5SnFNgnw3vpjKj&cache31904=31904&page=1","from":190301,"last_page":639,"last_page_url":"https://videocdn.tv/api/short?limit=100&api_token=RgFQdUIR2dRmwv8iYa5SnFNgnw3vpjKj&cache31904=31904&page=639","next_page_url":null,"path":"https://videocdn.tv/api/short","per_page":100,"prev_page_url":"https://videocdn.tv/api/short?limit=100&api_token=RgFQdUIR2dRmwv8iYa5SnFNgnw3vpjKj&cache31904=31904&page=1903","to":190320,"total":63813}