{"result":true,"data":[{"id":50249,"title":"Пора танцевать","kp_id":"1170128","imdb_id":"tt8622232","world_art_id":null,"type":"movie","add":"2021-05-09 12:13:20","orig_title":"Time to Dance","year":"2021-03-12","translations":["Любительский (многоголосый закадровый) (Синема УС)"],"quality":"webdl","translation":"Любительский (многоголосый закадровый) (Синема УС)","update":"2021-05-09 16:36:37","iframe_src":"//8944266444.svetacdn.in/PfJ50H0ZBPg3/movie/50249"},{"id":50248,"title":"Веха","kp_id":"1395393","imdb_id":"tt12779208","world_art_id":null,"type":"movie","add":"2021-05-09 12:11:58","orig_title":"Meel patthar","year":"2021-05-07","translations":["Любительский (многоголосый закадровый) (Синема УС)"],"quality":"webdl","translation":"Любительский (многоголосый закадровый) (Синема УС)","update":"2021-05-09 16:36:23","iframe_src":"//8944266444.svetacdn.in/PfJ50H0ZBPg3/movie/50248"},{"id":50243,"title":"Бумажные паучки","kp_id":"1255282","imdb_id":"tt9690328","world_art_id":null,"type":"movie","add":"2021-05-09 12:04:25","orig_title":"Paper Spiders","year":"2021-05-07","translations":["Любительский (многоголосый закадровый) (@MUZOBOZ@)"],"quality":"webdl","translation":"Любительский (многоголосый закадровый) (@MUZOBOZ@)","update":"2021-05-09 16:35:23","iframe_src":"//8944266444.svetacdn.in/PfJ50H0ZBPg3/movie/50243"},{"id":50242,"title":"Помолвка в Вегасе","kp_id":"1255062","imdb_id":"tt10043660","world_art_id":null,"type":"movie","add":"2021-05-09 11:56:12","orig_title":"Engaged in Vegas","year":"2021-05-04","translations":["Любительский (многоголосый закадровый) (Синема УС)"],"quality":"webdl","translation":"Любительский (многоголосый закадровый) (Синема УС)","update":"2021-05-09 16:34:59","iframe_src":"//8944266444.svetacdn.in/PfJ50H0ZBPg3/movie/50242"},{"id":50241,"title":"Сомкнутые губы","kp_id":"2002528","imdb_id":"tt10038734","world_art_id":null,"type":"movie","add":"2021-05-09 11:54:54","orig_title":"My Silent Lips","year":"2019-03-20","translations":["Любительский (многоголосый закадровый) (Синема УС)"],"quality":"webdl","translation":"Любительский (многоголосый закадровый) (Синема УС)","update":"2021-05-09 14:16:57","iframe_src":"//8944266444.svetacdn.in/PfJ50H0ZBPg3/movie/50241"},{"id":50239,"title":"Родом из Иерусалива, но все еще жив","kp_id":"1296815","imdb_id":"tt9811480","world_art_id":null,"type":"movie","add":"2021-05-09 11:51:03","orig_title":"Born in Jerusalem and Still Alive","year":"2019-07-29","translations":["Любительский (многоголосый закадровый) (Синема УС)"],"quality":"webdl","translation":"Любительский (многоголосый закадровый) (Синема УС)","update":"2021-05-09 16:33:36","iframe_src":"//8944266444.svetacdn.in/PfJ50H0ZBPg3/movie/50239"},{"id":50238,"title":"Обратная сторона луны","kp_id":"1381241","imdb_id":"tt8991332","world_art_id":null,"type":"movie","add":"2021-05-09 11:48:03","orig_title":"Back of the Moon","year":"2019-09-06","translations":["Любительский (многоголосый закадровый) (Синема УС)"],"quality":"webdl","translation":"Любительский (многоголосый закадровый) (Синема УС)","update":"2021-05-09 14:11:19","iframe_src":"//8944266444.svetacdn.in/PfJ50H0ZBPg3/movie/50238"},{"id":50234,"title":"Рядовой Чээрин","kp_id":"4418992","imdb_id":null,"world_art_id":null,"type":"movie","add":"2021-05-09 07:24:19","orig_title":"Рядовой Чээрин","year":"2021-03-11","translations":["Оригинальная дорожка"],"quality":"webdl","translation":"Оригинальная дорожка","update":"2021-05-09 12:05:04","iframe_src":"//8944266444.svetacdn.in/PfJ50H0ZBPg3/movie/50234"},{"id":50212,"title":"Мститель","kp_id":"5844","imdb_id":"tt0299854","world_art_id":null,"type":"movie","add":"2021-05-07 17:41:00","orig_title":"The Escapist","year":"2002-04-12","translations":["Профессиональный (многоголосый закадровый)"],"quality":"dvdrip","translation":"Профессиональный (многоголосый закадровый)","update":"2021-05-09 15:52:38","iframe_src":"//8944266444.svetacdn.in/PfJ50H0ZBPg3/movie/50212"},{"id":50206,"title":"Крошка- сваха","kp_id":"1300690","imdb_id":"tt10783168","world_art_id":null,"type":"movie","add":"2021-05-07 08:42:27","orig_title":"ComeBack Kid","year":"2019-12-20","translations":["Любительский (многоголосый закадровый) (Синема УС)"],"quality":"webdl","translation":"Любительский (многоголосый закадровый) (Синема УС)","update":"2021-05-09 14:25:54","iframe_src":"//8944266444.svetacdn.in/PfJ50H0ZBPg3/movie/50206"},{"id":50205,"title":"Я, мама, моя мать и я","kp_id":"1069408","imdb_id":"tt7005962","world_art_id":null,"type":"movie","add":"2021-05-07 08:39:33","orig_title":"Moi, maman, ma mère et moi","year":"2018-08-25","translations":["Любительский (многоголосый закадровый) (Синема УС)"],"quality":"webdl","translation":"Любительский (многоголосый закадровый) (Синема УС)","update":"2021-05-09 14:24:48","iframe_src":"//8944266444.svetacdn.in/PfJ50H0ZBPg3/movie/50205"},{"id":50204,"title":"Ночная смена","kp_id":"989605","imdb_id":"tt5619044","world_art_id":null,"type":"movie","add":"2021-05-07 08:37:17","orig_title":"Night Shift","year":"2018-08-15","translations":["Любительский (многоголосый закадровый) (Синема УС)"],"quality":"webdl","translation":"Любительский (многоголосый закадровый) (Синема УС)","update":"2021-05-09 13:40:29","iframe_src":"//8944266444.svetacdn.in/PfJ50H0ZBPg3/movie/50204"},{"id":50190,"title":"Волшебная лампа","kp_id":"1205621","imdb_id":"tt9136024","world_art_id":null,"type":"movie","add":"2021-05-06 18:59:02","orig_title":"A Great Lamp","year":"2019-01-25","translations":["Любительский (многоголосый закадровый) (Синема УС)"],"quality":"webdl","translation":"Любительский (многоголосый закадровый) (Синема УС)","update":"2021-05-08 20:09:58","iframe_src":"//8944266444.svetacdn.in/PfJ50H0ZBPg3/movie/50190"},{"id":50189,"title":"Тоска","kp_id":null,"imdb_id":"tt10521274","world_art_id":null,"type":"movie","add":"2021-05-06 18:57:20","orig_title":"Angustia","year":"2018-08-16","translations":["Любительский (двухголосый закадровый) (Колобок)"],"quality":"webdl","translation":"Любительский (двухголосый закадровый) (Колобок)","update":"2021-05-08 20:10:21","iframe_src":"//8944266444.svetacdn.in/PfJ50H0ZBPg3/movie/50189"},{"id":50185,"title":"Ракета Перельмана","kp_id":"931328","imdb_id":"tt4957352","world_art_id":null,"type":"movie","add":"2021-05-06 18:51:24","orig_title":"Rakete Perelman","year":"2017-01-24","translations":["Любительский (многоголосый закадровый) (Синема УС)"],"quality":"webdl","translation":"Любительский (многоголосый закадровый) (Синема УС)","update":"2021-05-08 20:10:29","iframe_src":"//8944266444.svetacdn.in/PfJ50H0ZBPg3/movie/50185"},{"id":50183,"title":"Дом мести","kp_id":"1380801","imdb_id":"tt12318534","world_art_id":null,"type":"movie","add":"2021-05-06 18:47:00","orig_title":"Designs for Revenge","year":"2020-08-22","translations":["Любительский (многоголосый закадровый) (Синема УС)"],"quality":"webdl","translation":"Любительский (многоголосый закадровый) (Синема УС)","update":"2021-05-08 20:11:05","iframe_src":"//8944266444.svetacdn.in/PfJ50H0ZBPg3/movie/50183"},{"id":50182,"title":"За что?","kp_id":"1264359","imdb_id":"tt10313806","world_art_id":null,"type":"movie","add":"2021-05-06 18:42:52","orig_title":"Why?","year":"2019-01-01","translations":["Любительский (многоголосый закадровый) (Синема УС)"],"quality":"webdl","translation":"Любительский (многоголосый закадровый) (Синема УС)","update":"2021-05-08 20:11:32","iframe_src":"//8944266444.svetacdn.in/PfJ50H0ZBPg3/movie/50182"},{"id":50181,"title":"Порог","kp_id":"1214086","imdb_id":"tt9297478","world_art_id":null,"type":"movie","add":"2021-05-06 18:40:17","orig_title":"Threshold","year":"2020-11-08","translations":["Любительский (многоголосый закадровый) (Синема УС)"],"quality":"webdl","translation":"Любительский (многоголосый закадровый) (Синема УС)","update":"2021-05-08 20:11:46","iframe_src":"//8944266444.svetacdn.in/PfJ50H0ZBPg3/movie/50181"},{"id":50180,"title":"Американский король","kp_id":"1421199","imdb_id":"tt13153712","world_art_id":null,"type":"movie","add":"2021-05-06 18:37:57","orig_title":"The American King","year":"2020-10-29","translations":["Любительский (многоголосый закадровый) (Синема УС)"],"quality":"webdl","translation":"Любительский (многоголосый закадровый) (Синема УС)","update":"2021-05-08 20:12:01","iframe_src":"//8944266444.svetacdn.in/PfJ50H0ZBPg3/movie/50180"},{"id":13340,"title":"Безжалостный","kp_id":"1008626","imdb_id":"tt6777370","world_art_id":null,"type":"movie","add":"2017-09-04 22:25:56","orig_title":"Bulhandang: nappeun nomdeului sesang","year":"2017-05-17","translations":["Любительский (двухголосый закадровый) (DeadSno & den904)","Любительский (двухголосый закадровый)","Полное дублирование (iTunes)"],"quality":"bd","translation":"Любительский (двухголосый закадровый) (DeadSno & den904)","update":"2021-05-09 13:29:51","iframe_src":"//8944266444.svetacdn.in/PfJ50H0ZBPg3/movie/13340"}],"current_page":698,"first_page_url":"https://videocdn.tv/api/short?limit=100&api_token=RgFQdUIR2dRmwv8iYa5SnFNgnw3vpjKj&cache3698=3698&page=1","from":69701,"last_page":725,"last_page_url":"https://videocdn.tv/api/short?limit=100&api_token=RgFQdUIR2dRmwv8iYa5SnFNgnw3vpjKj&cache3698=3698&page=725","next_page_url":"https://videocdn.tv/api/short?limit=100&api_token=RgFQdUIR2dRmwv8iYa5SnFNgnw3vpjKj&cache3698=3698&page=699","path":"https://videocdn.tv/api/short","per_page":100,"prev_page_url":"https://videocdn.tv/api/short?limit=100&api_token=RgFQdUIR2dRmwv8iYa5SnFNgnw3vpjKj&cache3698=3698&page=697","to":69720,"total":72409}