{"result":true,"data":[{"id":16064,"title":"Червонный","kp_id":"1043756","imdb_id":"tt5591786","world_art_id":null,"type":"movie","add":"2018-04-04 21:26:34","orig_title":"Chervonyy","year":"2017-08-24","translations":["Оригинальная дорожка"],"quality":"webdl","translation":"Оригинальная дорожка","update":"2018-04-05 06:42:07","iframe_src":"//7720.svetacdn.in/71tsRs29n5tZ/movie/16064"},{"id":16061,"title":"Возмездие","kp_id":"852899","imdb_id":"tt3548276","world_art_id":null,"type":"movie","add":"2018-04-04 21:12:29","orig_title":"Retribution","year":"2016-03-05","translations":["Любительский (многоголосый закадровый) (AlphaProject)"],"quality":"webdl","translation":"Любительский (многоголосый закадровый) (AlphaProject)","update":"2018-04-05 06:48:52","iframe_src":"//7720.svetacdn.in/71tsRs29n5tZ/movie/16061"},{"id":16059,"title":"Наизнанку","kp_id":"1048213","imdb_id":"tt7260048","world_art_id":null,"type":"movie","add":"2018-04-04 21:05:38","orig_title":"Outside In","year":"2017-09-08","translations":["Любительский (многоголосый закадровый) (Синема УС)"],"quality":"webdl","translation":"Любительский (многоголосый закадровый) (Синема УС)","update":"2018-04-05 06:50:22","iframe_src":"//7720.svetacdn.in/71tsRs29n5tZ/movie/16059"},{"id":16058,"title":"Мамин ангелочек","kp_id":"1054947","imdb_id":"tt7137640","world_art_id":null,"type":"movie","add":"2018-04-04 21:01:06","orig_title":"Mommy's Little Angel","year":"2018-02-09","translations":["Любительский (многоголосый закадровый) (Синема УС)"],"quality":"hdtv","translation":"Любительский (многоголосый закадровый) (Синема УС)","update":"2018-04-05 05:25:56","iframe_src":"//7720.svetacdn.in/71tsRs29n5tZ/movie/16058"},{"id":16057,"title":"Мартин Лютер Кинг: Король без королевства","kp_id":"1115393","imdb_id":"tt7689960","world_art_id":null,"type":"movie","add":"2018-04-04 20:58:58","orig_title":"King in the Wilderness","year":"2018-03-30","translations":["Профессиональный (многоголосый закадровый)"],"quality":"hdrip","translation":"Профессиональный (многоголосый закадровый)","update":"2018-04-05 05:26:56","iframe_src":"//7720.svetacdn.in/71tsRs29n5tZ/movie/16057"},{"id":16056,"title":"Оно пришло из пустыни","kp_id":"883585","imdb_id":"tt4288674","world_art_id":null,"type":"movie","add":"2018-04-04 20:56:46","orig_title":"It Came from the Desert","year":"2017-09-15","translations":["Любительский (многоголосый закадровый) (Синема УС)"],"quality":"bd","translation":"Любительский (многоголосый закадровый) (Синема УС)","update":"2018-04-05 06:51:55","iframe_src":"//7720.svetacdn.in/71tsRs29n5tZ/movie/16056"},{"id":16055,"title":"Одиночество, секс и жалость","kp_id":"930340","imdb_id":"tt4217878","world_art_id":null,"type":"movie","add":"2018-04-04 20:53:03","orig_title":"Einsamkeit und Sex und Mitleid","year":"2017-02-17","translations":["Профессиональный (многоголосый закадровый) (GreenРай Studio)"],"quality":"webdl","translation":"Профессиональный (многоголосый закадровый) (GreenРай Studio)","update":"2018-04-05 06:54:49","iframe_src":"//7720.svetacdn.in/71tsRs29n5tZ/movie/16055"},{"id":16053,"title":"Бабс","kp_id":"1023072","imdb_id":"tt6217830","world_art_id":null,"type":"movie","add":"2018-04-04 20:39:00","orig_title":"Babs","year":"2017-09-21","translations":["Любительский (многоголосый закадровый) (AlphaProject)"],"quality":"webdl","translation":"Любительский (многоголосый закадровый) (AlphaProject)","update":"2018-04-05 07:17:36","iframe_src":"//7720.svetacdn.in/71tsRs29n5tZ/movie/16053"},{"id":16042,"title":"Космический охотник: Приключения в запретной зоне","kp_id":"18283","imdb_id":"tt0086346","world_art_id":null,"type":"movie","add":"2018-04-03 13:50:57","orig_title":"Spacehunter: Adventures in the Forbidden Zone","year":"1983-05-20","translations":["Профессиональный (многоголосый закадровый) (ТВ3)"],"quality":"bd","translation":"Профессиональный (многоголосый закадровый) (ТВ3)","update":"2018-04-04 10:46:22","iframe_src":"//7720.svetacdn.in/71tsRs29n5tZ/movie/16042"},{"id":16034,"title":"Гуд бай, Ленин!","kp_id":"1549","imdb_id":"tt0301357","world_art_id":null,"type":"movie","add":"2018-04-03 12:33:11","orig_title":"Good Bye Lenin!","year":"2003-02-09","translations":["Профессиональный (многоголосый закадровый)"],"quality":"bd","translation":"Профессиональный (многоголосый закадровый)","update":"2018-04-04 12:21:50","iframe_src":"//7720.svetacdn.in/71tsRs29n5tZ/movie/16034"},{"id":16033,"title":"Леди на один день","kp_id":"10793","imdb_id":"tt0024240","world_art_id":null,"type":"movie","add":"2018-04-03 12:29:29","orig_title":"Lady for a Day","year":"1933-09-07","translations":["Любительский (одноголосый закадровый)"],"quality":"dvdrip","translation":"Любительский (одноголосый закадровый)","update":"2018-04-04 12:21:49","iframe_src":"//7720.svetacdn.in/71tsRs29n5tZ/movie/16033"},{"id":16032,"title":"Невинность","kp_id":"661448","imdb_id":"tt2188723","world_art_id":null,"type":"movie","add":"2018-04-03 12:22:45","orig_title":"Uskyld","year":"2012-11-02","translations":["Любительский (одноголосый закадровый) (den904)"],"quality":"bd","translation":"Любительский (одноголосый закадровый) (den904)","update":"2018-04-04 12:21:47","iframe_src":"//7720.svetacdn.in/71tsRs29n5tZ/movie/16032"},{"id":16031,"title":"Ликвидатор","kp_id":"34404","imdb_id":"tt0059390","world_art_id":null,"type":"movie","add":"2018-04-03 12:19:14","orig_title":"The Liquidator","year":"1965-11-26","translations":["Авторский (одноголосый закадровый) (Назаров Вадим)"],"quality":"hdtv","translation":"Авторский (одноголосый закадровый) (Назаров Вадим)","update":"2018-04-04 12:21:47","iframe_src":"//7720.svetacdn.in/71tsRs29n5tZ/movie/16031"},{"id":16030,"title":"Чистая любовь","kp_id":"972329","imdb_id":"tt5615904","world_art_id":null,"type":"movie","add":"2018-04-03 12:14:41","orig_title":"Sunjeong","year":"2016-02-24","translations":["Любительский (двухголосый закадровый) (SoftBox)"],"quality":"webdl","translation":"Любительский (двухголосый закадровый) (SoftBox)","update":"2018-04-04 12:21:42","iframe_src":"//7720.svetacdn.in/71tsRs29n5tZ/movie/16030"},{"id":16029,"title":"Ссссссс","kp_id":"32416","imdb_id":"tt0070622","world_art_id":null,"type":"movie","add":"2018-04-03 12:12:11","orig_title":"Sssssss","year":"1973-10-08","translations":["Любительский (одноголосый закадровый)"],"quality":"bd","translation":"Любительский (одноголосый закадровый)","update":"2018-04-04 12:21:43","iframe_src":"//7720.svetacdn.in/71tsRs29n5tZ/movie/16029"},{"id":16025,"title":"Однажды в Тибете","kp_id":"576030","imdb_id":"tt1774514","world_art_id":null,"type":"movie","add":"2018-04-03 11:52:57","orig_title":"Once Upon a Time in Tibet","year":"2010-11-10","translations":["Любительский (одноголосый закадровый)"],"quality":"bd","translation":"Любительский (одноголосый закадровый)","update":"2018-04-04 12:21:36","iframe_src":"//7720.svetacdn.in/71tsRs29n5tZ/movie/16025"},{"id":15169,"title":"По пятам 2","kp_id":"1046142","imdb_id":"tt6295898","world_art_id":null,"type":"movie","add":"2018-02-13 21:49:36","orig_title":"Hong yi xiao nu hai 2","year":"2017-08-25","translations":["Любительский (многоголосый закадровый) (Колобок)","Профессиональный (многоголосый закадровый) (GreenРай Studio)"],"quality":"bd","translation":"Любительский (многоголосый закадровый) (Колобок)","update":"2018-04-05 06:38:05","iframe_src":"//7720.svetacdn.in/71tsRs29n5tZ/movie/15169"},{"id":15141,"title":"Смертельная игра","kp_id":"911425","imdb_id":"tt4518962","world_art_id":null,"type":"movie","add":"2018-02-11 06:33:37","orig_title":"Headgame","year":"2018-02-20","translations":["Любительский (многоголосый закадровый) (Синема УС)","Любительский (двухголосый закадровый) (HiWayGrope)","Профессиональный (многоголосый закадровый) (GreenРай Studio)"],"quality":"bd","translation":"Любительский (многоголосый закадровый) (Синема УС)","update":"2018-04-05 05:23:04","iframe_src":"//7720.svetacdn.in/71tsRs29n5tZ/movie/15141"},{"id":13055,"title":"6 дней","kp_id":"914052","imdb_id":"tt4703048","world_art_id":null,"type":"movie","add":"2017-08-20 19:33:06","orig_title":"6 Days","year":"2017-08-04","translations":["Любительский (многоголосый закадровый) (Синема УС)","Любительский (многоголосый закадровый)","Профессиональный (многоголосый закадровый) (iTunes)"],"quality":"bd","translation":"Любительский (многоголосый закадровый) (Синема УС)","update":"2018-04-05 06:39:59","iframe_src":"//7720.svetacdn.in/71tsRs29n5tZ/movie/13055"},{"id":9133,"title":"Точка невозврата","kp_id":"778751","imdb_id":"tt3027716","world_art_id":null,"type":"movie","add":"2017-01-24 04:34:18","orig_title":"Crossing Point","year":"2016-05-03","translations":["Любительский (многоголосый закадровый) (Parovoz Production)","Профессиональный (многоголосый закадровый) (GreenРай Studio)"],"quality":"webdl","translation":"Любительский (многоголосый закадровый) (Parovoz Production)","update":"2018-04-05 07:25:19","iframe_src":"//7720.svetacdn.in/71tsRs29n5tZ/movie/9133"}],"current_page":1991,"first_page_url":"https://videocdn.tv/api/short?limit=100&api_token=EnbO9h8pv1VyjbCJhg0WM9nG259n7mtz&cache31991=31991&page=1","from":199001,"last_page":648,"last_page_url":"https://videocdn.tv/api/short?limit=100&api_token=EnbO9h8pv1VyjbCJhg0WM9nG259n7mtz&cache31991=31991&page=648","next_page_url":null,"path":"https://videocdn.tv/api/short","per_page":100,"prev_page_url":"https://videocdn.tv/api/short?limit=100&api_token=EnbO9h8pv1VyjbCJhg0WM9nG259n7mtz&cache31991=31991&page=1990","to":199020,"total":64745}