{"result":true,"data":[{"id":41500,"title":"Сильная слабая женщина","kp_id":"503453","imdb_id":null,"world_art_id":null,"type":"movie","add":"2020-06-30 12:57:26","orig_title":"Сильная слабая женщина","year":"2010-05-16","translations":["Оригинальная дорожка"],"quality":"dvdrip","translation":"Оригинальная дорожка","update":"2020-06-30 20:43:43","iframe_src":"//2413.svetacdn.in/si4jsFRrtgrT/movie/41500"},{"id":41499,"title":"Я был, я есть, я буду","kp_id":"1216273","imdb_id":"tt9233612","world_art_id":null,"type":"movie","add":"2020-06-30 12:55:09","orig_title":"Es gilt das gesprochene Wort","year":"2019-07-02","translations":["Любительский (многоголосый закадровый) (Синема УС)"],"quality":"webdl","translation":"Любительский (многоголосый закадровый) (Синема УС)","update":"2020-06-30 15:24:04","iframe_src":"//2413.svetacdn.in/si4jsFRrtgrT/movie/41499"},{"id":41498,"title":"Тот день","kp_id":"61144","imdb_id":"tt0343524","world_art_id":null,"type":"movie","add":"2020-06-30 12:46:40","orig_title":"Ce jour-là","year":"2003-05-15","translations":["Профессиональный (двухголосый закадровый)"],"quality":"dvdrip","translation":"Профессиональный (двухголосый закадровый)","update":"2020-07-01 06:43:53","iframe_src":"//2413.svetacdn.in/si4jsFRrtgrT/movie/41498"},{"id":41497,"title":"Гость","kp_id":null,"imdb_id":"tt8792882","world_art_id":null,"type":"movie","add":"2020-06-30 12:31:43","orig_title":"L'ospite","year":"2019-07-10","translations":["Любительский (многоголосый закадровый) (Синема УС)"],"quality":"webdl","translation":"Любительский (многоголосый закадровый) (Синема УС)","update":"2020-06-30 20:44:13","iframe_src":"//2413.svetacdn.in/si4jsFRrtgrT/movie/41497"},{"id":41496,"title":"Новоландия: Замок в небесах. Повернуть время вспять","kp_id":"1381854","imdb_id":"tt12205316","world_art_id":null,"type":"movie","add":"2020-06-30 10:25:19","orig_title":"Novoland the Castle in the Sky - Time Reversal","year":"2020-04-24","translations":["Любительский (двухголосый закадровый) (Колобок)"],"quality":"webdl","translation":"Любительский (двухголосый закадровый) (Колобок)","update":"2020-06-30 15:21:24","iframe_src":"//2413.svetacdn.in/si4jsFRrtgrT/movie/41496"},{"id":41478,"title":"Чёрный корсар","kp_id":"25759","imdb_id":"tt0066950","world_art_id":null,"type":"movie","add":"2020-06-29 21:16:41","orig_title":"Il corsaro nero","year":"1971-03-12","translations":["Профессиональный (многоголосый закадровый)"],"quality":"hdtv","translation":"Профессиональный (многоголосый закадровый)","update":"2020-06-30 20:46:36","iframe_src":"//2413.svetacdn.in/si4jsFRrtgrT/movie/41478"},{"id":41476,"title":"Слепое правосудие","kp_id":"5956","imdb_id":"tt0109294","world_art_id":null,"type":"movie","add":"2020-06-29 21:08:17","orig_title":"Blind Justice","year":"1994-06-25","translations":["Профессиональный (многоголосый закадровый)"],"quality":"dvdrip","translation":"Профессиональный (многоголосый закадровый)","update":"2020-06-30 20:46:53","iframe_src":"//2413.svetacdn.in/si4jsFRrtgrT/movie/41476"},{"id":41446,"title":"Фото моей девушки","kp_id":"427088","imdb_id":null,"world_art_id":null,"type":"movie","add":"2020-06-28 21:17:56","orig_title":"Фото моей девушки","year":"2008-01-13","translations":["Оригинальная дорожка"],"quality":"dvdrip","translation":"Оригинальная дорожка","update":"2020-07-01 09:39:23","iframe_src":"//2413.svetacdn.in/si4jsFRrtgrT/movie/41446"},{"id":41445,"title":"Удача винодела","kp_id":"278353","imdb_id":"tt0954544","world_art_id":null,"type":"movie","add":"2020-06-28 21:13:48","orig_title":"The Vintner's Luck","year":"2009-09-12","translations":["Профессиональный (одноголосый закадровый)"],"quality":"hdrip","translation":"Профессиональный (одноголосый закадровый)","update":"2020-07-01 09:39:54","iframe_src":"//2413.svetacdn.in/si4jsFRrtgrT/movie/41445"},{"id":41444,"title":"Черепашки-ниндзя: Дони против Рафа","kp_id":"996937","imdb_id":null,"world_art_id":null,"type":"movie","add":"2020-06-28 21:11:54","orig_title":"TMNT: Don vs Raph","year":"2016-07-21","translations":["Любительский (одноголосый закадровый)"],"quality":"webdl","translation":"Любительский (одноголосый закадровый)","update":"2020-07-01 09:40:35","iframe_src":"//2413.svetacdn.in/si4jsFRrtgrT/movie/41444"},{"id":41443,"title":"За удачей","kp_id":"195439","imdb_id":"tt0479289","world_art_id":null,"type":"movie","add":"2020-06-28 21:08:49","orig_title":"The Go-Getter","year":"2007-01-22","translations":["Любительский (одноголосый закадровый)"],"quality":"dvdrip","translation":"Любительский (одноголосый закадровый)","update":"2020-07-01 09:48:11","iframe_src":"//2413.svetacdn.in/si4jsFRrtgrT/movie/41443"},{"id":41442,"title":"Тайные приключения Тома Тамба","kp_id":"189524","imdb_id":"tt0108069","world_art_id":null,"type":"movie","add":"2020-06-28 21:07:15","orig_title":"The Secret Adventures of Tom Thumb","year":"1993-12-10","translations":["Оригинальная дорожка"],"quality":"dvdrip","translation":"Оригинальная дорожка","update":"2020-07-01 09:48:53","iframe_src":"//2413.svetacdn.in/si4jsFRrtgrT/movie/41442"},{"id":41441,"title":"LEGO Мир Юрского периода: Побег Индоминуса","kp_id":"1039075","imdb_id":"tt6101862","world_art_id":null,"type":"movie","add":"2020-06-28 21:03:29","orig_title":"Lego Jurassic World: The Indominus Escape","year":"2016-10-03","translations":["Полное дублирование"],"quality":"webdl","translation":"Полное дублирование","update":"2020-07-01 09:50:16","iframe_src":"//2413.svetacdn.in/si4jsFRrtgrT/movie/41441"},{"id":41440,"title":"Красота земная","kp_id":"127626","imdb_id":"tt0429187","world_art_id":null,"type":"movie","add":"2020-06-28 21:01:43","orig_title":"Toute la beauté du monde","year":"2006-02-08","translations":["Профессиональный (многоголосый закадровый)"],"quality":"dvdrip","translation":"Профессиональный (многоголосый закадровый)","update":"2020-07-01 09:50:50","iframe_src":"//2413.svetacdn.in/si4jsFRrtgrT/movie/41440"},{"id":41439,"title":"Юбилей","kp_id":"32065","imdb_id":"tt0076240","world_art_id":null,"type":"movie","add":"2020-06-28 20:59:09","orig_title":"Jubilee","year":"1978-02-01","translations":["Профессиональный (многоголосый закадровый)"],"quality":"dvdrip","translation":"Профессиональный (многоголосый закадровый)","update":"2020-07-01 09:51:18","iframe_src":"//2413.svetacdn.in/si4jsFRrtgrT/movie/41439"},{"id":41438,"title":"Бог печали и радости","kp_id":"455578","imdb_id":null,"world_art_id":null,"type":"movie","add":"2020-06-28 20:57:27","orig_title":"Бог печали и радости","year":"2007-01-01","translations":["Оригинальная дорожка"],"quality":"dvdrip","translation":"Оригинальная дорожка","update":"2020-07-01 09:51:47","iframe_src":"//2413.svetacdn.in/si4jsFRrtgrT/movie/41438"},{"id":41437,"title":"Акла","kp_id":"54711","imdb_id":"tt0104111","world_art_id":null,"type":"movie","add":"2020-06-28 20:55:46","orig_title":"La discesa di Aclà a Floristella","year":"1992-09-10","translations":["Профессиональный (одноголосый закадровый)"],"quality":"vhs","translation":"Профессиональный (одноголосый закадровый)","update":"2020-07-01 09:52:28","iframe_src":"//2413.svetacdn.in/si4jsFRrtgrT/movie/41437"},{"id":41436,"title":"Буря","kp_id":"52452","imdb_id":"tt0081613","world_art_id":null,"type":"movie","add":"2020-06-28 20:43:19","orig_title":"The Tempest","year":"1979-09-13","translations":["Профессиональный (одноголосый закадровый)"],"quality":"webdl","translation":"Профессиональный (одноголосый закадровый)","update":"2020-07-01 09:53:03","iframe_src":"//2413.svetacdn.in/si4jsFRrtgrT/movie/41436"},{"id":37300,"title":"Страна чудаков","kp_id":"774","imdb_id":"tt0273923","world_art_id":null,"type":"movie","add":"2020-03-03 12:01:20","orig_title":"Orange County","year":"2002-01-07","translations":["Полное дублирование (iTunes)","Полное дублирование"],"quality":"webdl","translation":"Полное дублирование (iTunes)","update":"2020-07-01 09:49:41","iframe_src":"//2413.svetacdn.in/si4jsFRrtgrT/movie/37300"},{"id":34304,"title":"Тиффани Хэддиш: Черная мицва 2019","kp_id":"1328434","imdb_id":null,"world_art_id":null,"type":"movie","add":"2019-12-20 07:54:42","orig_title":"Untitled Tiffany Haddish Stand-Up Special","year":"2019-12-03","translations":["Профессиональный (многоголосый закадровый)"],"quality":"webdl","translation":"Профессиональный (многоголосый закадровый)","update":"2020-07-01 09:15:55","iframe_src":"//2413.svetacdn.in/si4jsFRrtgrT/movie/34304"}],"current_page":1146,"first_page_url":"https://videocdn.tv/api/short?limit=100&api_token=X6EwAUfE5M9xbo7y0Bp0aPf3uXxG2KLL&cache31146=31146&page=1","from":114501,"last_page":720,"last_page_url":"https://videocdn.tv/api/short?limit=100&api_token=X6EwAUfE5M9xbo7y0Bp0aPf3uXxG2KLL&cache31146=31146&page=720","next_page_url":null,"path":"https://videocdn.tv/api/short","per_page":100,"prev_page_url":"https://videocdn.tv/api/short?limit=100&api_token=X6EwAUfE5M9xbo7y0Bp0aPf3uXxG2KLL&cache31146=31146&page=1145","to":114520,"total":71979}