{"result":true,"data":[{"id":31790,"title":"Челленджер","kp_id":"709458","imdb_id":"tt2421662","world_art_id":null,"type":"movie","add":"2019-10-12 22:41:20","orig_title":"The Challenger","year":"2013-03-18","translations":["Профессиональный (многоголосый закадровый)"],"quality":"hdrip","translation":"Профессиональный (многоголосый закадровый)","update":"2019-10-12 23:10:53","iframe_src":"//2413.svetacdn.in/si4jsFRrtgrT/movie/31790"},{"id":31787,"title":"Добыча","kp_id":"1125419","imdb_id":"tt8254080","world_art_id":null,"type":"movie","add":"2019-10-12 18:46:09","orig_title":"The Prey","year":"2018-10-05","translations":["Любительский (многоголосый закадровый) (Синема УС)"],"quality":"webdl","translation":"Любительский (многоголосый закадровый) (Синема УС)","update":"2019-10-13 05:44:24","iframe_src":"//2413.svetacdn.in/si4jsFRrtgrT/movie/31787"},{"id":31786,"title":"Озёрный вампир","kp_id":"1090700","imdb_id":"tt7296606","world_art_id":null,"type":"movie","add":"2019-10-12 18:42:21","orig_title":"The Lake Vampire","year":"2018-06-01","translations":["Любительский (многоголосый закадровый) (Синема УС)"],"quality":"webdl","translation":"Любительский (многоголосый закадровый) (Синема УС)","update":"2019-10-13 05:40:15","iframe_src":"//2413.svetacdn.in/si4jsFRrtgrT/movie/31786"},{"id":31782,"title":"Здесь и сейчас","kp_id":"1015185","imdb_id":"tt6175086","world_art_id":null,"type":"movie","add":"2019-10-12 18:31:46","orig_title":"So was von da","year":"2018-08-16","translations":["Любительский (многоголосый закадровый) (Синема УС)"],"quality":"bd","translation":"Любительский (многоголосый закадровый) (Синема УС)","update":"2019-10-13 06:08:17","iframe_src":"//2413.svetacdn.in/si4jsFRrtgrT/movie/31782"},{"id":31780,"title":"Гениальные собаки","kp_id":"1241456","imdb_id":"tt9724076","world_art_id":null,"type":"movie","add":"2019-10-12 18:27:55","orig_title":"Dog Geniuses","year":"2019-06-04","translations":["Любительский (многоголосый закадровый) (Синема УС)"],"quality":"webdl","translation":"Любительский (многоголосый закадровый) (Синема УС)","update":"2019-10-13 05:54:08","iframe_src":"//2413.svetacdn.in/si4jsFRrtgrT/movie/31780"},{"id":31779,"title":"Как убить мертвого мужа","kp_id":"1012046","imdb_id":"tt6356228","world_art_id":null,"type":"movie","add":"2019-10-12 18:25:37","orig_title":"Como matar a un esposo muerto","year":"2017-09-01","translations":["Любительский (многоголосый закадровый) (Синема УС)"],"quality":"webdl","translation":"Любительский (многоголосый закадровый) (Синема УС)","update":"2019-10-13 05:47:04","iframe_src":"//2413.svetacdn.in/si4jsFRrtgrT/movie/31779"},{"id":31777,"title":"Назови имя своё 2","kp_id":"1259703","imdb_id":"tt9652888","world_art_id":null,"type":"movie","add":"2019-10-12 18:22:06","orig_title":"Along Came the Devil 2","year":"2019-10-11","translations":["Любительский (многоголосый закадровый) (Синема УС)"],"quality":"webdl","translation":"Любительский (многоголосый закадровый) (Синема УС)","update":"2019-10-13 05:55:57","iframe_src":"//2413.svetacdn.in/si4jsFRrtgrT/movie/31777"},{"id":31775,"title":"Дороги","kp_id":"1057357","imdb_id":"tt7303530","world_art_id":null,"type":"movie","add":"2019-10-12 18:19:05","orig_title":"Roads","year":"2019-04-25","translations":["Любительский (многоголосый закадровый) (Синема УС)"],"quality":"webdl","translation":"Любительский (многоголосый закадровый) (Синема УС)","update":"2019-10-13 05:31:14","iframe_src":"//2413.svetacdn.in/si4jsFRrtgrT/movie/31775"},{"id":31774,"title":"На седьмом небе от любви","kp_id":"1264505","imdb_id":"tt10298896","world_art_id":null,"type":"movie","add":"2019-10-12 18:16:11","orig_title":"Over The Moon In Love","year":"2019-10-05","translations":["Любительский (многоголосый закадровый) (Синема УС)"],"quality":"hdtv","translation":"Любительский (многоголосый закадровый) (Синема УС)","update":"2019-10-13 05:28:40","iframe_src":"//2413.svetacdn.in/si4jsFRrtgrT/movie/31774"},{"id":31773,"title":"Допросная","kp_id":"1186024","imdb_id":"tt8709364","world_art_id":null,"type":"movie","add":"2019-10-12 18:14:29","orig_title":"Murder Box","year":"2019-05-01","translations":["Любительский (многоголосый закадровый) (Синема УС)"],"quality":"webdl","translation":"Любительский (многоголосый закадровый) (Синема УС)","update":"2019-10-13 05:22:27","iframe_src":"//2413.svetacdn.in/si4jsFRrtgrT/movie/31773"},{"id":31769,"title":"Имаго","kp_id":"1232445","imdb_id":"tt9627240","world_art_id":null,"type":"movie","add":"2019-10-12 17:58:48","orig_title":"Imago","year":"2018-11-25","translations":["Любительский (многоголосый закадровый) (Синема УС)"],"quality":"webdl","translation":"Любительский (многоголосый закадровый) (Синема УС)","update":"2019-10-13 05:29:44","iframe_src":"//2413.svetacdn.in/si4jsFRrtgrT/movie/31769"},{"id":31766,"title":"Запутавшаяся","kp_id":"1137607","imdb_id":"tt7945420","world_art_id":null,"type":"movie","add":"2019-10-12 17:51:46","orig_title":"Entangled","year":"2019-10-11","translations":["Профессиональный (многоголосый закадровый) (AlphaProject)"],"quality":"webdl","translation":"Профессиональный (многоголосый закадровый) (AlphaProject)","update":"2019-10-13 06:02:30","iframe_src":"//2413.svetacdn.in/si4jsFRrtgrT/movie/31766"},{"id":31763,"title":"53 дня: Похищение Мэри Стоффер","kp_id":"1254614","imdb_id":"tt10127490","world_art_id":null,"type":"movie","add":"2019-10-12 17:39:42","orig_title":"53 Days: The Abduction of Mary Stauffer","year":"2019-10-05","translations":["Любительский (многоголосый закадровый) (Синема УС)"],"quality":"webdl","translation":"Любительский (многоголосый закадровый) (Синема УС)","update":"2019-10-13 05:45:43","iframe_src":"//2413.svetacdn.in/si4jsFRrtgrT/movie/31763"},{"id":31761,"title":"Запретная любовь","kp_id":"102742","imdb_id":"tt0212889","world_art_id":null,"type":"movie","add":"2019-10-11 22:26:06","orig_title":"Common Ground","year":"2000-01-29","translations":["Профессиональный (двухголосый закадровый)"],"quality":"vhs","translation":"Профессиональный (двухголосый закадровый)","update":"2019-10-12 14:07:51","iframe_src":"//2413.svetacdn.in/si4jsFRrtgrT/movie/31761"},{"id":31760,"title":"Мать и сын","kp_id":"41604","imdb_id":"tt0119711","world_art_id":null,"type":"movie","add":"2019-10-11 22:21:02","orig_title":"Mat i syn","year":"1997-02-20","translations":["Оригинальная дорожка"],"quality":"dvdrip","translation":"Оригинальная дорожка","update":"2019-10-12 07:41:44","iframe_src":"//2413.svetacdn.in/si4jsFRrtgrT/movie/31760"},{"id":31759,"title":"Штольня","kp_id":"387018","imdb_id":"tt0905633","world_art_id":null,"type":"movie","add":"2019-10-11 22:18:27","orig_title":"Shtolnya","year":"2006-04-13","translations":["Оригинальная дорожка"],"quality":"dvdrip","translation":"Оригинальная дорожка","update":"2019-10-12 07:40:42","iframe_src":"//2413.svetacdn.in/si4jsFRrtgrT/movie/31759"},{"id":31758,"title":"Паутина лжи","kp_id":"451519","imdb_id":"tt1392899","world_art_id":null,"type":"movie","add":"2019-10-11 22:16:02","orig_title":"Zhang wu shuang","year":"2009-05-01","translations":["Любительский (одноголосый закадровый)"],"quality":"dvdrip","translation":"Любительский (одноголосый закадровый)","update":"2019-10-12 07:42:36","iframe_src":"//2413.svetacdn.in/si4jsFRrtgrT/movie/31758"},{"id":31757,"title":"Ни пуха, ни пера","kp_id":"438326","imdb_id":"tt5340710","world_art_id":null,"type":"movie","add":"2019-10-11 22:11:40","orig_title":"Ni pukhu, ni pera","year":"1973-01-01","translations":["Оригинальная дорожка"],"quality":"dvb","translation":"Оригинальная дорожка","update":"2019-10-12 07:41:34","iframe_src":"//2413.svetacdn.in/si4jsFRrtgrT/movie/31757"},{"id":30882,"title":"Дорогой папа","kp_id":"1209752","imdb_id":"tt10927368","world_art_id":null,"type":"movie","add":"2019-09-15 20:18:36","orig_title":"Dorogoy papa","year":"2019-09-12","translations":["Оригинальная дорожка"],"quality":"webdl","translation":"Оригинальная дорожка","update":"2019-10-13 05:24:05","iframe_src":"//2413.svetacdn.in/si4jsFRrtgrT/movie/30882"},{"id":19050,"title":"Не выходи из дома","kp_id":"1064356","imdb_id":"tt6842126","world_art_id":null,"type":"movie","add":"2018-09-18 21:27:34","orig_title":"Don't Leave Home","year":"2018-03-10","translations":["Профессиональный (многоголосый закадровый) (HDrezka Studio)","Профессиональный (многоголосый закадровый)"],"quality":"webdl","translation":"Профессиональный (многоголосый закадровый) (HDrezka Studio)","update":"2019-10-13 06:09:50","iframe_src":"//2413.svetacdn.in/si4jsFRrtgrT/movie/19050"}],"current_page":1656,"first_page_url":"https://videocdn.tv/api/short?limit=100&api_token=X6EwAUfE5M9xbo7y0Bp0aPf3uXxG2KLL&cache31656=31656&page=1","from":165501,"last_page":724,"last_page_url":"https://videocdn.tv/api/short?limit=100&api_token=X6EwAUfE5M9xbo7y0Bp0aPf3uXxG2KLL&cache31656=31656&page=724","next_page_url":null,"path":"https://videocdn.tv/api/short","per_page":100,"prev_page_url":"https://videocdn.tv/api/short?limit=100&api_token=X6EwAUfE5M9xbo7y0Bp0aPf3uXxG2KLL&cache31656=31656&page=1655","to":165520,"total":72342}