{"result":true,"data":[{"id":47224,"title":"Озорные хранители кухни","kp_id":"1259028","imdb_id":"tt10081086","world_art_id":null,"type":"movie","add":"2021-01-19 06:37:32","orig_title":"Táo Quây","year":"2019-01-30","translations":["Любительский (многоголосый закадровый) (Синема УС)"],"quality":"webdl","translation":"Любительский (многоголосый закадровый) (Синема УС)","update":"2021-01-19 09:15:59","iframe_src":"//83.svetacdn.in/PfJ50H0ZBPg3/movie/47224"},{"id":47194,"title":"Дьявольский мед","kp_id":"95843","imdb_id":"tt0090903","world_art_id":null,"type":"movie","add":"2021-01-18 06:08:57","orig_title":"Il miele del diavolo","year":"1986-08-21","translations":["Авторский (одноголосый закадровый) (Штейн Владимир)"],"quality":"bd","translation":"Авторский (одноголосый закадровый) (Штейн Владимир)","update":"2021-01-19 09:59:33","iframe_src":"//83.svetacdn.in/PfJ50H0ZBPg3/movie/47194"},{"id":47105,"title":"Мертвые глаза Лондона","kp_id":"57224","imdb_id":"tt0054395","world_art_id":null,"type":"movie","add":"2021-01-15 06:52:16","orig_title":"Die toten Augen von London","year":"1961-03-28","translations":["Профессиональный (многоголосый закадровый) (5-й канал СПб)"],"quality":"bd","translation":"Профессиональный (многоголосый закадровый) (5-й канал СПб)","update":"2021-01-19 10:02:12","iframe_src":"//83.svetacdn.in/PfJ50H0ZBPg3/movie/47105"},{"id":47104,"title":"Тайна золотистых нарциссов","kp_id":"5733","imdb_id":"tt0054912","world_art_id":null,"type":"movie","add":"2021-01-15 06:47:48","orig_title":"Das Geheimnis der gelben Narzissen","year":"1961-07-20","translations":["Профессиональный (многоголосый закадровый) (5-й канал СПб)"],"quality":"bd","translation":"Профессиональный (многоголосый закадровый) (5-й канал СПб)","update":"2021-01-19 10:01:23","iframe_src":"//83.svetacdn.in/PfJ50H0ZBPg3/movie/47104"},{"id":47085,"title":"Сказка о корпоративной рабыне","kp_id":"1240219","imdb_id":"tt9684994","world_art_id":null,"type":"movie","add":"2021-01-14 14:24:53","orig_title":"The Tale of a Corporate Slave","year":"2019-05-16","translations":["Любительский (многоголосый закадровый) (Синема УС)"],"quality":"webdl","translation":"Любительский (многоголосый закадровый) (Синема УС)","update":"2021-01-19 10:53:51","iframe_src":"//83.svetacdn.in/PfJ50H0ZBPg3/movie/47085"},{"id":47084,"title":"Избавиться от трупака Неда","kp_id":null,"imdb_id":"tt11492580","world_art_id":null,"type":"movie","add":"2021-01-14 14:23:03","orig_title":"The Disposal of Dead Ned","year":"2019-11-23","translations":["Любительский (многоголосый закадровый) (Синема УС)"],"quality":"webdl","translation":"Любительский (многоголосый закадровый) (Синема УС)","update":"2021-01-19 10:53:34","iframe_src":"//83.svetacdn.in/PfJ50H0ZBPg3/movie/47084"},{"id":47083,"title":"Вернуть бывшую","kp_id":"1022900","imdb_id":"tt5863566","world_art_id":null,"type":"movie","add":"2021-01-14 14:21:19","orig_title":"Recuperando a mi Ex","year":"2018-09-28","translations":["Любительский (многоголосый закадровый) (AlphaProject)"],"quality":"webdl","translation":"Любительский (многоголосый закадровый) (AlphaProject)","update":"2021-01-19 10:53:21","iframe_src":"//83.svetacdn.in/PfJ50H0ZBPg3/movie/47083"},{"id":47082,"title":"Неопознанные лица 2","kp_id":"1061655","imdb_id":"tt7301070","world_art_id":null,"type":"movie","add":"2021-01-14 14:19:02","orig_title":"Na Maloom Afraad 2","year":"2017-09-01","translations":["Любительский (многоголосый закадровый) (Синема УС)"],"quality":"webdl","translation":"Любительский (многоголосый закадровый) (Синема УС)","update":"2021-01-19 10:53:04","iframe_src":"//83.svetacdn.in/PfJ50H0ZBPg3/movie/47082"},{"id":47081,"title":"Женатые мужчины","kp_id":null,"imdb_id":"tt11194810","world_art_id":null,"type":"movie","add":"2021-01-14 14:16:54","orig_title":"Married Men","year":"2019-01-01","translations":["Любительский (многоголосый закадровый) (Синема УС)"],"quality":"webdl","translation":"Любительский (многоголосый закадровый) (Синема УС)","update":"2021-01-19 10:52:33","iframe_src":"//83.svetacdn.in/PfJ50H0ZBPg3/movie/47081"},{"id":47080,"title":"Однажды в сказке","kp_id":null,"imdb_id":"tt7715194","world_art_id":null,"type":"movie","add":"2021-01-14 14:15:15","orig_title":"Favola","year":"2017-01-01","translations":["Любительский (многоголосый закадровый) (Синема УС)"],"quality":"webdl","translation":"Любительский (многоголосый закадровый) (Синема УС)","update":"2021-01-19 10:52:06","iframe_src":"//83.svetacdn.in/PfJ50H0ZBPg3/movie/47080"},{"id":47079,"title":"Дхаад","kp_id":null,"imdb_id":"tt5184604","world_art_id":null,"type":"movie","add":"2021-01-14 14:13:32","orig_title":"Dhaad","year":"2018-01-05","translations":["Любительский (многоголосый закадровый) (Синема УС)"],"quality":"webdl","translation":"Любительский (многоголосый закадровый) (Синема УС)","update":"2021-01-19 10:51:49","iframe_src":"//83.svetacdn.in/PfJ50H0ZBPg3/movie/47079"},{"id":47078,"title":"Семейное дело","kp_id":"1281113","imdb_id":"tt10581890","world_art_id":null,"type":"movie","add":"2021-01-14 14:12:03","orig_title":"A Family Affair","year":"2019-06-29","translations":["Любительский (многоголосый закадровый) (AlphaProject)"],"quality":"webdl","translation":"Любительский (многоголосый закадровый) (AlphaProject)","update":"2021-01-19 10:51:37","iframe_src":"//83.svetacdn.in/PfJ50H0ZBPg3/movie/47078"},{"id":45761,"title":"В тупике","kp_id":"967902","imdb_id":"tt5258550","world_art_id":null,"type":"movie","add":"2020-12-01 20:16:12","orig_title":"Deadlocked","year":"2020-12-01","translations":["Любительский (многоголосый закадровый) (Синема УС)","Original (English)"],"quality":"webdl","translation":"Любительский (многоголосый закадровый) (Синема УС)","update":"2021-01-19 09:56:44","iframe_src":"//83.svetacdn.in/PfJ50H0ZBPg3/movie/45761"},{"id":22159,"title":"Алита: Боевой ангел","kp_id":"88173","imdb_id":"tt0437086","world_art_id":null,"type":"movie","add":"2019-02-10 21:05:04","orig_title":"Alita: Battle Angel","year":"2019-02-05","translations":["Полное дублирование","Профессиональный (многоголосый закадровый) (СВ-Студия)","Original (English)","Профессиональный (многоголосый закадровый) (HDrezka Studio)"],"quality":"bd","translation":"Полное дублирование","update":"2021-01-19 09:58:08","iframe_src":"//83.svetacdn.in/PfJ50H0ZBPg3/movie/22159"},{"id":20352,"title":"Чемпионат рабочих","kp_id":"1142612","imdb_id":"tt6333084","world_art_id":null,"type":"movie","add":"2018-11-28 10:32:15","orig_title":"The Workers Cup","year":"2017-01-19","translations":["Любительский (многоголосый закадровый) (Синема УС)","Original (English)"],"quality":"webdl","translation":"Любительский (многоголосый закадровый) (Синема УС)","update":"2021-01-19 08:10:21","iframe_src":"//83.svetacdn.in/PfJ50H0ZBPg3/movie/20352"},{"id":14523,"title":"Спецотряд «Форс»","kp_id":"601676","imdb_id":"tt1992138","world_art_id":null,"type":"movie","add":"2017-12-04 14:56:25","orig_title":"Force","year":"2011-09-30","translations":["Профессиональный (многоголосый закадровый) (SDI Media | Iyuno-SDI Group Russia)"],"quality":"webdl","translation":"Профессиональный (многоголосый закадровый) (SDI Media | Iyuno-SDI Group Russia)","update":"2021-01-19 09:14:13","iframe_src":"//83.svetacdn.in/PfJ50H0ZBPg3/movie/14523"},{"id":14218,"title":"Машина времени","kp_id":"8109","imdb_id":"tt0268695","world_art_id":null,"type":"movie","add":"2017-11-03 05:23:58","orig_title":"The Time Machine","year":"2002-03-04","translations":["Полное дублирование","Авторский (одноголосый закадровый) (Кузнецов Сергей)","Авторский (одноголосый закадровый) (Володарский Леонид)","Полное дублирование (Мосфильм)","Original (English)","Профессиональный (двухголосый закадровый) (Гланц + Королёва)","Профессиональный (многоголосый закадровый)"],"quality":"bd","translation":"Полное дублирование","update":"2021-01-19 09:08:17","iframe_src":"//83.svetacdn.in/PfJ50H0ZBPg3/movie/14218"},{"id":803,"title":"Женщина в беде","kp_id":"812255","imdb_id":"tt3514458","world_art_id":null,"type":"serial","add":"2017-01-03 08:40:24","orig_title":"Zhenshchina v bede","year":"2014-05-27","translations":["Оригинальная дорожка"],"seasons_count":1,"episodes_count":4,"episodes":4,"update":"2017-01-04 06:21:39","iframe_src":"//83.svetacdn.in/PfJ50H0ZBPg3/tv-series/803"},{"id":797,"title":"Портрет любимого","kp_id":"1005070","imdb_id":null,"world_art_id":null,"type":"serial","add":"2017-01-02 10:43:19","orig_title":"Портрет любимого","year":"2016-10-15","translations":["Оригинальная дорожка"],"seasons_count":1,"episodes_count":4,"episodes":4,"update":"2017-01-03 10:08:39","iframe_src":"//83.svetacdn.in/PfJ50H0ZBPg3/tv-series/797"},{"id":796,"title":"Женщина его мечты","kp_id":"984271","imdb_id":"tt5923568","world_art_id":null,"type":"serial","add":"2017-01-02 09:48:50","orig_title":"Zhenshchina ego mechty","year":"2016-10-08","translations":["Оригинальная дорожка"],"seasons_count":1,"episodes_count":4,"episodes":4,"update":"2017-01-03 09:53:40","iframe_src":"//83.svetacdn.in/PfJ50H0ZBPg3/tv-series/796"},{"id":795,"title":"Невеста из Москвы","kp_id":"993555","imdb_id":null,"world_art_id":null,"type":"serial","add":"2017-01-02 09:37:34","orig_title":"Невеста из Москвы","year":"2016-10-16","translations":["Оригинальная дорожка"],"seasons_count":1,"episodes_count":4,"episodes":4,"update":"2017-01-03 10:02:10","iframe_src":"//83.svetacdn.in/PfJ50H0ZBPg3/tv-series/795"},{"id":794,"title":"Расплата за счастье","kp_id":"1006117","imdb_id":null,"world_art_id":null,"type":"serial","add":"2017-01-02 09:34:46","orig_title":"Расплата за счастье","year":"2016-10-15","translations":["Оригинальная дорожка"],"seasons_count":1,"episodes_count":2,"episodes":2,"update":"2017-01-04 06:40:12","iframe_src":"//83.svetacdn.in/PfJ50H0ZBPg3/tv-series/794"},{"id":793,"title":"Жемчужная свадьба","kp_id":"1006113","imdb_id":null,"world_art_id":null,"type":"serial","add":"2017-01-02 09:32:24","orig_title":"Жемчужная свадьба","year":"2016-10-15","translations":["Оригинальная дорожка"],"seasons_count":1,"episodes_count":4,"episodes":4,"update":"2017-01-03 09:57:54","iframe_src":"//83.svetacdn.in/PfJ50H0ZBPg3/tv-series/793"},{"id":788,"title":"Разбитые сердца","kp_id":"1002991","imdb_id":null,"world_art_id":null,"type":"serial","add":"2017-01-02 08:12:18","orig_title":"Разбитые сердца","year":"2016-11-13","translations":["Оригинальная дорожка"],"seasons_count":1,"episodes_count":2,"episodes":2,"update":"2017-01-03 09:40:31","iframe_src":"//83.svetacdn.in/PfJ50H0ZBPg3/tv-series/788"},{"id":784,"title":"Выпивая в одиночку","kp_id":"996650","imdb_id":"tt5950452","world_art_id":null,"type":"serial","add":"2017-01-02 07:22:14","orig_title":"Honsoolnamnyeo","year":"2016-09-05","translations":["Любительский (двухголосый закадровый) (HighHopes)"],"seasons_count":1,"episodes_count":16,"episodes":16,"update":"2017-01-03 05:41:39","iframe_src":"//83.svetacdn.in/PfJ50H0ZBPg3/tv-series/784"},{"id":782,"title":"Лучшая неделя моей жизни","kp_id":"1001703","imdb_id":null,"world_art_id":null,"type":"serial","add":"2017-01-02 07:09:30","orig_title":"Лучшая неделя моей жизни","year":"2016-10-10","translations":["Оригинальная дорожка"],"seasons_count":1,"episodes_count":16,"episodes":16,"update":"2017-01-02 15:00:03","iframe_src":"//83.svetacdn.in/PfJ50H0ZBPg3/tv-series/782"},{"id":781,"title":"Король шоппинга Луи","kp_id":"998790","imdb_id":"tt5994306","world_art_id":null,"type":"serial","add":"2017-01-02 07:02:56","orig_title":"Shopingwang Looi","year":"2016-09-21","translations":["Любительский (двухголосый закадровый) (SoftBox)"],"seasons_count":1,"episodes_count":16,"episodes":16,"update":"2017-01-02 17:09:02","iframe_src":"//83.svetacdn.in/PfJ50H0ZBPg3/tv-series/781"},{"id":778,"title":"Злой город","kp_id":"890386","imdb_id":"tt4428124","world_art_id":null,"type":"serial","add":"2017-01-02 06:52:09","orig_title":"Wicked City","year":"2015-10-27","translations":["Полное дублирование"],"seasons_count":1,"episodes_count":8,"episodes":8,"update":"2017-01-02 12:18:58","iframe_src":"//83.svetacdn.in/PfJ50H0ZBPg3/tv-series/778"},{"id":776,"title":"Выйти замуж любой ценой","kp_id":"1007520","imdb_id":null,"world_art_id":null,"type":"serial","add":"2017-01-02 06:44:11","orig_title":"Выйти замуж любой ценой","year":"2016-11-06","translations":["Оригинальная дорожка"],"seasons_count":1,"episodes_count":4,"episodes":4,"update":"2017-01-02 11:43:59","iframe_src":"//83.svetacdn.in/PfJ50H0ZBPg3/tv-series/776"},{"id":775,"title":"От первого до последнего слова","kp_id":"1006641","imdb_id":null,"world_art_id":null,"type":"serial","add":"2017-01-02 06:41:32","orig_title":"От первого до последнего слова","year":"2016-10-22","translations":["Оригинальная дорожка"],"seasons_count":1,"episodes_count":4,"episodes":4,"update":"2017-01-02 11:37:09","iframe_src":"//83.svetacdn.in/PfJ50H0ZBPg3/tv-series/775"},{"id":774,"title":"Ключ к его сердцу","kp_id":"994664","imdb_id":null,"world_art_id":null,"type":"serial","add":"2017-01-02 06:39:11","orig_title":"Ключ к его сердцу","year":"2016-10-29","translations":["Оригинальная дорожка"],"seasons_count":1,"episodes_count":4,"episodes":4,"update":"2017-01-02 11:30:19","iframe_src":"//83.svetacdn.in/PfJ50H0ZBPg3/tv-series/774"},{"id":773,"title":"Каменное сердце","kp_id":"993554","imdb_id":null,"world_art_id":null,"type":"serial","add":"2017-01-02 06:36:06","orig_title":"Каменное сердце","year":"2016-11-05","translations":["Оригинальная дорожка"],"seasons_count":1,"episodes_count":4,"episodes":4,"update":"2017-01-02 08:05:22","iframe_src":"//83.svetacdn.in/PfJ50H0ZBPg3/tv-series/773"},{"id":772,"title":"Из Сибири с любовью","kp_id":"1007036","imdb_id":null,"world_art_id":null,"type":"serial","add":"2017-01-02 06:32:50","orig_title":"Из Сибири с любовью","year":"2016-10-30","translations":["Оригинальная дорожка"],"seasons_count":1,"episodes_count":4,"episodes":4,"update":"2017-01-02 07:59:50","iframe_src":"//83.svetacdn.in/PfJ50H0ZBPg3/tv-series/772"},{"id":766,"title":"СуперКопы","kp_id":"970138","imdb_id":null,"world_art_id":null,"type":"serial","add":"2016-12-31 06:02:16","orig_title":"СуперКопы","year":"2016-02-15","translations":["Оригинальная дорожка"],"seasons_count":1,"episodes_count":20,"episodes":20,"update":"2017-01-02 06:29:29","iframe_src":"//83.svetacdn.in/PfJ50H0ZBPg3/tv-series/766"},{"id":764,"title":"Ты заплатишь за всё","kp_id":"803141","imdb_id":null,"world_art_id":null,"type":"serial","add":"2016-12-30 11:42:51","orig_title":"Ты заплатишь за всё","year":"2013-12-14","translations":["Оригинальная дорожка"],"seasons_count":1,"episodes_count":2,"episodes":2,"update":"2017-01-02 15:43:47","iframe_src":"//83.svetacdn.in/PfJ50H0ZBPg3/tv-series/764"},{"id":763,"title":"Если любишь – прости","kp_id":"891353","imdb_id":null,"world_art_id":null,"type":"serial","add":"2016-12-30 11:33:57","orig_title":"Если любишь – прости","year":"2015-02-22","translations":["Оригинальная дорожка"],"seasons_count":1,"episodes_count":2,"episodes":2,"update":"2017-01-02 15:40:24","iframe_src":"//83.svetacdn.in/PfJ50H0ZBPg3/tv-series/763"},{"id":762,"title":"Женщина с лилиями","kp_id":"1007686","imdb_id":null,"world_art_id":null,"type":"serial","add":"2016-12-30 11:30:17","orig_title":"Женщина с лилиями","year":"2016-12-23","translations":["Оригинальная дорожка"],"seasons_count":1,"episodes_count":1,"episodes":1,"update":"2017-01-02 15:36:47","iframe_src":"//83.svetacdn.in/PfJ50H0ZBPg3/tv-series/762"},{"id":7046,"title":"Больше, чем друг","kp_id":"448311","imdb_id":"tt0889573","world_art_id":null,"type":"movie","add":"2016-11-04 06:57:26","orig_title":"The Switch","year":"2010-08-19","translations":["Original (English)","Профессиональный (многоголосый закадровый) (СТС)"],"quality":"webdl","translation":"Original (English)","update":"2021-01-19 09:12:13","iframe_src":"//83.svetacdn.in/PfJ50H0ZBPg3/movie/7046"},{"id":4104,"title":"Миссис Даутфайр","kp_id":"5939","imdb_id":"tt0107614","world_art_id":null,"type":"movie","add":"2016-07-22 07:17:06","orig_title":"Mrs. Doubtfire","year":"1994-11-24","translations":["Профессиональный (многоголосый закадровый)","Авторский (одноголосый закадровый) (Горчаков Василий)","Полное дублирование (Киностудия им. Горького)"],"quality":"bd","translation":"Профессиональный (многоголосый закадровый)","update":"2021-01-19 09:55:27","iframe_src":"//83.svetacdn.in/PfJ50H0ZBPg3/movie/4104"},{"id":1596,"title":"Король Нью-Йорка","kp_id":"3743","imdb_id":"tt0099939","world_art_id":null,"type":"movie","add":"2016-04-24 10:25:40","orig_title":"King Of New York","year":"1990-07-18","translations":["Профессиональный (многоголосый закадровый)","Авторский (одноголосый закадровый) (Чадов Михаил)","Авторский (одноголосый закадровый) (Михалёв Алексей)","Авторский (одноголосый закадровый) (Прямостанов Павел)","Авторский (одноголосый закадровый) (Сонькин Владимир)","Авторский (одноголосый закадровый) (Живов Юрий)","Original (English)","Профессиональный (двухголосый закадровый) (Екатеринбург Арт)","Профессиональный (двухголосый закадровый) (Гланц + Королёва)","Профессиональный (двухголосый закадровый) (НТВ)","Профессиональный (многоголосый закадровый)","Профессиональный (многоголосый закадровый) (Cinema Prestige)","Профессиональный (многоголосый закадровый) (Екатеринбург Арт)"],"quality":"bd","translation":"Профессиональный (многоголосый закадровый)","update":"2021-01-19 09:00:08","iframe_src":"//83.svetacdn.in/PfJ50H0ZBPg3/movie/1596"}],"current_page":557,"first_page_url":"https://videocdn.tv/api/short?limit=100&api_token=RgFQdUIR2dRmwv8iYa5SnFNgnw3vpjKj&cache3557=3557&page=1","from":55601,"last_page":679,"last_page_url":"https://videocdn.tv/api/short?limit=100&api_token=RgFQdUIR2dRmwv8iYa5SnFNgnw3vpjKj&cache3557=3557&page=679","next_page_url":"https://videocdn.tv/api/short?limit=100&api_token=RgFQdUIR2dRmwv8iYa5SnFNgnw3vpjKj&cache3557=3557&page=558","path":"https://videocdn.tv/api/short","per_page":100,"prev_page_url":"https://videocdn.tv/api/short?limit=100&api_token=RgFQdUIR2dRmwv8iYa5SnFNgnw3vpjKj&cache3557=3557&page=556","to":55640,"total":67847}