{"result":true,"data":[{"id":14434,"title":"Командир Ким Чхан-су","kp_id":"1008826","imdb_id":"tt6406458","world_art_id":null,"type":"movie","add":"2017-11-23 22:59:59","orig_title":"Daejang Kimchangsoo","year":"2017-10-19","translations":["Любительский (многоголосый закадровый) (Колобок)"],"quality":"webdl","translation":"Любительский (многоголосый закадровый) (Колобок)","update":"2017-11-24 05:32:39","iframe_src":"//7043.svetacdn.in/IAF0wWTdNYZm/movie/14434"},{"id":14433,"title":"Каролина – дом родной","kp_id":"992415","imdb_id":"tt5319656","world_art_id":null,"type":"movie","add":"2017-11-23 22:58:32","orig_title":"Sweet Home Carolina","year":"2017-03-09","translations":["Любительский (многоголосый закадровый) (Синема УС)"],"quality":"webdl","translation":"Любительский (многоголосый закадровый) (Синема УС)","update":"2017-11-24 05:33:46","iframe_src":"//7043.svetacdn.in/IAF0wWTdNYZm/movie/14433"},{"id":14432,"title":"Компаньон","kp_id":"941090","imdb_id":"tt5095010","world_art_id":null,"type":"movie","add":"2017-11-23 22:56:29","orig_title":"El acompañante","year":"2015-10-03","translations":["Любительский (многоголосый закадровый) (Синема УС)"],"quality":"webdl","translation":"Любительский (многоголосый закадровый) (Синема УС)","update":"2017-11-24 05:36:53","iframe_src":"//7043.svetacdn.in/IAF0wWTdNYZm/movie/14432"},{"id":14429,"title":"Друзья не оставляют друзей","kp_id":"852668","imdb_id":"tt3561204","world_art_id":null,"type":"movie","add":"2017-11-22 22:48:58","orig_title":"Friends Don't Let Friends","year":"2017-11-28","translations":["Любительский (многоголосый закадровый) (Синема УС)"],"quality":"bd","translation":"Любительский (многоголосый закадровый) (Синема УС)","update":"2017-11-23 05:29:43","iframe_src":"//7043.svetacdn.in/IAF0wWTdNYZm/movie/14429"},{"id":14428,"title":"Эвиленко","kp_id":"81719","imdb_id":"tt0406754","world_art_id":null,"type":"movie","add":"2017-11-22 22:46:24","orig_title":"Evilenko","year":"2004-04-16","translations":["Полное дублирование"],"quality":"dvdrip","translation":"Полное дублирование","update":"2017-11-23 06:55:49","iframe_src":"//7043.svetacdn.in/IAF0wWTdNYZm/movie/14428"},{"id":14427,"title":"Домой на Рождество","kp_id":"1049721","imdb_id":"tt7038614","world_art_id":null,"type":"movie","add":"2017-11-22 22:41:22","orig_title":"Coming Home for Christmas","year":"2017-11-18","translations":["Любительский (многоголосый закадровый) (Синема УС)"],"quality":"hdtv","translation":"Любительский (многоголосый закадровый) (Синема УС)","update":"2017-11-23 05:46:49","iframe_src":"//7043.svetacdn.in/IAF0wWTdNYZm/movie/14427"},{"id":14426,"title":"Незваный гость","kp_id":"980019","imdb_id":"tt4815240","world_art_id":null,"type":"movie","add":"2017-11-22 22:39:16","orig_title":"Campus Caller","year":"2017-09-13","translations":["Любительский (многоголосый закадровый) (Синема УС)"],"quality":"hdtv","translation":"Любительский (многоголосый закадровый) (Синема УС)","update":"2017-11-23 05:45:55","iframe_src":"//7043.svetacdn.in/IAF0wWTdNYZm/movie/14426"},{"id":14425,"title":"Не Стучи","kp_id":"1052695","imdb_id":"tt6713802","world_art_id":null,"type":"movie","add":"2017-11-22 22:36:36","orig_title":"Neverknock","year":"2017-10-15","translations":["Любительский (многоголосый закадровый) (Синема УС)"],"quality":"hdtv","translation":"Любительский (многоголосый закадровый) (Синема УС)","update":"2017-11-23 05:44:07","iframe_src":"//7043.svetacdn.in/IAF0wWTdNYZm/movie/14425"},{"id":14423,"title":"Black Sabbath: Последний концерт","kp_id":"1049278","imdb_id":"tt7133352","world_art_id":null,"type":"movie","add":"2017-11-22 22:20:35","orig_title":"Black Sabbath: The End of The End","year":"2017-09-28","translations":["Любительский (многоголосый закадровый) (Синема УС)"],"quality":"webdl","translation":"Любительский (многоголосый закадровый) (Синема УС)","update":"2017-11-23 05:35:04","iframe_src":"//7043.svetacdn.in/IAF0wWTdNYZm/movie/14423"},{"id":14419,"title":"Стикмен","kp_id":"1087858","imdb_id":"tt7427404","world_art_id":null,"type":"movie","add":"2017-11-21 22:05:23","orig_title":"Stickman","year":"2017-10-21","translations":["Любительский (многоголосый закадровый) (Синема УС)"],"quality":"hdtv","translation":"Любительский (многоголосый закадровый) (Синема УС)","update":"2017-11-22 05:42:31","iframe_src":"//7043.svetacdn.in/IAF0wWTdNYZm/movie/14419"},{"id":14418,"title":"Наталья Вальдебенито: Крикунья","kp_id":null,"imdb_id":"tt7160286","world_art_id":null,"type":"movie","add":"2017-11-21 22:03:24","orig_title":"Natalia Valdebenito: Gritona","year":"2017-11-21","translations":["Любительский (многоголосый закадровый) (Синема УС)"],"quality":"webdl","translation":"Любительский (многоголосый закадровый) (Синема УС)","update":"2017-11-22 05:44:24","iframe_src":"//7043.svetacdn.in/IAF0wWTdNYZm/movie/14418"},{"id":14417,"title":"Последний шанс со Скалой Джонсоном","kp_id":"957688","imdb_id":"tt5348190","world_art_id":null,"type":"movie","add":"2017-11-21 21:54:45","orig_title":"Rock and a Hard Place","year":"2017-03-27","translations":["Профессиональный (многоголосый закадровый)","Полное дублирование"],"quality":"hdtv","translation":"Профессиональный (многоголосый закадровый)","update":"2017-11-22 05:50:40","iframe_src":"//7043.svetacdn.in/IAF0wWTdNYZm/movie/14417"},{"id":14416,"title":"Право последней ночи","kp_id":"1073234","imdb_id":null,"world_art_id":null,"type":"movie","add":"2017-11-21 21:52:42","orig_title":"Право последней ночи","year":"2017-11-19","translations":["Оригинальная дорожка"],"quality":"webdl","translation":"Оригинальная дорожка","update":"2017-11-22 11:27:12","iframe_src":"//7043.svetacdn.in/IAF0wWTdNYZm/movie/14416"},{"id":14415,"title":"Дневной звездопад","kp_id":"1007046","imdb_id":"tt6078842","world_art_id":null,"type":"movie","add":"2017-11-21 21:49:23","orig_title":"Hirunaka no ryuusei","year":"2017-03-24","translations":["Любительский (двухголосый закадровый) (XDUB Dorama)"],"quality":"webdl","translation":"Любительский (двухголосый закадровый) (XDUB Dorama)","update":"2017-11-22 05:54:09","iframe_src":"//7043.svetacdn.in/IAF0wWTdNYZm/movie/14415"},{"id":14414,"title":"Помолвка на Рождество","kp_id":"1063383","imdb_id":"tt6958760","world_art_id":null,"type":"movie","add":"2017-11-21 21:44:42","orig_title":"Engaging Father Christmas","year":"2017-11-12","translations":["Любительский (многоголосый закадровый) (Синема УС)"],"quality":"hdtv","translation":"Любительский (многоголосый закадровый) (Синема УС)","update":"2017-11-22 05:58:40","iframe_src":"//7043.svetacdn.in/IAF0wWTdNYZm/movie/14414"},{"id":13723,"title":"Плохой хороший полицейский 2","kp_id":"916739","imdb_id":"tt4738174","world_art_id":null,"type":"movie","add":"2017-10-04 21:31:11","orig_title":"Bon Cop Bad Cop 2","year":"2017-05-12","translations":["Любительский (многоголосый закадровый) (@MUZOBOZ@)","Профессиональный (многоголосый закадровый) (GreenРай Studio)"],"quality":"bd","translation":"Любительский (многоголосый закадровый) (@MUZOBOZ@)","update":"2017-11-23 05:37:50","iframe_src":"//7043.svetacdn.in/IAF0wWTdNYZm/movie/13723"},{"id":13241,"title":"Освободить мистера Дарси","kp_id":"951862","imdb_id":"tt5231268","world_art_id":null,"type":"movie","add":"2017-08-30 06:24:03","orig_title":"Unleashing Mr. Darcy","year":"2016-01-23","translations":["Любительский (многоголосый закадровый) (Синема УС)","Профессиональный (многоголосый закадровый)"],"quality":"hdtv","translation":"Любительский (многоголосый закадровый) (Синема УС)","update":"2017-11-24 05:27:50","iframe_src":"//7043.svetacdn.in/IAF0wWTdNYZm/movie/13241"},{"id":12138,"title":"Чёрный снег","kp_id":"973157","imdb_id":"tt5614612","world_art_id":null,"type":"movie","add":"2017-06-25 21:21:13","orig_title":"Nieve negra","year":"2017-01-19","translations":["Любительский (одноголосый закадровый) (Хихикающий доктор)","Любительский (многоголосый закадровый) (Синема УС)","Профессиональный (многоголосый закадровый) (GreenРай Studio)"],"quality":"webdl","translation":"Любительский (одноголосый закадровый) (Хихикающий доктор)","update":"2017-11-23 05:35:56","iframe_src":"//7043.svetacdn.in/IAF0wWTdNYZm/movie/12138"},{"id":10213,"title":"Рейд: Пуля в голове","kp_id":"944280","imdb_id":"tt5147214","world_art_id":null,"type":"movie","add":"2017-03-05 20:13:20","orig_title":"Headshot","year":"2016-09-09","translations":["Любительский (многоголосый закадровый) (Синема УС)","Полное дублирование"],"quality":"webdl","translation":"Любительский (многоголосый закадровый) (Синема УС)","update":"2017-11-22 05:56:01","iframe_src":"//7043.svetacdn.in/IAF0wWTdNYZm/movie/10213"},{"id":9585,"title":"Преисподняя","kp_id":"607928","imdb_id":"tt1895315","world_art_id":null,"type":"movie","add":"2017-02-10 05:35:15","orig_title":"Brimstone","year":"2016-09-03","translations":["Профессиональный (многоголосый закадровый)"],"quality":"bd","translation":"Профессиональный (многоголосый закадровый)","update":"2017-11-22 05:45:33","iframe_src":"//7043.svetacdn.in/IAF0wWTdNYZm/movie/9585"}],"current_page":1910,"first_page_url":"https://videocdn.tv/api/short?limit=100&api_token=6Onb1W1alEUrBcKJZD3GoKBbWyAl2uG2&cache31910=31910&page=1","from":190901,"last_page":612,"last_page_url":"https://videocdn.tv/api/short?limit=100&api_token=6Onb1W1alEUrBcKJZD3GoKBbWyAl2uG2&cache31910=31910&page=612","next_page_url":null,"path":"https://videocdn.tv/api/short","per_page":100,"prev_page_url":"https://videocdn.tv/api/short?limit=100&api_token=6Onb1W1alEUrBcKJZD3GoKBbWyAl2uG2&cache31910=31910&page=1909","to":190920,"total":61166}