{"result":true,"data":[{"id":32579,"title":"Если бы эти стены могли говорить 2","kp_id":"77330","imdb_id":"tt0206036","world_art_id":null,"type":"movie","add":"2019-11-01 12:08:56","orig_title":"If These Walls Could Talk 2","year":"2000-03-05","translations":["Профессиональный (многоголосый закадровый)"],"quality":"dvdrip","translation":"Профессиональный (многоголосый закадровый)","update":"2019-11-05 08:04:45","iframe_src":"//83.svetacdn.in/PfJ50H0ZBPg3/movie/32579"},{"id":32554,"title":"Бенджамин","kp_id":"982050","imdb_id":"tt5740868","world_art_id":null,"type":"movie","add":"2019-10-31 20:43:35","orig_title":"Benjamin","year":"2019-04-23","translations":["Любительский (многоголосый закадровый) (Синема УС)"],"quality":"webdl","translation":"Любительский (многоголосый закадровый) (Синема УС)","update":"2019-11-05 08:05:12","iframe_src":"//83.svetacdn.in/PfJ50H0ZBPg3/movie/32554"},{"id":32552,"title":"Барби представляет сказку «Дюймовочка»","kp_id":"440042","imdb_id":"tt1398940","world_art_id":null,"type":"movie","add":"2019-10-31 20:41:09","orig_title":"Barbie Presents: Thumbelina","year":"2009-02-24","translations":["Полное дублирование"],"quality":"dvdrip","translation":"Полное дублирование","update":"2019-11-05 08:55:09","iframe_src":"//83.svetacdn.in/PfJ50H0ZBPg3/movie/32552"},{"id":32551,"title":"Предначертание судьбы: пространство-время","kp_id":"958951","imdb_id":"tt5372528","world_art_id":null,"type":"movie","add":"2019-10-31 20:39:15","orig_title":"Manifest Destiny Down: Spacetime","year":"2019-05-18","translations":["Любительский (многоголосый закадровый) (Синема УС)"],"quality":"webdl","translation":"Любительский (многоголосый закадровый) (Синема УС)","update":"2019-11-05 08:05:47","iframe_src":"//83.svetacdn.in/PfJ50H0ZBPg3/movie/32551"},{"id":32550,"title":"Последний паром","kp_id":"1114595","imdb_id":"tt6378942","world_art_id":null,"type":"movie","add":"2019-10-31 20:35:49","orig_title":"Last Ferry","year":"2019-03-23","translations":["Любительский (многоголосый закадровый) (Синема УС)"],"quality":"webdl","translation":"Любительский (многоголосый закадровый) (Синема УС)","update":"2019-11-05 08:06:48","iframe_src":"//83.svetacdn.in/PfJ50H0ZBPg3/movie/32550"},{"id":32549,"title":"Берни и юный фараон","kp_id":"1281528","imdb_id":"tt10555946","world_art_id":null,"type":"movie","add":"2019-10-31 20:25:12","orig_title":"Berni e il giovane faraone","year":"2019-07-20","translations":["Любительский (многоголосый закадровый) (Синема УС)"],"quality":"hdtv","translation":"Любительский (многоголосый закадровый) (Синема УС)","update":"2019-11-05 08:08:50","iframe_src":"//83.svetacdn.in/PfJ50H0ZBPg3/movie/32549"},{"id":32544,"title":"Барби в роли Принцессы Острова","kp_id":"394471","imdb_id":"tt1092053","world_art_id":null,"type":"movie","add":"2019-10-31 20:00:25","orig_title":"Barbie as the Island Princess","year":"2007-09-15","translations":["Полное дублирование"],"quality":"dvdrip","translation":"Полное дублирование","update":"2019-11-05 08:55:44","iframe_src":"//83.svetacdn.in/PfJ50H0ZBPg3/movie/32544"},{"id":32540,"title":"Барби: Волшебство Пегаса","kp_id":"230853","imdb_id":"tt0480345","world_art_id":null,"type":"movie","add":"2019-10-31 19:41:18","orig_title":"Barbie and the Magic of Pegasus 3-D","year":"2005-09-30","translations":["Полное дублирование"],"quality":"dvdrip","translation":"Полное дублирование","update":"2019-11-05 08:56:29","iframe_src":"//83.svetacdn.in/PfJ50H0ZBPg3/movie/32540"},{"id":32539,"title":"Барби: 12 танцующих принцесс","kp_id":"260924","imdb_id":"tt0859594","world_art_id":null,"type":"movie","add":"2019-10-31 19:39:07","orig_title":"Barbie in the 12 Dancing Princesses","year":"2006-09-19","translations":["Полное дублирование"],"quality":"dvdrip","translation":"Полное дублирование","update":"2019-11-05 08:56:56","iframe_src":"//83.svetacdn.in/PfJ50H0ZBPg3/movie/32539"},{"id":32538,"title":"Барби и щелкунчик","kp_id":"79675","imdb_id":"tt0288441","world_art_id":null,"type":"movie","add":"2019-10-31 19:37:02","orig_title":"Barbie in the Nutcracker","year":"2001-10-02","translations":["Полное дублирование"],"quality":"dvdrip","translation":"Полное дублирование","update":"2019-11-05 08:57:38","iframe_src":"//83.svetacdn.in/PfJ50H0ZBPg3/movie/32538"},{"id":32537,"title":"Барби: Приключения Русалочки","kp_id":"503356","imdb_id":"tt1610301","world_art_id":null,"type":"movie","add":"2019-10-31 15:27:36","orig_title":"Barbie in a Mermaid Tale","year":"2010-03-02","translations":["Полное дублирование"],"quality":"dvdrip","translation":"Полное дублирование","update":"2019-11-05 08:58:16","iframe_src":"//83.svetacdn.in/PfJ50H0ZBPg3/movie/32537"},{"id":32536,"title":"Барби: Марипоса","kp_id":"412308","imdb_id":"tt1201561","world_art_id":null,"type":"movie","add":"2019-10-31 14:38:24","orig_title":"Barbie Mariposa and Her Butterfly Fairy Friends","year":"2008-02-26","translations":["Полное дублирование"],"quality":"dvdrip","translation":"Полное дублирование","update":"2019-11-05 08:59:22","iframe_src":"//83.svetacdn.in/PfJ50H0ZBPg3/movie/32536"},{"id":32535,"title":"Барби: Рождественская история","kp_id":"424954","imdb_id":"tt1314715","world_art_id":null,"type":"movie","add":"2019-10-31 14:33:41","orig_title":"Barbie in 'A Christmas Carol'","year":"2008-10-23","translations":["Полное дублирование"],"quality":"dvdrip","translation":"Полное дублирование","update":"2019-11-05 08:59:48","iframe_src":"//83.svetacdn.in/PfJ50H0ZBPg3/movie/32535"},{"id":32534,"title":"Дневники Барби","kp_id":"255038","imdb_id":"tt0795338","world_art_id":null,"type":"movie","add":"2019-10-31 14:31:51","orig_title":"Barbie Diaries","year":"2006-05-09","translations":["Полное дублирование"],"quality":"dvdrip","translation":"Полное дублирование","update":"2019-11-05 09:00:42","iframe_src":"//83.svetacdn.in/PfJ50H0ZBPg3/movie/32534"},{"id":32533,"title":"Рестрепо","kp_id":"488242","imdb_id":"tt1559549","world_art_id":null,"type":"movie","add":"2019-10-31 14:29:26","orig_title":"Restrepo","year":"2010-05-28","translations":["Профессиональный (одноголосый закадровый)"],"quality":"bd","translation":"Профессиональный (одноголосый закадровый)","update":"2019-11-05 08:34:21","iframe_src":"//83.svetacdn.in/PfJ50H0ZBPg3/movie/32533"},{"id":32532,"title":"Барби: Приключения Русалочки 2","kp_id":"680321","imdb_id":"tt2197823","world_art_id":null,"type":"movie","add":"2019-10-31 14:16:35","orig_title":"Barbie in a Mermaid Tale 2","year":"2011-01-01","translations":["Полное дублирование"],"quality":"dvdrip","translation":"Полное дублирование","update":"2019-11-05 08:58:53","iframe_src":"//83.svetacdn.in/PfJ50H0ZBPg3/movie/32532"},{"id":32525,"title":"Я снова","kp_id":"577493","imdb_id":"tt1814790","world_art_id":null,"type":"movie","add":"2019-10-31 12:16:28","orig_title":"Me Again","year":"2012-01-01","translations":["Любительский (одноголосый закадровый) (den904)"],"quality":"dvdrip","translation":"Любительский (одноголосый закадровый) (den904)","update":"2019-11-05 08:36:59","iframe_src":"//83.svetacdn.in/PfJ50H0ZBPg3/movie/32525"},{"id":32524,"title":"С возвращением","kp_id":"679122","imdb_id":"tt2372217","world_art_id":null,"type":"movie","add":"2019-10-31 12:00:16","orig_title":"Bienvenue parmi nous","year":"2012-06-13","translations":["Полное дублирование"],"quality":"bd","translation":"Полное дублирование","update":"2019-11-05 08:38:32","iframe_src":"//83.svetacdn.in/PfJ50H0ZBPg3/movie/32524"},{"id":32523,"title":"Секс-Клуб","kp_id":"392824","imdb_id":"tt0764282","world_art_id":null,"type":"movie","add":"2019-10-31 11:58:24","orig_title":"Voyeurs Sex Club","year":"2003-01-01","translations":["Профессиональный (многоголосый закадровый) (РенТВ)"],"quality":"iptv","translation":"Профессиональный (многоголосый закадровый) (РенТВ)","update":"2019-11-05 08:39:36","iframe_src":"//83.svetacdn.in/PfJ50H0ZBPg3/movie/32523"},{"id":32522,"title":"Диетический секс","kp_id":"789856","imdb_id":"tt3094816","world_art_id":null,"type":"movie","add":"2019-10-31 11:56:29","orig_title":"Diet of Sex","year":"2014-02-14","translations":["Любительский (одноголосый закадровый) (den904)"],"quality":"hdrip","translation":"Любительский (одноголосый закадровый) (den904)","update":"2019-11-05 08:40:36","iframe_src":"//83.svetacdn.in/PfJ50H0ZBPg3/movie/32522"}],"current_page":1281,"first_page_url":"https://videocdn.tv/api/short?limit=100&api_token=RgFQdUIR2dRmwv8iYa5SnFNgnw3vpjKj&cache31281=31281&page=1","from":128001,"last_page":667,"last_page_url":"https://videocdn.tv/api/short?limit=100&api_token=RgFQdUIR2dRmwv8iYa5SnFNgnw3vpjKj&cache31281=31281&page=667","next_page_url":null,"path":"https://videocdn.tv/api/short","per_page":100,"prev_page_url":"https://videocdn.tv/api/short?limit=100&api_token=RgFQdUIR2dRmwv8iYa5SnFNgnw3vpjKj&cache31281=31281&page=1280","to":128020,"total":66672}