{"result":true,"data":[{"id":46912,"title":"Масса воды","kp_id":"1148932","imdb_id":"tt8416316","world_art_id":null,"type":"movie","add":"2021-01-11 18:51:35","orig_title":"Body of Water","year":"2020-02-27","translations":["Любительский (многоголосый закадровый) (@MUZOBOZ@)"],"quality":"webdl","translation":"Любительский (многоголосый закадровый) (@MUZOBOZ@)","update":"2021-01-11 21:01:43","iframe_src":"//7043.svetacdn.in/71tsRs29n5tZ/movie/46912"},{"id":46909,"title":"Смех сквозь слезы","kp_id":"1287747","imdb_id":"tt5945958","world_art_id":null,"type":"movie","add":"2021-01-11 18:45:31","orig_title":"Hard Laughter","year":"2019-10-05","translations":["Любительский (многоголосый закадровый) (Синема УС)"],"quality":"webdl","translation":"Любительский (многоголосый закадровый) (Синема УС)","update":"2021-01-11 20:49:13","iframe_src":"//7043.svetacdn.in/71tsRs29n5tZ/movie/46909"},{"id":46908,"title":"Исповедь юного сатаниста","kp_id":"1232009","imdb_id":"tt9500358","world_art_id":null,"type":"movie","add":"2021-01-11 18:43:40","orig_title":"Confessions of a Teenage Satanist","year":"2019-12-16","translations":["Любительский (многоголосый закадровый) (Синема УС)"],"quality":"webdl","translation":"Любительский (многоголосый закадровый) (Синема УС)","update":"2021-01-11 20:49:47","iframe_src":"//7043.svetacdn.in/71tsRs29n5tZ/movie/46908"},{"id":46905,"title":"Авраам Линкольн против зомби","kp_id":"668597","imdb_id":"tt2246549","world_art_id":null,"type":"movie","add":"2021-01-11 13:15:11","orig_title":"Abraham Lincoln vs. Zombies","year":"2012-05-29","translations":["Любительский (одноголосый закадровый) (Хихикающий доктор)"],"quality":"dvdrip","translation":"Любительский (одноголосый закадровый) (Хихикающий доктор)","update":"2021-01-11 14:12:08","iframe_src":"//7043.svetacdn.in/71tsRs29n5tZ/movie/46905"},{"id":46895,"title":"Портной","kp_id":"2475208","imdb_id":null,"world_art_id":null,"type":"movie","add":"2021-01-11 06:39:28","orig_title":"Портной","year":"2021-01-07","translations":["Оригинальная дорожка"],"quality":"webdl","translation":"Оригинальная дорожка","update":"2021-01-11 14:07:05","iframe_src":"//7043.svetacdn.in/71tsRs29n5tZ/movie/46895"},{"id":46845,"title":"Расследование","kp_id":"42053","imdb_id":"tt0230687","world_art_id":null,"type":"movie","add":"2021-01-09 21:22:58","orig_title":"Rassledovaniye","year":"1980-04-01","translations":["Оригинальная дорожка"],"quality":"iptv","translation":"Оригинальная дорожка","update":"2021-01-11 14:24:28","iframe_src":"//7043.svetacdn.in/71tsRs29n5tZ/movie/46845"},{"id":46844,"title":"Осенние свадьбы","kp_id":"42803","imdb_id":"tt0175009","world_art_id":null,"type":"movie","add":"2021-01-09 21:10:34","orig_title":"Osenniye svadby","year":"1968-08-19","translations":["Оригинальная дорожка"],"quality":"tv","translation":"Оригинальная дорожка","update":"2021-01-11 14:23:23","iframe_src":"//7043.svetacdn.in/71tsRs29n5tZ/movie/46844"},{"id":46843,"title":"Новый дом","kp_id":"46477","imdb_id":"tt0039670","world_art_id":null,"type":"movie","add":"2021-01-09 21:05:22","orig_title":"Novyy dom","year":"1947-09-10","translations":["Оригинальная дорожка"],"quality":"dvdrip","translation":"Оригинальная дорожка","update":"2021-01-11 14:22:07","iframe_src":"//7043.svetacdn.in/71tsRs29n5tZ/movie/46843"},{"id":46842,"title":"Гроза над Белой","kp_id":"44609","imdb_id":"tt0347130","world_art_id":null,"type":"movie","add":"2021-01-09 20:58:00","orig_title":"Groza nad beloy","year":"1968-11-04","translations":["Оригинальная дорожка"],"quality":"dvdrip","translation":"Оригинальная дорожка","update":"2021-01-11 14:21:36","iframe_src":"//7043.svetacdn.in/71tsRs29n5tZ/movie/46842"},{"id":46841,"title":"Домино","kp_id":"234524","imdb_id":"tt0413964","world_art_id":null,"type":"movie","add":"2021-01-09 20:50:07","orig_title":"Domino","year":"1973-01-01","translations":["Оригинальная дорожка"],"quality":"vhs","translation":"Оригинальная дорожка","update":"2021-01-11 14:20:46","iframe_src":"//7043.svetacdn.in/71tsRs29n5tZ/movie/46841"},{"id":46840,"title":"13 поручений","kp_id":"574634","imdb_id":"tt2807606","world_art_id":null,"type":"movie","add":"2021-01-09 20:44:03","orig_title":"13 porucheniy","year":"1969-07-30","translations":["Оригинальная дорожка"],"quality":"iptv","translation":"Оригинальная дорожка","update":"2021-01-11 14:19:42","iframe_src":"//7043.svetacdn.in/71tsRs29n5tZ/movie/46840"},{"id":46837,"title":"Разделенная любовь","kp_id":"66621","imdb_id":"tt0355976","world_art_id":null,"type":"movie","add":"2021-01-09 14:49:36","orig_title":"Spodelena lyubov","year":"1980-02-15","translations":["Оригинальная дорожка"],"quality":"sat","translation":"Оригинальная дорожка","update":"2021-01-11 14:19:02","iframe_src":"//7043.svetacdn.in/71tsRs29n5tZ/movie/46837"},{"id":46830,"title":"Презумпция виновности","kp_id":"1435459","imdb_id":"tt11730570","world_art_id":null,"type":"movie","add":"2021-01-09 10:04:16","orig_title":"Prezumptsiya vinovnosti","year":"2020-01-01","translations":["Оригинальная дорожка"],"quality":"webdl","translation":"Оригинальная дорожка","update":"2021-01-11 14:05:53","iframe_src":"//7043.svetacdn.in/71tsRs29n5tZ/movie/46830"},{"id":46632,"title":"Сокровища рыцарей: Тайна Милюзины","kp_id":"597598","imdb_id":"tt1935221","world_art_id":null,"type":"movie","add":"2021-01-03 10:33:37","orig_title":"Schatzritter","year":"2012-07-04","translations":["Полное дублирование"],"quality":"bd","translation":"Полное дублирование","update":"2021-01-11 14:39:20","iframe_src":"//7043.svetacdn.in/71tsRs29n5tZ/movie/46632"},{"id":46628,"title":"Меня зовут Мистер Тиббс!","kp_id":"18536","imdb_id":"tt0066450","world_art_id":null,"type":"movie","add":"2021-01-03 09:48:22","orig_title":"They Call Me Mister Tibbs!","year":"1970-07-08","translations":["Original (English)","Профессиональный (двухголосый закадровый) (НТВ)"],"quality":"bd","translation":"Original (English)","update":"2021-01-12 06:29:13","iframe_src":"//7043.svetacdn.in/71tsRs29n5tZ/movie/46628"},{"id":38821,"title":"Влипли!","kp_id":"31424","imdb_id":"tt0084945","world_art_id":null,"type":"movie","add":"2020-04-02 14:55:02","orig_title":"Zapped!","year":"1982-09-03","translations":["Авторский (одноголосый закадровый) (Михалёв Алексей)","Авторский (одноголосый закадровый) (Дохалов Вартан)","Original (English)"],"quality":"bd","translation":"Авторский (одноголосый закадровый) (Михалёв Алексей)","update":"2021-01-11 14:30:23","iframe_src":"//7043.svetacdn.in/71tsRs29n5tZ/movie/38821"},{"id":6975,"title":"Супергерой","kp_id":"467116","imdb_id":"tt1438437","world_art_id":null,"type":"serial","add":"2020-03-24 07:45:34","orig_title":"The Phantom","year":"2009-12-22","translations":["Профессиональный (многоголосый закадровый)"],"seasons_count":1,"episodes_count":2,"episodes":2,"update":"2020-03-24 11:58:39","iframe_src":"//7043.svetacdn.in/71tsRs29n5tZ/tv-series/6975"},{"id":6970,"title":"BBC: Прогулки с чудовищами","kp_id":"252064","imdb_id":"tt0286285","world_art_id":null,"type":"serial","add":"2020-03-23 12:50:08","orig_title":"Walking with Beasts","year":"2001-11-15","translations":["Профессиональный (одноголосый закадровый) (Дроздов Николай)"],"seasons_count":1,"episodes_count":6,"episodes":6,"update":"2020-03-24 06:14:27","iframe_src":"//7043.svetacdn.in/71tsRs29n5tZ/tv-series/6970"},{"id":6967,"title":"Моя большая семья","kp_id":"683374","imdb_id":"tt3872016","world_art_id":null,"type":"serial","add":"2020-03-23 08:39:59","orig_title":"Moya bolshaya semya","year":"2012-06-04","translations":["Оригинальная дорожка"],"seasons_count":1,"episodes_count":12,"episodes":12,"update":"2020-03-24 19:45:15","iframe_src":"//7043.svetacdn.in/71tsRs29n5tZ/tv-series/6967"},{"id":6963,"title":"Последний полёт","kp_id":"1219416","imdb_id":"tt9426440","world_art_id":null,"type":"serial","add":"2020-03-22 16:06:03","orig_title":"The Final Call","year":"2019-02-22","translations":["Профессиональный (многоголосый закадровый) (ZEE TV)"],"seasons_count":1,"episodes_count":8,"episodes":8,"update":"2020-03-23 15:59:02","iframe_src":"//7043.svetacdn.in/71tsRs29n5tZ/tv-series/6963"},{"id":6956,"title":"Шоу Майкла Дж. Фокса","kp_id":"701750","imdb_id":"tt2338232","world_art_id":null,"type":"serial","add":"2020-03-20 22:38:50","orig_title":"The Michael J. Fox Show","year":"2013-09-25","translations":["Профессиональный (многоголосый закадровый) (Jaskier)"],"seasons_count":1,"episodes_count":22,"episodes":22,"update":"2020-03-24 14:37:37","iframe_src":"//7043.svetacdn.in/71tsRs29n5tZ/tv-series/6956"},{"id":6923,"title":"Цыганская любовь","kp_id":"417753","imdb_id":"tt0208611","world_art_id":null,"type":"serial","add":"2020-03-18 09:54:20","orig_title":"Amor gitano","year":"1999-01-01","translations":["Профессиональный (многоголосый закадровый)"],"seasons_count":1,"episodes_count":55,"episodes":55,"update":"2020-03-24 15:52:51","iframe_src":"//7043.svetacdn.in/71tsRs29n5tZ/tv-series/6923"},{"id":6863,"title":"Всё к лучшему","kp_id":"575950","imdb_id":"tt3862658","world_art_id":null,"type":"serial","add":"2020-03-13 08:02:44","orig_title":"Vso k luchshemu","year":"2011-01-17","translations":["Оригинальная дорожка"],"seasons_count":1,"episodes_count":261,"episodes":261,"update":"2020-03-24 16:37:20","iframe_src":"//7043.svetacdn.in/71tsRs29n5tZ/tv-series/6863"},{"id":6705,"title":"Охотники","kp_id":"1170235","imdb_id":"tt7456722","world_art_id":null,"type":"serial","add":"2020-02-21 09:52:04","orig_title":"Hunters","year":"2020-02-21","translations":["Любительский (многоголосый закадровый) (Octopus)","Любительский (многоголосый закадровый) (ColdFilm)","Профессиональный (многоголосый закадровый) (HDrezka Studio)","Профессиональный (двухголосый закадровый) (Gears Media)","Профессиональный (многоголосый закадровый) (LostFilm)","Любительский (многоголосый закадровый) (WestFilm)","Профессиональный (многоголосый закадровый) (NewStudio)","Профессиональный (многоголосый закадровый) (Jaskier)","Любительский (двухголосый закадровый) (ColdFilm)"],"seasons_count":1,"episodes_count":10,"episodes":10,"update":"2020-03-25 04:52:02","iframe_src":"//7043.svetacdn.in/71tsRs29n5tZ/tv-series/6705"},{"id":6657,"title":"Скажи, что ты видела","kp_id":"1283732","imdb_id":"tt11557904","world_art_id":null,"type":"serial","add":"2020-02-17 09:40:37","orig_title":"Bondaero malhara","year":"2020-02-01","translations":["Любительский (двухголосый закадровый) (SoftBox)"],"seasons_count":1,"episodes_count":16,"episodes":16,"update":"2020-03-24 17:29:03","iframe_src":"//7043.svetacdn.in/71tsRs29n5tZ/tv-series/6657"},{"id":6367,"title":"68 Виски","kp_id":"1199085","imdb_id":"tt8680948","world_art_id":null,"type":"serial","add":"2020-01-16 17:07:22","orig_title":"68 Whiskey","year":"2020-01-15","translations":["Любительский (многоголосый закадровый) (ColdFilm)","Любительский (многоголосый закадровый) (Octopus)","Профессиональный (многоголосый закадровый) (NewStudio)","Профессиональный (двухголосый закадровый) (IdeaFilm)","Профессиональный (многоголосый закадровый) (IdeaFilm)"],"seasons_count":1,"episodes_count":10,"episodes":10,"update":"2020-03-24 05:53:08","iframe_src":"//7043.svetacdn.in/71tsRs29n5tZ/tv-series/6367"},{"id":6132,"title":"Умерь свой энтузиазм","kp_id":"277559","imdb_id":"tt0264235","world_art_id":null,"type":"serial","add":"2019-12-24 18:40:41","orig_title":"Curb Your Enthusiasm","year":"2000-10-15","translations":["Любительский (одноголосый закадровый)","Любительский (одноголосый закадровый) (Hamster)","Профессиональный (многоголосый закадровый) (SDI Media)","Любительский (многоголосый закадровый) (Octopus)","Профессиональный (многоголосый закадровый) (TVShows)","Профессиональный (двухголосый закадровый) (Gears Media)","Профессиональный (многоголосый закадровый) (BaibaKo)"],"seasons_count":10,"episodes_count":98,"episodes":10,"update":"2020-03-25 08:24:32","iframe_src":"//7043.svetacdn.in/71tsRs29n5tZ/tv-series/6132"},{"id":5977,"title":"Итальянка собирается замуж","kp_id":"843190","imdb_id":"tt4112054","world_art_id":null,"type":"serial","add":"2019-12-08 20:54:18","orig_title":"Muchacha italiana viene a casarse","year":"2014-10-20","translations":["Профессиональный (многоголосый закадровый)","Профессиональный (двухголосый закадровый)"],"seasons_count":1,"episodes_count":172,"episodes":172,"update":"2020-03-23 19:49:25","iframe_src":"//7043.svetacdn.in/71tsRs29n5tZ/tv-series/5977"},{"id":5883,"title":"Мама моей дочери","kp_id":"1252513","imdb_id":"tt10097648","world_art_id":null,"type":"serial","add":"2019-11-28 11:36:14","orig_title":"Mama moey docheri","year":"2019-03-10","translations":["Оригинальная дорожка"],"seasons_count":1,"episodes_count":4,"episodes":4,"update":"2020-03-24 08:04:29","iframe_src":"//7043.svetacdn.in/71tsRs29n5tZ/tv-series/5883"},{"id":5860,"title":"Голубка","kp_id":"1316421","imdb_id":"tt11149738","world_art_id":null,"type":"serial","add":"2019-11-27 08:37:01","orig_title":"Guvercin","year":"2019-11-24","translations":["Любительский (одноголосый закадровый)"],"seasons_count":1,"episodes_count":13,"episodes":13,"update":"2020-03-25 04:40:07","iframe_src":"//7043.svetacdn.in/71tsRs29n5tZ/tv-series/5860"},{"id":31960,"title":"Магазинчик за углом","kp_id":"9003","imdb_id":"tt0033045","world_art_id":null,"type":"movie","add":"2019-10-16 05:41:35","orig_title":"The Shop Around the Corner","year":"1940-01-12","translations":["Профессиональный (многоголосый закадровый)","Original (English)","Профессиональный (многоголосый закадровый)"],"quality":"dvdrip","translation":"Профессиональный (многоголосый закадровый)","update":"2021-01-12 06:30:53","iframe_src":"//7043.svetacdn.in/71tsRs29n5tZ/movie/31960"},{"id":31725,"title":"Садисты Сатаны","kp_id":"34875","imdb_id":"tt0064939","world_art_id":null,"type":"movie","add":"2019-10-11 16:48:35","orig_title":"Satan's Sadists","year":"1969-06-01","translations":["Авторский (одноголосый закадровый) (Карповский Антон)","Авторский (одноголосый закадровый) (Карповский Антон)"],"quality":"dvdrip","translation":"Авторский (одноголосый закадровый) (Карповский Антон)","update":"2021-01-12 06:32:02","iframe_src":"//7043.svetacdn.in/71tsRs29n5tZ/movie/31725"},{"id":5046,"title":"Особенности мелодрамы","kp_id":"1242007","imdb_id":"tt10559276","world_art_id":null,"type":"serial","add":"2019-08-16 16:44:39","orig_title":"Melloga chejil","year":"2019-08-09","translations":["Любительский (многоголосый закадровый)","Профессиональный (многоголосый закадровый)","Любительский (многоголосый закадровый) (Voice Project Studio)"],"seasons_count":1,"episodes_count":16,"episodes":16,"update":"2020-03-24 15:22:25","iframe_src":"//7043.svetacdn.in/71tsRs29n5tZ/tv-series/5046"},{"id":3504,"title":"Драконы: Гонка на грани","kp_id":"1046305","imdb_id":"tt4816058","world_art_id":null,"type":"serial","add":"2018-11-14 19:09:43","orig_title":"Dragons: Race to the Edge","year":"2015-06-26","translations":["Полное дублирование","Любительский (одноголосый закадровый)","Профессиональный (многоголосый закадровый) (HDrezka Studio)","Полное дублирование (СВ-Дубль)"],"seasons_count":6,"episodes_count":78,"episodes":13,"update":"2020-03-24 20:30:42","iframe_src":"//7043.svetacdn.in/71tsRs29n5tZ/tv-series/3504"},{"id":3467,"title":"Юная Лига Справедливости","kp_id":"570073","imdb_id":"tt1641384","world_art_id":null,"type":"serial","add":"2018-11-08 16:55:35","orig_title":"Young Justice","year":"2010-11-26","translations":["Полное дублирование","Любительский (многоголосый закадровый) (ColdFilm)","Профессиональный (многоголосый закадровый) (HDrezka Studio)"],"seasons_count":3,"episodes_count":72,"episodes":26,"update":"2020-03-24 21:20:51","iframe_src":"//7043.svetacdn.in/71tsRs29n5tZ/tv-series/3467"},{"id":3117,"title":"Шучу","kp_id":"1161788","imdb_id":"tt7375404","world_art_id":null,"type":"serial","add":"2018-09-03 11:35:50","orig_title":"Kidding","year":"2018-08-31","translations":["Профессиональный (многоголосый закадровый) (BaibaKo)","Профессиональный (многоголосый закадровый) (LostFilm)","Профессиональный (двухголосый закадровый) (Кубик в Кубе)","Профессиональный (многоголосый закадровый) (HDrezka Studio)","Профессиональный (многоголосый закадровый) (NewStudio)","Любительский (многоголосый закадровый) (Octopus)","Профессиональный (двухголосый закадровый) (IdeaFilm)","Любительский (многоголосый закадровый) (ColdFilm)"],"seasons_count":2,"episodes_count":20,"episodes":10,"update":"2020-03-23 15:24:07","iframe_src":"//7043.svetacdn.in/71tsRs29n5tZ/tv-series/3117"},{"id":2011,"title":"Видоизмененный углерод","kp_id":"669089","imdb_id":"tt2261227","world_art_id":null,"type":"serial","add":"2018-01-30 06:47:26","orig_title":"Altered Carbon","year":"2018-02-02","translations":["Профессиональный (многоголосый закадровый) (BaibaKo)","Профессиональный (многоголосый закадровый) (LostFilm)","Профессиональный (многоголосый закадровый) (HDrezka Studio)","Профессиональный (многоголосый закадровый) (NewStudio)","Профессиональный (двухголосый закадровый) (Кубик в Кубе)","Профессиональный (многоголосый закадровый) (Jaskier)","Любительский (многоголосый закадровый) (ColdFilm)","Любительский (многоголосый закадровый) (Octopus)","Любительский (многоголосый закадровый) (KerobTV)","Профессиональный (двухголосый закадровый) (Gears Media)","Любительский (многоголосый закадровый) (WestFilm)","Профессиональный (многоголосый закадровый) (AlexFilm)"],"seasons_count":2,"episodes_count":18,"episodes":8,"update":"2020-03-24 11:47:31","iframe_src":"//7043.svetacdn.in/71tsRs29n5tZ/tv-series/2011"},{"id":9924,"title":"Таймер","kp_id":"404273","imdb_id":"tt1179794","world_art_id":null,"type":"movie","add":"2017-02-22 10:49:47","orig_title":"TiMER","year":"2009-04-26","translations":["Профессиональный (многоголосый)","Original (English)","Профессиональный (многоголосый закадровый)"],"quality":"bd","translation":"Профессиональный (многоголосый)","update":"2021-01-11 14:34:02","iframe_src":"//7043.svetacdn.in/71tsRs29n5tZ/movie/9924"},{"id":68,"title":"В тесноте, да не в обиде","kp_id":"900014","imdb_id":"tt4478002","world_art_id":null,"type":"serial","add":"2016-04-27 05:38:26","orig_title":"Crowded","year":"2016-03-15","translations":["Любительский (двухголосый закадровый) (Hamster Studio)","Любительский (двухголосый закадровый) (Sunshine Studio)","Профессиональный (многоголосый закадровый) (ShowJet)"],"seasons_count":1,"episodes_count":13,"episodes":13,"update":"2020-03-23 20:18:57","iframe_src":"//7043.svetacdn.in/71tsRs29n5tZ/tv-series/68"},{"id":70,"title":"Мы - Миллеры","kp_id":"582170","imdb_id":"tt1723121","world_art_id":null,"type":"movie","add":"2016-02-08 14:31:03","orig_title":"We're the Millers","year":"2013-08-03","translations":["Полное дублирование","Авторский (одноголосый закадровый) (Есарев Дмитрий)","Авторский (одноголосый закадровый) (Карповский Антон)","Original (English)","Профессиональный (многоголосый закадровый) (BaibaKo)"],"quality":"bd","translation":"Полное дублирование","update":"2021-01-11 14:28:34","iframe_src":"//7043.svetacdn.in/71tsRs29n5tZ/movie/70"}],"current_page":233,"first_page_url":"https://videocdn.tv/api/short?limit=100&api_token=EnbO9h8pv1VyjbCJhg0WM9nG259n7mtz&cache3233=3233&page=1","from":23201,"last_page":616,"last_page_url":"https://videocdn.tv/api/short?limit=100&api_token=EnbO9h8pv1VyjbCJhg0WM9nG259n7mtz&cache3233=3233&page=616","next_page_url":"https://videocdn.tv/api/short?limit=100&api_token=EnbO9h8pv1VyjbCJhg0WM9nG259n7mtz&cache3233=3233&page=234","path":"https://videocdn.tv/api/short","per_page":100,"prev_page_url":"https://videocdn.tv/api/short?limit=100&api_token=EnbO9h8pv1VyjbCJhg0WM9nG259n7mtz&cache3233=3233&page=232","to":23240,"total":61523}