{"result":true,"data":[{"id":6712,"title":"Железо","kp_id":"8841","imdb_id":"tt0099740","world_art_id":null,"type":"movie","add":"2016-10-27 05:04:01","orig_title":"Hardware","year":"1990-09-14","translations":["Профессиональный (двухголосый закадровый)"],"quality":"bd","translation":"Профессиональный (двухголосый закадровый)","update":"2016-10-27 14:58:49","iframe_src":"//7923.svetacdn.in/IAF0wWTdNYZm/movie/6712"},{"id":6711,"title":"Легкие деньги","kp_id":"10917","imdb_id":"tt0085470","world_art_id":null,"type":"movie","add":"2016-10-26 16:47:45","orig_title":"Easy Money","year":"1983-08-19","translations":["Профессиональный (двухголосый закадровый)"],"quality":"bd","translation":"Профессиональный (двухголосый закадровый)","update":"2016-10-27 14:56:37","iframe_src":"//7923.svetacdn.in/IAF0wWTdNYZm/movie/6711"},{"id":6709,"title":"Восхождение Крэйсов","kp_id":"770819","imdb_id":"tt2945796","world_art_id":null,"type":"movie","add":"2016-10-26 16:44:29","orig_title":"The Rise of the Krays","year":"2015-05-16","translations":["Любительский (двухголосый закадровый) (Sunshine Studio)"],"quality":"bd","translation":"Любительский (двухголосый закадровый) (Sunshine Studio)","update":"2016-10-27 14:53:52","iframe_src":"//7923.svetacdn.in/IAF0wWTdNYZm/movie/6709"},{"id":6706,"title":"Красавица Мемфиса","kp_id":"5547","imdb_id":"tt0100133","world_art_id":null,"type":"movie","add":"2016-10-26 16:37:08","orig_title":"Memphis Belle","year":"1990-09-07","translations":["Полное дублирование"],"quality":"webdl","translation":"Полное дублирование","update":"2016-10-27 14:39:20","iframe_src":"//7923.svetacdn.in/IAF0wWTdNYZm/movie/6706"},{"id":6705,"title":"Два злобных глаза","kp_id":"9716","imdb_id":"tt0100827","world_art_id":null,"type":"movie","add":"2016-10-26 16:35:50","orig_title":"Due occhi diabolici","year":"1990-01-25","translations":["Авторский (одноголосый закадровый) (Гаврилов Андрей)"],"quality":"bd","translation":"Авторский (одноголосый закадровый) (Гаврилов Андрей)","update":"2016-10-27 14:34:12","iframe_src":"//7923.svetacdn.in/IAF0wWTdNYZm/movie/6705"},{"id":6704,"title":"Глубокое погружение","kp_id":"11576","imdb_id":"tt0099701","world_art_id":null,"type":"movie","add":"2016-10-26 16:34:23","orig_title":"The Rift","year":"1990-03-09","translations":["Авторский (одноголосый закадровый) (Дохалов Вартан)"],"quality":"bd","translation":"Авторский (одноголосый закадровый) (Дохалов Вартан)","update":"2016-10-27 14:29:11","iframe_src":"//7923.svetacdn.in/IAF0wWTdNYZm/movie/6704"},{"id":6702,"title":"Ночной народ","kp_id":"23074","imdb_id":"tt0100260","world_art_id":null,"type":"movie","add":"2016-10-26 16:30:13","orig_title":"Nightbreed","year":"1990-02-16","translations":["Любительский (одноголосый закадровый)"],"quality":"bd","translation":"Любительский (одноголосый закадровый)","update":"2016-10-27 14:25:44","iframe_src":"//7923.svetacdn.in/IAF0wWTdNYZm/movie/6702"},{"id":6128,"title":"Колдовство","kp_id":"13904","imdb_id":"tt0115963","world_art_id":null,"type":"movie","add":"2016-10-11 08:29:01","orig_title":"The Craft","year":"1996-04-26","translations":["Полное дублирование"],"quality":"bd","translation":"Полное дублирование","update":"2016-10-27 14:19:08","iframe_src":"//7923.svetacdn.in/IAF0wWTdNYZm/movie/6128"},{"id":6127,"title":"Крутящий момент","kp_id":"17659","imdb_id":"tt0329691","world_art_id":null,"type":"movie","add":"2016-10-11 08:28:28","orig_title":"Torque","year":"2004-01-14","translations":["Полное дублирование"],"quality":"bd","translation":"Полное дублирование","update":"2016-10-27 14:21:51","iframe_src":"//7923.svetacdn.in/IAF0wWTdNYZm/movie/6127"},{"id":6126,"title":"Космический пират Харлок","kp_id":"733439","imdb_id":"tt2668134","world_art_id":null,"type":"movie","add":"2016-10-11 08:27:49","orig_title":"Kyaputen Hârokku","year":"2013-09-03","translations":["Полное дублирование"],"quality":"bd","translation":"Полное дублирование","update":"2016-10-27 14:24:31","iframe_src":"//7923.svetacdn.in/IAF0wWTdNYZm/movie/6126"},{"id":6124,"title":"Мифика: Задание для героев","kp_id":"817838","imdb_id":"tt3405714","world_art_id":null,"type":"movie","add":"2016-10-11 08:25:57","orig_title":"Mythica: A Quest for Heroes","year":"2014-12-08","translations":["Профессиональный (многоголосый)"],"quality":"bd","translation":"Профессиональный (многоголосый)","update":"2016-10-27 14:28:47","iframe_src":"//7923.svetacdn.in/IAF0wWTdNYZm/movie/6124"},{"id":6122,"title":"Пятница 13-е","kp_id":"251790","imdb_id":"tt0758746","world_art_id":null,"type":"movie","add":"2016-10-11 08:24:37","orig_title":"Friday the 13th","year":"2009-02-09","translations":["Полное дублирование"],"quality":"bd","translation":"Полное дублирование","update":"2016-10-27 14:37:05","iframe_src":"//7923.svetacdn.in/IAF0wWTdNYZm/movie/6122"},{"id":6121,"title":"Пульс","kp_id":"103392","imdb_id":"tt0454919","world_art_id":null,"type":"movie","add":"2016-10-11 08:24:01","orig_title":"Pulse","year":"2006-08-11","translations":["Полное дублирование"],"quality":"bd","translation":"Полное дублирование","update":"2016-10-27 15:19:41","iframe_src":"//7923.svetacdn.in/IAF0wWTdNYZm/movie/6121"},{"id":6120,"title":"Весенние надежды","kp_id":"484523","imdb_id":"tt1535438","world_art_id":null,"type":"movie","add":"2016-10-11 08:23:27","orig_title":"Hope Springs","year":"2012-08-06","translations":["Полное дублирование"],"quality":"bd","translation":"Полное дублирование","update":"2016-10-27 15:24:56","iframe_src":"//7923.svetacdn.in/IAF0wWTdNYZm/movie/6120"},{"id":6119,"title":"Тонкий лед","kp_id":"478127","imdb_id":"tt1512240","world_art_id":null,"type":"movie","add":"2016-10-11 08:22:49","orig_title":"The Convincer","year":"2011-01-25","translations":["Профессиональный (многоголосый)"],"quality":"bd","translation":"Профессиональный (многоголосый)","update":"2016-10-27 15:28:07","iframe_src":"//7923.svetacdn.in/IAF0wWTdNYZm/movie/6119"},{"id":6118,"title":"[Репортаж] 3 со свадьбы","kp_id":"518229","imdb_id":"tt1649444","world_art_id":null,"type":"movie","add":"2016-10-11 08:22:07","orig_title":"[Rec]³: Génesis","year":"2012-03-09","translations":["Полное дублирование"],"quality":"bd","translation":"Полное дублирование","update":"2016-10-27 15:29:56","iframe_src":"//7923.svetacdn.in/IAF0wWTdNYZm/movie/6118"},{"id":6117,"title":"Мамула","kp_id":"797610","imdb_id":"tt3171764","world_art_id":null,"type":"movie","add":"2016-10-11 08:21:00","orig_title":"Mamula","year":"2014-03-08","translations":["Любительский (двухголосый закадровый)"],"quality":"bd","translation":"Любительский (двухголосый закадровый)","update":"2016-10-27 15:32:28","iframe_src":"//7923.svetacdn.in/IAF0wWTdNYZm/movie/6117"},{"id":6116,"title":"Чyжие на районе","kp_id":"470486","imdb_id":"tt1478964","world_art_id":null,"type":"movie","add":"2016-10-11 08:19:34","orig_title":"Attack the Block","year":"2011-03-12","translations":["Профессиональный (многоголосый)"],"quality":"bd","translation":"Профессиональный (многоголосый)","update":"2016-10-27 15:34:51","iframe_src":"//7923.svetacdn.in/IAF0wWTdNYZm/movie/6116"},{"id":6115,"title":"Вcе самое лучшее","kp_id":"404232","imdb_id":"tt1175709","world_art_id":null,"type":"movie","add":"2016-10-11 08:18:42","orig_title":"All Good Things","year":"2010-11-05","translations":["Профессиональный (многоголосый закадровый)"],"quality":"bd","translation":"Профессиональный (многоголосый закадровый)","update":"2016-10-27 15:37:00","iframe_src":"//7923.svetacdn.in/IAF0wWTdNYZm/movie/6115"},{"id":6113,"title":"Камера 211","kp_id":"416547","imdb_id":"tt1242422","world_art_id":null,"type":"movie","add":"2016-10-11 08:17:20","orig_title":"Celda 211","year":"2009-09-04","translations":["Полное дублирование"],"quality":"bd","translation":"Полное дублирование","update":"2016-10-27 15:42:36","iframe_src":"//7923.svetacdn.in/IAF0wWTdNYZm/movie/6113"}],"current_page":2355,"first_page_url":"https://videocdn.tv/api/short?limit=100&api_token=6Onb1W1alEUrBcKJZD3GoKBbWyAl2uG2&cache32355=32355&page=1","from":235401,"last_page":644,"last_page_url":"https://videocdn.tv/api/short?limit=100&api_token=6Onb1W1alEUrBcKJZD3GoKBbWyAl2uG2&cache32355=32355&page=644","next_page_url":null,"path":"https://videocdn.tv/api/short","per_page":100,"prev_page_url":"https://videocdn.tv/api/short?limit=100&api_token=6Onb1W1alEUrBcKJZD3GoKBbWyAl2uG2&cache32355=32355&page=2354","to":235420,"total":64350}