{"result":true,"data":[{"id":51432,"title":"Ринголевио","kp_id":"1249638","imdb_id":"tt10027720","world_art_id":null,"type":"movie","add":"2021-06-27 14:34:07","orig_title":"Ringolevio","year":"2020-11-13","translations":["Любительский (многоголосый закадровый) (AlphaProject)"],"quality":"webdl","translation":"Любительский (многоголосый закадровый) (AlphaProject)","update":"2021-06-27 20:38:16","iframe_src":"//24213.svetacdn.in/71tsRs29n5tZ/movie/51432"},{"id":51431,"title":"В конце всех зарежут","kp_id":"1240662","imdb_id":"tt9050224","world_art_id":null,"type":"movie","add":"2021-06-27 14:33:19","orig_title":"Everybody Gets Stabbed","year":"2020-12-06","translations":["Любительский (многоголосый закадровый) (Синема УС)"],"quality":"webdl","translation":"Любительский (многоголосый закадровый) (Синема УС)","update":"2021-06-27 20:37:14","iframe_src":"//24213.svetacdn.in/71tsRs29n5tZ/movie/51431"},{"id":51429,"title":"Пересмешницы","kp_id":"1061581","imdb_id":"tt6554578","world_art_id":null,"type":"movie","add":"2021-06-27 09:25:45","orig_title":"THR/\\SHERS","year":"2018-01-01","translations":["Любительский (многоголосый закадровый) (Синема УС)"],"quality":"webdl","translation":"Любительский (многоголосый закадровый) (Синема УС)","update":"2021-06-27 17:32:47","iframe_src":"//24213.svetacdn.in/71tsRs29n5tZ/movie/51429"},{"id":51428,"title":"Соседи","kp_id":"1219587","imdb_id":"tt9392532","world_art_id":null,"type":"movie","add":"2021-06-27 09:12:01","orig_title":"Neighbors","year":"2018-01-01","translations":["Любительский (многоголосый закадровый) (Синема УС)"],"quality":"webdl","translation":"Любительский (многоголосый закадровый) (Синема УС)","update":"2021-06-27 17:31:29","iframe_src":"//24213.svetacdn.in/71tsRs29n5tZ/movie/51428"},{"id":51427,"title":"Прямо перед глазами","kp_id":"4443800","imdb_id":"tt14039078","world_art_id":null,"type":"movie","add":"2021-06-27 09:09:36","orig_title":"Right in Front of Me","year":"2021-04-17","translations":["Любительский (многоголосый закадровый) (Синема УС)"],"quality":"webdl","translation":"Любительский (многоголосый закадровый) (Синема УС)","update":"2021-06-27 17:15:25","iframe_src":"//24213.svetacdn.in/71tsRs29n5tZ/movie/51427"},{"id":51426,"title":"Никто не знает","kp_id":"4368047","imdb_id":"tt13989310","world_art_id":null,"type":"movie","add":"2021-06-27 09:08:06","orig_title":"Koi Jaane Na","year":"2021-04-02","translations":["Профессиональный (многоголосый закадровый)"],"quality":"webdl","translation":"Профессиональный (многоголосый закадровый)","update":"2021-06-27 19:53:44","iframe_src":"//24213.svetacdn.in/71tsRs29n5tZ/movie/51426"},{"id":51425,"title":"Сестры на старте","kp_id":"4440828","imdb_id":"tt9337574","world_art_id":null,"type":"movie","add":"2021-06-27 09:05:34","orig_title":"Sisters on Track","year":"2021-01-01","translations":["Любительский (многоголосый закадровый) (Синема УС)"],"quality":"webdl","translation":"Любительский (многоголосый закадровый) (Синема УС)","update":"2021-06-27 17:13:36","iframe_src":"//24213.svetacdn.in/71tsRs29n5tZ/movie/51425"},{"id":51424,"title":"Простая Жизнь","kp_id":"1244530","imdb_id":"tt7862842","world_art_id":null,"type":"movie","add":"2021-06-27 09:03:47","orig_title":"Tempo Comum","year":"2018-01-26","translations":["Любительский (многоголосый закадровый) (Синема УС)"],"quality":"webdl","translation":"Любительский (многоголосый закадровый) (Синема УС)","update":"2021-06-27 17:26:49","iframe_src":"//24213.svetacdn.in/71tsRs29n5tZ/movie/51424"},{"id":51423,"title":"У деревьев есть глаза","kp_id":"775462","imdb_id":"tt2990352","world_art_id":null,"type":"movie","add":"2021-06-27 09:02:00","orig_title":"The Trees Have Eyes","year":"2020-01-01","translations":["Любительский (многоголосый закадровый) (Синема УС)"],"quality":"webdl","translation":"Любительский (многоголосый закадровый) (Синема УС)","update":"2021-06-27 17:11:48","iframe_src":"//24213.svetacdn.in/71tsRs29n5tZ/movie/51423"},{"id":51422,"title":"Давай на чистосту","kp_id":"1221885","imdb_id":"tt9466498","world_art_id":null,"type":"movie","add":"2021-06-27 07:07:01","orig_title":"Real Talk","year":"2021-06-21","translations":["Любительский (многоголосый закадровый) (Синема УС)"],"quality":"webdl","translation":"Любительский (многоголосый закадровый) (Синема УС)","update":"2021-06-27 19:53:23","iframe_src":"//24213.svetacdn.in/71tsRs29n5tZ/movie/51422"},{"id":51421,"title":"Романтический гид по потерянным местам","kp_id":"1402908","imdb_id":"tt12784484","world_art_id":null,"type":"movie","add":"2021-06-27 07:05:39","orig_title":"Guida romantica a posti perduti","year":"2020-09-24","translations":["Любительский (многоголосый закадровый) (AlphaProject)"],"quality":"webdl","translation":"Любительский (многоголосый закадровый) (AlphaProject)","update":"2021-06-27 19:53:14","iframe_src":"//24213.svetacdn.in/71tsRs29n5tZ/movie/51421"},{"id":51420,"title":"Прорыв сквозь тьму","kp_id":"2044630","imdb_id":"tt13655044","world_art_id":null,"type":"movie","add":"2021-06-27 07:04:48","orig_title":"Sao hei · Jue zhan","year":"2021-05-01","translations":["Любительский (двухголосый закадровый) (Колобок)"],"quality":"webdl","translation":"Любительский (двухголосый закадровый) (Колобок)","update":"2021-06-27 19:52:55","iframe_src":"//24213.svetacdn.in/71tsRs29n5tZ/movie/51420"},{"id":51419,"title":"Неспокойная могила","kp_id":"1268600","imdb_id":"tt10332690","world_art_id":null,"type":"movie","add":"2021-06-27 07:03:50","orig_title":"An Unquiet Grave","year":"2021-06-24","translations":["Любительский (многоголосый закадровый) (AlphaProject)"],"quality":"webdl","translation":"Любительский (многоголосый закадровый) (AlphaProject)","update":"2021-06-27 19:52:40","iframe_src":"//24213.svetacdn.in/71tsRs29n5tZ/movie/51419"},{"id":51417,"title":"Пещера","kp_id":"4319206","imdb_id":"tt13318486","world_art_id":null,"type":"movie","add":"2021-06-27 07:01:56","orig_title":"A Gruta","year":"2020-10-29","translations":["Любительский (многоголосый закадровый) (Синема УС)"],"quality":"webdl","translation":"Любительский (многоголосый закадровый) (Синема УС)","update":"2021-06-27 19:52:03","iframe_src":"//24213.svetacdn.in/71tsRs29n5tZ/movie/51417"},{"id":51414,"title":"Эдди и «Странники»","kp_id":"3927","imdb_id":"tt0085475","world_art_id":null,"type":"movie","add":"2021-06-27 06:53:14","orig_title":"Eddie and the Cruisers","year":"1983-09-23","translations":["Профессиональный (двухголосый закадровый) (НТВ)","[EN] Original (English)"],"quality":"bd","translation":"Профессиональный (двухголосый закадровый) (НТВ)","update":"2021-06-28 06:50:30","iframe_src":"//24213.svetacdn.in/71tsRs29n5tZ/movie/51414"},{"id":51345,"title":"Любовь и убийство овечки и волка","kp_id":"1284001","imdb_id":"tt10589508","world_art_id":null,"type":"movie","add":"2021-06-22 10:09:10","orig_title":"Hitsuji To Okami No Koi To Satsujin","year":"2019-11-29","translations":["Любительский (многоголосый закадровый) (Синема УС)"],"quality":"webdl","translation":"Любительский (многоголосый закадровый) (Синема УС)","update":"2021-06-26 20:11:45","iframe_src":"//24213.svetacdn.in/71tsRs29n5tZ/movie/51345"},{"id":51344,"title":"Лайко: Цыган в космосе","kp_id":"920502","imdb_id":"tt4795022","world_art_id":null,"type":"movie","add":"2021-06-22 10:02:49","orig_title":"Lajkó - Cigány az ürben","year":"2018-03-29","translations":["Любительский (многоголосый закадровый) (Синема УС)"],"quality":"webdl","translation":"Любительский (многоголосый закадровый) (Синема УС)","update":"2021-06-26 20:11:12","iframe_src":"//24213.svetacdn.in/71tsRs29n5tZ/movie/51344"},{"id":51343,"title":"Преданность","kp_id":"1090185","imdb_id":"tt6806860","world_art_id":null,"type":"movie","add":"2021-06-22 09:56:03","orig_title":"Apego","year":"2019-01-01","translations":["Любительский (многоголосый закадровый) (AlphaProject)"],"quality":"webdl","translation":"Любительский (многоголосый закадровый) (AlphaProject)","update":"2021-06-26 20:10:42","iframe_src":"//24213.svetacdn.in/71tsRs29n5tZ/movie/51343"},{"id":35184,"title":"Младший брат","kp_id":"279278","imdb_id":"tt0054151","world_art_id":null,"type":"movie","add":"2020-01-18 16:04:33","orig_title":"Otôto","year":"1960-11-01","translations":["Авторский (одноголосый закадровый) (Воротилин Олег)","Любительский (многоголосый закадровый) (STEPonee)"],"quality":"dvdrip","translation":"Авторский (одноголосый закадровый) (Воротилин Олег)","update":"2021-06-28 06:46:04","iframe_src":"//24213.svetacdn.in/71tsRs29n5tZ/movie/35184"},{"id":25666,"title":"Однажды в Риме","kp_id":"1072608","imdb_id":"tt7475206","world_art_id":null,"type":"movie","add":"2019-04-29 21:18:56","orig_title":"Non ci resta che il crimine","year":"2019-01-10","translations":["Любительский (многоголосый закадровый) (Синема УС)","Профессиональный (многоголосый закадровый) (iTunes)"],"quality":"bd","translation":"Любительский (многоголосый закадровый) (Синема УС)","update":"2021-06-27 12:59:33","iframe_src":"//24213.svetacdn.in/71tsRs29n5tZ/movie/25666"}],"current_page":660,"first_page_url":"https://videocdn.tv/api/short?limit=100&api_token=EnbO9h8pv1VyjbCJhg0WM9nG259n7mtz&cache3660=3660&page=1","from":65901,"last_page":731,"last_page_url":"https://videocdn.tv/api/short?limit=100&api_token=EnbO9h8pv1VyjbCJhg0WM9nG259n7mtz&cache3660=3660&page=731","next_page_url":"https://videocdn.tv/api/short?limit=100&api_token=EnbO9h8pv1VyjbCJhg0WM9nG259n7mtz&cache3660=3660&page=661","path":"https://videocdn.tv/api/short","per_page":100,"prev_page_url":"https://videocdn.tv/api/short?limit=100&api_token=EnbO9h8pv1VyjbCJhg0WM9nG259n7mtz&cache3660=3660&page=659","to":65920,"total":73011}