{"result":true,"data":[{"id":54193,"title":"Белая ворона","kp_id":"4804","imdb_id":"tt0181322","world_art_id":null,"type":"movie","add":"2021-10-28 20:21:58","orig_title":"The Breaks","year":"1999-02-26","translations":["Авторский (одноголосый закадровый) (Санаев Павел)","Профессиональный (двухголосый закадровый) (West Video)"],"quality":"dvdrip","translation":"Авторский (одноголосый закадровый) (Санаев Павел)","update":"2021-10-29 07:25:35","iframe_src":"//24213.svetacdn.in/si4jsFRrtgrT/movie/54193"},{"id":54191,"title":"Тайна-Айат: Мёртворождённый","kp_id":null,"imdb_id":"tt13352694","world_art_id":null,"type":"movie","add":"2021-10-28 14:43:41","orig_title":"Sir-Ayet: Ölü Dogan","year":"2021-01-01","translations":["Любительский (двухголосый закадровый) (Колобок)"],"quality":"ts","translation":"Любительский (двухголосый закадровый) (Колобок)","update":"2021-10-28 23:25:48","iframe_src":"//24213.svetacdn.in/si4jsFRrtgrT/movie/54191"},{"id":54190,"title":"Взвод","kp_id":"1302337","imdb_id":"tt10940890","world_art_id":null,"type":"movie","add":"2021-10-28 14:42:02","orig_title":"Müfreze","year":"2021-09-01","translations":["Любительский (двухголосый закадровый) (Колобок)"],"quality":"ts","translation":"Любительский (двухголосый закадровый) (Колобок)","update":"2021-10-28 23:27:07","iframe_src":"//24213.svetacdn.in/si4jsFRrtgrT/movie/54190"},{"id":54188,"title":"Девять кошмаров","kp_id":null,"imdb_id":"tt15466052","world_art_id":null,"type":"movie","add":"2021-10-28 14:37:35","orig_title":"Cinni Kabus","year":"2021-01-01","translations":["Любительский (двухголосый закадровый) (Колобок)"],"quality":"ts","translation":"Любительский (двухголосый закадровый) (Колобок)","update":"2021-10-28 23:28:42","iframe_src":"//24213.svetacdn.in/si4jsFRrtgrT/movie/54188"},{"id":54186,"title":"Паранормальные явления","kp_id":"1389888","imdb_id":"tt11855826","world_art_id":null,"type":"movie","add":"2021-10-28 09:41:24","orig_title":"Attached: Paranormal","year":"2021-10-01","translations":["Любительский (многоголосый закадровый) (Синема УС)"],"quality":"webdl","translation":"Любительский (многоголосый закадровый) (Синема УС)","update":"2021-10-28 23:32:18","iframe_src":"//24213.svetacdn.in/si4jsFRrtgrT/movie/54186"},{"id":54185,"title":"Логово","kp_id":"1266728","imdb_id":"tt10342914","world_art_id":null,"type":"movie","add":"2021-10-28 09:38:55","orig_title":"Lair","year":"2021-09-04","translations":["Любительский (многоголосый закадровый) (@MUZOBOZ@)"],"quality":"webdl","translation":"Любительский (многоголосый закадровый) (@MUZOBOZ@)","update":"2021-10-28 23:31:34","iframe_src":"//24213.svetacdn.in/si4jsFRrtgrT/movie/54185"},{"id":54183,"title":"Спасение Слоун","kp_id":"1321772","imdb_id":"tt3569630","world_art_id":null,"type":"movie","add":"2021-10-28 09:31:18","orig_title":"Saving Sloane","year":"2021-01-01","translations":["Любительский (многоголосый закадровый) (AlphaProject)"],"quality":"webdl","translation":"Любительский (многоголосый закадровый) (AlphaProject)","update":"2021-10-28 14:57:41","iframe_src":"//24213.svetacdn.in/si4jsFRrtgrT/movie/54183"},{"id":54182,"title":"Время пришло","kp_id":"1282310","imdb_id":"tt10482844","world_art_id":null,"type":"movie","add":"2021-10-28 09:29:46","orig_title":"Time Now","year":"2021-01-01","translations":["Любительский (многоголосый закадровый) (@MUZOBOZ@)"],"quality":"webdl","translation":"Любительский (многоголосый закадровый) (@MUZOBOZ@)","update":"2021-10-28 14:56:44","iframe_src":"//24213.svetacdn.in/si4jsFRrtgrT/movie/54182"},{"id":54181,"title":"Девочка без рта","kp_id":"1201286","imdb_id":"tt9081470","world_art_id":null,"type":"movie","add":"2021-10-28 07:55:14","orig_title":"Girl With No Mouth","year":"2019-09-15","translations":["Любительский (многоголосый закадровый) (Синема УС)"],"quality":"ts","translation":"Любительский (многоголосый закадровый) (Синема УС)","update":"2021-10-28 15:36:51","iframe_src":"//24213.svetacdn.in/si4jsFRrtgrT/movie/54181"},{"id":54178,"title":"Дьявольский смех","kp_id":"266961","imdb_id":"tt0095120","world_art_id":null,"type":"movie","add":"2021-10-28 07:26:53","orig_title":"Evil Laugh","year":"1988-03-04","translations":["Профессиональный (многоголосый закадровый) (Варус-Видео)"],"quality":"dvdrip","translation":"Профессиональный (многоголосый закадровый) (Варус-Видео)","update":"2021-10-28 11:12:12","iframe_src":"//24213.svetacdn.in/si4jsFRrtgrT/movie/54178"},{"id":54177,"title":"Сиротки-вампиры","kp_id":"126069","imdb_id":"tt0112856","world_art_id":null,"type":"movie","add":"2021-10-28 06:09:59","orig_title":"Les deux orphelines vampires","year":"1997-07-09","translations":["Авторский (одноголосый закадровый) (Дольский Андрей)"],"quality":"bd","translation":"Авторский (одноголосый закадровый) (Дольский Андрей)","update":"2021-10-28 12:33:35","iframe_src":"//24213.svetacdn.in/si4jsFRrtgrT/movie/54177"},{"id":54174,"title":"Что?","kp_id":"11621","imdb_id":"tt0070913","world_art_id":null,"type":"movie","add":"2021-10-28 05:44:09","orig_title":"Che?","year":"1972-12-07","translations":["Авторский (одноголосый закадровый) (Козлов Сергей)","Любительский (одноголосый закадровый) (Савченко Алексей | Альтера Парс)","Авторский (одноголосый закадровый) (Алексеев Антон)","Профессиональный (многоголосый закадровый) (Другое кино)"],"quality":"bd","translation":"Авторский (одноголосый закадровый) (Козлов Сергей)","update":"2021-10-29 07:07:30","iframe_src":"//24213.svetacdn.in/si4jsFRrtgrT/movie/54174"},{"id":54161,"title":"Падение","kp_id":"419226","imdb_id":"tt1237958","world_art_id":null,"type":"movie","add":"2021-10-27 06:32:45","orig_title":"Doroppu","year":"2009-03-20","translations":["Авторский (одноголосый закадровый) (Визгунов Сергей)"],"quality":"webdl","translation":"Авторский (одноголосый закадровый) (Визгунов Сергей)","update":"2021-10-28 08:12:33","iframe_src":"//24213.svetacdn.in/si4jsFRrtgrT/movie/54161"},{"id":41880,"title":"Принц","kp_id":"1136689","imdb_id":"tt7945236","world_art_id":null,"type":"movie","add":"2020-07-20 04:33:41","orig_title":"El Príncipe","year":"2019-08-29","translations":["Любительский (многоголосый закадровый) (Синема УС)"],"quality":"webdl","translation":"Любительский (многоголосый закадровый) (Синема УС)","update":"2021-10-28 11:26:36","iframe_src":"//24213.svetacdn.in/si4jsFRrtgrT/movie/41880"},{"id":28305,"title":"Анна","kp_id":"1049727","imdb_id":"tt7456310","world_art_id":null,"type":"movie","add":"2019-06-27 12:16:11","orig_title":"Anna","year":"2019-06-19","translations":["Полное дублирование","Профессиональный (многоголосый закадровый) (HDrezka Studio)","Полное дублирование (CineLab SoundMix | СинеЛаб СаундМикс)","[EN] Original (English)"],"quality":"bd","translation":"Полное дублирование","update":"2021-10-28 11:29:27","iframe_src":"//24213.svetacdn.in/si4jsFRrtgrT/movie/28305"},{"id":4466,"title":"Призраки прошлого","kp_id":"1262945","imdb_id":null,"world_art_id":null,"type":"serial","add":"2019-05-07 13:19:18","orig_title":"Призраки прошлого","year":"2019-04-26","translations":["Оригинальная дорожка"],"seasons_count":1,"episodes_count":2,"episodes":2,"update":"2019-05-08 13:15:58","iframe_src":"//24213.svetacdn.in/si4jsFRrtgrT/tv-series/4466"},{"id":4461,"title":"Прорицатель Омар Хайям. Хроника легенды","kp_id":"581794","imdb_id":null,"world_art_id":null,"type":"serial","add":"2019-05-06 22:10:19","orig_title":"Прорицатель Омар Хайям. Хроника легенды","year":"2011-01-01","translations":["Оригинальная дорожка"],"seasons_count":1,"episodes_count":8,"episodes":8,"update":"2019-05-07 10:04:33","iframe_src":"//24213.svetacdn.in/si4jsFRrtgrT/tv-series/4461"},{"id":4458,"title":"Отпуск за период службы","kp_id":"1199593","imdb_id":null,"world_art_id":null,"type":"serial","add":"2019-05-06 10:46:43","orig_title":"Отпуск за период службы","year":"2019-05-01","translations":["Оригинальная дорожка"],"seasons_count":1,"episodes_count":4,"episodes":4,"update":"2019-05-06 14:54:16","iframe_src":"//24213.svetacdn.in/si4jsFRrtgrT/tv-series/4458"},{"id":4457,"title":"Ты только будь со мною рядом","kp_id":"1254803","imdb_id":null,"world_art_id":null,"type":"serial","add":"2019-05-06 10:42:39","orig_title":"Ты только будь со мною рядом","year":"2019-04-28","translations":["Оригинальная дорожка"],"seasons_count":1,"episodes_count":2,"episodes":2,"update":"2019-05-06 14:49:24","iframe_src":"//24213.svetacdn.in/si4jsFRrtgrT/tv-series/4457"},{"id":4456,"title":"Как выйти замуж. Инструкция","kp_id":"1254048","imdb_id":null,"world_art_id":null,"type":"serial","add":"2019-05-06 10:25:59","orig_title":"Как выйти замуж. Инструкция","year":"2019-04-12","translations":["Оригинальная дорожка"],"seasons_count":1,"episodes_count":4,"episodes":4,"update":"2019-05-06 11:52:36","iframe_src":"//24213.svetacdn.in/si4jsFRrtgrT/tv-series/4456"},{"id":4452,"title":"Измена","kp_id":"592281","imdb_id":"tt4449086","world_art_id":null,"type":"serial","add":"2019-05-06 07:44:05","orig_title":"Izmena","year":"2012-01-16","translations":["Оригинальная дорожка"],"seasons_count":1,"episodes_count":8,"episodes":8,"update":"2019-05-07 07:23:55","iframe_src":"//24213.svetacdn.in/si4jsFRrtgrT/tv-series/4452"},{"id":4450,"title":"Большой артист","kp_id":"1259255","imdb_id":null,"world_art_id":null,"type":"serial","add":"2019-05-05 23:12:57","orig_title":"Большой артист","year":"2019-05-05","translations":["Оригинальная дорожка"],"seasons_count":1,"episodes_count":2,"episodes":2,"update":"2019-05-06 06:24:25","iframe_src":"//24213.svetacdn.in/si4jsFRrtgrT/tv-series/4450"},{"id":4448,"title":"Бедная Настя","kp_id":"81035","imdb_id":"tt0414720","world_art_id":null,"type":"serial","add":"2019-05-04 09:18:33","orig_title":"Bednaya Nastya","year":"2003-10-31","translations":["Оригинальная дорожка"],"seasons_count":1,"episodes_count":127,"episodes":127,"update":"2019-05-07 07:36:42","iframe_src":"//24213.svetacdn.in/si4jsFRrtgrT/tv-series/4448"},{"id":4446,"title":"Юристы","kp_id":"1045556","imdb_id":null,"world_art_id":null,"type":"serial","add":"2019-05-03 18:26:06","orig_title":"Юристы","year":"2019-05-03","translations":["Оригинальная дорожка"],"seasons_count":1,"episodes_count":18,"episodes":18,"update":"2019-05-08 14:26:41","iframe_src":"//24213.svetacdn.in/si4jsFRrtgrT/tv-series/4446"},{"id":4442,"title":"Мастер охоты на единорога","kp_id":"1185928","imdb_id":null,"world_art_id":null,"type":"serial","add":"2019-05-02 16:46:06","orig_title":"Мастер охоты на единорога","year":"2019-05-02","translations":["Оригинальная дорожка"],"seasons_count":1,"episodes_count":4,"episodes":4,"update":"2019-05-02 17:40:45","iframe_src":"//24213.svetacdn.in/si4jsFRrtgrT/tv-series/4442"},{"id":4440,"title":"Вкус убийства","kp_id":"94701","imdb_id":"tt0439329","world_art_id":null,"type":"serial","add":"2019-05-02 09:18:08","orig_title":"Vkus ubiystva","year":"2003-09-23","translations":["Оригинальная дорожка"],"seasons_count":1,"episodes_count":4,"episodes":4,"update":"2019-05-02 16:30:17","iframe_src":"//24213.svetacdn.in/si4jsFRrtgrT/tv-series/4440"},{"id":4439,"title":"Пассажир без багажа","kp_id":"301321","imdb_id":"tt0785039","world_art_id":null,"type":"serial","add":"2019-05-02 09:16:31","orig_title":"Passazhir bez bagazha","year":"2003-01-01","translations":["Оригинальная дорожка"],"seasons_count":1,"episodes_count":4,"episodes":4,"update":"2019-05-02 16:34:19","iframe_src":"//24213.svetacdn.in/si4jsFRrtgrT/tv-series/4439"},{"id":4438,"title":"Ходят слухи","kp_id":"893139","imdb_id":"tt4507456","world_art_id":null,"type":"serial","add":"2019-05-02 08:43:24","orig_title":"Poongmooneuro Deuleotso","year":"2015-02-23","translations":["Любительский (одноголосый закадровый)"],"seasons_count":1,"episodes_count":30,"episodes":30,"update":"2019-05-03 06:36:24","iframe_src":"//24213.svetacdn.in/si4jsFRrtgrT/tv-series/4438"},{"id":4437,"title":"Зачем тебе алиби?","kp_id":"405655","imdb_id":"tt0870983","world_art_id":null,"type":"serial","add":"2019-05-02 08:39:27","orig_title":"Zachem tebe alibi?","year":"2003-01-01","translations":["Оригинальная дорожка"],"seasons_count":1,"episodes_count":4,"episodes":4,"update":"2019-05-02 13:12:07","iframe_src":"//24213.svetacdn.in/si4jsFRrtgrT/tv-series/4437"},{"id":4436,"title":"Печальная история любви","kp_id":"1219238","imdb_id":"tt9829586","world_art_id":null,"type":"serial","add":"2019-05-02 08:26:00","orig_title":"Seulpool Ddae Saranghanda","year":"2019-02-23","translations":["Любительский (двухголосый закадровый) (SoftBox)"],"seasons_count":1,"episodes_count":20,"episodes":20,"update":"2019-05-04 09:30:46","iframe_src":"//24213.svetacdn.in/si4jsFRrtgrT/tv-series/4436"},{"id":4432,"title":"Госпожа Фазилет и ее дочери","kp_id":"1045654","imdb_id":"tt6756704","world_art_id":null,"type":"serial","add":"2019-05-01 10:15:12","orig_title":"Fazilet Hanim ve Kizlari","year":"2017-03-25","translations":["Любительский (одноголосый закадровый)","Любительский (одноголосый закадровый) (Мительман Галина)"],"seasons_count":2,"episodes_count":50,"episodes":37,"update":"2019-05-06 20:26:17","iframe_src":"//24213.svetacdn.in/si4jsFRrtgrT/tv-series/4432"},{"id":4426,"title":"Кассирши","kp_id":"1224114","imdb_id":null,"world_art_id":null,"type":"serial","add":"2019-04-29 11:53:44","orig_title":"Кассирши","year":"2019-04-27","translations":["Оригинальная дорожка"],"seasons_count":1,"episodes_count":4,"episodes":4,"update":"2019-05-02 16:39:31","iframe_src":"//24213.svetacdn.in/si4jsFRrtgrT/tv-series/4426"},{"id":4345,"title":"У моего мужа слишком большой","kp_id":"1245925","imdb_id":"tt10027946","world_art_id":null,"type":"serial","add":"2019-04-01 04:30:17","orig_title":"My Husband Won't Fit","year":"2019-03-20","translations":["Любительский (двухголосый закадровый) (KosharaSerials)"],"seasons_count":1,"episodes_count":10,"episodes":10,"update":"2019-05-02 10:38:52","iframe_src":"//24213.svetacdn.in/si4jsFRrtgrT/tv-series/4345"},{"id":4340,"title":"Другая жизнь","kp_id":"444492","imdb_id":"tt1496703","world_art_id":null,"type":"serial","add":"2019-04-01 04:06:03","orig_title":"Drugaya zhizn","year":"2003-09-04","translations":["Оригинальная дорожка"],"seasons_count":1,"episodes_count":10,"episodes":10,"update":"2019-05-02 10:29:07","iframe_src":"//24213.svetacdn.in/si4jsFRrtgrT/tv-series/4340"},{"id":22057,"title":"Зомби одним планом!","kp_id":"1123456","imdb_id":"tt7914416","world_art_id":null,"type":"movie","add":"2019-02-04 22:44:43","orig_title":"Kamera o tomeru na!","year":"2017-11-04","translations":["Любительский (многоголосый закадровый) (Колобок)","Любительский (многоголосый закадровый) (XDUB Dorama)","Авторский (одноголосый закадровый) (Смирнов Александр)","Авторский (одноголосый закадровый) (Яроцкий Михаил | Kyberpunk)","Профессиональный (многоголосый закадровый) (Jaskier)"],"quality":"bd","translation":"Любительский (многоголосый закадровый) (Колобок)","update":"2021-10-28 08:17:06","iframe_src":"//24213.svetacdn.in/si4jsFRrtgrT/movie/22057"},{"id":19364,"title":"Смертельный друг","kp_id":"25448","imdb_id":"tt0090917","world_art_id":null,"type":"movie","add":"2018-10-05 08:11:24","orig_title":"Deadly Friend","year":"1986-10-10","translations":["Профессиональный (многоголосый закадровый)","Профессиональный (многоголосый закадровый) (Премьер Видео Фильм)","Авторский (одноголосый закадровый) (Иванов Михаил)","[EN] Original (English)"],"quality":"webdl","translation":"Профессиональный (многоголосый закадровый)","update":"2021-10-28 11:25:12","iframe_src":"//24213.svetacdn.in/si4jsFRrtgrT/movie/19364"},{"id":17462,"title":"Черная суббота, или Три лица страха","kp_id":"32152","imdb_id":"tt0057603","world_art_id":null,"type":"movie","add":"2018-06-29 11:41:57","orig_title":"I tre volti della paura","year":"1963-08-23","translations":["Профессиональный (многоголосый закадровый)","Профессиональный (двухголосый закадровый) (Film Prestige)","Профессиональный (двухголосый закадровый) (Кармен Видео)"],"quality":"bd","translation":"Профессиональный (многоголосый закадровый)","update":"2021-10-28 13:14:34","iframe_src":"//24213.svetacdn.in/si4jsFRrtgrT/movie/17462"},{"id":2481,"title":"Соседи","kp_id":"1100380","imdb_id":null,"world_art_id":null,"type":"serial","add":"2018-04-29 18:12:00","orig_title":"Соседи","year":"2018-04-28","translations":["Оригинальная дорожка"],"seasons_count":3,"episodes_count":12,"episodes":4,"update":"2019-05-06 11:38:52","iframe_src":"//24213.svetacdn.in/si4jsFRrtgrT/tv-series/2481"},{"id":15769,"title":"Страна призраков","kp_id":"1007477","imdb_id":"tt6195094","world_art_id":null,"type":"movie","add":"2018-03-21 22:27:06","orig_title":"Ghostland","year":"2018-02-13","translations":["[EN] Original (English)","Полное дублирование"],"quality":"bd","translation":"[EN] Original (English)","update":"2021-10-28 16:19:17","iframe_src":"//24213.svetacdn.in/si4jsFRrtgrT/movie/15769"},{"id":4971,"title":"Где моя тачка, чувак?","kp_id":"5414","imdb_id":"tt0242423","world_art_id":null,"type":"movie","add":"2016-09-02 11:39:35","orig_title":"Dude, Where's My Car?","year":"2000-12-10","translations":["Полное дублирование","Полное дублирование","Любительский (одноголосый закадровый) (Строев Денис)","[EN] Original (English)","Авторский (одноголосый закадровый) (Живов Юрий)"],"quality":"bd","translation":"Полное дублирование","update":"2021-10-28 13:17:36","iframe_src":"//24213.svetacdn.in/si4jsFRrtgrT/movie/4971"}],"current_page":485,"first_page_url":"https://videocdn.tv/api/short?limit=100&api_token=X6EwAUfE5M9xbo7y0Bp0aPf3uXxG2KLL&cache3485=3485&page=1","from":48401,"last_page":732,"last_page_url":"https://videocdn.tv/api/short?limit=100&api_token=X6EwAUfE5M9xbo7y0Bp0aPf3uXxG2KLL&cache3485=3485&page=732","next_page_url":"https://videocdn.tv/api/short?limit=100&api_token=X6EwAUfE5M9xbo7y0Bp0aPf3uXxG2KLL&cache3485=3485&page=486","path":"https://videocdn.tv/api/short","per_page":100,"prev_page_url":"https://videocdn.tv/api/short?limit=100&api_token=X6EwAUfE5M9xbo7y0Bp0aPf3uXxG2KLL&cache3485=3485&page=484","to":48440,"total":73120}