{"result":true,"data":[{"id":29640,"title":"Незнакомцы на пороге","kp_id":"936428","imdb_id":"tt5079452","world_art_id":null,"type":"movie","add":"2019-08-01 22:55:30","orig_title":"Waiting for the Storm","year":"2017-03-12","translations":["Любительский (многоголосый закадровый) (Синема УС)"],"quality":"webdl","translation":"Любительский (многоголосый закадровый) (Синема УС)","update":"2019-08-02 06:59:50","iframe_src":"//7923.svetacdn.in/IAF0wWTdNYZm/movie/29640"},{"id":29638,"title":"Самир","kp_id":"1085570","imdb_id":"tt7207156","world_art_id":null,"type":"movie","add":"2019-08-01 22:47:23","orig_title":"Sameer","year":"2017-05-06","translations":["Любительский (многоголосый закадровый) (Синема УС)"],"quality":"webdl","translation":"Любительский (многоголосый закадровый) (Синема УС)","update":"2019-08-02 06:58:58","iframe_src":"//7923.svetacdn.in/IAF0wWTdNYZm/movie/29638"},{"id":29632,"title":"Джек против тыквоголовых","kp_id":null,"imdb_id":"tt6343596","world_art_id":null,"type":"movie","add":"2019-08-01 22:16:45","orig_title":"Jack vs Lanterns","year":"2017-01-01","translations":["Любительский (многоголосый закадровый) (Синема УС)"],"quality":"webdl","translation":"Любительский (многоголосый закадровый) (Синема УС)","update":"2019-08-02 06:55:46","iframe_src":"//7923.svetacdn.in/IAF0wWTdNYZm/movie/29632"},{"id":29630,"title":"Предел Хейфлика","kp_id":"1060069","imdb_id":"tt6226908","world_art_id":null,"type":"movie","add":"2019-08-01 22:12:21","orig_title":"Hayflick Limit","year":"2017-01-01","translations":["Любительский (многоголосый закадровый) (Синема УС)"],"quality":"webdl","translation":"Любительский (многоголосый закадровый) (Синема УС)","update":"2019-08-02 06:54:28","iframe_src":"//7923.svetacdn.in/IAF0wWTdNYZm/movie/29630"},{"id":29627,"title":"Охота на койота","kp_id":"1076902","imdb_id":"tt7192164","world_art_id":null,"type":"movie","add":"2019-08-01 21:56:24","orig_title":"Coyotaje","year":"2018-01-01","translations":["Профессиональный (многоголосый закадровый) (AlphaProject)"],"quality":"webdl","translation":"Профессиональный (многоголосый закадровый) (AlphaProject)","update":"2019-08-02 06:44:35","iframe_src":"//7923.svetacdn.in/IAF0wWTdNYZm/movie/29627"},{"id":29623,"title":"61: Шоссе в Ад","kp_id":"1073691","imdb_id":"tt7491480","world_art_id":null,"type":"movie","add":"2019-08-01 21:43:30","orig_title":"61: Highway to Hell","year":"2017-01-01","translations":["Любительский (многоголосый закадровый) (Синема УС)"],"quality":"webdl","translation":"Любительский (многоголосый закадровый) (Синема УС)","update":"2019-08-02 06:53:27","iframe_src":"//7923.svetacdn.in/IAF0wWTdNYZm/movie/29623"},{"id":29621,"title":"После прихода тьмы","kp_id":null,"imdb_id":"tt6263870","world_art_id":null,"type":"movie","add":"2019-08-01 21:35:24","orig_title":"Tras la Oscuridad","year":"2016-10-13","translations":["Любительский (многоголосый закадровый) (Колобок)"],"quality":"webdl","translation":"Любительский (многоголосый закадровый) (Колобок)","update":"2019-08-02 07:02:48","iframe_src":"//7923.svetacdn.in/IAF0wWTdNYZm/movie/29621"},{"id":29619,"title":"Меня заставили это сделать","kp_id":"858322","imdb_id":"tt3630918","world_art_id":null,"type":"movie","add":"2019-08-01 21:32:07","orig_title":"Made Me Do It","year":"2017-09-29","translations":["Любительский (многоголосый закадровый) (Синема УС)"],"quality":"webdl","translation":"Любительский (многоголосый закадровый) (Синема УС)","update":"2019-08-02 06:52:21","iframe_src":"//7923.svetacdn.in/IAF0wWTdNYZm/movie/29619"},{"id":29617,"title":"Ганн","kp_id":"1073167","imdb_id":"tt7241608","world_art_id":null,"type":"movie","add":"2019-08-01 21:28:40","orig_title":"Gunn","year":"2018-08-10","translations":["Профессиональный (многоголосый закадровый) (AlphaProject)"],"quality":"webdl","translation":"Профессиональный (многоголосый закадровый) (AlphaProject)","update":"2019-08-02 06:48:54","iframe_src":"//7923.svetacdn.in/IAF0wWTdNYZm/movie/29617"},{"id":29616,"title":"Следуя за воронами","kp_id":null,"imdb_id":"tt6096852","world_art_id":null,"type":"movie","add":"2019-08-01 21:26:59","orig_title":"Follow the Crow","year":"2018-02-01","translations":["Профессиональный (многоголосый закадровый) (AlphaProject)"],"quality":"webdl","translation":"Профессиональный (многоголосый закадровый) (AlphaProject)","update":"2019-08-02 06:47:41","iframe_src":"//7923.svetacdn.in/IAF0wWTdNYZm/movie/29616"},{"id":29615,"title":"Поиск Большой Страны","kp_id":"1163928","imdb_id":"tt8546396","world_art_id":null,"type":"movie","add":"2019-08-01 21:25:16","orig_title":"Finding Big Country","year":"2018-09-30","translations":["Любительский (многоголосый закадровый) (Синема УС)"],"quality":"webdl","translation":"Любительский (многоголосый закадровый) (Синема УС)","update":"2019-08-02 06:46:23","iframe_src":"//7923.svetacdn.in/IAF0wWTdNYZm/movie/29615"},{"id":29613,"title":"Пленки Андерсона","kp_id":"6923","imdb_id":"tt0066767","world_art_id":null,"type":"movie","add":"2019-08-01 20:01:35","orig_title":"The Anderson Tapes","year":"1971-06-17","translations":["Профессиональный (многоголосый закадровый) (НТВ)"],"quality":"bd","translation":"Профессиональный (многоголосый закадровый) (НТВ)","update":"2019-08-02 07:22:02","iframe_src":"//7923.svetacdn.in/IAF0wWTdNYZm/movie/29613"},{"id":29612,"title":"Убийство в Восточном экспрессе","kp_id":"927","imdb_id":"tt0071877","world_art_id":null,"type":"movie","add":"2019-08-01 19:56:41","orig_title":"Murder on the Orient Express","year":"1974-11-21","translations":["Полное дублирование"],"quality":"bd","translation":"Полное дублирование","update":"2019-08-02 07:22:42","iframe_src":"//7923.svetacdn.in/IAF0wWTdNYZm/movie/29612"},{"id":29599,"title":"Прошлым летом","kp_id":"43317","imdb_id":"tt0176056","world_art_id":null,"type":"movie","add":"2019-08-01 17:05:10","orig_title":"Proshlym letom","year":"1962-11-30","translations":["Оригинальная дорожка"],"quality":"sat","translation":"Оригинальная дорожка","update":"2019-08-02 07:33:19","iframe_src":"//7923.svetacdn.in/IAF0wWTdNYZm/movie/29599"},{"id":29598,"title":"Смотрите, небо!","kp_id":"43883","imdb_id":"tt0173220","world_art_id":null,"type":"movie","add":"2019-08-01 17:00:02","orig_title":"Smotrite, nebo!","year":"1962-01-01","translations":["Оригинальная дорожка"],"quality":"sat","translation":"Оригинальная дорожка","update":"2019-08-02 07:32:23","iframe_src":"//7923.svetacdn.in/IAF0wWTdNYZm/movie/29598"},{"id":29597,"title":"Заводила","kp_id":"573615","imdb_id":"tt2129883","world_art_id":null,"type":"movie","add":"2019-08-01 16:56:15","orig_title":"Araqarisdiran","year":"1987-03-20","translations":["Оригинальная дорожка"],"quality":"webdl","translation":"Оригинальная дорожка","update":"2019-08-02 07:29:57","iframe_src":"//7923.svetacdn.in/IAF0wWTdNYZm/movie/29597"},{"id":29596,"title":"Здравствуй, Гнат","kp_id":"472351","imdb_id":"tt5013702","world_art_id":null,"type":"movie","add":"2019-08-01 16:52:38","orig_title":"Zdravstvuy, Gnat","year":"1963-02-19","translations":["Оригинальная дорожка"],"quality":"vhs","translation":"Оригинальная дорожка","update":"2019-08-02 07:04:59","iframe_src":"//7923.svetacdn.in/IAF0wWTdNYZm/movie/29596"},{"id":29595,"title":"Жулики","kp_id":"276108","imdb_id":"tt1831836","world_art_id":null,"type":"movie","add":"2019-08-01 16:49:20","orig_title":"Zhuliki","year":"2006-09-21","translations":["Оригинальная дорожка"],"quality":"dvdrip","translation":"Оригинальная дорожка","update":"2019-08-02 07:03:39","iframe_src":"//7923.svetacdn.in/IAF0wWTdNYZm/movie/29595"},{"id":29594,"title":"Званый ужин","kp_id":"477994","imdb_id":"tt0055911","world_art_id":null,"type":"movie","add":"2019-08-01 16:44:16","orig_title":"Zvanyy uzhin","year":"1953-08-20","translations":["Оригинальная дорожка"],"quality":"dvdrip","translation":"Оригинальная дорожка","update":"2019-08-02 07:03:30","iframe_src":"//7923.svetacdn.in/IAF0wWTdNYZm/movie/29594"},{"id":11667,"title":"Птица","kp_id":"909701","imdb_id":"tt4958928","world_art_id":null,"type":"movie","add":"2017-05-25 23:17:54","orig_title":"Ptitsa","year":"2017-05-18","translations":["Оригинальная дорожка"],"quality":"webdl","translation":"Оригинальная дорожка","update":"2019-08-02 07:00:28","iframe_src":"//7923.svetacdn.in/IAF0wWTdNYZm/movie/11667"}],"current_page":1314,"first_page_url":"https://videocdn.tv/api/short?limit=100&api_token=6Onb1W1alEUrBcKJZD3GoKBbWyAl2uG2&cache31314=31314&page=1","from":131301,"last_page":642,"last_page_url":"https://videocdn.tv/api/short?limit=100&api_token=6Onb1W1alEUrBcKJZD3GoKBbWyAl2uG2&cache31314=31314&page=642","next_page_url":null,"path":"https://videocdn.tv/api/short","per_page":100,"prev_page_url":"https://videocdn.tv/api/short?limit=100&api_token=6Onb1W1alEUrBcKJZD3GoKBbWyAl2uG2&cache31314=31314&page=1313","to":131320,"total":64126}