{"result":true,"data":[{"id":51381,"title":"Никакой вечеринки, пока не отомстишь","kp_id":"1314524","imdb_id":"tt11057114","world_art_id":null,"type":"movie","add":"2021-06-23 10:45:54","orig_title":"No vendetta no party","year":"2019-01-01","translations":["Любительский (многоголосый закадровый) (Синема УС)"],"quality":"webdl","translation":"Любительский (многоголосый закадровый) (Синема УС)","update":"2021-06-24 10:42:44","iframe_src":"//89442664434375553.svetacdn.in/PfJ50H0ZBPg3/movie/51381"},{"id":51380,"title":"Просто друг","kp_id":"1002316","imdb_id":"tt6032708","world_art_id":null,"type":"movie","add":"2021-06-23 10:43:19","orig_title":"Just a Friend","year":"2019-01-01","translations":["Любительский (многоголосый закадровый) (Синема УС)"],"quality":"webdl","translation":"Любительский (многоголосый закадровый) (Синема УС)","update":"2021-06-24 10:44:00","iframe_src":"//89442664434375553.svetacdn.in/PfJ50H0ZBPg3/movie/51380"},{"id":51379,"title":"Потерянный ультрамарин","kp_id":"1272360","imdb_id":"tt10448536","world_art_id":null,"type":"movie","add":"2021-06-23 10:40:19","orig_title":"Inakunare Gunjo","year":"2019-09-06","translations":["Любительский (многоголосый закадровый) (AlphaProject)"],"quality":"webdl","translation":"Любительский (многоголосый закадровый) (AlphaProject)","update":"2021-06-24 10:45:17","iframe_src":"//89442664434375553.svetacdn.in/PfJ50H0ZBPg3/movie/51379"},{"id":51378,"title":"Деранс","kp_id":"1174269","imdb_id":"tt8705658","world_art_id":null,"type":"movie","add":"2021-06-23 09:49:23","orig_title":"Desrances","year":"2019-02-23","translations":["Любительский (многоголосый закадровый) (Синема УС)"],"quality":"webdl","translation":"Любительский (многоголосый закадровый) (Синема УС)","update":"2021-06-24 10:46:08","iframe_src":"//89442664434375553.svetacdn.in/PfJ50H0ZBPg3/movie/51378"},{"id":51375,"title":"Те ещё звери","kp_id":"1126327","imdb_id":"tt8278754","world_art_id":null,"type":"movie","add":"2021-06-23 09:31:05","orig_title":"Algunas Bestias","year":"2019-09-28","translations":["Любительский (многоголосый закадровый) (Синема УС)"],"quality":"webdl","translation":"Любительский (многоголосый закадровый) (Синема УС)","update":"2021-06-24 10:47:04","iframe_src":"//89442664434375553.svetacdn.in/PfJ50H0ZBPg3/movie/51375"},{"id":51370,"title":"Новая кухня","kp_id":"1247532","imdb_id":"tt9892908","world_art_id":null,"type":"movie","add":"2021-06-23 08:57:41","orig_title":"A Brand New Kitchen","year":"2019-01-01","translations":["Любительский (многоголосый закадровый) (Синема УС)"],"quality":"webdl","translation":"Любительский (многоголосый закадровый) (Синема УС)","update":"2021-06-24 09:43:54","iframe_src":"//89442664434375553.svetacdn.in/PfJ50H0ZBPg3/movie/51370"},{"id":51352,"title":"Полночная жара","kp_id":"5873","imdb_id":"tt0112266","world_art_id":null,"type":"movie","add":"2021-06-22 17:14:35","orig_title":"Blackout","year":"1996-01-26","translations":["Авторский (одноголосый закадровый) (Гаврилов Андрей)","[EN] Original (English)","Профессиональный (многоголосый закадровый)"],"quality":"webdl","translation":"Авторский (одноголосый закадровый) (Гаврилов Андрей)","update":"2021-06-24 13:26:47","iframe_src":"//89442664434375553.svetacdn.in/PfJ50H0ZBPg3/movie/51352"},{"id":51341,"title":"Королевская свадьба","kp_id":"26954","imdb_id":"tt0043983","world_art_id":null,"type":"movie","add":"2021-06-22 06:06:37","orig_title":"Royal Wedding","year":"1951-03-08","translations":["[EN] Original (English)","Профессиональный (двухголосый закадровый) (DVD Магия)","Профессиональный (двухголосый закадровый) (НТВ)","Профессиональный (двухголосый закадровый) (Культура | Россия К)","Профессиональный (двухголосый закадровый) (Светла)"],"quality":"bd","translation":"[EN] Original (English)","update":"2021-06-24 13:20:36","iframe_src":"//89442664434375553.svetacdn.in/PfJ50H0ZBPg3/movie/51341"},{"id":50757,"title":"Играй со мной","kp_id":"4322000","imdb_id":"tt14376312","world_art_id":null,"type":"movie","add":"2021-05-30 21:40:48","orig_title":"Igray so mnoy","year":"2021-05-27","translations":["Оригинальная дорожка"],"quality":"webdl","translation":"Оригинальная дорожка","update":"2021-06-24 12:28:31","iframe_src":"//89442664434375553.svetacdn.in/PfJ50H0ZBPg3/movie/50757"},{"id":50556,"title":"Вид снизу","kp_id":null,"imdb_id":"tt2724428","world_art_id":null,"type":"movie","add":"2021-05-22 06:37:30","orig_title":"A View from Below","year":"2012-01-01","translations":["Любительский (одноголосый закадровый) (Водяной Александр)","[EN] Original (English)"],"quality":"webdl","translation":"Любительский (одноголосый закадровый) (Водяной Александр)","update":"2021-06-24 08:55:28","iframe_src":"//89442664434375553.svetacdn.in/PfJ50H0ZBPg3/movie/50556"},{"id":50385,"title":"Приключения маленького индейца","kp_id":"12264","imdb_id":"tt0119052","world_art_id":null,"type":"movie","add":"2021-05-14 04:55:48","orig_title":"The Education of Little Tree","year":"1997-12-25","translations":["Профессиональный (многоголосый закадровый)","[EN] Original (English)"],"quality":"webdl","translation":"Профессиональный (многоголосый закадровый)","update":"2021-06-24 09:36:32","iframe_src":"//89442664434375553.svetacdn.in/PfJ50H0ZBPg3/movie/50385"},{"id":50369,"title":"Девичьи страдания","kp_id":"15253","imdb_id":"tt0028757","world_art_id":null,"type":"movie","add":"2021-05-13 13:59:28","orig_title":"A Damsel in Distress","year":"1937-11-19","translations":["Профессиональный (многоголосый закадровый) (Светла)","[EN] Original (English)"],"quality":"webdl","translation":"Профессиональный (многоголосый закадровый) (Светла)","update":"2021-06-24 08:51:40","iframe_src":"//89442664434375553.svetacdn.in/PfJ50H0ZBPg3/movie/50369"},{"id":50368,"title":"Черная орхидея","kp_id":"6539","imdb_id":"tt0052631","world_art_id":null,"type":"movie","add":"2021-05-13 12:18:33","orig_title":"The Black Orchid","year":"1958-09-03","translations":["Профессиональный (многоголосый закадровый) (Домашний)","[EN] Original (English)"],"quality":"webdl","translation":"Профессиональный (многоголосый закадровый) (Домашний)","update":"2021-06-24 09:34:43","iframe_src":"//89442664434375553.svetacdn.in/PfJ50H0ZBPg3/movie/50368"},{"id":50268,"title":"Возвращение в Пейтон Плейс","kp_id":"34536","imdb_id":"tt0055370","world_art_id":null,"type":"movie","add":"2021-05-10 11:01:14","orig_title":"Return to Peyton Place","year":"1961-05-05","translations":["Любительский (одноголосый закадровый) (Бусов Глеб)","[EN] Original (English)"],"quality":"webdl","translation":"Любительский (одноголосый закадровый) (Бусов Глеб)","update":"2021-06-24 09:03:48","iframe_src":"//89442664434375553.svetacdn.in/PfJ50H0ZBPg3/movie/50268"},{"id":50231,"title":"Полет в Рио","kp_id":"26723","imdb_id":"tt0024025","world_art_id":null,"type":"movie","add":"2021-05-08 08:24:45","orig_title":"Flying Down to Rio","year":"1933-12-22","translations":["Авторский (одноголосый закадровый) (Кузнецов Сергей)","[EN] Original (English)"],"quality":"webdl","translation":"Авторский (одноголосый закадровый) (Кузнецов Сергей)","update":"2021-06-24 09:02:24","iframe_src":"//89442664434375553.svetacdn.in/PfJ50H0ZBPg3/movie/50231"},{"id":50214,"title":"Энциклопедия разводов","kp_id":"4575","imdb_id":"tt0349169","world_art_id":null,"type":"movie","add":"2021-05-07 18:27:19","orig_title":"Breakin' All the Rules","year":"2004-05-14","translations":["Профессиональный (многоголосый закадровый)","Профессиональный (многоголосый закадровый)","[EN] Original (English)"],"quality":"dvdrip","translation":"Профессиональный (многоголосый закадровый)","update":"2021-06-24 09:01:00","iframe_src":"//89442664434375553.svetacdn.in/PfJ50H0ZBPg3/movie/50214"},{"id":28214,"title":"Приключения эвоков","kp_id":"149392","imdb_id":"tt0087225","world_art_id":null,"type":"movie","add":"2019-06-23 22:24:14","orig_title":"The Ewok Adventure","year":"1984-11-25","translations":["Профессиональный (многоголосый закадровый)","[EN] Original (English)"],"quality":"webdl","translation":"Профессиональный (многоголосый закадровый)","update":"2021-06-24 09:37:38","iframe_src":"//89442664434375553.svetacdn.in/PfJ50H0ZBPg3/movie/28214"},{"id":23518,"title":"Бегущая по волнам","kp_id":"46054","imdb_id":"tt0061393","world_art_id":null,"type":"movie","add":"2019-03-26 22:31:49","orig_title":"Begushchaya po volnam","year":"1967-06-07","translations":["Оригинальная дорожка","Оригинальная дорожка"],"quality":"dvdrip","translation":"Оригинальная дорожка","update":"2021-06-24 10:18:47","iframe_src":"//89442664434375553.svetacdn.in/PfJ50H0ZBPg3/movie/23518"},{"id":7029,"title":"Крикуны","kp_id":"28214","imdb_id":"tt0114367","world_art_id":null,"type":"movie","add":"2016-11-03 14:01:07","orig_title":"Screamers","year":"1995-09-08","translations":["Полное дублирование","Авторский (одноголосый закадровый) (Есарев Дмитрий)","Авторский (одноголосый закадровый) (Карцев Пётр)","Авторский (одноголосый закадровый) (Визгунов Сергей)","Полное дублирование (Видеосервис)","[EN] Original (English)","Профессиональный (многоголосый закадровый)","Профессиональный (многоголосый закадровый) (Первый канал | ОРТ)","Профессиональный (многоголосый закадровый) (РТР | Россия)","Профессиональный (многоголосый закадровый) (Видеосервис)"],"quality":"bd","translation":"Полное дублирование","update":"2021-06-24 13:08:26","iframe_src":"//89442664434375553.svetacdn.in/PfJ50H0ZBPg3/movie/7029"},{"id":5117,"title":"Мистер Крутой","kp_id":"24691","imdb_id":"tt0117786","world_art_id":null,"type":"movie","add":"2016-09-08 06:53:44","orig_title":"Yat goh ho yan","year":"1997-01-31","translations":["Профессиональный (многоголосый закадровый)","Авторский (одноголосый закадровый) (Кашкин Александр | Первомайский)","Профессиональный (многоголосый закадровый) (West Video)","Авторский (одноголосый закадровый) (Есарев Дмитрий)","[EN] Original (English)"],"quality":"webdl","translation":"Профессиональный (многоголосый закадровый)","update":"2021-06-24 13:12:58","iframe_src":"//89442664434375553.svetacdn.in/PfJ50H0ZBPg3/movie/5117"}],"current_page":684,"first_page_url":"https://videocdn.tv/api/short?limit=100&api_token=RgFQdUIR2dRmwv8iYa5SnFNgnw3vpjKj&cache3684=3684&page=1","from":68301,"last_page":734,"last_page_url":"https://videocdn.tv/api/short?limit=100&api_token=RgFQdUIR2dRmwv8iYa5SnFNgnw3vpjKj&cache3684=3684&page=734","next_page_url":"https://videocdn.tv/api/short?limit=100&api_token=RgFQdUIR2dRmwv8iYa5SnFNgnw3vpjKj&cache3684=3684&page=685","path":"https://videocdn.tv/api/short","per_page":100,"prev_page_url":"https://videocdn.tv/api/short?limit=100&api_token=RgFQdUIR2dRmwv8iYa5SnFNgnw3vpjKj&cache3684=3684&page=683","to":68320,"total":73325}