{"result":true,"data":[{"id":22235,"title":"Элено","kp_id":"566092","imdb_id":"tt1720114","world_art_id":null,"type":"movie","add":"2019-02-11 07:22:01","orig_title":"Heleno: O Príncipe Maldito","year":"2011-09-12","translations":["Профессиональный (многоголосый закадровый)"],"quality":"bd","translation":"Профессиональный (многоголосый закадровый)","update":"2019-02-11 12:02:09","iframe_src":"//7720.svetacdn.in/IAF0wWTdNYZm/movie/22235"},{"id":22229,"title":"Принц и Диана","kp_id":"863198","imdb_id":"tt3674116","world_art_id":null,"type":"movie","add":"2019-02-11 07:09:34","orig_title":"Ring Master","year":"2014-04-17","translations":["Профессиональный (многоголосый закадровый) (SDI Media)"],"quality":"dvdrip","translation":"Профессиональный (многоголосый закадровый) (SDI Media)","update":"2019-02-11 12:00:41","iframe_src":"//7720.svetacdn.in/IAF0wWTdNYZm/movie/22229"},{"id":22216,"title":"Земля до начала времен 5: Таинственный остров","kp_id":"81213","imdb_id":"tt0123950","world_art_id":null,"type":"movie","add":"2019-02-11 00:33:36","orig_title":"The Land Before Time V: The Mysterious Island","year":"1997-12-09","translations":["Полное дублирование"],"quality":"dvdrip","translation":"Полное дублирование","update":"2019-02-11 12:10:41","iframe_src":"//7720.svetacdn.in/IAF0wWTdNYZm/movie/22216"},{"id":22215,"title":"В ритме танца","kp_id":"471371","imdb_id":"tt1442570","world_art_id":null,"type":"movie","add":"2019-02-11 00:05:53","orig_title":"Fast Forward","year":"2009-09-25","translations":["Любительский (многоголосый закадровый) (Banyan Studio)"],"quality":"dvdrip","translation":"Любительский (многоголосый закадровый) (Banyan Studio)","update":"2019-02-11 12:08:45","iframe_src":"//7720.svetacdn.in/IAF0wWTdNYZm/movie/22215"},{"id":22213,"title":"Человек ниоткуда","kp_id":"45459","imdb_id":"tt0054739","world_art_id":null,"type":"movie","add":"2019-02-10 23:50:19","orig_title":"Chelovek niotkuda","year":"1961-05-18","translations":["Оригинальная дорожка"],"quality":"dvdrip","translation":"Оригинальная дорожка","update":"2019-02-11 12:03:37","iframe_src":"//7720.svetacdn.in/IAF0wWTdNYZm/movie/22213"},{"id":22210,"title":"Повелители мира","kp_id":"424231","imdb_id":"tt1283906","world_art_id":null,"type":"movie","add":"2019-02-10 23:37:40","orig_title":"Glitch","year":"2008-08-19","translations":["Профессиональный (многоголосый закадровый)"],"quality":"dvdrip","translation":"Профессиональный (многоголосый закадровый)","update":"2019-02-11 11:58:16","iframe_src":"//7720.svetacdn.in/IAF0wWTdNYZm/movie/22210"},{"id":22207,"title":"Хищная луна","kp_id":"812280","imdb_id":"tt3272572","world_art_id":null,"type":"movie","add":"2019-02-10 23:32:45","orig_title":"Predatory Moon","year":"2017-10-01","translations":["Любительский (многоголосый закадровый) (Синема УС)"],"quality":"webdl","translation":"Любительский (многоголосый закадровый) (Синема УС)","update":"2019-02-11 10:54:49","iframe_src":"//7720.svetacdn.in/IAF0wWTdNYZm/movie/22207"},{"id":22206,"title":"Жажда скорости","kp_id":"254400","imdb_id":"tt0780595","world_art_id":null,"type":"movie","add":"2019-02-10 23:29:46","orig_title":"Redline","year":"2007-04-13","translations":["Полное дублирование"],"quality":"bd","translation":"Полное дублирование","update":"2019-02-11 11:43:24","iframe_src":"//7720.svetacdn.in/IAF0wWTdNYZm/movie/22206"},{"id":22205,"title":"Раскопки Sad Hill","kp_id":"1093903","imdb_id":"tt6997426","world_art_id":null,"type":"movie","add":"2019-02-10 23:26:16","orig_title":"Desenterrando Sad Hill","year":"2017-10-31","translations":["Любительский (многоголосый закадровый) (Синема УС)"],"quality":"webdl","translation":"Любительский (многоголосый закадровый) (Синема УС)","update":"2019-02-11 11:41:30","iframe_src":"//7720.svetacdn.in/IAF0wWTdNYZm/movie/22205"},{"id":22204,"title":"Самокритика буржуазного пса","kp_id":"1009408","imdb_id":"tt6354108","world_art_id":null,"type":"movie","add":"2019-02-10 23:24:44","orig_title":"Selbstkritik eines buergerlichen Hundes","year":"2017-01-28","translations":["Любительский (многоголосый закадровый) (Синема УС)"],"quality":"dvdrip","translation":"Любительский (многоголосый закадровый) (Синема УС)","update":"2019-02-11 11:40:20","iframe_src":"//7720.svetacdn.in/IAF0wWTdNYZm/movie/22204"},{"id":22199,"title":"Танцы улиц","kp_id":"38881","imdb_id":"tt0365957","world_art_id":null,"type":"movie","add":"2019-02-10 23:11:03","orig_title":"You Got Served","year":"2004-01-30","translations":["Профессиональный (многоголосый закадровый)"],"quality":"dvdrip","translation":"Профессиональный (многоголосый закадровый)","update":"2019-02-11 11:34:55","iframe_src":"//7720.svetacdn.in/IAF0wWTdNYZm/movie/22199"},{"id":22198,"title":"Земля до Начала Времен 12: Великий день птиц","kp_id":"307343","imdb_id":"tt0933064","world_art_id":null,"type":"movie","add":"2019-02-10 23:08:26","orig_title":"The Land Before Time XII: The Great Day of the Flyers","year":"2006-11-23","translations":["Полное дублирование"],"quality":"bd","translation":"Полное дублирование","update":"2019-02-11 11:36:27","iframe_src":"//7720.svetacdn.in/IAF0wWTdNYZm/movie/22198"},{"id":22196,"title":"Зло внутри","kp_id":"898423","imdb_id":"tt4486868","world_art_id":null,"type":"movie","add":"2019-02-10 23:04:08","orig_title":"The Evil Inside","year":"2017-11-01","translations":["Любительский (многоголосый закадровый) (Синема УС)"],"quality":"webdl","translation":"Любительский (многоголосый закадровый) (Синема УС)","update":"2019-02-11 11:03:21","iframe_src":"//7720.svetacdn.in/IAF0wWTdNYZm/movie/22196"},{"id":22190,"title":"Токио. Небо","kp_id":"141500","imdb_id":"tt0388474","world_art_id":null,"type":"movie","add":"2019-02-10 22:46:25","orig_title":"Tokyo.Sora","year":"2002-10-26","translations":["Любительский (двухголосый закадровый) (DeadSno & den904)"],"quality":"bd","translation":"Любительский (двухголосый закадровый) (DeadSno & den904)","update":"2019-02-11 11:18:13","iframe_src":"//7720.svetacdn.in/IAF0wWTdNYZm/movie/22190"},{"id":22186,"title":"День Святого Валентина на винограднике","kp_id":"1228355","imdb_id":"tt9556850","world_art_id":null,"type":"movie","add":"2019-02-10 22:38:34","orig_title":"Valentine in the Vineyard","year":"2019-02-07","translations":["Профессиональный (многоголосый закадровый) (AlphaProject)"],"quality":"hdtv","translation":"Профессиональный (многоголосый закадровый) (AlphaProject)","update":"2019-02-11 10:56:23","iframe_src":"//7720.svetacdn.in/IAF0wWTdNYZm/movie/22186"},{"id":22183,"title":"Дансер","kp_id":"14348","imdb_id":"tt0190346","world_art_id":null,"type":"movie","add":"2019-02-10 22:32:06","orig_title":"The Dancer","year":"2000-05-19","translations":["Полное дублирование"],"quality":"dvdrip","translation":"Полное дублирование","update":"2019-02-11 11:12:14","iframe_src":"//7720.svetacdn.in/IAF0wWTdNYZm/movie/22183"},{"id":22180,"title":"Женский книжный клуб","kp_id":"925760","imdb_id":"tt4899528","world_art_id":null,"type":"movie","add":"2019-02-10 22:24:39","orig_title":"Ladies Book Club","year":"2016-06-07","translations":["Любительский (многоголосый закадровый) (Синема УС)"],"quality":"webdl","translation":"Любительский (многоголосый закадровый) (Синема УС)","update":"2019-02-11 11:05:12","iframe_src":"//7720.svetacdn.in/IAF0wWTdNYZm/movie/22180"},{"id":22179,"title":"Руководство Кевина Харта по черной истории","kp_id":"1018341","imdb_id":"tt6373518","world_art_id":null,"type":"movie","add":"2019-02-10 22:22:17","orig_title":"Kevin Hart's Guide to Black History","year":"2019-02-08","translations":["Любительский (многоголосый закадровый) (Синема УС)"],"quality":"webdl","translation":"Любительский (многоголосый закадровый) (Синема УС)","update":"2019-02-11 10:52:25","iframe_src":"//7720.svetacdn.in/IAF0wWTdNYZm/movie/22179"},{"id":22056,"title":"Дис","kp_id":"1084705","imdb_id":"tt7304806","world_art_id":null,"type":"movie","add":"2019-02-04 22:43:19","orig_title":"Dis","year":"2017-01-01","translations":["Любительский (многоголосый закадровый) (Синема УС)","Любительский (двухголосый закадровый) (HiWayGrope)"],"quality":"hdrip","translation":"Любительский (многоголосый закадровый) (Синема УС)","update":"2019-02-11 10:25:43","iframe_src":"//7720.svetacdn.in/IAF0wWTdNYZm/movie/22056"},{"id":4461,"title":"Персонаж","kp_id":"93547","imdb_id":"tt0420223","world_art_id":null,"type":"movie","add":"2016-08-16 13:23:56","orig_title":"Stranger Than Fiction","year":"2006-09-09","translations":["Профессиональный (двухголосый закадровый)","Полное дублирование"],"quality":"bd","translation":"Профессиональный (двухголосый закадровый)","update":"2019-02-11 11:38:06","iframe_src":"//7720.svetacdn.in/IAF0wWTdNYZm/movie/4461"}],"current_page":1723,"first_page_url":"https://videocdn.tv/api/short?limit=100&api_token=6Onb1W1alEUrBcKJZD3GoKBbWyAl2uG2&cache31723=31723&page=1","from":172201,"last_page":652,"last_page_url":"https://videocdn.tv/api/short?limit=100&api_token=6Onb1W1alEUrBcKJZD3GoKBbWyAl2uG2&cache31723=31723&page=652","next_page_url":null,"path":"https://videocdn.tv/api/short","per_page":100,"prev_page_url":"https://videocdn.tv/api/short?limit=100&api_token=6Onb1W1alEUrBcKJZD3GoKBbWyAl2uG2&cache31723=31723&page=1722","to":172220,"total":65144}