{"result":true,"data":[{"id":47853,"title":"Безликий","kp_id":"883264","imdb_id":"tt4372326","world_art_id":null,"type":"movie","add":"2021-02-11 18:55:36","orig_title":"Faceless","year":"2021-01-15","translations":["Любительский (многоголосый закадровый) (@MUZOBOZ@)"],"quality":"webdl","translation":"Любительский (многоголосый закадровый) (@MUZOBOZ@)","update":"2021-02-11 21:39:12","iframe_src":"//5322.svetacdn.in/si4jsFRrtgrT/movie/47853"},{"id":47850,"title":"Показалось","kp_id":"1388519","imdb_id":"tt13986202","world_art_id":null,"type":"movie","add":"2021-02-11 16:13:44","orig_title":"Pokazalos","year":"2020-09-14","translations":["Оригинальная дорожка"],"quality":"webdl","translation":"Оригинальная дорожка","update":"2021-02-11 16:52:00","iframe_src":"//5322.svetacdn.in/si4jsFRrtgrT/movie/47850"},{"id":47847,"title":"До/во время/после","kp_id":"1030277","imdb_id":"tt6393674","world_art_id":null,"type":"movie","add":"2021-02-11 15:44:33","orig_title":"Before/During/After","year":"2020-08-07","translations":["Любительский (многоголосый закадровый) (Синема УС)"],"quality":"webdl","translation":"Любительский (многоголосый закадровый) (Синема УС)","update":"2021-02-11 21:53:56","iframe_src":"//5322.svetacdn.in/si4jsFRrtgrT/movie/47847"},{"id":47846,"title":"Хэл Кинг","kp_id":null,"imdb_id":"tt6154708","world_art_id":null,"type":"movie","add":"2021-02-11 15:42:51","orig_title":"Hal King","year":"2021-02-09","translations":["Любительский (многоголосый закадровый) (Синема УС)"],"quality":"webdl","translation":"Любительский (многоголосый закадровый) (Синема УС)","update":"2021-02-11 21:55:16","iframe_src":"//5322.svetacdn.in/si4jsFRrtgrT/movie/47846"},{"id":47841,"title":"45 дней до богадства","kp_id":"1166149","imdb_id":"tt8540590","world_art_id":null,"type":"movie","add":"2021-02-11 11:08:17","orig_title":"45 Days to Be Rich","year":"2021-02-02","translations":["Любительский (многоголосый закадровый) (Синема УС)"],"quality":"webdl","translation":"Любительский (многоголосый закадровый) (Синема УС)","update":"2021-02-11 21:08:04","iframe_src":"//5322.svetacdn.in/si4jsFRrtgrT/movie/47841"},{"id":47840,"title":"Любить тебя как следует: R&B - мюзикл","kp_id":"1371979","imdb_id":"tt12145636","world_art_id":null,"type":"movie","add":"2021-02-11 11:04:04","orig_title":"Love You Right","year":"2021-02-09","translations":["Любительский (многоголосый закадровый) (Синема УС)"],"quality":"webdl","translation":"Любительский (многоголосый закадровый) (Синема УС)","update":"2021-02-11 16:36:00","iframe_src":"//5322.svetacdn.in/si4jsFRrtgrT/movie/47840"},{"id":47838,"title":"Легенда долины Фолл-Крик","kp_id":"1395967","imdb_id":"tt12747444","world_art_id":null,"type":"movie","add":"2021-02-11 11:00:47","orig_title":"Legend of Fall Creek","year":"2021-01-01","translations":["Любительский (многоголосый закадровый) (@MUZOBOZ@)"],"quality":"webdl","translation":"Любительский (многоголосый закадровый) (@MUZOBOZ@)","update":"2021-02-11 16:35:38","iframe_src":"//5322.svetacdn.in/si4jsFRrtgrT/movie/47838"},{"id":47811,"title":"Когда Приходит Свет","kp_id":"1037359","imdb_id":"tt6157780","world_art_id":null,"type":"movie","add":"2021-02-10 13:25:42","orig_title":"The Wake of Light","year":"2021-01-15","translations":["Любительский (многоголосый закадровый) (Синема УС)"],"quality":"webdl","translation":"Любительский (многоголосый закадровый) (Синема УС)","update":"2021-02-11 14:02:00","iframe_src":"//5322.svetacdn.in/si4jsFRrtgrT/movie/47811"},{"id":47783,"title":"Срок действия","kp_id":"1065720","imdb_id":"tt7008412","world_art_id":null,"type":"movie","add":"2021-02-09 07:59:06","orig_title":"Expiry","year":"2021-02-09","translations":["Original (English)","Любительский (многоголосый закадровый) (AlphaProject)"],"quality":"webdl","translation":"Original (English)","update":"2021-02-11 16:55:26","iframe_src":"//5322.svetacdn.in/si4jsFRrtgrT/movie/47783"},{"id":46752,"title":"Все ждут Рождества 2: Люси и магический кристалл","kp_id":"1292938","imdb_id":"tt10733770","world_art_id":null,"type":"movie","add":"2021-01-06 20:39:59","orig_title":"Julemandens datter 2","year":"2020-11-12","translations":["Полное дублирование (iTunes)"],"quality":"webdl","translation":"Полное дублирование (iTunes)","update":"2021-02-11 12:33:32","iframe_src":"//5322.svetacdn.in/si4jsFRrtgrT/movie/46752"},{"id":46736,"title":"Конь Юлий и большие скачки","kp_id":"1113011","imdb_id":"tt13811736","world_art_id":null,"type":"movie","add":"2021-01-06 08:16:07","orig_title":"Horse Julius and Big Horse Racing","year":"2020-12-31","translations":["Оригинальная дорожка"],"quality":"webdl","translation":"Оригинальная дорожка","update":"2021-02-11 14:13:20","iframe_src":"//5322.svetacdn.in/si4jsFRrtgrT/movie/46736"},{"id":45304,"title":"Проклятый дом","kp_id":"263530","imdb_id":"tt0756672","world_art_id":null,"type":"movie","add":"2020-11-14 17:24:53","orig_title":"The Killing Floor","year":"2007-03-14","translations":["Original (English)","Профессиональный (многоголосый закадровый)"],"quality":"webdl","translation":"Original (English)","update":"2021-02-11 21:43:51","iframe_src":"//5322.svetacdn.in/si4jsFRrtgrT/movie/45304"},{"id":7656,"title":"44 котёнка","kp_id":"1252965","imdb_id":"tt9699148","world_art_id":null,"type":"serial","add":"2020-05-28 13:03:40","orig_title":"44 Gatti","year":"2018-11-12","translations":["Полное дублирование (Netflix)"],"seasons_count":1,"episodes_count":26,"episodes":26,"update":"2020-05-28 20:57:16","iframe_src":"//5322.svetacdn.in/si4jsFRrtgrT/tv-series/7656"},{"id":7649,"title":"История одной любви","kp_id":"784433","imdb_id":"tt2972020","world_art_id":null,"type":"serial","add":"2020-05-27 08:55:06","orig_title":"Bir Ask Hikayesi","year":"2013-01-01","translations":["Профессиональный (многоголосый закадровый) (Astana TV)"],"seasons_count":1,"episodes_count":36,"episodes":36,"update":"2020-05-28 15:51:23","iframe_src":"//5322.svetacdn.in/si4jsFRrtgrT/tv-series/7649"},{"id":7648,"title":"Заключённый №1","kp_id":"1246475","imdb_id":"tt9893062","world_art_id":null,"type":"serial","add":"2020-05-27 08:34:51","orig_title":"Preso No. 1","year":"2019-07-31","translations":["Любительский (многоголосый закадровый) (Octopus)"],"seasons_count":1,"episodes_count":64,"episodes":64,"update":"2020-05-29 15:18:42","iframe_src":"//5322.svetacdn.in/si4jsFRrtgrT/tv-series/7648"},{"id":7633,"title":"Цвет черемухи","kp_id":"628882","imdb_id":"tt4083552","world_art_id":null,"type":"serial","add":"2020-05-26 06:30:47","orig_title":"Tsvet cheremukhi","year":"2012-08-13","translations":["Оригинальная дорожка"],"seasons_count":1,"episodes_count":16,"episodes":16,"update":"2020-05-28 17:32:48","iframe_src":"//5322.svetacdn.in/si4jsFRrtgrT/tv-series/7633"},{"id":7623,"title":"Черный хлеб","kp_id":"935907","imdb_id":"tt6363168","world_art_id":null,"type":"serial","add":"2020-05-25 08:17:24","orig_title":"Kara Ekmek","year":"2015-02-04","translations":["Авторский (одноголосый закадровый) (Котова Ирина)"],"seasons_count":1,"episodes_count":22,"episodes":22,"update":"2020-05-28 15:58:51","iframe_src":"//5322.svetacdn.in/si4jsFRrtgrT/tv-series/7623"},{"id":7622,"title":"Безмолвие","kp_id":"707359","imdb_id":"tt2275071","world_art_id":null,"type":"serial","add":"2020-05-25 08:03:23","orig_title":"Suskunlar","year":"2012-03-01","translations":["Любительский (одноголосый закадровый)"],"seasons_count":1,"episodes_count":16,"episodes":16,"update":"2020-05-28 18:32:44","iframe_src":"//5322.svetacdn.in/si4jsFRrtgrT/tv-series/7622"},{"id":7613,"title":"Джонни Браво","kp_id":"229266","imdb_id":"tt0118360","world_art_id":null,"type":"serial","add":"2020-05-24 09:41:46","orig_title":"Johnny Bravo","year":"1997-12-22","translations":["Полное дублирование"],"seasons_count":4,"episodes_count":107,"episodes":10,"update":"2020-05-29 10:07:35","iframe_src":"//5322.svetacdn.in/si4jsFRrtgrT/tv-series/7613"},{"id":7606,"title":"Мумия","kp_id":"229599","imdb_id":"tt0281471","world_art_id":null,"type":"serial","add":"2020-05-23 10:56:28","orig_title":"The Mummy","year":"2001-09-29","translations":["Полное дублирование"],"seasons_count":2,"episodes_count":26,"episodes":13,"update":"2020-05-29 10:17:46","iframe_src":"//5322.svetacdn.in/si4jsFRrtgrT/tv-series/7606"},{"id":7604,"title":"Планета динозавров","kp_id":"648762","imdb_id":"tt1998816","world_art_id":null,"type":"serial","add":"2020-05-23 10:27:36","orig_title":"Planet Dinosaur","year":"2011-09-14","translations":["Авторский (одноголосый закадровый) (Курдов Владимир)"],"seasons_count":1,"episodes_count":6,"episodes":6,"update":"2020-05-28 20:30:33","iframe_src":"//5322.svetacdn.in/si4jsFRrtgrT/tv-series/7604"},{"id":7563,"title":"Годзилла","kp_id":"229083","imdb_id":"tt0177443","world_art_id":null,"type":"serial","add":"2020-05-18 18:33:27","orig_title":"Godzilla: The Series","year":"1998-09-12","translations":["Полное дублирование (СТС)"],"seasons_count":2,"episodes_count":40,"episodes":19,"update":"2020-05-28 21:11:46","iframe_src":"//5322.svetacdn.in/si4jsFRrtgrT/tv-series/7563"},{"id":7561,"title":"Дворняги","kp_id":"574252","imdb_id":"tt1678749","world_art_id":null,"type":"serial","add":"2020-05-18 18:03:05","orig_title":"Mongrels","year":"2010-06-22","translations":["Профессиональный (двухголосый закадровый) (Кубик в Кубе)","Профессиональный (многоголосый закадровый) (2x2)"],"seasons_count":2,"episodes_count":17,"episodes":9,"update":"2020-05-28 20:44:05","iframe_src":"//5322.svetacdn.in/si4jsFRrtgrT/tv-series/7561"},{"id":7536,"title":"Бэтмен","kp_id":"229778","imdb_id":"tt0398417","world_art_id":null,"type":"serial","add":"2020-05-16 16:01:28","orig_title":"The Batman","year":"2004-09-11","translations":["Профессиональный (многоголосый закадровый) (НТВ)","Любительский (одноголосый закадровый)"],"seasons_count":5,"episodes_count":61,"episodes":9,"update":"2020-05-28 20:59:18","iframe_src":"//5322.svetacdn.in/si4jsFRrtgrT/tv-series/7536"},{"id":7535,"title":"Звездные бои насмерть","kp_id":"386652","imdb_id":"tt0208614","world_art_id":null,"type":"serial","add":"2020-05-16 15:23:15","orig_title":"Celebrity Deathmatch","year":"1998-01-25","translations":["Профессиональный (многоголосый закадровый)"],"seasons_count":6,"episodes_count":72,"episodes":8,"update":"2020-05-28 20:25:14","iframe_src":"//5322.svetacdn.in/si4jsFRrtgrT/tv-series/7535"},{"id":7524,"title":"Шпионка","kp_id":"1259495","imdb_id":"tt10204806","world_art_id":null,"type":"serial","add":"2020-05-15 14:21:40","orig_title":"A Espia","year":"2020-04-08","translations":["Любительский (многоголосый закадровый) (Octopus)","Любительский (многоголосый закадровый) (ColdFilm)"],"seasons_count":1,"episodes_count":8,"episodes":8,"update":"2020-05-28 21:29:57","iframe_src":"//5322.svetacdn.in/si4jsFRrtgrT/tv-series/7524"},{"id":7358,"title":"Мелроуз Плэйс","kp_id":"220047","imdb_id":"tt0103491","world_art_id":null,"type":"serial","add":"2020-05-01 07:22:25","orig_title":"Melrose Place","year":"1997-09-22","translations":["Полное дублирование"],"seasons_count":7,"episodes_count":206,"episodes":25,"update":"2020-05-28 17:35:04","iframe_src":"//5322.svetacdn.in/si4jsFRrtgrT/tv-series/7358"},{"id":6741,"title":"Трансплантация","kp_id":"1304516","imdb_id":"tt10936342","world_art_id":null,"type":"serial","add":"2020-02-27 15:16:39","orig_title":"Transplant","year":"2020-02-27","translations":["Любительский (многоголосый закадровый) (ColdFilm)","Любительский (многоголосый закадровый) (Octopus)"],"seasons_count":1,"episodes_count":13,"episodes":13,"update":"2020-05-28 21:00:26","iframe_src":"//5322.svetacdn.in/si4jsFRrtgrT/tv-series/6741"},{"id":4957,"title":"Неизвестная планета Земля","kp_id":"1108508","imdb_id":"tt7651892","world_art_id":null,"type":"serial","add":"2019-07-27 19:32:27","orig_title":"One Strange Rock","year":"2018-03-26","translations":["Профессиональный (многоголосый закадровый) (AMS)","Профессиональный (многоголосый закадровый) (HDrezka Studio)"],"seasons_count":1,"episodes_count":10,"episodes":10,"update":"2020-05-29 11:16:45","iframe_src":"//5322.svetacdn.in/si4jsFRrtgrT/tv-series/4957"},{"id":20290,"title":"Утойя. Выстрелы Брейвика","kp_id":"1112681","imdb_id":"tt7959216","world_art_id":null,"type":"movie","add":"2018-11-25 20:52:23","orig_title":"Utøya 22. juli","year":"2018-02-19","translations":["Любительский (многоголосый закадровый) (GreenРай Studio)","Профессиональный (многоголосый закадровый) (GreenРай Studio)","Профессиональный (многоголосый закадровый) (iTunes)"],"quality":"webdl","translation":"Любительский (многоголосый закадровый) (GreenРай Studio)","update":"2021-02-11 15:12:22","iframe_src":"//5322.svetacdn.in/si4jsFRrtgrT/movie/20290"},{"id":2623,"title":"Лабиринты судьбы","kp_id":"844020","imdb_id":"tt6421020","world_art_id":null,"type":"serial","add":"2018-05-23 04:35:41","orig_title":"Labirinty sudby","year":"2014-11-22","translations":["Оригинальная дорожка"],"seasons_count":1,"episodes_count":2,"episodes":2,"update":"2020-05-28 14:17:43","iframe_src":"//5322.svetacdn.in/si4jsFRrtgrT/tv-series/2623"},{"id":11399,"title":"Богатей","kp_id":"819116","imdb_id":"tt3405236","world_art_id":null,"type":"movie","add":"2017-05-05 06:05:46","orig_title":"Raees","year":"2017-01-25","translations":["Любительский (двухголосый закадровый)","Профессиональный (многоголосый закадровый) (ZEE TV)"],"quality":"bd","translation":"Любительский (двухголосый закадровый)","update":"2021-02-11 16:40:06","iframe_src":"//5322.svetacdn.in/si4jsFRrtgrT/movie/11399"},{"id":702,"title":"Леди Баг и Супер-кот","kp_id":"958607","imdb_id":"tt2580046","world_art_id":null,"type":"serial","add":"2016-12-17 09:09:34","orig_title":"Miraculous: Tales of Ladybug & Cat Noir","year":"2015-10-19","translations":["Полное дублирование","Любительский (многоголосый закадровый) (AniMaunt)"],"seasons_count":3,"episodes_count":78,"episodes":50,"update":"2020-05-29 13:05:05","iframe_src":"//5322.svetacdn.in/si4jsFRrtgrT/tv-series/702"},{"id":6491,"title":"Перекресток","kp_id":"32560","imdb_id":"tt0090888","world_art_id":null,"type":"movie","add":"2016-10-20 05:33:39","orig_title":"Crossroads","year":"1986-03-14","translations":["Профессиональный (многоголосый закадровый)","Профессиональный (многоголосый закадровый)","Авторский (одноголосый закадровый) (Кашкин Александр | Первомайский)","Авторский (одноголосый закадровый) (Королёв Владимир)","Original (English)","Любительский (одноголосый закадровый)","Профессиональный (одноголосый закадровый) (Видеофильм ТВ)","Профессиональный (двухголосый закадровый) (Tycoon)"],"quality":"hdtv","translation":"Профессиональный (многоголосый закадровый)","update":"2021-02-11 10:37:30","iframe_src":"//5322.svetacdn.in/si4jsFRrtgrT/movie/6491"},{"id":5748,"title":"Сеть","kp_id":"6132","imdb_id":"tt0113957","world_art_id":null,"type":"movie","add":"2016-10-02 18:22:55","orig_title":"The Net","year":"1995-07-28","translations":["Полное дублирование","Авторский (одноголосый закадровый) (Карцев Пётр)","Авторский (одноголосый закадровый) (Визгунов Сергей)","Авторский (одноголосый закадровый) (Живов Юрий)","Полное дублирование","Original (English)","Профессиональный (многоголосый закадровый) (D2Lab)","Профессиональный (многоголосый закадровый) (НТВ)","Профессиональный (многоголосый закадровый) (РТР | Россия)","Профессиональный (многоголосый закадровый) (Видеосервис)"],"quality":"bd","translation":"Полное дублирование","update":"2021-02-11 15:33:03","iframe_src":"//5322.svetacdn.in/si4jsFRrtgrT/movie/5748"},{"id":3981,"title":"Во власти Луны","kp_id":"20586","imdb_id":"tt0093565","world_art_id":null,"type":"movie","add":"2016-07-16 02:44:12","orig_title":"Moonstruck","year":"1987-12-01","translations":["Профессиональный (многоголосый закадровый)","Авторский (одноголосый закадровый) (Дохалов Вартан)","Авторский (одноголосый закадровый) (Михалёв Алексей)","Полное дублирование (Хлопушка)","Original (English)","Профессиональный (двухголосый закадровый) (НТВ)","Профессиональный (многоголосый закадровый) (Варус-Видео)","Профессиональный (многоголосый закадровый)","Профессиональный (многоголосый закадровый) (СВ-Дубль)"],"quality":"bd","translation":"Профессиональный (многоголосый закадровый)","update":"2021-02-11 11:56:01","iframe_src":"//5322.svetacdn.in/si4jsFRrtgrT/movie/3981"},{"id":2752,"title":"Рыбка по имени Ванда","kp_id":"6673","imdb_id":"tt0095159","world_art_id":null,"type":"movie","add":"2016-05-31 06:51:33","orig_title":"A Fish Called Wanda","year":"1988-07-07","translations":["Профессиональный (двухголосый закадровый)","Профессиональный (многоголосый закадровый)","Авторский (одноголосый закадровый) (Горчаков Василий)","Авторский (одноголосый закадровый) (Матвеев Алексей | Doctor Joker)","Авторский (одноголосый закадровый) (Михалёв Алексей)","Авторский (одноголосый закадровый) (Сонькин Владимир)","Original (English)","Профессиональный (двухголосый закадровый) (НТВ)","Профессиональный (двухголосый закадровый) (SDI Media)","Профессиональный (двухголосый закадровый) (СВ-Дубль)","Профессиональный (многоголосый закадровый) (Варус-Видео)","Профессиональный (многоголосый закадровый) (Фортуна-Фильм)","Профессиональный (многоголосый закадровый) (Первый канал | ОРТ)","Профессиональный (многоголосый закадровый) (Позитив)","Профессиональный (многоголосый закадровый) (SDI Media)"],"quality":"bd","translation":"Профессиональный (двухголосый закадровый)","update":"2021-02-11 11:44:44","iframe_src":"//5322.svetacdn.in/si4jsFRrtgrT/movie/2752"},{"id":2066,"title":"Все леди делают это","kp_id":"64038","imdb_id":"tt0104014","world_art_id":null,"type":"movie","add":"2016-05-11 14:09:51","orig_title":"Così fan tutte","year":"1992-02-21","translations":["Профессиональный (многоголосый закадровый)","Авторский (одноголосый закадровый) (Дьяков Сергей)","Авторский (одноголосый закадровый) (Сербин Юрий)","Авторский (одноголосый закадровый) (Володарский Леонид)","Профессиональный (двухголосый закадровый)"],"quality":"bd","translation":"Профессиональный (многоголосый закадровый)","update":"2021-02-11 10:19:57","iframe_src":"//5322.svetacdn.in/si4jsFRrtgrT/movie/2066"},{"id":1822,"title":"Эйр Америка","kp_id":"15060","imdb_id":"tt0099005","world_art_id":null,"type":"movie","add":"2016-05-03 16:07:46","orig_title":"Air America","year":"1990-08-10","translations":["Профессиональный (многоголосый закадровый)","Авторский (одноголосый закадровый) (Горчаков Василий)","Авторский (одноголосый закадровый) (Либергал Григорий)","Авторский (одноголосый закадровый) (Матвеев Алексей | Doctor Joker)","Авторский (одноголосый закадровый) (Визгунов Сергей)","Original (English)","Профессиональный (многоголосый закадровый) (Amalgama)","Профессиональный (многоголосый закадровый) (Первый канал | ОРТ)"],"quality":"bd","translation":"Профессиональный (многоголосый закадровый)","update":"2021-02-11 10:29:45","iframe_src":"//5322.svetacdn.in/si4jsFRrtgrT/movie/1822"},{"id":61,"title":"Сумеречные охотники","kp_id":"893830","imdb_id":"tt4145054","world_art_id":null,"type":"serial","add":"2016-04-22 07:24:11","orig_title":"Shadowhunters","year":"2016-01-12","translations":["Профессиональный (многоголосый закадровый) (OMSKBIRD records)","Профессиональный (многоголосый закадровый) (NewStudio)","Полное дублирование (RuFilms)","Любительский (двухголосый закадровый) (NEON Studio)"],"seasons_count":3,"episodes_count":55,"episodes":22,"update":"2020-05-29 10:27:57","iframe_src":"//5322.svetacdn.in/si4jsFRrtgrT/tv-series/61"}],"current_page":201,"first_page_url":"https://videocdn.tv/api/short?limit=100&api_token=X6EwAUfE5M9xbo7y0Bp0aPf3uXxG2KLL&cache3201=3201&page=1","from":20001,"last_page":620,"last_page_url":"https://videocdn.tv/api/short?limit=100&api_token=X6EwAUfE5M9xbo7y0Bp0aPf3uXxG2KLL&cache3201=3201&page=620","next_page_url":"https://videocdn.tv/api/short?limit=100&api_token=X6EwAUfE5M9xbo7y0Bp0aPf3uXxG2KLL&cache3201=3201&page=202","path":"https://videocdn.tv/api/short","per_page":100,"prev_page_url":"https://videocdn.tv/api/short?limit=100&api_token=X6EwAUfE5M9xbo7y0Bp0aPf3uXxG2KLL&cache3201=3201&page=200","to":20040,"total":62000}