{"result":true,"data":[{"id":42823,"title":"Ради жизни","kp_id":"1394470","imdb_id":"tt12708816","world_art_id":null,"type":"movie","add":"2020-08-27 09:07:50","orig_title":"Nicht tot zu kriegen","year":"2020-08-05","translations":["Любительский (многоголосый закадровый) (Синема УС)"],"quality":"hdtv","translation":"Любительский (многоголосый закадровый) (Синема УС)","update":"2020-08-27 11:34:52","iframe_src":"//83.svetacdn.in/PfJ50H0ZBPg3/movie/42823"},{"id":42822,"title":"Микель","kp_id":"877259","imdb_id":"tt4157058","world_art_id":null,"type":"movie","add":"2020-08-27 08:51:47","orig_title":"Mihkel","year":"2018-10-02","translations":["Любительский (многоголосый закадровый) (AlphaProject)"],"quality":"webdl","translation":"Любительский (многоголосый закадровый) (AlphaProject)","update":"2020-08-27 11:34:20","iframe_src":"//83.svetacdn.in/PfJ50H0ZBPg3/movie/42822"},{"id":42819,"title":"С голыми руками","kp_id":"1255833","imdb_id":"tt10115638","world_art_id":null,"type":"movie","add":"2020-08-27 08:19:50","orig_title":"A mano disarmata","year":"2019-06-06","translations":["Любительский (многоголосый закадровый) (Синема УС)"],"quality":"bd","translation":"Любительский (многоголосый закадровый) (Синема УС)","update":"2020-08-27 09:47:41","iframe_src":"//83.svetacdn.in/PfJ50H0ZBPg3/movie/42819"},{"id":42817,"title":"Хэппи-энд","kp_id":"994530","imdb_id":null,"world_art_id":null,"type":"movie","add":"2020-08-27 05:13:56","orig_title":"Хэппи-энд","year":"2020-08-01","translations":["Оригинальная дорожка"],"quality":"webdl","translation":"Оригинальная дорожка","update":"2020-08-27 08:22:25","iframe_src":"//83.svetacdn.in/PfJ50H0ZBPg3/movie/42817"},{"id":42815,"title":"Горбун из Сохо","kp_id":"152289","imdb_id":"tt0060192","world_art_id":null,"type":"movie","add":"2020-08-27 04:53:56","orig_title":"Der Bucklige von Soho","year":"1966-09-06","translations":["Профессиональный (многоголосый закадровый)"],"quality":"bd","translation":"Профессиональный (многоголосый закадровый)","update":"2020-08-27 08:21:39","iframe_src":"//83.svetacdn.in/PfJ50H0ZBPg3/movie/42815"},{"id":42814,"title":"Безмолвный талант","kp_id":"1103712","imdb_id":"tt6506478","world_art_id":null,"type":"movie","add":"2020-08-27 04:19:25","orig_title":"The Silent Natural","year":"2019-06-02","translations":["Любительский (многоголосый закадровый) (@MUZOBOZ@)"],"quality":"webdl","translation":"Любительский (многоголосый закадровый) (@MUZOBOZ@)","update":"2020-08-27 08:28:08","iframe_src":"//83.svetacdn.in/PfJ50H0ZBPg3/movie/42814"},{"id":42808,"title":"Заключённый","kp_id":"1390155","imdb_id":null,"world_art_id":null,"type":"movie","add":"2020-08-26 18:07:41","orig_title":"Peurijeuneo","year":"2020-07-23","translations":["Любительский (двухголосый закадровый) (Колобок)"],"quality":"webdl","translation":"Любительский (двухголосый закадровый) (Колобок)","update":"2020-08-26 20:13:00","iframe_src":"//83.svetacdn.in/PfJ50H0ZBPg3/movie/42808"},{"id":42807,"title":"Царь дрифта","kp_id":null,"imdb_id":"tt10302896","world_art_id":null,"type":"movie","add":"2020-08-26 11:48:04","orig_title":"The King of the Drift","year":"2017-07-30","translations":["Любительский (двухголосый закадровый) (Колобок)"],"quality":"webdl","translation":"Любительский (двухголосый закадровый) (Колобок)","update":"2020-08-26 14:21:33","iframe_src":"//83.svetacdn.in/PfJ50H0ZBPg3/movie/42807"},{"id":42806,"title":"Пребывание","kp_id":"1218665","imdb_id":"tt9228892","world_art_id":null,"type":"movie","add":"2020-08-26 11:36:41","orig_title":"Singsu","year":"2018-12-13","translations":["Любительский (многоголосый закадровый) (Синема УС)"],"quality":"webdl","translation":"Любительский (многоголосый закадровый) (Синема УС)","update":"2020-08-26 14:20:44","iframe_src":"//83.svetacdn.in/PfJ50H0ZBPg3/movie/42806"},{"id":42801,"title":"Комната №13","kp_id":"183767","imdb_id":"tt0058773","world_art_id":null,"type":"movie","add":"2020-08-26 08:28:05","orig_title":"Zimmer 13","year":"1964-02-20","translations":["Профессиональный (многоголосый закадровый) (5-й канал СПб)"],"quality":"bd","translation":"Профессиональный (многоголосый закадровый) (5-й канал СПб)","update":"2020-08-27 05:27:25","iframe_src":"//83.svetacdn.in/PfJ50H0ZBPg3/movie/42801"},{"id":42799,"title":"Тринадцать женщин","kp_id":"15416","imdb_id":"tt0023582","world_art_id":null,"type":"movie","add":"2020-08-26 05:34:12","orig_title":"Thirteen Women","year":"1932-09-16","translations":["Авторский (одноголосый закадровый) (Воронцов Владимир | Доцент)"],"quality":"dvdrip","translation":"Авторский (одноголосый закадровый) (Воронцов Владимир | Доцент)","update":"2020-08-26 14:23:03","iframe_src":"//83.svetacdn.in/PfJ50H0ZBPg3/movie/42799"},{"id":42798,"title":"Бесстыдник","kp_id":"897914","imdb_id":"tt4636022","world_art_id":null,"type":"movie","add":"2020-08-26 05:03:33","orig_title":"Mu-roe-han","year":"2015-05-15","translations":["Любительский (двухголосый закадровый) (Колобок)"],"quality":"bd","translation":"Любительский (двухголосый закадровый) (Колобок)","update":"2020-08-26 12:08:03","iframe_src":"//83.svetacdn.in/PfJ50H0ZBPg3/movie/42798"},{"id":42792,"title":"Место для жизни","kp_id":"1126268","imdb_id":"tt7928214","world_art_id":null,"type":"movie","add":"2020-08-25 20:16:29","orig_title":"Pour vivre ici","year":"2018-02-21","translations":["Любительский (многоголосый закадровый) (AlphaProject)"],"quality":"webdl","translation":"Любительский (многоголосый закадровый) (AlphaProject)","update":"2020-08-26 12:38:03","iframe_src":"//83.svetacdn.in/PfJ50H0ZBPg3/movie/42792"},{"id":42791,"title":"В каждый выходной по свадьбе","kp_id":"1399247","imdb_id":"tt12660882","world_art_id":null,"type":"movie","add":"2020-08-25 20:14:22","orig_title":"Wedding Every Weekend","year":"2020-08-15","translations":["Любительский (многоголосый закадровый) (Синема УС)"],"quality":"webdl","translation":"Любительский (многоголосый закадровый) (Синема УС)","update":"2020-08-26 12:24:19","iframe_src":"//83.svetacdn.in/PfJ50H0ZBPg3/movie/42791"},{"id":42790,"title":"Анджело","kp_id":"1052787","imdb_id":"tt7318102","world_art_id":null,"type":"movie","add":"2020-08-25 20:12:31","orig_title":"Angelo","year":"2018-09-08","translations":["Любительский (многоголосый закадровый) (Синема УС)"],"quality":"webdl","translation":"Любительский (многоголосый закадровый) (Синема УС)","update":"2020-08-26 11:28:43","iframe_src":"//83.svetacdn.in/PfJ50H0ZBPg3/movie/42790"},{"id":42789,"title":"Еще раз снова","kp_id":"1232776","imdb_id":"tt9641238","world_art_id":null,"type":"movie","add":"2020-08-25 20:09:45","orig_title":"De nuevo otra vez","year":"2019-01-29","translations":["Любительский (многоголосый закадровый) (Синема УС)"],"quality":"webdl","translation":"Любительский (многоголосый закадровый) (Синема УС)","update":"2020-08-26 18:04:01","iframe_src":"//83.svetacdn.in/PfJ50H0ZBPg3/movie/42789"},{"id":42786,"title":"Джоузи и Джек","kp_id":"1178419","imdb_id":"tt8789416","world_art_id":null,"type":"movie","add":"2020-08-25 20:05:25","orig_title":"Josie & Jack","year":"2019-10-24","translations":["Любительский (многоголосый закадровый) (@MUZOBOZ@)"],"quality":"webdl","translation":"Любительский (многоголосый закадровый) (@MUZOBOZ@)","update":"2020-08-26 18:02:16","iframe_src":"//83.svetacdn.in/PfJ50H0ZBPg3/movie/42786"},{"id":42779,"title":"Великий Мудрец, Равный Небу","kp_id":"1236064","imdb_id":"tt9698044","world_art_id":null,"type":"movie","add":"2020-08-25 19:51:56","orig_title":"The Great Sage Sun Wukong","year":"2019-02-01","translations":["Любительский (двухголосый закадровый) (Колобок)"],"quality":"webdl","translation":"Любительский (двухголосый закадровый) (Колобок)","update":"2020-08-26 18:03:24","iframe_src":"//83.svetacdn.in/PfJ50H0ZBPg3/movie/42779"},{"id":42536,"title":"#яздесь","kp_id":"1244394","imdb_id":"tt9828918","world_art_id":null,"type":"movie","add":"2020-08-17 17:48:40","orig_title":"#jesuislà","year":"2019-10-05","translations":["Профессиональный (многоголосый закадровый)","Полное дублирование (iTunes)"],"quality":"webdl","translation":"Профессиональный (многоголосый закадровый)","update":"2020-08-27 09:48:28","iframe_src":"//83.svetacdn.in/PfJ50H0ZBPg3/movie/42536"},{"id":2475,"title":"Святой Винсент","kp_id":"694646","imdb_id":"tt2170593","world_art_id":null,"type":"movie","add":"2016-05-23 13:12:14","orig_title":"St. Vincent","year":"2014-09-05","translations":["Любительский (одноголосый закадровый)","Полное дублирование"],"quality":"bd","translation":"Любительский (одноголосый закадровый)","update":"2020-08-27 05:27:05","iframe_src":"//83.svetacdn.in/PfJ50H0ZBPg3/movie/2475"}],"current_page":615,"first_page_url":"https://videocdn.tv/api/short?limit=100&api_token=RgFQdUIR2dRmwv8iYa5SnFNgnw3vpjKj&cache3615=3615&page=1","from":61401,"last_page":645,"last_page_url":"https://videocdn.tv/api/short?limit=100&api_token=RgFQdUIR2dRmwv8iYa5SnFNgnw3vpjKj&cache3615=3615&page=645","next_page_url":"https://videocdn.tv/api/short?limit=100&api_token=RgFQdUIR2dRmwv8iYa5SnFNgnw3vpjKj&cache3615=3615&page=616","path":"https://videocdn.tv/api/short","per_page":100,"prev_page_url":"https://videocdn.tv/api/short?limit=100&api_token=RgFQdUIR2dRmwv8iYa5SnFNgnw3vpjKj&cache3615=3615&page=614","to":61420,"total":64493}