{"result":true,"data":[{"id":47750,"title":"Ишвар","kp_id":"322943","imdb_id":"tt0924219","world_art_id":null,"type":"movie","add":"2021-02-08 10:04:59","orig_title":"Eeshwar","year":"2002-11-11","translations":["Любительский (одноголосый закадровый)  (zamez | Замез Вячеслав)"],"quality":"webdl","translation":"Любительский (одноголосый закадровый)  (zamez | Замез Вячеслав)","update":"2021-02-08 15:02:47","iframe_src":"//7923.svetacdn.in/IAF0wWTdNYZm/movie/47750"},{"id":47749,"title":"Стрелы Амура","kp_id":"760463","imdb_id":"tt2845796","world_art_id":null,"type":"movie","add":"2021-02-08 09:58:36","orig_title":"Attakathi","year":"2012-08-15","translations":["Профессиональный (многоголосый закадровый) (Индия ТВ)"],"quality":"webdl","translation":"Профессиональный (многоголосый закадровый) (Индия ТВ)","update":"2021-02-08 15:01:24","iframe_src":"//7923.svetacdn.in/IAF0wWTdNYZm/movie/47749"},{"id":47746,"title":"С первого взгляда","kp_id":"216227","imdb_id":"tt0285958","world_art_id":null,"type":"movie","add":"2021-02-08 09:31:49","orig_title":"Pyaar Ishq Aur Mohabbat","year":"2001-09-26","translations":["Профессиональный (многоголосый закадровый)"],"quality":"dvdrip","translation":"Профессиональный (многоголосый закадровый)","update":"2021-02-08 15:01:59","iframe_src":"//7923.svetacdn.in/IAF0wWTdNYZm/movie/47746"},{"id":47715,"title":"Музыка Верди","kp_id":"635975","imdb_id":"tt4202946","world_art_id":null,"type":"movie","add":"2021-02-07 14:40:14","orig_title":"Muzyka Verdi","year":"1961-10-01","translations":["Оригинальная дорожка"],"quality":"sat","translation":"Оригинальная дорожка","update":"2021-02-08 15:16:54","iframe_src":"//7923.svetacdn.in/IAF0wWTdNYZm/movie/47715"},{"id":47714,"title":"Записки сумасшедшего","kp_id":"497578","imdb_id":"tt5892150","world_art_id":null,"type":"movie","add":"2021-02-07 13:35:14","orig_title":"Zapiski sumasshedshego","year":"1968-01-28","translations":["Оригинальная дорожка"],"quality":"dvdrip","translation":"Оригинальная дорожка","update":"2021-02-08 15:14:17","iframe_src":"//7923.svetacdn.in/IAF0wWTdNYZm/movie/47714"},{"id":47713,"title":"Серебряные трубы","kp_id":"474665","imdb_id":"tt2942750","world_art_id":null,"type":"movie","add":"2021-02-07 13:31:27","orig_title":"Serebryanye truby","year":"1971-03-22","translations":["Оригинальная дорожка"],"quality":"tv","translation":"Оригинальная дорожка","update":"2021-02-08 15:12:08","iframe_src":"//7923.svetacdn.in/IAF0wWTdNYZm/movie/47713"},{"id":47712,"title":"Так начиналась легенда","kp_id":"42186","imdb_id":"tt0075304","world_art_id":null,"type":"movie","add":"2021-02-07 13:28:53","orig_title":"Tak nachinalas legenda","year":"1976-04-11","translations":["Оригинальная дорожка"],"quality":"tv","translation":"Оригинальная дорожка","update":"2021-02-08 15:11:12","iframe_src":"//7923.svetacdn.in/IAF0wWTdNYZm/movie/47712"},{"id":47711,"title":"Комэск","kp_id":"472200","imdb_id":"tt9357278","world_art_id":null,"type":"movie","add":"2021-02-07 13:25:03","orig_title":"Komesk","year":"1965-01-01","translations":["Оригинальная дорожка"],"quality":"vhs","translation":"Оригинальная дорожка","update":"2021-02-08 15:09:31","iframe_src":"//7923.svetacdn.in/IAF0wWTdNYZm/movie/47711"},{"id":47710,"title":"Золотые слова","kp_id":"668175","imdb_id":"tt7972470","world_art_id":null,"type":"movie","add":"2021-02-07 13:21:42","orig_title":"Zolotye Slova","year":"1989-01-01","translations":["Оригинальная дорожка"],"quality":"dvdrip","translation":"Оригинальная дорожка","update":"2021-02-08 15:08:39","iframe_src":"//7923.svetacdn.in/IAF0wWTdNYZm/movie/47710"},{"id":47665,"title":"Товарищ песня","kp_id":"477490","imdb_id":"tt8224806","world_art_id":null,"type":"movie","add":"2021-02-04 18:44:22","orig_title":"Tovarishch pesnya","year":"1966-08-01","translations":["Оригинальная дорожка"],"quality":"tv","translation":"Оригинальная дорожка","update":"2021-02-08 15:07:47","iframe_src":"//7923.svetacdn.in/IAF0wWTdNYZm/movie/47665"},{"id":47664,"title":"Парень из тайги","kp_id":"43213","imdb_id":"tt0189945","world_art_id":null,"type":"movie","add":"2021-02-04 18:40:59","orig_title":"Paren iz taygi","year":"1941-05-12","translations":["Оригинальная дорожка"],"quality":"webdl","translation":"Оригинальная дорожка","update":"2021-02-08 15:06:46","iframe_src":"//7923.svetacdn.in/IAF0wWTdNYZm/movie/47664"},{"id":47663,"title":"Охота на последнего журавля","kp_id":"1044438","imdb_id":"tt5674480","world_art_id":null,"type":"movie","add":"2021-02-04 18:37:51","orig_title":"Palyavanne na aposhnyaga zhuraulya","year":"1986-01-01","translations":["Оригинальная дорожка"],"quality":"iptv","translation":"Оригинальная дорожка","update":"2021-02-08 15:05:56","iframe_src":"//7923.svetacdn.in/IAF0wWTdNYZm/movie/47663"},{"id":47662,"title":"Наш честный хлеб","kp_id":"46327","imdb_id":"tt0172859","world_art_id":null,"type":"movie","add":"2021-02-04 18:34:58","orig_title":"Nash chestnyy khleb","year":"1964-12-07","translations":["Оригинальная дорожка"],"quality":"vhs","translation":"Оригинальная дорожка","update":"2021-02-08 15:05:13","iframe_src":"//7923.svetacdn.in/IAF0wWTdNYZm/movie/47662"},{"id":47660,"title":"Всего один поворот","kp_id":"491692","imdb_id":"tt2023810","world_art_id":null,"type":"movie","add":"2021-02-04 18:30:02","orig_title":"Vsego odin povorot","year":"1987-06-21","translations":["Оригинальная дорожка"],"quality":"tv","translation":"Оригинальная дорожка","update":"2021-02-08 15:04:43","iframe_src":"//7923.svetacdn.in/IAF0wWTdNYZm/movie/47660"},{"id":47659,"title":"Узнай меня","kp_id":"475016","imdb_id":"tt4971550","world_art_id":null,"type":"movie","add":"2021-02-04 18:27:42","orig_title":"Uznay menya","year":"1979-07-01","translations":["Оригинальная дорожка"],"quality":"dvdrip","translation":"Оригинальная дорожка","update":"2021-02-08 15:04:06","iframe_src":"//7923.svetacdn.in/IAF0wWTdNYZm/movie/47659"},{"id":47658,"title":"Утренняя музыка","kp_id":"627272","imdb_id":null,"world_art_id":null,"type":"movie","add":"2021-02-04 18:25:40","orig_title":"Утренняя музыка","year":"1974-01-01","translations":["Оригинальная дорожка"],"quality":"dvdrip","translation":"Оригинальная дорожка","update":"2021-02-08 15:03:23","iframe_src":"//7923.svetacdn.in/IAF0wWTdNYZm/movie/47658"},{"id":47657,"title":"Три рубля","kp_id":"43603","imdb_id":"tt0283075","world_art_id":null,"type":"movie","add":"2021-02-04 18:21:03","orig_title":"Sami maneti","year":"1976-06-01","translations":["Оригинальная дорожка"],"quality":"sat","translation":"Оригинальная дорожка","update":"2021-02-08 15:02:42","iframe_src":"//7923.svetacdn.in/IAF0wWTdNYZm/movie/47657"},{"id":5798,"title":"Трест, который лопнул","kp_id":"81473","imdb_id":"tt0134266","world_art_id":null,"type":"serial","add":"2019-11-21 20:21:29","orig_title":"Trest, kotoryy lopnul","year":"1983-03-18","translations":["Оригинальная дорожка"],"seasons_count":1,"episodes_count":3,"episodes":3,"update":"2019-11-22 11:46:01","iframe_src":"//7923.svetacdn.in/IAF0wWTdNYZm/tv-series/5798"},{"id":5797,"title":"Тени исчезают в полдень","kp_id":"256218","imdb_id":"tt1183616","world_art_id":null,"type":"serial","add":"2019-11-21 20:17:34","orig_title":"Teni ischezayut v polden","year":"1972-02-14","translations":["Оригинальная дорожка"],"seasons_count":1,"episodes_count":7,"episodes":7,"update":"2019-11-22 11:44:15","iframe_src":"//7923.svetacdn.in/IAF0wWTdNYZm/tv-series/5797"},{"id":5796,"title":"Обыкновенное чудо","kp_id":"77282","imdb_id":"tt0186408","world_art_id":null,"type":"serial","add":"2019-11-21 20:14:19","orig_title":"Obyknovennoe chudo","year":"1979-01-01","translations":["Оригинальная дорожка"],"seasons_count":1,"episodes_count":2,"episodes":2,"update":"2019-11-22 11:41:19","iframe_src":"//7923.svetacdn.in/IAF0wWTdNYZm/tv-series/5796"},{"id":5795,"title":"Крах инженера Гарина","kp_id":"77279","imdb_id":"tt0069601","world_art_id":null,"type":"serial","add":"2019-11-21 20:11:21","orig_title":"Krakh inzhenera Garina","year":"1973-10-15","translations":["Оригинальная дорожка"],"seasons_count":1,"episodes_count":4,"episodes":4,"update":"2019-11-22 11:40:17","iframe_src":"//7923.svetacdn.in/IAF0wWTdNYZm/tv-series/5795"},{"id":5793,"title":"Зелёные яйца с ветчиной","kp_id":"1135811","imdb_id":"tt4651448","world_art_id":null,"type":"serial","add":"2019-11-21 12:27:34","orig_title":"Green Eggs and Ham","year":"2019-11-08","translations":["Полное дублирование (Пифагор)"],"seasons_count":1,"episodes_count":13,"episodes":13,"update":"2019-11-21 21:03:48","iframe_src":"//7923.svetacdn.in/IAF0wWTdNYZm/tv-series/5793"},{"id":5792,"title":"Абстракция: Искусство дизайна","kp_id":"1008939","imdb_id":"tt6333098","world_art_id":null,"type":"serial","add":"2019-11-21 12:04:53","orig_title":"Abstract: The Art of Design","year":"2017-02-10","translations":["Профессиональный (многоголосый закадровый)","Профессиональный (многоголосый закадровый) (VSI Moscow)"],"seasons_count":2,"episodes_count":14,"episodes":6,"update":"2019-11-22 07:10:17","iframe_src":"//7923.svetacdn.in/IAF0wWTdNYZm/tv-series/5792"},{"id":5790,"title":"От «А» до «Я»","kp_id":"804667","imdb_id":"tt3216682","world_art_id":null,"type":"serial","add":"2019-11-21 11:53:34","orig_title":"A to Z","year":"2014-10-02","translations":["Профессиональный (многоголосый закадровый) (AlexFilm)"],"seasons_count":1,"episodes_count":13,"episodes":13,"update":"2019-11-22 15:29:47","iframe_src":"//7923.svetacdn.in/IAF0wWTdNYZm/tv-series/5790"},{"id":5789,"title":"Красные дубы","kp_id":"842220","imdb_id":"tt3973820","world_art_id":null,"type":"serial","add":"2019-11-21 11:39:11","orig_title":"Red Oaks","year":"2014-08-28","translations":["Профессиональный (многоголосый закадровый) (BaibaKo)"],"seasons_count":3,"episodes_count":26,"episodes":6,"update":"2019-11-21 20:00:13","iframe_src":"//7923.svetacdn.in/IAF0wWTdNYZm/tv-series/5789"},{"id":5782,"title":"На зов скорби","kp_id":"731696","imdb_id":"tt2521668","world_art_id":null,"type":"serial","add":"2019-11-20 15:54:39","orig_title":"Les Revenants","year":"2012-11-26","translations":["Профессиональный (многоголосый закадровый) (Agatha Studdio)","Профессиональный (многоголосый закадровый) (AlexFilm)"],"seasons_count":2,"episodes_count":16,"episodes":8,"update":"2019-11-21 08:36:29","iframe_src":"//7923.svetacdn.in/IAF0wWTdNYZm/tv-series/5782"},{"id":5781,"title":"Люблю тебя с первого взгляда","kp_id":"1228688","imdb_id":"tt10101272","world_art_id":null,"type":"serial","add":"2019-11-20 12:17:39","orig_title":"Chomyeone Saranghamnida","year":"2019-05-06","translations":["Любительский (двухголосый закадровый) (SoftBox)"],"seasons_count":1,"episodes_count":16,"episodes":16,"update":"2019-11-21 20:47:07","iframe_src":"//7923.svetacdn.in/IAF0wWTdNYZm/tv-series/5781"},{"id":5780,"title":"Что случилось, Пхун-сан?","kp_id":"1206355","imdb_id":"tt9466856","world_art_id":null,"type":"serial","add":"2019-11-20 11:32:58","orig_title":"Waegeurae Pungsangssi","year":"2019-01-09","translations":["Любительский (двухголосый закадровый) (SoftBox)"],"seasons_count":1,"episodes_count":20,"episodes":20,"update":"2019-11-20 21:35:30","iframe_src":"//7923.svetacdn.in/IAF0wWTdNYZm/tv-series/5780"},{"id":5779,"title":"Школа «Черная дыра»","kp_id":"255688","imdb_id":"tt0337539","world_art_id":null,"type":"serial","add":"2019-11-19 18:26:21","orig_title":"Strange Days at Blake Holsey High","year":"2002-10-05","translations":["Профессиональный (двухголосый закадровый)","Любительский (двухголосый закадровый)"],"seasons_count":4,"episodes_count":40,"episodes":1,"update":"2019-11-20 21:21:55","iframe_src":"//7923.svetacdn.in/IAF0wWTdNYZm/tv-series/5779"},{"id":5778,"title":"Прекрасный мир","kp_id":"1219937","imdb_id":"tt9863724","world_art_id":null,"type":"serial","add":"2019-11-19 18:19:30","orig_title":"Areumdaun Sesang","year":"2019-04-05","translations":["Любительский (двухголосый закадровый) (SoftBox)"],"seasons_count":1,"episodes_count":16,"episodes":16,"update":"2019-11-20 21:01:55","iframe_src":"//7923.svetacdn.in/IAF0wWTdNYZm/tv-series/5778"},{"id":5777,"title":"Счастливый конец","kp_id":"506140","imdb_id":"tt1587678","world_art_id":null,"type":"serial","add":"2019-11-19 18:05:58","orig_title":"Happy Endings","year":"2011-04-13","translations":["Профессиональный (многоголосый закадровый) (Fox Life)"],"seasons_count":3,"episodes_count":57,"episodes":22,"update":"2019-11-20 20:50:48","iframe_src":"//7923.svetacdn.in/IAF0wWTdNYZm/tv-series/5777"},{"id":5775,"title":"Вуншпунш","kp_id":"418903","imdb_id":"tt0362384","world_art_id":null,"type":"serial","add":"2019-11-19 15:44:06","orig_title":"Wunschpunsch","year":"2001-11-09","translations":["Полное дублирование (ТВ3)"],"seasons_count":2,"episodes_count":52,"episodes":26,"update":"2019-11-21 08:02:23","iframe_src":"//7923.svetacdn.in/IAF0wWTdNYZm/tv-series/5775"},{"id":5558,"title":"Полярный","kp_id":"1207237","imdb_id":null,"world_art_id":null,"type":"serial","add":"2019-10-28 17:43:34","orig_title":"Полярный","year":"2019-10-28","translations":["Оригинальная дорожка"],"seasons_count":1,"episodes_count":14,"episodes":14,"update":"2019-11-22 11:42:37","iframe_src":"//7923.svetacdn.in/IAF0wWTdNYZm/tv-series/5558"},{"id":5465,"title":"Условный мент","kp_id":"1309198","imdb_id":null,"world_art_id":null,"type":"serial","add":"2019-10-14 15:28:38","orig_title":"Условный мент","year":"2019-10-14","translations":["Оригинальная дорожка"],"seasons_count":1,"episodes_count":24,"episodes":24,"update":"2019-11-22 17:06:19","iframe_src":"//7923.svetacdn.in/IAF0wWTdNYZm/tv-series/5465"},{"id":4905,"title":"Печатная машинка","kp_id":"1278187","imdb_id":"tt9310372","world_art_id":null,"type":"serial","add":"2019-07-22 03:25:24","orig_title":"Typewriter","year":"2019-07-19","translations":["Любительский (многоголосый закадровый) (OnisFilms)","Профессиональный (многоголосый закадровый) (TVShows)"],"seasons_count":1,"episodes_count":5,"episodes":5,"update":"2019-11-22 17:05:14","iframe_src":"//7923.svetacdn.in/IAF0wWTdNYZm/tv-series/4905"},{"id":24308,"title":"Белый рояль","kp_id":"46074","imdb_id":"tt0312454","world_art_id":null,"type":"movie","add":"2019-04-11 19:30:09","orig_title":"Belyy royal","year":"1969-06-30","translations":["Оригинальная дорожка","Оригинальная дорожка"],"quality":"tv","translation":"Оригинальная дорожка","update":"2021-02-08 15:13:09","iframe_src":"//7923.svetacdn.in/IAF0wWTdNYZm/movie/24308"},{"id":18348,"title":"Ловушка для одинокого мужчины","kp_id":"45121","imdb_id":"tt0100069","world_art_id":null,"type":"movie","add":"2018-08-16 13:25:12","orig_title":"Lovushka dlya odinokogo muzhchiny","year":"1990-12-01","translations":["Оригинальная дорожка","Оригинальная дорожка"],"quality":"hdtv","translation":"Оригинальная дорожка","update":"2021-02-08 15:10:31","iframe_src":"//7923.svetacdn.in/IAF0wWTdNYZm/movie/18348"},{"id":1741,"title":"Доктор Рихтер","kp_id":"991705","imdb_id":null,"world_art_id":null,"type":"serial","add":"2017-11-16 07:13:48","orig_title":"Доктор Рихтер","year":"2017-11-13","translations":["Оригинальная дорожка"],"seasons_count":3,"episodes_count":56,"episodes":16,"update":"2019-11-22 11:40:54","iframe_src":"//7923.svetacdn.in/IAF0wWTdNYZm/tv-series/1741"},{"id":7526,"title":"Летят журавли","kp_id":"7724","imdb_id":"tt0050634","world_art_id":null,"type":"movie","add":"2016-11-20 08:11:52","orig_title":"Letyat zhuravli","year":"1957-11-27","translations":["Оригинальная дорожка","Оригинальная дорожка"],"quality":"webdl","translation":"Оригинальная дорожка","update":"2021-02-08 15:16:00","iframe_src":"//7923.svetacdn.in/IAF0wWTdNYZm/movie/7526"},{"id":247,"title":"Тайны и ложь","kp_id":"838492","imdb_id":"tt3516878","world_art_id":null,"type":"serial","add":"2016-07-03 11:17:51","orig_title":"Secrets & Lies","year":"2015-03-01","translations":["Полное дублирование","Профессиональный (двухголосый закадровый) (Sunshine Studio)"],"seasons_count":2,"episodes_count":20,"episodes":10,"update":"2019-11-22 07:47:19","iframe_src":"//7923.svetacdn.in/IAF0wWTdNYZm/tv-series/247"}],"current_page":331,"first_page_url":"https://videocdn.tv/api/short?limit=100&api_token=6Onb1W1alEUrBcKJZD3GoKBbWyAl2uG2&cache3331=3331&page=1","from":33001,"last_page":644,"last_page_url":"https://videocdn.tv/api/short?limit=100&api_token=6Onb1W1alEUrBcKJZD3GoKBbWyAl2uG2&cache3331=3331&page=644","next_page_url":"https://videocdn.tv/api/short?limit=100&api_token=6Onb1W1alEUrBcKJZD3GoKBbWyAl2uG2&cache3331=3331&page=332","path":"https://videocdn.tv/api/short","per_page":100,"prev_page_url":"https://videocdn.tv/api/short?limit=100&api_token=6Onb1W1alEUrBcKJZD3GoKBbWyAl2uG2&cache3331=3331&page=330","to":33040,"total":64373}