{"result":true,"data":[{"id":45272,"title":"Рождественский блог","kp_id":"1411120","imdb_id":"tt12987036","world_art_id":null,"type":"movie","add":"2020-11-13 18:28:22","orig_title":"The Christmas Yule Blog","year":"2020-11-06","translations":["Любительский (многоголосый закадровый) (Синема УС)"],"quality":"hdtv","translation":"Любительский (многоголосый закадровый) (Синема УС)","update":"2020-11-13 20:10:58","iframe_src":"//8543.svetacdn.in/si4jsFRrtgrT/movie/45272"},{"id":45271,"title":"Тайна \"Идеальной картинки\": смертельные бриллианты","kp_id":"1301973","imdb_id":"tt10709020","world_art_id":null,"type":"movie","add":"2020-11-13 18:25:27","orig_title":"Dead Over Diamonds","year":"2020-02-16","translations":["Любительский (многоголосый закадровый) (AlphaProject)"],"quality":"webdl","translation":"Любительский (многоголосый закадровый) (AlphaProject)","update":"2020-11-13 21:06:56","iframe_src":"//8543.svetacdn.in/si4jsFRrtgrT/movie/45271"},{"id":45259,"title":"Перед самым рассветом","kp_id":"22952","imdb_id":"tt0082592","world_art_id":null,"type":"movie","add":"2020-11-13 08:46:44","orig_title":"Just Before Dawn","year":"1981-11-25","translations":["Авторский (одноголосый закадровый) (Гаврилов Андрей)"],"quality":"bd","translation":"Авторский (одноголосый закадровый) (Гаврилов Андрей)","update":"2020-11-13 12:43:59","iframe_src":"//8543.svetacdn.in/si4jsFRrtgrT/movie/45259"},{"id":45257,"title":"Мгновения в космическом пространстве","kp_id":"1291344","imdb_id":"tt10687102","world_art_id":null,"type":"movie","add":"2020-11-12 22:07:25","orig_title":"Moments in Spacetime","year":"2020-10-25","translations":["Любительский (многоголосый закадровый) (@MUZOBOZ@)"],"quality":"webdl","translation":"Любительский (многоголосый закадровый) (@MUZOBOZ@)","update":"2020-11-13 15:15:32","iframe_src":"//8543.svetacdn.in/si4jsFRrtgrT/movie/45257"},{"id":45249,"title":"А у тебя есть солнце?","kp_id":"619748","imdb_id":"tt9212552","world_art_id":null,"type":"movie","add":"2020-11-12 19:03:13","orig_title":"A u tebya est solnce?","year":"1974-01-01","translations":["Оригинальная дорожка"],"quality":"dvdrip","translation":"Оригинальная дорожка","update":"2020-11-13 08:10:31","iframe_src":"//8543.svetacdn.in/si4jsFRrtgrT/movie/45249"},{"id":45248,"title":"Ах, принцесса!","kp_id":"727503","imdb_id":"tt6489184","world_art_id":null,"type":"movie","add":"2020-11-12 18:58:34","orig_title":"Akh, printsessa!","year":"1987-01-01","translations":["Оригинальная дорожка"],"quality":"dvdrip","translation":"Оригинальная дорожка","update":"2020-11-13 08:09:15","iframe_src":"//8543.svetacdn.in/si4jsFRrtgrT/movie/45248"},{"id":45247,"title":"Лягушка-путешественница","kp_id":"257971","imdb_id":"tt1364430","world_art_id":null,"type":"movie","add":"2020-11-12 18:47:56","orig_title":"Lyagushka-puteshestvennitsa","year":"1965-06-02","translations":["Оригинальная дорожка"],"quality":"dvdrip","translation":"Оригинальная дорожка","update":"2020-11-13 08:08:03","iframe_src":"//8543.svetacdn.in/si4jsFRrtgrT/movie/45247"},{"id":45246,"title":"Межа","kp_id":"260078","imdb_id":"tt6623244","world_art_id":null,"type":"movie","add":"2020-11-12 18:45:46","orig_title":"Mezha","year":"1967-01-01","translations":["Оригинальная дорожка"],"quality":"dvdrip","translation":"Оригинальная дорожка","update":"2020-11-13 08:07:02","iframe_src":"//8543.svetacdn.in/si4jsFRrtgrT/movie/45246"},{"id":45245,"title":"Мы такие мастера...","kp_id":"687908","imdb_id":"tt7039888","world_art_id":null,"type":"movie","add":"2020-11-12 18:42:49","orig_title":"My Takie Mastera","year":"1963-01-01","translations":["Оригинальная дорожка"],"quality":"webdl","translation":"Оригинальная дорожка","update":"2020-11-13 08:06:16","iframe_src":"//8543.svetacdn.in/si4jsFRrtgrT/movie/45245"},{"id":45244,"title":"Попался, который кусался!","kp_id":"257975","imdb_id":"tt7040926","world_art_id":null,"type":"movie","add":"2020-11-12 18:35:42","orig_title":"Popalsya, kotoryy kusalsya!","year":"1983-10-27","translations":["Оригинальная дорожка"],"quality":"dvdrip","translation":"Оригинальная дорожка","update":"2020-11-13 08:04:53","iframe_src":"//8543.svetacdn.in/si4jsFRrtgrT/movie/45244"},{"id":45243,"title":"Правила дорожного движения","kp_id":"1271102","imdb_id":null,"world_art_id":null,"type":"movie","add":"2020-11-12 18:33:31","orig_title":"Правила дорожного движения","year":"1988-01-01","translations":["Оригинальная дорожка"],"quality":"tv","translation":"Оригинальная дорожка","update":"2020-11-13 08:04:08","iframe_src":"//8543.svetacdn.in/si4jsFRrtgrT/movie/45243"},{"id":45242,"title":"Следы на асфальте","kp_id":"258041","imdb_id":"tt6056852","world_art_id":null,"type":"movie","add":"2020-11-12 18:29:22","orig_title":"Sledy na asfalte","year":"1964-01-01","translations":["Оригинальная дорожка"],"quality":"dvdrip","translation":"Оригинальная дорожка","update":"2020-11-13 08:03:24","iframe_src":"//8543.svetacdn.in/si4jsFRrtgrT/movie/45242"},{"id":45233,"title":"Сон","kp_id":"675535","imdb_id":"tt1934334","world_art_id":null,"type":"movie","add":"2020-11-11 18:26:24","orig_title":"Son","year":"1988-01-01","translations":["Оригинальная дорожка"],"quality":"dvdrip","translation":"Оригинальная дорожка","update":"2020-11-13 08:02:35","iframe_src":"//8543.svetacdn.in/si4jsFRrtgrT/movie/45233"},{"id":45232,"title":"Волшебная птица","kp_id":"255160","imdb_id":"tt4158588","world_art_id":null,"type":"movie","add":"2020-11-11 18:24:42","orig_title":"Volshebnaya ptitsa","year":"1953-01-01","translations":["Оригинальная дорожка"],"quality":"dvdrip","translation":"Оригинальная дорожка","update":"2020-11-13 08:01:23","iframe_src":"//8543.svetacdn.in/si4jsFRrtgrT/movie/45232"},{"id":44927,"title":"Пустошь тьмы и зла","kp_id":"1259607","imdb_id":"tt10229558","world_art_id":null,"type":"movie","add":"2020-11-01 09:35:10","orig_title":"The Dark and the Wicked","year":"2020-08-28","translations":["Полное дублирование","Original (English)","Полное дублирование (Звук с TS)","Полное дублирование (iTunes)"],"quality":"webdl","translation":"Полное дублирование","update":"2020-11-13 10:50:17","iframe_src":"//8543.svetacdn.in/si4jsFRrtgrT/movie/44927"},{"id":44607,"title":"Морг","kp_id":"1306639","imdb_id":"tt10914482","world_art_id":null,"type":"movie","add":"2020-10-19 20:14:58","orig_title":"Morgue","year":"2019-08-22","translations":["Полное дублирование","Полное дублирование (iTunes)"],"quality":"ts","translation":"Полное дублирование","update":"2020-11-13 15:45:57","iframe_src":"//8543.svetacdn.in/si4jsFRrtgrT/movie/44607"},{"id":44281,"title":"Октагон: Боец vs Рестлер","kp_id":"1055615","imdb_id":"tt5505992","world_art_id":null,"type":"movie","add":"2020-10-09 20:58:53","orig_title":"Cagefighter","year":"2020-10-09","translations":["Любительский (многоголосый закадровый) (AlphaProject)","Original (English)","Полное дублирование (iTunes)"],"quality":"webdl","translation":"Любительский (многоголосый закадровый) (AlphaProject)","update":"2020-11-13 10:19:10","iframe_src":"//8543.svetacdn.in/si4jsFRrtgrT/movie/44281"},{"id":41986,"title":"Кто не спрятался","kp_id":"1245346","imdb_id":"tt10003008","world_art_id":null,"type":"movie","add":"2020-07-24 19:44:40","orig_title":"The Rental","year":"2020-07-24","translations":["Любительский (многоголосый закадровый) (@MUZOBOZ@)","Любительский (одноголосый закадровый) (BadBajo)","Original (English)","Полное дублирование","Полное дублирование (iTunes)"],"quality":"webdl","translation":"Любительский (многоголосый закадровый) (@MUZOBOZ@)","update":"2020-11-13 15:57:02","iframe_src":"//8543.svetacdn.in/si4jsFRrtgrT/movie/41986"},{"id":41526,"title":"Месть солдата","kp_id":"1214688","imdb_id":"tt9302994","world_art_id":null,"type":"movie","add":"2020-07-01 11:58:16","orig_title":"Soldier's Heart","year":"2020-06-11","translations":["Original (English)","Любительский (многоголосый закадровый) (Синема УС)"],"quality":"bd","translation":"Original (English)","update":"2020-11-13 17:49:53","iframe_src":"//8543.svetacdn.in/si4jsFRrtgrT/movie/41526"},{"id":6676,"title":"Золотые годы","kp_id":"257951","imdb_id":"tt0101206","world_art_id":null,"type":"serial","add":"2020-02-18 13:54:53","orig_title":"Golden Years","year":"1991-07-16","translations":["Авторский (одноголосый закадровый) (Марченко Александр)"],"seasons_count":1,"episodes_count":2,"episodes":2,"update":"2020-02-18 21:00:00","iframe_src":"//8543.svetacdn.in/si4jsFRrtgrT/tv-series/6676"},{"id":6675,"title":"По имени Барон","kp_id":"94491","imdb_id":"tt0409604","world_art_id":null,"type":"serial","add":"2020-02-18 12:13:23","orig_title":"Po imeni Baron","year":"2002-08-06","translations":["Оригинальная дорожка"],"seasons_count":1,"episodes_count":12,"episodes":12,"update":"2020-02-19 06:08:36","iframe_src":"//8543.svetacdn.in/si4jsFRrtgrT/tv-series/6675"},{"id":6673,"title":"Смертельная битва","kp_id":"80262","imdb_id":"tt0122355","world_art_id":null,"type":"serial","add":"2020-02-18 10:55:47","orig_title":"Mortal Kombat: Defenders of the Realm","year":"1996-09-21","translations":["Полное дублирование"],"seasons_count":1,"episodes_count":13,"episodes":13,"update":"2020-02-19 06:03:08","iframe_src":"//8543.svetacdn.in/si4jsFRrtgrT/tv-series/6673"},{"id":6672,"title":"Бархатные ножки","kp_id":"79839","imdb_id":"tt0324264","world_art_id":null,"type":"serial","add":"2020-02-18 09:47:49","orig_title":"Tipping the Velvet","year":"2002-10-09","translations":["Профессиональный (многоголосый закадровый)"],"seasons_count":1,"episodes_count":3,"episodes":3,"update":"2020-02-18 11:06:53","iframe_src":"//8543.svetacdn.in/si4jsFRrtgrT/tv-series/6672"},{"id":6671,"title":"На безымянной высоте","kp_id":"252023","imdb_id":null,"world_art_id":null,"type":"serial","add":"2020-02-18 09:26:46","orig_title":"Na bezimyannoy vysote","year":"2004-05-08","translations":["Оригинальная дорожка"],"seasons_count":1,"episodes_count":4,"episodes":4,"update":"2020-02-18 10:47:56","iframe_src":"//8543.svetacdn.in/si4jsFRrtgrT/tv-series/6671"},{"id":6669,"title":"Дом на Озерной","kp_id":"453293","imdb_id":"tt3634088","world_art_id":null,"type":"serial","add":"2020-02-17 19:19:53","orig_title":"Dom na Ozyornoy","year":"2009-12-21","translations":["Оригинальная дорожка"],"seasons_count":1,"episodes_count":6,"episodes":6,"update":"2020-02-18 05:15:49","iframe_src":"//8543.svetacdn.in/si4jsFRrtgrT/tv-series/6669"},{"id":6667,"title":"Вверх и вниз по лестнице","kp_id":"574240","imdb_id":"tt1782352","world_art_id":null,"type":"serial","add":"2020-02-17 18:56:40","orig_title":"Upstairs Downstairs","year":"2010-12-26","translations":["Профессиональный (многоголосый закадровый) (BaibaKo)"],"seasons_count":1,"episodes_count":3,"episodes":3,"update":"2020-02-18 21:07:16","iframe_src":"//8543.svetacdn.in/si4jsFRrtgrT/tv-series/6667"},{"id":6666,"title":"Городские шпионы","kp_id":"772832","imdb_id":"tt3508584","world_art_id":null,"type":"serial","add":"2020-02-17 17:28:24","orig_title":"Gorodskie shpiony","year":"2013-10-11","translations":["Оригинальная дорожка"],"seasons_count":1,"episodes_count":12,"episodes":12,"update":"2020-02-18 18:22:57","iframe_src":"//8543.svetacdn.in/si4jsFRrtgrT/tv-series/6666"},{"id":6665,"title":"BBC: Индия с Майклом Вудом","kp_id":"678551","imdb_id":"tt1333053","world_art_id":null,"type":"serial","add":"2020-02-17 15:08:17","orig_title":"The Story of India","year":"2007-08-24","translations":["Профессиональный (двухголосый закадровый)"],"seasons_count":1,"episodes_count":6,"episodes":6,"update":"2020-02-18 18:24:43","iframe_src":"//8543.svetacdn.in/si4jsFRrtgrT/tv-series/6665"},{"id":6664,"title":"Полнолуние","kp_id":"678176","imdb_id":"tt2124494","world_art_id":null,"type":"serial","add":"2020-02-17 12:39:02","orig_title":"Luna, el misterio de Calenda","year":"2012-04-10","translations":["Профессиональный (многоголосый закадровый) (NewStudio)"],"seasons_count":2,"episodes_count":20,"episodes":8,"update":"2020-02-19 12:33:31","iframe_src":"//8543.svetacdn.in/si4jsFRrtgrT/tv-series/6664"},{"id":6652,"title":"Каникулы Петрова и Васечкина, обыкновенные и невероятные","kp_id":"81480","imdb_id":"tt0082941","world_art_id":null,"type":"serial","add":"2020-02-16 16:24:00","orig_title":"Kanikuly Petrova i Vasechkina, obyknovennye i neveroyatnye","year":"1984-06-03","translations":["Оригинальная дорожка"],"seasons_count":1,"episodes_count":2,"episodes":2,"update":"2020-02-18 17:53:50","iframe_src":"//8543.svetacdn.in/si4jsFRrtgrT/tv-series/6652"},{"id":6650,"title":"Чёрная роза - эмблема печали, красная роза - эмблема любви","kp_id":"45553","imdb_id":"tt0097062","world_art_id":null,"type":"serial","add":"2020-02-16 16:09:00","orig_title":"Chyornaya roza - emblema pechali, krasnaya roza - emblema lyubvi","year":"1990-01-01","translations":["Оригинальная дорожка"],"seasons_count":1,"episodes_count":2,"episodes":2,"update":"2020-02-18 17:52:49","iframe_src":"//8543.svetacdn.in/si4jsFRrtgrT/tv-series/6650"},{"id":6632,"title":"Большие надежды","kp_id":"1346400","imdb_id":null,"world_art_id":null,"type":"serial","add":"2020-02-13 19:30:06","orig_title":"Большие надежды","year":"2020-02-10","translations":["Оригинальная дорожка"],"seasons_count":1,"episodes_count":8,"episodes":8,"update":"2020-02-18 21:12:33","iframe_src":"//8543.svetacdn.in/si4jsFRrtgrT/tv-series/6632"},{"id":6628,"title":"Васса","kp_id":"45679","imdb_id":"tt0086527","world_art_id":null,"type":"serial","add":"2020-02-13 10:07:59","orig_title":"Vassa","year":"1983-09-12","translations":["Оригинальная дорожка"],"seasons_count":1,"episodes_count":2,"episodes":2,"update":"2020-02-19 07:08:05","iframe_src":"//8543.svetacdn.in/si4jsFRrtgrT/tv-series/6628"},{"id":6578,"title":"Старые деньги","kp_id":"1142925","imdb_id":"tt3701442","world_art_id":null,"type":"serial","add":"2020-02-06 23:15:34","orig_title":"Altes Geld","year":"2015-03-27","translations":["Профессиональный (двухголосый закадровый) (ViruseProject)"],"seasons_count":1,"episodes_count":8,"episodes":8,"update":"2020-02-19 11:10:22","iframe_src":"//8543.svetacdn.in/si4jsFRrtgrT/tv-series/6578"},{"id":6575,"title":"Спасите Грейс","kp_id":"402946","imdb_id":"tt0830900","world_art_id":null,"type":"serial","add":"2020-02-06 07:24:53","orig_title":"Saving Grace","year":"2007-07-23","translations":["Профессиональный (многоголосый закадровый) (Первый канал | ОРТ)"],"seasons_count":3,"episodes_count":46,"episodes":19,"update":"2020-02-19 11:14:52","iframe_src":"//8543.svetacdn.in/si4jsFRrtgrT/tv-series/6575"},{"id":6476,"title":"Забытая армия","kp_id":"1266618","imdb_id":"tt10289938","world_art_id":null,"type":"serial","add":"2020-01-26 05:46:14","orig_title":"The Forgotten Army - Azaadi ke liye","year":"2020-01-24","translations":["Любительский (многоголосый закадровый) (Octopus)","Любительский (многоголосый закадровый) (ColdFilm)"],"seasons_count":1,"episodes_count":5,"episodes":5,"update":"2020-02-18 12:36:20","iframe_src":"//8543.svetacdn.in/si4jsFRrtgrT/tv-series/6476"},{"id":30932,"title":"Боудика — королева воинов","kp_id":"1148073","imdb_id":"tt7916276","world_art_id":null,"type":"movie","add":"2019-09-17 22:35:08","orig_title":"Boudica: Rise of the Warrior Queen","year":"2019-09-16","translations":["Любительский (многоголосый закадровый) (Синема УС)","Полное дублирование (iTunes)"],"quality":"webdl","translation":"Любительский (многоголосый закадровый) (Синема УС)","update":"2020-11-13 08:06:34","iframe_src":"//8543.svetacdn.in/si4jsFRrtgrT/movie/30932"},{"id":4782,"title":"Анна. Жена егеря","kp_id":"963393","imdb_id":null,"world_art_id":null,"type":"serial","add":"2019-07-03 20:35:26","orig_title":"Анна. Жена егеря","year":"2016-03-01","translations":["Оригинальная дорожка"],"seasons_count":1,"episodes_count":4,"episodes":4,"update":"2020-02-18 20:00:49","iframe_src":"//8543.svetacdn.in/si4jsFRrtgrT/tv-series/4782"},{"id":1344,"title":"Под куполом","kp_id":"574704","imdb_id":"tt1553656","world_art_id":null,"type":"serial","add":"2017-06-30 10:52:45","orig_title":"Under the Dome","year":"2013-06-24","translations":["Профессиональный (многоголосый закадровый) (LostFilm)","Профессиональный (многоголосый закадровый) (Пифагор)"],"seasons_count":3,"episodes_count":39,"episodes":14,"update":"2020-02-18 05:05:51","iframe_src":"//8543.svetacdn.in/si4jsFRrtgrT/tv-series/1344"},{"id":1185,"title":"Типа моя жена","kp_id":"949670","imdb_id":"tt5212822","world_art_id":null,"type":"serial","add":"2017-04-12 16:13:35","orig_title":"Imposters","year":"2017-02-07","translations":["Любительский (двухголосый закадровый) (Sunshine Studio)","Профессиональный (многоголосый закадровый) (Sony Channel)"],"seasons_count":2,"episodes_count":20,"episodes":10,"update":"2020-02-19 07:06:08","iframe_src":"//8543.svetacdn.in/si4jsFRrtgrT/tv-series/1185"}],"current_page":228,"first_page_url":"https://videocdn.tv/api/short?limit=100&api_token=X6EwAUfE5M9xbo7y0Bp0aPf3uXxG2KLL&cache3228=3228&page=1","from":22701,"last_page":598,"last_page_url":"https://videocdn.tv/api/short?limit=100&api_token=X6EwAUfE5M9xbo7y0Bp0aPf3uXxG2KLL&cache3228=3228&page=598","next_page_url":"https://videocdn.tv/api/short?limit=100&api_token=X6EwAUfE5M9xbo7y0Bp0aPf3uXxG2KLL&cache3228=3228&page=229","path":"https://videocdn.tv/api/short","per_page":100,"prev_page_url":"https://videocdn.tv/api/short?limit=100&api_token=X6EwAUfE5M9xbo7y0Bp0aPf3uXxG2KLL&cache3228=3228&page=227","to":22740,"total":59776}