{"result":true,"data":[{"id":3349,"title":"Мальчишник","kp_id":"6986","imdb_id":"tt0295289","world_art_id":null,"type":"movie","add":"2016-06-24 04:27:32","orig_title":"A Guy Thing","year":"2003-01-17","translations":["Профессиональный (многоголосый закадровый)"],"quality":"bd","translation":"Профессиональный (многоголосый закадровый)","update":"2016-06-24 10:26:25","iframe_src":"//7043.svetacdn.in/si4jsFRrtgrT/movie/3349"},{"id":3348,"title":"Грязный стыд","kp_id":"22288","imdb_id":"tt0365125","world_art_id":null,"type":"movie","add":"2016-06-24 04:25:36","orig_title":"A Dirty Shame","year":"2004-09-12","translations":["Профессиональный (двухголосый закадровый)"],"quality":"webdl","translation":"Профессиональный (двухголосый закадровый)","update":"2016-06-24 10:23:56","iframe_src":"//7043.svetacdn.in/si4jsFRrtgrT/movie/3348"},{"id":3347,"title":"Закон рынка","kp_id":"893867","imdb_id":"tt4428814","world_art_id":null,"type":"movie","add":"2016-06-24 03:51:33","orig_title":"La loi du marché","year":"2015-05-18","translations":["Профессиональный (многоголосый закадровый)"],"quality":"bd","translation":"Профессиональный (многоголосый закадровый)","update":"2016-06-24 07:00:07","iframe_src":"//7043.svetacdn.in/si4jsFRrtgrT/movie/3347"},{"id":3330,"title":"Кошки-мышки","kp_id":"88221","imdb_id":"tt0395495","world_art_id":null,"type":"movie","add":"2016-06-23 11:27:27","orig_title":"Catch and Release","year":"2006-10-20","translations":["Профессиональный (многоголосый закадровый)"],"quality":"bd","translation":"Профессиональный (многоголосый закадровый)","update":"2016-06-23 18:45:15","iframe_src":"//7043.svetacdn.in/si4jsFRrtgrT/movie/3330"},{"id":3328,"title":"Четыреста ударов","kp_id":"510","imdb_id":"tt0053198","world_art_id":null,"type":"movie","add":"2016-06-23 11:23:29","orig_title":"Les Quatre Cent Coups","year":"1959-05-04","translations":["Профессиональный (многоголосый закадровый)"],"quality":"bd","translation":"Профессиональный (многоголосый закадровый)","update":"2016-06-23 18:55:26","iframe_src":"//7043.svetacdn.in/si4jsFRrtgrT/movie/3328"},{"id":3327,"title":"На север через северо-запад","kp_id":"343","imdb_id":"tt0053125","world_art_id":null,"type":"movie","add":"2016-06-23 11:22:39","orig_title":"North by Northwest","year":"1959-07-17","translations":["Профессиональный (многоголосый закадровый)"],"quality":"bd","translation":"Профессиональный (многоголосый закадровый)","update":"2016-06-23 18:57:58","iframe_src":"//7043.svetacdn.in/si4jsFRrtgrT/movie/3327"},{"id":3325,"title":"Останься со мной","kp_id":"498","imdb_id":"tt0092005","world_art_id":null,"type":"movie","add":"2016-06-23 11:21:08","orig_title":"Stand by Me","year":"1986-08-08","translations":["Профессиональный (двухголосый закадровый)"],"quality":"bd","translation":"Профессиональный (двухголосый закадровый)","update":"2016-06-23 19:20:47","iframe_src":"//7043.svetacdn.in/si4jsFRrtgrT/movie/3325"},{"id":3324,"title":"Окно во двор","kp_id":"337","imdb_id":"tt0047396","world_art_id":null,"type":"movie","add":"2016-06-23 11:20:29","orig_title":"Rear Window","year":"1954-08-01","translations":["Профессиональный (двухголосый закадровый)"],"quality":"bd","translation":"Профессиональный (двухголосый закадровый)","update":"2016-06-23 19:27:23","iframe_src":"//7043.svetacdn.in/si4jsFRrtgrT/movie/3324"},{"id":3323,"title":"Трудности перевода","kp_id":"5930","imdb_id":"tt0335266","world_art_id":null,"type":"movie","add":"2016-06-23 11:19:32","orig_title":"Lost in Translation","year":"2003-08-29","translations":["Полное дублирование"],"quality":"bd","translation":"Полное дублирование","update":"2016-06-23 19:31:20","iframe_src":"//7043.svetacdn.in/si4jsFRrtgrT/movie/3323"},{"id":3322,"title":"Инопланетянин","kp_id":"544","imdb_id":"tt0083866","world_art_id":null,"type":"movie","add":"2016-06-23 11:18:23","orig_title":"E.T. the Extra-Terrestrial","year":"1982-05-26","translations":["Полное дублирование"],"quality":"bd","translation":"Полное дублирование","update":"2016-06-23 19:39:58","iframe_src":"//7043.svetacdn.in/si4jsFRrtgrT/movie/3322"},{"id":3316,"title":"Клуб «Завтрак»","kp_id":"21844","imdb_id":"tt0088847","world_art_id":null,"type":"movie","add":"2016-06-23 11:13:38","orig_title":"The Breakfast Club","year":"1985-02-07","translations":["Профессиональный (многоголосый закадровый)"],"quality":"bd","translation":"Профессиональный (многоголосый закадровый)","update":"2016-06-23 19:54:43","iframe_src":"//7043.svetacdn.in/si4jsFRrtgrT/movie/3316"},{"id":3314,"title":"Анестезия","kp_id":"807362","imdb_id":"tt3317208","world_art_id":null,"type":"movie","add":"2016-06-23 04:30:19","orig_title":"Anesthesia","year":"2015-04-22","translations":["Любительский (многоголосый закадровый) (Parovoz Production)"],"quality":"bd","translation":"Любительский (многоголосый закадровый) (Parovoz Production)","update":"2016-06-23 09:50:58","iframe_src":"//7043.svetacdn.in/si4jsFRrtgrT/movie/3314"},{"id":3307,"title":"Вестсайдская история","kp_id":"1289","imdb_id":"tt0055614","world_art_id":null,"type":"movie","add":"2016-06-21 12:09:06","orig_title":"West Side Story","year":"1961-10-18","translations":["Профессиональный (многоголосый закадровый)"],"quality":"hdtv","translation":"Профессиональный (многоголосый закадровый)","update":"2016-06-22 13:07:35","iframe_src":"//7043.svetacdn.in/si4jsFRrtgrT/movie/3307"},{"id":3306,"title":"Любовное настроение","kp_id":"656","imdb_id":"tt0118694","world_art_id":null,"type":"movie","add":"2016-06-21 12:08:23","orig_title":"In the Mood for Love","year":"2000-05-20","translations":["Профессиональный (двухголосый закадровый)"],"quality":"bd","translation":"Профессиональный (двухголосый закадровый)","update":"2016-06-22 12:19:48","iframe_src":"//7043.svetacdn.in/si4jsFRrtgrT/movie/3306"},{"id":3305,"title":"На обочине","kp_id":"61274","imdb_id":"tt0375063","world_art_id":null,"type":"movie","add":"2016-06-21 12:07:02","orig_title":"Sideways","year":"2004-09-13","translations":["Полное дублирование"],"quality":"bd","translation":"Полное дублирование","update":"2016-06-22 13:01:02","iframe_src":"//7043.svetacdn.in/si4jsFRrtgrT/movie/3305"},{"id":3304,"title":"Пропащие Ребята","kp_id":"4756","imdb_id":"tt0093437","world_art_id":null,"type":"movie","add":"2016-06-21 12:06:10","orig_title":"The Lost Boys","year":"1987-07-31","translations":["Профессиональный (двухголосый закадровый)"],"quality":"bd","translation":"Профессиональный (двухголосый закадровый)","update":"2016-06-22 12:12:42","iframe_src":"//7043.svetacdn.in/si4jsFRrtgrT/movie/3304"},{"id":3303,"title":"Пропащие ребята 2: Племя","kp_id":"311427","imdb_id":"tt1031254","world_art_id":null,"type":"movie","add":"2016-06-21 12:05:26","orig_title":"Lost Boys: The Tribe","year":"2008-07-29","translations":["Полное дублирование"],"quality":"bd","translation":"Полное дублирование","update":"2016-06-22 12:05:52","iframe_src":"//7043.svetacdn.in/si4jsFRrtgrT/movie/3303"},{"id":3285,"title":"Хранитель времени","kp_id":"462247","imdb_id":"tt0970179","world_art_id":null,"type":"movie","add":"2016-06-21 10:30:17","orig_title":"Hugo","year":"2011-10-10","translations":["Полное дублирование"],"quality":"bd","translation":"Полное дублирование","update":"2016-06-22 13:09:56","iframe_src":"//7043.svetacdn.in/si4jsFRrtgrT/movie/3285"},{"id":3268,"title":"Репортаж","kp_id":"325598","imdb_id":"tt1038988","world_art_id":null,"type":"movie","add":"2016-06-20 08:30:52","orig_title":"[REC]","year":"2007-08-29","translations":["Полное дублирование"],"quality":"bd","translation":"Полное дублирование","update":"2016-06-22 13:58:41","iframe_src":"//7043.svetacdn.in/si4jsFRrtgrT/movie/3268"},{"id":2629,"title":"Королева пустыни","kp_id":"582257","imdb_id":"tt1837636","world_art_id":null,"type":"movie","add":"2016-05-26 17:38:07","orig_title":"Queen of the Desert","year":"2015-02-06","translations":["Любительский (многоголосый закадровый) (Parovoz Production)","Профессиональный (многоголосый закадровый)"],"quality":"webdl","translation":"Любительский (многоголосый закадровый) (Parovoz Production)","update":"2016-06-23 11:10:33","iframe_src":"//7043.svetacdn.in/si4jsFRrtgrT/movie/2629"}],"current_page":2346,"first_page_url":"https://videocdn.tv/api/short?limit=100&api_token=X6EwAUfE5M9xbo7y0Bp0aPf3uXxG2KLL&cache32346=32346&page=1","from":234501,"last_page":612,"last_page_url":"https://videocdn.tv/api/short?limit=100&api_token=X6EwAUfE5M9xbo7y0Bp0aPf3uXxG2KLL&cache32346=32346&page=612","next_page_url":null,"path":"https://videocdn.tv/api/short","per_page":100,"prev_page_url":"https://videocdn.tv/api/short?limit=100&api_token=X6EwAUfE5M9xbo7y0Bp0aPf3uXxG2KLL&cache32346=32346&page=2345","to":234520,"total":61189}