{"result":true,"data":[{"id":26491,"title":"Исключение из правил","kp_id":"745390","imdb_id":null,"world_art_id":null,"type":"movie","add":"2019-05-14 08:30:51","orig_title":"Исключение из правил","year":"2012-01-01","translations":["Оригинальная дорожка"],"quality":"dvdrip","translation":"Оригинальная дорожка","update":"2019-05-15 07:08:43","iframe_src":"//8209.svetacdn.in/71tsRs29n5tZ/movie/26491"},{"id":26490,"title":"Антон тут рядом","kp_id":"688654","imdb_id":"tt2358838","world_art_id":null,"type":"movie","add":"2019-05-14 08:27:19","orig_title":"Anton tut ryadom","year":"2012-10-11","translations":["Оригинальная дорожка"],"quality":"hdtv","translation":"Оригинальная дорожка","update":"2019-05-15 07:11:11","iframe_src":"//8209.svetacdn.in/71tsRs29n5tZ/movie/26490"},{"id":26488,"title":"В ожидании весны","kp_id":"712704","imdb_id":"tt3847326","world_art_id":null,"type":"movie","add":"2019-05-14 08:24:37","orig_title":"V ozhidanii vesny","year":"2012-12-09","translations":["Оригинальная дорожка"],"quality":"dvdrip","translation":"Оригинальная дорожка","update":"2019-05-15 07:13:20","iframe_src":"//8209.svetacdn.in/71tsRs29n5tZ/movie/26488"},{"id":26468,"title":"Рожденный в восточном Лос-Анджелесе","kp_id":"21471","imdb_id":"tt0092690","world_art_id":null,"type":"movie","add":"2019-05-13 20:54:56","orig_title":"Born in East L.A.","year":"1987-08-21","translations":["Авторский (одноголосый закадровый) (Горчаков Василий)"],"quality":"bd","translation":"Авторский (одноголосый закадровый) (Горчаков Василий)","update":"2019-05-15 08:08:01","iframe_src":"//8209.svetacdn.in/71tsRs29n5tZ/movie/26468"},{"id":26466,"title":"Синяя радость","kp_id":"2711","imdb_id":"tt0074226","world_art_id":null,"type":"movie","add":"2019-05-13 20:52:17","orig_title":"Blue Sunshine","year":"1977-11-01","translations":["Любительский (одноголосый закадровый)"],"quality":"bd","translation":"Любительский (одноголосый закадровый)","update":"2019-05-15 08:06:35","iframe_src":"//8209.svetacdn.in/71tsRs29n5tZ/movie/26466"},{"id":26465,"title":"Седьмая жертва","kp_id":"567059","imdb_id":"tt1872162","world_art_id":null,"type":"movie","add":"2019-05-13 20:49:58","orig_title":"Sedmaya zhertva","year":"2011-02-20","translations":["Оригинальная дорожка"],"quality":"dvdrip","translation":"Оригинальная дорожка","update":"2019-05-15 08:02:27","iframe_src":"//8209.svetacdn.in/71tsRs29n5tZ/movie/26465"},{"id":26464,"title":"Только между нами","kp_id":"433048","imdb_id":"tt1318029","world_art_id":null,"type":"movie","add":"2019-05-13 20:49:47","orig_title":"Neka ostane medju nama","year":"2010-03-09","translations":["Любительский (многоголосый закадровый) (Mallorn Studio)"],"quality":"dvdrip","translation":"Любительский (многоголосый закадровый) (Mallorn Studio)","update":"2019-05-15 08:01:37","iframe_src":"//8209.svetacdn.in/71tsRs29n5tZ/movie/26464"},{"id":26456,"title":"Майкл Джексон: Вот и всё","kp_id":"470314","imdb_id":"tt1477715","world_art_id":null,"type":"movie","add":"2019-05-13 20:24:21","orig_title":"This Is It","year":"2009-10-28","translations":["Профессиональный (многоголосый закадровый)"],"quality":"bd","translation":"Профессиональный (многоголосый закадровый)","update":"2019-05-15 07:49:50","iframe_src":"//8209.svetacdn.in/71tsRs29n5tZ/movie/26456"},{"id":26451,"title":"Скорый поезд","kp_id":"43827","imdb_id":"tt0178895","world_art_id":null,"type":"movie","add":"2019-05-13 20:11:21","orig_title":"Skoryy poezd","year":"1988-11-01","translations":["Оригинальная дорожка"],"quality":"tv","translation":"Оригинальная дорожка","update":"2019-05-15 07:47:43","iframe_src":"//8209.svetacdn.in/71tsRs29n5tZ/movie/26451"},{"id":26450,"title":"Солдаты","kp_id":"43901","imdb_id":"tt0049776","world_art_id":null,"type":"movie","add":"2019-05-13 20:08:23","orig_title":"Soldaty","year":"1957-03-18","translations":["Оригинальная дорожка"],"quality":"dvdrip","translation":"Оригинальная дорожка","update":"2019-05-15 07:46:05","iframe_src":"//8209.svetacdn.in/71tsRs29n5tZ/movie/26450"},{"id":26449,"title":"Стая","kp_id":"475109","imdb_id":null,"world_art_id":null,"type":"movie","add":"2019-05-13 20:01:26","orig_title":"Стая","year":"2008-01-01","translations":["Оригинальная дорожка"],"quality":"dvdrip","translation":"Оригинальная дорожка","update":"2019-05-15 07:45:15","iframe_src":"//8209.svetacdn.in/71tsRs29n5tZ/movie/26449"},{"id":26447,"title":"Тайная прогулка","kp_id":"161179","imdb_id":"tt0265842","world_art_id":null,"type":"movie","add":"2019-05-13 19:47:51","orig_title":"Taynaya progulka","year":"1985-07-26","translations":["Оригинальная дорожка"],"quality":"dvdrip","translation":"Оригинальная дорожка","update":"2019-05-15 07:33:50","iframe_src":"//8209.svetacdn.in/71tsRs29n5tZ/movie/26447"},{"id":26446,"title":"Телохранитель","kp_id":"42227","imdb_id":"tt0171819","world_art_id":null,"type":"movie","add":"2019-05-13 19:43:45","orig_title":"Telokhranitel","year":"1980-12-02","translations":["Оригинальная дорожка"],"quality":"tv","translation":"Оригинальная дорожка","update":"2019-05-15 07:32:55","iframe_src":"//8209.svetacdn.in/71tsRs29n5tZ/movie/26446"},{"id":26445,"title":"Целуются зори","kp_id":"42340","imdb_id":"tt0078424","world_art_id":null,"type":"movie","add":"2019-05-13 19:38:56","orig_title":"Tseluyutsya zori","year":"1978-12-04","translations":["Оригинальная дорожка"],"quality":"dvdrip","translation":"Оригинальная дорожка","update":"2019-05-15 07:31:21","iframe_src":"//8209.svetacdn.in/71tsRs29n5tZ/movie/26445"},{"id":26444,"title":"Убийцы","kp_id":"26274","imdb_id":"tt0052330","world_art_id":null,"type":"movie","add":"2019-05-13 19:35:17","orig_title":"Ubiytsy","year":"1956-10-19","translations":["Оригинальная дорожка"],"quality":"bd","translation":"Оригинальная дорожка","update":"2019-05-15 07:11:50","iframe_src":"//8209.svetacdn.in/71tsRs29n5tZ/movie/26444"},{"id":26443,"title":"В Баку дуют ветры","kp_id":"474746","imdb_id":"tt1767277","world_art_id":null,"type":"movie","add":"2019-05-13 19:31:45","orig_title":"Bakida külaklar asir","year":"1974-01-30","translations":["Оригинальная дорожка"],"quality":"dvdrip","translation":"Оригинальная дорожка","update":"2019-05-15 07:11:01","iframe_src":"//8209.svetacdn.in/71tsRs29n5tZ/movie/26443"},{"id":26442,"title":"Вернемся осенью","kp_id":"45727","imdb_id":"tt0332482","world_art_id":null,"type":"movie","add":"2019-05-13 19:28:51","orig_title":"Vernemsya osenyu","year":"1979-01-01","translations":["Оригинальная дорожка"],"quality":"tv","translation":"Оригинальная дорожка","update":"2019-05-15 07:09:01","iframe_src":"//8209.svetacdn.in/71tsRs29n5tZ/movie/26442"},{"id":26441,"title":"Високосный год","kp_id":"45787","imdb_id":"tt0153576","world_art_id":null,"type":"movie","add":"2019-05-13 19:25:41","orig_title":"Visokosnyy god","year":"1962-02-08","translations":["Оригинальная дорожка"],"quality":"dvdrip","translation":"Оригинальная дорожка","update":"2019-05-15 07:07:07","iframe_src":"//8209.svetacdn.in/71tsRs29n5tZ/movie/26441"},{"id":3855,"title":"Благодетель","kp_id":"3956","imdb_id":"tt0119978","world_art_id":null,"type":"movie","add":"2016-07-12 17:51:56","orig_title":"The Rainmaker","year":"1997-11-18","translations":["Полное дублирование (Невафильм | Нева-1)"],"quality":"bd","translation":"Полное дублирование (Невафильм | Нева-1)","update":"2019-05-15 08:05:10","iframe_src":"//8209.svetacdn.in/71tsRs29n5tZ/movie/3855"},{"id":3381,"title":"Головокружение","kp_id":"352","imdb_id":"tt0052357","world_art_id":null,"type":"movie","add":"2016-06-27 19:14:28","orig_title":"Vertigo","year":"1958-05-09","translations":["Профессиональный (многоголосый закадровый)","Полное дублирование"],"quality":"hdtv","translation":"Профессиональный (многоголосый закадровый)","update":"2019-05-15 07:56:51","iframe_src":"//8209.svetacdn.in/71tsRs29n5tZ/movie/3381"}],"current_page":1538,"first_page_url":"https://videocdn.tv/api/short?limit=100&api_token=EnbO9h8pv1VyjbCJhg0WM9nG259n7mtz&cache31538=31538&page=1","from":153701,"last_page":656,"last_page_url":"https://videocdn.tv/api/short?limit=100&api_token=EnbO9h8pv1VyjbCJhg0WM9nG259n7mtz&cache31538=31538&page=656","next_page_url":null,"path":"https://videocdn.tv/api/short","per_page":100,"prev_page_url":"https://videocdn.tv/api/short?limit=100&api_token=EnbO9h8pv1VyjbCJhg0WM9nG259n7mtz&cache31538=31538&page=1537","to":153720,"total":65506}