{"result":true,"data":[{"id":46888,"title":"Летние игры","kp_id":"573005","imdb_id":"tt1753865","world_art_id":null,"type":"movie","add":"2021-01-10 18:37:21","orig_title":"Giochi d'estate","year":"2011-08-02","translations":["Любительский (одноголосый закадровый) (Прошин Вячеслав | Slay73)"],"quality":"dvdrip","translation":"Любительский (одноголосый закадровый) (Прошин Вячеслав | Slay73)","update":"2021-01-11 08:02:13","iframe_src":"//7043.svetacdn.in/IAF0wWTdNYZm/movie/46888"},{"id":46887,"title":"Пола Х","kp_id":"21291","imdb_id":"tt0152015","world_art_id":null,"type":"movie","add":"2021-01-10 18:27:47","orig_title":"Pola X","year":"1999-05-12","translations":["Профессиональный (многоголосый закадровый)"],"quality":"dvdrip","translation":"Профессиональный (многоголосый закадровый)","update":"2021-01-11 07:58:45","iframe_src":"//7043.svetacdn.in/IAF0wWTdNYZm/movie/46887"},{"id":46885,"title":"Дурная кровь","kp_id":"18351","imdb_id":"tt0091497","world_art_id":null,"type":"movie","add":"2021-01-10 18:22:06","orig_title":"Mauvais sang","year":"1986-11-26","translations":["Профессиональный (многоголосый закадровый) (СТС)"],"quality":"bd","translation":"Профессиональный (многоголосый закадровый) (СТС)","update":"2021-01-11 08:00:37","iframe_src":"//7043.svetacdn.in/IAF0wWTdNYZm/movie/46885"},{"id":46878,"title":"Кемпинг","kp_id":"220502","imdb_id":"tt0473829","world_art_id":null,"type":"movie","add":"2021-01-10 17:25:51","orig_title":"Camping","year":"2006-04-26","translations":["Профессиональный (многоголосый закадровый)"],"quality":"bd","translation":"Профессиональный (многоголосый закадровый)","update":"2021-01-10 23:07:20","iframe_src":"//7043.svetacdn.in/IAF0wWTdNYZm/movie/46878"},{"id":46877,"title":"Меня зовут Дэвид","kp_id":"22497","imdb_id":"tt0327919","world_art_id":null,"type":"movie","add":"2021-01-10 16:38:34","orig_title":"I Am David","year":"2003-05-15","translations":["Профессиональный (многоголосый закадровый)"],"quality":"webdl","translation":"Профессиональный (многоголосый закадровый)","update":"2021-01-10 23:19:50","iframe_src":"//7043.svetacdn.in/IAF0wWTdNYZm/movie/46877"},{"id":46876,"title":"Хайди","kp_id":"848086","imdb_id":"tt3700392","world_art_id":null,"type":"movie","add":"2021-01-10 16:22:11","orig_title":"Heidi","year":"2015-12-10","translations":["Любительский (одноголосый закадровый)"],"quality":"bd","translation":"Любительский (одноголосый закадровый)","update":"2021-01-10 19:17:01","iframe_src":"//7043.svetacdn.in/IAF0wWTdNYZm/movie/46876"},{"id":46874,"title":"The Monopoly on Violence","kp_id":null,"imdb_id":"tt10627868","world_art_id":null,"type":"movie","add":"2021-01-10 15:57:54","orig_title":"The Monopoly on Violence","year":"2020-05-31","translations":["Original (English)"],"quality":"webdl","translation":"Original (English)","update":"2021-01-10 23:16:50","iframe_src":"//7043.svetacdn.in/IAF0wWTdNYZm/movie/46874"},{"id":46872,"title":"Алиса","kp_id":"79229","imdb_id":"tt0095715","world_art_id":null,"type":"movie","add":"2021-01-10 15:44:19","orig_title":"Neco z Alenky","year":"1988-08-03","translations":["Любительский (одноголосый закадровый)"],"quality":"bd","translation":"Любительский (одноголосый закадровый)","update":"2021-01-10 23:12:32","iframe_src":"//7043.svetacdn.in/IAF0wWTdNYZm/movie/46872"},{"id":46865,"title":"Бабочка","kp_id":"37636","imdb_id":"tt0329485","world_art_id":null,"type":"movie","add":"2021-01-10 10:32:08","orig_title":"Le papillon","year":"2002-12-18","translations":["Полное дублирование"],"quality":"dvdrip","translation":"Полное дублирование","update":"2021-01-10 19:20:16","iframe_src":"//7043.svetacdn.in/IAF0wWTdNYZm/movie/46865"},{"id":46780,"title":"Друзья встречаются вновь","kp_id":"268424","imdb_id":"tt0781019","world_art_id":null,"type":"movie","add":"2021-01-07 17:04:49","orig_title":"Druzya vstrechayutsya vnov","year":"1939-01-01","translations":["Оригинальная дорожка"],"quality":"vhs","translation":"Оригинальная дорожка","update":"2021-01-11 10:28:11","iframe_src":"//7043.svetacdn.in/IAF0wWTdNYZm/movie/46780"},{"id":46779,"title":"У самого синего моря","kp_id":"42480","imdb_id":"tt0028436","world_art_id":null,"type":"movie","add":"2021-01-07 17:02:41","orig_title":"U samogo sinego morya","year":"1936-04-01","translations":["Оригинальная дорожка"],"quality":"webdl","translation":"Оригинальная дорожка","update":"2021-01-11 10:27:37","iframe_src":"//7043.svetacdn.in/IAF0wWTdNYZm/movie/46779"},{"id":46778,"title":"Рейс первый, рейс последний","kp_id":"627829","imdb_id":"tt4837468","world_art_id":null,"type":"movie","add":"2021-01-07 16:59:58","orig_title":"Reys pervyy, reys posledniy","year":"1974-02-03","translations":["Оригинальная дорожка"],"quality":"vhs","translation":"Оригинальная дорожка","update":"2021-01-11 10:26:16","iframe_src":"//7043.svetacdn.in/IAF0wWTdNYZm/movie/46778"},{"id":46777,"title":"Улица без конца","kp_id":"472299","imdb_id":"tt4716294","world_art_id":null,"type":"movie","add":"2021-01-07 16:54:38","orig_title":"Ulitsa bez kontsa","year":"1973-04-23","translations":["Оригинальная дорожка"],"quality":"tv","translation":"Оригинальная дорожка","update":"2021-01-11 10:25:25","iframe_src":"//7043.svetacdn.in/IAF0wWTdNYZm/movie/46777"},{"id":46776,"title":"Служа отечеству","kp_id":"43868","imdb_id":"tt0170600","world_art_id":null,"type":"movie","add":"2021-01-07 16:52:13","orig_title":"Sluzha otechestvu","year":"1982-04-02","translations":["Оригинальная дорожка"],"quality":"vhs","translation":"Оригинальная дорожка","update":"2021-01-11 10:23:41","iframe_src":"//7043.svetacdn.in/IAF0wWTdNYZm/movie/46776"},{"id":46554,"title":"Рождество в шоколаде","kp_id":"1404654","imdb_id":"tt12953542","world_art_id":null,"type":"movie","add":"2020-12-30 19:34:14","orig_title":"Chocolate Covered Christmas","year":"2020-11-01","translations":["Любительский (многоголосый закадровый) (Синема УС)","Профессиональный (многоголосый закадровый) (iTunes)"],"quality":"webdl","translation":"Любительский (многоголосый закадровый) (Синема УС)","update":"2021-01-11 09:23:05","iframe_src":"//7043.svetacdn.in/IAF0wWTdNYZm/movie/46554"},{"id":46106,"title":"Журавль в небе...","kp_id":"45348","imdb_id":"tt0076956","world_art_id":null,"type":"movie","add":"2020-12-15 17:32:40","orig_title":"Zhuravl v nebe","year":"1978-06-12","translations":["Оригинальная дорожка","Оригинальная дорожка"],"quality":"sat","translation":"Оригинальная дорожка","update":"2021-01-11 10:23:00","iframe_src":"//7043.svetacdn.in/IAF0wWTdNYZm/movie/46106"},{"id":45685,"title":"Ип Ман: Мастер кунг-фу","kp_id":"1445054","imdb_id":"tt12567246","world_art_id":null,"type":"movie","add":"2020-11-28 12:07:26","orig_title":"Zong shi ye wen","year":"2019-12-23","translations":["Любительский (многоголосый закадровый) (@MUZOBOZ@)","Любительский (многоголосый закадровый) (@MUZOBOZ@)"],"quality":"webdl","translation":"Любительский (многоголосый закадровый) (@MUZOBOZ@)","update":"2021-01-11 09:28:59","iframe_src":"//7043.svetacdn.in/IAF0wWTdNYZm/movie/45685"},{"id":43677,"title":"Социальная дилемма","kp_id":"1337788","imdb_id":"tt11464826","world_art_id":null,"type":"movie","add":"2020-09-19 07:38:14","orig_title":"The Social Dilemma","year":"2020-01-26","translations":["Любительский (двухголосый закадровый) (OnisFilms)","Профессиональный (многоголосый закадровый) (HDrezka Studio)","Original (English)"],"quality":"webdl","translation":"Любительский (двухголосый закадровый) (OnisFilms)","update":"2021-01-10 19:22:43","iframe_src":"//7043.svetacdn.in/IAF0wWTdNYZm/movie/43677"},{"id":42155,"title":"Обратный рейс","kp_id":"1086363","imdb_id":"tt6854600","world_art_id":null,"type":"movie","add":"2020-07-31 16:11:55","orig_title":"Dead Heading","year":"2019-01-01","translations":["Профессиональный (многоголосый закадровый)","Original (English)"],"quality":"webdl","translation":"Профессиональный (многоголосый закадровый)","update":"2021-01-10 23:15:05","iframe_src":"//7043.svetacdn.in/IAF0wWTdNYZm/movie/42155"},{"id":40440,"title":"Близкие контакты","kp_id":"1182264","imdb_id":"tt8718300","world_art_id":null,"type":"movie","add":"2020-05-15 22:35:44","orig_title":"Proximity","year":"2020-05-15","translations":["Любительский (двухголосый закадровый) (LakeFilms)","Любительский (многоголосый закадровый) (@MUZOBOZ@)","Original (English)","Профессиональный (многоголосый закадровый) (iTunes)"],"quality":"webdl","translation":"Любительский (двухголосый закадровый) (LakeFilms)","update":"2021-01-10 23:04:23","iframe_src":"//7043.svetacdn.in/IAF0wWTdNYZm/movie/40440"},{"id":7260,"title":"BBC: Серенгети","kp_id":"1344327","imdb_id":"tt8164448","world_art_id":null,"type":"serial","add":"2020-04-22 06:46:45","orig_title":"Serengeti","year":"2019-07-04","translations":["Профессиональный (двухголосый закадровый) (СВ-Дубль)"],"seasons_count":1,"episodes_count":6,"episodes":6,"update":"2020-04-22 12:00:13","iframe_src":"//7043.svetacdn.in/IAF0wWTdNYZm/tv-series/7260"},{"id":7259,"title":"Садовница","kp_id":"1302068","imdb_id":null,"world_art_id":null,"type":"serial","add":"2020-04-22 06:22:58","orig_title":"Садовница","year":"2019-01-01","translations":["Оригинальная дорожка"],"seasons_count":1,"episodes_count":4,"episodes":4,"update":"2020-04-22 10:42:24","iframe_src":"//7043.svetacdn.in/IAF0wWTdNYZm/tv-series/7259"},{"id":7246,"title":"Без следа","kp_id":"597534","imdb_id":"tt3781676","world_art_id":null,"type":"serial","add":"2020-04-21 06:49:19","orig_title":"Bez sleda","year":"2012-09-04","translations":["Оригинальная дорожка"],"seasons_count":1,"episodes_count":23,"episodes":23,"update":"2020-04-21 10:32:56","iframe_src":"//7043.svetacdn.in/IAF0wWTdNYZm/tv-series/7246"},{"id":7245,"title":"Полёт Белой стрелы","kp_id":"882241","imdb_id":null,"world_art_id":null,"type":"serial","add":"2020-04-21 06:45:59","orig_title":"Полёт Белой стрелы","year":"2015-11-28","translations":["Оригинальная дорожка"],"seasons_count":1,"episodes_count":12,"episodes":12,"update":"2020-04-21 09:05:07","iframe_src":"//7043.svetacdn.in/IAF0wWTdNYZm/tv-series/7245"},{"id":7242,"title":"По ту сторону убийства","kp_id":"723463","imdb_id":"tt2569792","world_art_id":null,"type":"serial","add":"2020-04-21 05:55:50","orig_title":"Murder on the Home Front","year":"2013-05-09","translations":["Любительский (одноголосый закадровый)"],"seasons_count":1,"episodes_count":2,"episodes":2,"update":"2020-04-21 07:19:39","iframe_src":"//7043.svetacdn.in/IAF0wWTdNYZm/tv-series/7242"},{"id":7241,"title":"Не троньте котиков: Охота на интернет-убийцу","kp_id":"1333556","imdb_id":"tt11318602","world_art_id":null,"type":"serial","add":"2020-04-21 05:51:53","orig_title":"Don't F**k with Cats: Hunting an Internet Killer","year":"2019-12-18","translations":["Профессиональный (многоголосый закадровый) (HDrezka Studio)"],"seasons_count":1,"episodes_count":3,"episodes":3,"update":"2020-04-22 12:33:48","iframe_src":"//7043.svetacdn.in/IAF0wWTdNYZm/tv-series/7241"},{"id":7239,"title":"Апофегей","kp_id":"766639","imdb_id":"tt4428566","world_art_id":null,"type":"serial","add":"2020-04-20 19:49:23","orig_title":"Apofegey","year":"2013-06-13","translations":["Оригинальная дорожка"],"seasons_count":1,"episodes_count":2,"episodes":2,"update":"2020-04-21 11:39:06","iframe_src":"//7043.svetacdn.in/IAF0wWTdNYZm/tv-series/7239"},{"id":7238,"title":"Александровский сад 2","kp_id":"409777","imdb_id":"tt2839062","world_art_id":null,"type":"serial","add":"2020-04-20 19:44:51","orig_title":"Aleksandrovskiy sad 2. Gibel komandy","year":"2007-01-01","translations":["Оригинальная дорожка"],"seasons_count":1,"episodes_count":10,"episodes":10,"update":"2020-04-21 11:49:35","iframe_src":"//7043.svetacdn.in/IAF0wWTdNYZm/tv-series/7238"},{"id":7237,"title":"Бабье лето","kp_id":"647280","imdb_id":"tt3014978","world_art_id":null,"type":"serial","add":"2020-04-20 19:39:41","orig_title":"Babe leto","year":"2011-11-19","translations":["Оригинальная дорожка"],"seasons_count":1,"episodes_count":4,"episodes":4,"update":"2020-04-21 11:44:48","iframe_src":"//7043.svetacdn.in/IAF0wWTdNYZm/tv-series/7237"},{"id":7236,"title":"Безымянная звезда","kp_id":"77248","imdb_id":"tt0077230","world_art_id":null,"type":"serial","add":"2020-04-20 19:37:22","orig_title":"Bezymyannaya zvezda","year":"1979-02-17","translations":["Оригинальная дорожка"],"seasons_count":1,"episodes_count":2,"episodes":2,"update":"2020-04-21 11:40:13","iframe_src":"//7043.svetacdn.in/IAF0wWTdNYZm/tv-series/7236"},{"id":7235,"title":"Капкан","kp_id":"259385","imdb_id":null,"world_art_id":null,"type":"serial","add":"2020-04-20 19:30:25","orig_title":"Капкан","year":"2007-10-22","translations":["Оригинальная дорожка"],"seasons_count":1,"episodes_count":12,"episodes":12,"update":"2020-04-21 12:01:07","iframe_src":"//7043.svetacdn.in/IAF0wWTdNYZm/tv-series/7235"},{"id":7234,"title":"Башня","kp_id":"568046","imdb_id":null,"world_art_id":null,"type":"serial","add":"2020-04-20 19:25:41","orig_title":"Башня","year":"2010-11-08","translations":["Оригинальная дорожка"],"seasons_count":2,"episodes_count":31,"episodes":15,"update":"2020-04-21 12:17:52","iframe_src":"//7043.svetacdn.in/IAF0wWTdNYZm/tv-series/7234"},{"id":7230,"title":"BBC: Баллада о Большом Але","kp_id":"298579","imdb_id":"tt12146684","world_art_id":null,"type":"serial","add":"2020-04-20 11:12:42","orig_title":"The Ballad of Big Al","year":"2000-12-25","translations":["Профессиональный (двухголосый закадровый)"],"seasons_count":1,"episodes_count":2,"episodes":2,"update":"2020-04-21 06:58:24","iframe_src":"//7043.svetacdn.in/IAF0wWTdNYZm/tv-series/7230"},{"id":7204,"title":"Любовь к жизни","kp_id":"764812","imdb_id":"tt2933326","world_art_id":null,"type":"serial","add":"2020-04-16 17:33:25","orig_title":"Amor à Vida","year":"2013-05-20","translations":["Любительский (двухголосый закадровый)","Профессиональный (двухголосый закадровый) (ViruseProject)"],"seasons_count":1,"episodes_count":221,"episodes":221,"update":"2020-04-22 12:16:24","iframe_src":"//7043.svetacdn.in/IAF0wWTdNYZm/tv-series/7204"},{"id":7173,"title":"Крот","kp_id":"400700","imdb_id":"tt0841927","world_art_id":null,"type":"serial","add":"2020-04-13 18:09:07","orig_title":"Krtek","year":"1957-01-01","translations":["Любительский (одноголосый закадровый)"],"seasons_count":1,"episodes_count":62,"episodes":62,"update":"2020-04-22 12:52:28","iframe_src":"//7043.svetacdn.in/IAF0wWTdNYZm/tv-series/7173"},{"id":7164,"title":"Атомный лес","kp_id":"716029","imdb_id":"tt3413036","world_art_id":null,"type":"serial","add":"2020-04-13 07:21:03","orig_title":"Atomnyy les","year":"2012-11-16","translations":["Оригинальная дорожка"],"seasons_count":2,"episodes_count":19,"episodes":9,"update":"2020-04-21 06:44:17","iframe_src":"//7043.svetacdn.in/IAF0wWTdNYZm/tv-series/7164"},{"id":7158,"title":"Танцевальная лихорадка","kp_id":"570142","imdb_id":"tt1661326","world_art_id":null,"type":"serial","add":"2020-04-11 13:21:29","orig_title":"Shake It Up","year":"2010-11-07","translations":["Полное дублирование"],"seasons_count":1,"episodes_count":21,"episodes":21,"update":"2020-04-21 07:11:25","iframe_src":"//7043.svetacdn.in/IAF0wWTdNYZm/tv-series/7158"},{"id":7130,"title":"Замок Бландингс","kp_id":"730434","imdb_id":"tt2211457","world_art_id":null,"type":"serial","add":"2020-04-08 07:24:03","orig_title":"Blandings","year":"2013-01-13","translations":["Любительский (одноголосый закадровый) (Старый Бильбо)"],"seasons_count":2,"episodes_count":13,"episodes":7,"update":"2020-04-21 07:12:45","iframe_src":"//7043.svetacdn.in/IAF0wWTdNYZm/tv-series/7130"},{"id":6412,"title":"Байки копов из тропиков","kp_id":"1224054","imdb_id":"tt7768840","world_art_id":null,"type":"serial","add":"2020-01-20 13:28:24","orig_title":"Tropical Cop Tales","year":"2018-07-28","translations":["Любительский (двухголосый закадровый) (Jimmy J.)"],"seasons_count":1,"episodes_count":10,"episodes":10,"update":"2020-04-21 06:55:07","iframe_src":"//7043.svetacdn.in/IAF0wWTdNYZm/tv-series/6412"},{"id":5021,"title":"Орлы","kp_id":"1145314","imdb_id":"tt8422802","world_art_id":null,"type":"serial","add":"2019-08-12 13:22:48","orig_title":"Eagles","year":"2019-03-09","translations":["Любительский (двухголосый закадровый) (GoldTeam)"],"seasons_count":2,"episodes_count":18,"episodes":10,"update":"2020-04-21 04:23:47","iframe_src":"//7043.svetacdn.in/IAF0wWTdNYZm/tv-series/5021"}],"current_page":214,"first_page_url":"https://videocdn.tv/api/short?limit=100&api_token=6Onb1W1alEUrBcKJZD3GoKBbWyAl2uG2&cache3214=3214&page=1","from":21301,"last_page":612,"last_page_url":"https://videocdn.tv/api/short?limit=100&api_token=6Onb1W1alEUrBcKJZD3GoKBbWyAl2uG2&cache3214=3214&page=612","next_page_url":"https://videocdn.tv/api/short?limit=100&api_token=6Onb1W1alEUrBcKJZD3GoKBbWyAl2uG2&cache3214=3214&page=215","path":"https://videocdn.tv/api/short","per_page":100,"prev_page_url":"https://videocdn.tv/api/short?limit=100&api_token=6Onb1W1alEUrBcKJZD3GoKBbWyAl2uG2&cache3214=3214&page=213","to":21340,"total":61128}