{"result":true,"data":[{"id":44790,"title":"Симфония плохих парней","kp_id":"1189816","imdb_id":"tt10414750","world_art_id":null,"type":"movie","add":"2020-10-26 10:43:26","orig_title":"Bad Boy Symphony","year":"2019-05-17","translations":["Любительский (двухголосый закадровый) (Колобок)"],"quality":"webdl","translation":"Любительский (двухголосый закадровый) (Колобок)","update":"2020-10-26 12:13:28","iframe_src":"//5322.svetacdn.in/si4jsFRrtgrT/movie/44790"},{"id":44114,"title":"Морозики-морозы","kp_id":"652557","imdb_id":null,"world_art_id":null,"type":"movie","add":"2020-10-04 19:31:18","orig_title":"Морозики-морозы","year":"1986-01-01","translations":["Оригинальная дорожка"],"quality":"dvdrip","translation":"Оригинальная дорожка","update":"2020-10-26 12:18:25","iframe_src":"//5322.svetacdn.in/si4jsFRrtgrT/movie/44114"},{"id":44113,"title":"Хомяк-молчун","kp_id":"391039","imdb_id":"tt1075806","world_art_id":null,"type":"movie","add":"2020-10-04 19:26:10","orig_title":"Homyak-molchun","year":"1972-01-01","translations":["Оригинальная дорожка"],"quality":"dvdrip","translation":"Оригинальная дорожка","update":"2020-10-26 12:16:55","iframe_src":"//5322.svetacdn.in/si4jsFRrtgrT/movie/44113"},{"id":44112,"title":"Как Ваня жену выбирал","kp_id":"1118185","imdb_id":null,"world_art_id":null,"type":"movie","add":"2020-10-04 19:21:24","orig_title":"Как Ваня жену выбирал","year":"1978-01-01","translations":["Оригинальная дорожка"],"quality":"dvdrip","translation":"Оригинальная дорожка","update":"2020-10-26 12:15:38","iframe_src":"//5322.svetacdn.in/si4jsFRrtgrT/movie/44112"},{"id":44111,"title":"Где ты, Голубая Золушка?","kp_id":"687915","imdb_id":null,"world_art_id":null,"type":"movie","add":"2020-10-04 19:07:26","orig_title":"Где ты, Голубая Золушка?","year":"1971-01-01","translations":["Оригинальная дорожка"],"quality":"sat","translation":"Оригинальная дорожка","update":"2020-10-26 12:14:46","iframe_src":"//5322.svetacdn.in/si4jsFRrtgrT/movie/44111"},{"id":44110,"title":"Сказ о Евпатии Коловрате","kp_id":"460520","imdb_id":"tt5898292","world_art_id":null,"type":"movie","add":"2020-10-04 18:51:33","orig_title":"Skaz o Evpatii Kolovrate","year":"1985-01-01","translations":["Оригинальная дорожка"],"quality":"webdl","translation":"Оригинальная дорожка","update":"2020-10-26 12:13:33","iframe_src":"//5322.svetacdn.in/si4jsFRrtgrT/movie/44110"},{"id":44109,"title":"Не надо торопиться","kp_id":"1271097","imdb_id":null,"world_art_id":null,"type":"movie","add":"2020-10-04 18:49:16","orig_title":"Не надо торопиться","year":"1985-01-01","translations":["Оригинальная дорожка"],"quality":"webdl","translation":"Оригинальная дорожка","update":"2020-10-26 12:12:56","iframe_src":"//5322.svetacdn.in/si4jsFRrtgrT/movie/44109"},{"id":44108,"title":"Иван Иванович заболел...","kp_id":"594843","imdb_id":"tt7682968","world_art_id":null,"type":"movie","add":"2020-10-04 18:39:09","orig_title":"Ivan Ivanych zabolel","year":"1966-01-01","translations":["Оригинальная дорожка"],"quality":"dvdrip","translation":"Оригинальная дорожка","update":"2020-10-26 12:11:35","iframe_src":"//5322.svetacdn.in/si4jsFRrtgrT/movie/44108"},{"id":44053,"title":"Первая зима","kp_id":"632953","imdb_id":"tt4616150","world_art_id":null,"type":"movie","add":"2020-10-01 18:05:08","orig_title":"Pervaya zima","year":"1978-01-01","translations":["Оригинальная дорожка"],"quality":"dvdrip","translation":"Оригинальная дорожка","update":"2020-10-26 12:09:51","iframe_src":"//5322.svetacdn.in/si4jsFRrtgrT/movie/44053"},{"id":44052,"title":"Пилюля","kp_id":"574035","imdb_id":"tt6370268","world_art_id":null,"type":"movie","add":"2020-10-01 18:01:11","orig_title":"Pilyulya","year":"1983-01-01","translations":["Оригинальная дорожка"],"quality":"dvdrip","translation":"Оригинальная дорожка","update":"2020-10-26 11:57:25","iframe_src":"//5322.svetacdn.in/si4jsFRrtgrT/movie/44052"},{"id":44051,"title":"Плюс электрификация","kp_id":"888114","imdb_id":"tt4190702","world_art_id":null,"type":"movie","add":"2020-10-01 17:57:08","orig_title":"Plus Electrification","year":"1972-01-01","translations":["Оригинальная дорожка"],"quality":"dvdrip","translation":"Оригинальная дорожка","update":"2020-10-26 11:56:34","iframe_src":"//5322.svetacdn.in/si4jsFRrtgrT/movie/44051"},{"id":44050,"title":"Подаренка","kp_id":"594834","imdb_id":"tt10651094","world_art_id":null,"type":"movie","add":"2020-10-01 17:52:06","orig_title":"Podarenka","year":"1978-01-01","translations":["Оригинальная дорожка"],"quality":"dvdrip","translation":"Оригинальная дорожка","update":"2020-10-26 11:55:08","iframe_src":"//5322.svetacdn.in/si4jsFRrtgrT/movie/44050"},{"id":44049,"title":"Подарок","kp_id":null,"imdb_id":"tt6402740","world_art_id":null,"type":"movie","add":"2020-10-01 17:42:51","orig_title":"Podarok","year":"1968-01-01","translations":["Оригинальная дорожка"],"quality":"dvdrip","translation":"Оригинальная дорожка","update":"2020-10-26 11:53:59","iframe_src":"//5322.svetacdn.in/si4jsFRrtgrT/movie/44049"},{"id":44048,"title":"Похождения Хряпова","kp_id":"566703","imdb_id":null,"world_art_id":null,"type":"movie","add":"2020-10-01 17:31:23","orig_title":"Похождения Хряпова","year":"1982-01-01","translations":["Оригинальная дорожка"],"quality":"sat","translation":"Оригинальная дорожка","update":"2020-10-26 11:52:52","iframe_src":"//5322.svetacdn.in/si4jsFRrtgrT/movie/44048"},{"id":44047,"title":"Последний трубочист","kp_id":"137889","imdb_id":"tt0452527","world_art_id":null,"type":"movie","add":"2020-10-01 17:16:41","orig_title":"Viimane korstnapühkija","year":"1964-01-01","translations":["Оригинальная дорожка"],"quality":"tv","translation":"Оригинальная дорожка","update":"2020-10-26 11:50:49","iframe_src":"//5322.svetacdn.in/si4jsFRrtgrT/movie/44047"},{"id":44046,"title":"Приключения кузнеца Вакулы","kp_id":"493730","imdb_id":"tt6024648","world_art_id":null,"type":"movie","add":"2020-10-01 16:46:35","orig_title":"Priklyucheniya kuznetsa Vakuly","year":"1977-01-01","translations":["Оригинальная дорожка"],"quality":"dvdrip","translation":"Оригинальная дорожка","update":"2020-10-26 11:49:28","iframe_src":"//5322.svetacdn.in/si4jsFRrtgrT/movie/44046"},{"id":44045,"title":"Старые знакомые","kp_id":"470392","imdb_id":"tt5560734","world_art_id":null,"type":"movie","add":"2020-10-01 16:41:45","orig_title":"Starye znakomye","year":"1956-11-15","translations":["Оригинальная дорожка"],"quality":"dvdrip","translation":"Оригинальная дорожка","update":"2020-10-26 11:48:47","iframe_src":"//5322.svetacdn.in/si4jsFRrtgrT/movie/44045"},{"id":40803,"title":"Ассистент звезды","kp_id":"1269314","imdb_id":"tt9308382","world_art_id":null,"type":"movie","add":"2020-05-30 12:05:30","orig_title":"The High Note","year":"2020-05-29","translations":["Любительский (многоголосый закадровый) (AlphaProject)","Original (English)","Полное дублирование"],"quality":"webdl","translation":"Любительский (многоголосый закадровый) (AlphaProject)","update":"2020-10-26 12:11:42","iframe_src":"//5322.svetacdn.in/si4jsFRrtgrT/movie/40803"},{"id":32174,"title":"Павлиний хвост","kp_id":"259245","imdb_id":"tt1794902","world_art_id":null,"type":"movie","add":"2019-10-20 19:28:08","orig_title":"Pavliniy khvost","year":"1946-01-01","translations":["Оригинальная дорожка"],"quality":"dvdrip","translation":"Оригинальная дорожка","update":"2020-10-26 12:10:54","iframe_src":"//5322.svetacdn.in/si4jsFRrtgrT/movie/32174"},{"id":23376,"title":"Шагреневая кожа","kp_id":"490215","imdb_id":"tt1563665","world_art_id":null,"type":"movie","add":"2019-03-22 22:41:30","orig_title":"La peau de chagrin","year":"2010-04-24","translations":["Профессиональный (многоголосый закадровый)"],"quality":"webdl","translation":"Профессиональный (многоголосый закадровый)","update":"2020-10-26 12:18:39","iframe_src":"//5322.svetacdn.in/si4jsFRrtgrT/movie/23376"},{"id":3278,"title":"Все возрасты любви","kp_id":"992625","imdb_id":null,"world_art_id":null,"type":"serial","add":"2018-10-10 05:30:34","orig_title":"Все возрасты любви","year":"2018-10-09","translations":["Оригинальная дорожка"],"seasons_count":1,"episodes_count":8,"episodes":8,"update":"2018-10-10 12:53:48","iframe_src":"//5322.svetacdn.in/si4jsFRrtgrT/tv-series/3278"},{"id":3277,"title":"Струны души","kp_id":"601621","imdb_id":"tt2623064","world_art_id":null,"type":"serial","add":"2018-10-09 23:25:25","orig_title":"Neon naege banehsseo","year":"2011-06-29","translations":["Любительский (двухголосый закадровый) (GREEN TEA)"],"seasons_count":1,"episodes_count":15,"episodes":15,"update":"2018-10-10 08:00:37","iframe_src":"//5322.svetacdn.in/si4jsFRrtgrT/tv-series/3277"},{"id":3271,"title":"Жатва","kp_id":null,"imdb_id":"tt5674704","world_art_id":null,"type":"serial","add":"2018-10-09 07:19:56","orig_title":"The Reaping","year":"2017-02-21","translations":["Профессиональный (двухголосый закадровый) (ViruseProject)"],"seasons_count":1,"episodes_count":7,"episodes":7,"update":"2018-10-10 19:05:08","iframe_src":"//5322.svetacdn.in/si4jsFRrtgrT/tv-series/3271"},{"id":3268,"title":"Катькино поле","kp_id":"1173338","imdb_id":null,"world_art_id":null,"type":"serial","add":"2018-10-08 13:43:36","orig_title":"Катькино поле","year":"2018-10-06","translations":["Оригинальная дорожка"],"seasons_count":1,"episodes_count":2,"episodes":2,"update":"2018-10-09 07:00:07","iframe_src":"//5322.svetacdn.in/si4jsFRrtgrT/tv-series/3268"},{"id":3267,"title":"Московские тайны. Гостья из прошлого","kp_id":"1177999","imdb_id":null,"world_art_id":null,"type":"serial","add":"2018-10-08 13:40:08","orig_title":"Московские тайны. Гостья из прошлого","year":"2018-10-05","translations":["Оригинальная дорожка"],"seasons_count":1,"episodes_count":2,"episodes":2,"update":"2018-10-09 06:57:28","iframe_src":"//5322.svetacdn.in/si4jsFRrtgrT/tv-series/3267"},{"id":3249,"title":"Шпион, выйди вон!","kp_id":"229204","imdb_id":"tt0080297","world_art_id":null,"type":"serial","add":"2018-10-01 19:01:52","orig_title":"Tinker Tailor Soldier Spy","year":"1979-09-10","translations":["Авторский (одноголосый закадровый) (Карцев Пётр)"],"seasons_count":1,"episodes_count":6,"episodes":6,"update":"2018-10-02 08:01:23","iframe_src":"//5322.svetacdn.in/si4jsFRrtgrT/tv-series/3249"},{"id":3244,"title":"Рискованный роман","kp_id":"1118157","imdb_id":"tt8523020","world_art_id":null,"type":"serial","add":"2018-10-01 09:14:31","orig_title":"Sasaenggyeoldan Romaenseu","year":"2018-07-23","translations":["Любительский (двухголосый закадровый) (HighHopes)"],"seasons_count":1,"episodes_count":16,"episodes":16,"update":"2018-10-01 14:22:41","iframe_src":"//5322.svetacdn.in/si4jsFRrtgrT/tv-series/3244"},{"id":3232,"title":"Страшно прекрасно","kp_id":"1159410","imdb_id":"tt8628658","world_art_id":null,"type":"serial","add":"2018-09-28 10:41:51","orig_title":"Leobeulli Horeobeulli","year":"2018-08-13","translations":["Любительский (двухголосый закадровый) (Храм Дорам ТВ)"],"seasons_count":1,"episodes_count":16,"episodes":16,"update":"2018-10-06 22:38:01","iframe_src":"//5322.svetacdn.in/si4jsFRrtgrT/tv-series/3232"},{"id":3215,"title":"Дефективный детектив","kp_id":"230371","imdb_id":"tt0312172","world_art_id":null,"type":"serial","add":"2018-09-24 15:52:51","orig_title":"Monk","year":"2002-07-12","translations":["Профессиональный (многоголосый закадровый)","Профессиональный (многоголосый закадровый) (Universal Russia)"],"seasons_count":8,"episodes_count":124,"episodes":16,"update":"2018-10-11 09:05:23","iframe_src":"//5322.svetacdn.in/si4jsFRrtgrT/tv-series/3215"},{"id":3200,"title":"История одного клана","kp_id":"939810","imdb_id":"tt5056538","world_art_id":null,"type":"serial","add":"2018-09-21 16:43:28","orig_title":"Historia de un clan","year":"2015-09-09","translations":["Профессиональный (двухголосый закадровый) (ViruseProject)"],"seasons_count":1,"episodes_count":11,"episodes":11,"update":"2018-10-03 19:11:17","iframe_src":"//5322.svetacdn.in/si4jsFRrtgrT/tv-series/3200"},{"id":3193,"title":"Шоу 70−х","kp_id":"344207","imdb_id":"tt0165598","world_art_id":null,"type":"serial","add":"2018-09-20 06:58:04","orig_title":"That '70s Show","year":"1998-08-23","translations":["Любительский (многоголосый закадровый) (Несмертельное оружие)"],"seasons_count":8,"episodes_count":200,"episodes":22,"update":"2018-10-10 12:23:34","iframe_src":"//5322.svetacdn.in/si4jsFRrtgrT/tv-series/3193"},{"id":3169,"title":"Деграсси: Новый класс","kp_id":"963354","imdb_id":"tt5320160","world_art_id":null,"type":"serial","add":"2018-09-14 10:55:41","orig_title":"Degrassi: Next Class","year":"2016-01-04","translations":["Любительский (двухголосый закадровый) (GoldTeam)"],"seasons_count":4,"episodes_count":40,"episodes":10,"update":"2018-10-02 07:31:36","iframe_src":"//5322.svetacdn.in/si4jsFRrtgrT/tv-series/3169"},{"id":3142,"title":"H2O: Просто добавь воды","kp_id":"397251","imdb_id":"tt0491603","world_art_id":null,"type":"serial","add":"2018-09-07 14:51:20","orig_title":"H2O: Just Add Water","year":"2006-07-07","translations":["Полное дублирование","Полное дублирование (Disney Channel)"],"seasons_count":3,"episodes_count":78,"episodes":26,"update":"2018-10-11 16:18:58","iframe_src":"//5322.svetacdn.in/si4jsFRrtgrT/tv-series/3142"},{"id":3022,"title":"Крутой Уокер","kp_id":"161227","imdb_id":"tt0106168","world_art_id":null,"type":"serial","add":"2018-08-13 05:13:37","orig_title":"Walker, Texas Ranger","year":"1993-04-24","translations":["Профессиональный (двухголосый закадровый)","Любительский (двухголосый закадровый)"],"seasons_count":9,"episodes_count":193,"episodes":24,"update":"2018-10-08 15:17:33","iframe_src":"//5322.svetacdn.in/si4jsFRrtgrT/tv-series/3022"},{"id":3013,"title":"Сад падающих звёзд","kp_id":"1183069","imdb_id":"tt8690890","world_art_id":null,"type":"serial","add":"2018-08-09 07:00:42","orig_title":"Meteor Garden","year":"2018-07-13","translations":["Любительский (двухголосый закадровый) (SoftBox)"],"seasons_count":1,"episodes_count":49,"episodes":49,"update":"2018-10-05 07:25:23","iframe_src":"//5322.svetacdn.in/si4jsFRrtgrT/tv-series/3013"},{"id":1480,"title":"Лига справедливости","kp_id":"957938","imdb_id":"tt5419200","world_art_id":null,"type":"serial","add":"2017-08-20 06:29:28","orig_title":"Justice League Action","year":"2016-11-26","translations":["Полное дублирование"],"seasons_count":1,"episodes_count":49,"episodes":49,"update":"2018-10-02 13:58:52","iframe_src":"//5322.svetacdn.in/si4jsFRrtgrT/tv-series/1480"},{"id":413,"title":"Рейк","kp_id":"507140","imdb_id":"tt1587000","world_art_id":null,"type":"serial","add":"2016-09-06 13:55:36","orig_title":"Rake","year":"2010-11-04","translations":["Авторский (одноголосый закадровый) (Чадов Михаил)","Любительский (двухголосый закадровый) (Kiitos)","Любительский (двухголосый закадровый) (Sunshine Studio)"],"seasons_count":5,"episodes_count":39,"episodes":7,"update":"2018-10-02 21:37:27","iframe_src":"//5322.svetacdn.in/si4jsFRrtgrT/tv-series/413"},{"id":274,"title":"Нереально","kp_id":"807444","imdb_id":"tt3314218","world_art_id":null,"type":"serial","add":"2016-07-09 06:19:19","orig_title":"UnREAL","year":"2015-06-01","translations":["Профессиональный (двухголосый закадровый) (Gears Media)","Профессиональный (многоголосый закадровый) (BaibaKo)"],"seasons_count":4,"episodes_count":38,"episodes":8,"update":"2018-10-11 07:22:52","iframe_src":"//5322.svetacdn.in/si4jsFRrtgrT/tv-series/274"},{"id":239,"title":"Крушение","kp_id":"888489","imdb_id":"tt4168956","world_art_id":null,"type":"serial","add":"2016-06-29 06:13:23","orig_title":"Wrecked","year":"2016-06-14","translations":["Профессиональный (многоголосый закадровый) (IdeaFilm)","Профессиональный (многоголосый закадровый) (BaibaKo)"],"seasons_count":3,"episodes_count":30,"episodes":10,"update":"2018-10-05 16:38:11","iframe_src":"//5322.svetacdn.in/si4jsFRrtgrT/tv-series/239"},{"id":160,"title":"Звери.","kp_id":"946974","imdb_id":"tt4953128","world_art_id":null,"type":"serial","add":"2016-06-09 04:09:29","orig_title":"Animals.","year":"2016-02-05","translations":["Профессиональный (многоголосый закадровый) (NewStudio)","Профессиональный (многоголосый закадровый) (Novamedia)","Профессиональный (многоголосый закадровый) (Amedia)","Любительский (двухголосый закадровый) (Sunshine Studio)"],"seasons_count":3,"episodes_count":30,"episodes":10,"update":"2018-10-09 20:16:47","iframe_src":"//5322.svetacdn.in/si4jsFRrtgrT/tv-series/160"}],"current_page":408,"first_page_url":"https://videocdn.tv/api/short?limit=100&api_token=X6EwAUfE5M9xbo7y0Bp0aPf3uXxG2KLL&cache3408=3408&page=1","from":40701,"last_page":624,"last_page_url":"https://videocdn.tv/api/short?limit=100&api_token=X6EwAUfE5M9xbo7y0Bp0aPf3uXxG2KLL&cache3408=3408&page=624","next_page_url":"https://videocdn.tv/api/short?limit=100&api_token=X6EwAUfE5M9xbo7y0Bp0aPf3uXxG2KLL&cache3408=3408&page=409","path":"https://videocdn.tv/api/short","per_page":100,"prev_page_url":"https://videocdn.tv/api/short?limit=100&api_token=X6EwAUfE5M9xbo7y0Bp0aPf3uXxG2KLL&cache3408=3408&page=407","to":40740,"total":62339}