{"result":true,"data":[{"id":43701,"title":"Босой император","kp_id":"1163931","imdb_id":"tt8439922","world_art_id":null,"type":"movie","add":"2020-09-21 08:31:47","orig_title":"The Barefoot Emperor","year":"2020-09-06","translations":["Любительский (многоголосый закадровый) (Синема УС)"],"quality":"webdl","translation":"Любительский (многоголосый закадровый) (Синема УС)","update":"2020-09-21 15:51:17","iframe_src":"//2413.svetacdn.in/71tsRs29n5tZ/movie/43701"},{"id":43686,"title":"Пусти луне пулю между глаз","kp_id":null,"imdb_id":"tt6211472","world_art_id":null,"type":"movie","add":"2020-09-20 08:09:10","orig_title":"Shoot the Moon Right Between the Eyes","year":"2018-11-02","translations":["Любительский (многоголосый закадровый) (Синема УС)"],"quality":"webdl","translation":"Любительский (многоголосый закадровый) (Синема УС)","update":"2020-09-20 13:14:48","iframe_src":"//2413.svetacdn.in/71tsRs29n5tZ/movie/43686"},{"id":43684,"title":"Брут против Цезаря","kp_id":"1280878","imdb_id":"tt10557524","world_art_id":null,"type":"movie","add":"2020-09-20 06:53:41","orig_title":"Brutus vs César","year":"2020-09-18","translations":["Любительский (многоголосый закадровый) (@MUZOBOZ@)"],"quality":"webdl","translation":"Любительский (многоголосый закадровый) (@MUZOBOZ@)","update":"2020-09-20 14:21:43","iframe_src":"//2413.svetacdn.in/71tsRs29n5tZ/movie/43684"},{"id":43683,"title":"Другими словами","kp_id":"1200482","imdb_id":"tt9104196","world_art_id":null,"type":"movie","add":"2020-09-20 06:48:58","orig_title":"In Other Words","year":"2020-09-14","translations":["Любительский (многоголосый закадровый) (@MUZOBOZ@)"],"quality":"webdl","translation":"Любительский (многоголосый закадровый) (@MUZOBOZ@)","update":"2020-09-20 14:20:47","iframe_src":"//2413.svetacdn.in/71tsRs29n5tZ/movie/43683"},{"id":43679,"title":"Битник","kp_id":"943644","imdb_id":"tt4844508","world_art_id":null,"type":"movie","add":"2020-09-19 07:54:06","orig_title":"Beatnik","year":"2017-01-01","translations":["Любительский (многоголосый закадровый) (Синема УС)"],"quality":"webdl","translation":"Любительский (многоголосый закадровый) (Синема УС)","update":"2020-09-20 13:13:52","iframe_src":"//2413.svetacdn.in/71tsRs29n5tZ/movie/43679"},{"id":43674,"title":"Проклятие Провена","kp_id":"1311820","imdb_id":"tt11005486","world_art_id":null,"type":"movie","add":"2020-09-19 07:21:21","orig_title":"La Malédiction de Provins","year":"2019-12-21","translations":["Любительский (многоголосый закадровый) (Синема УС)"],"quality":"webdl","translation":"Любительский (многоголосый закадровый) (Синема УС)","update":"2020-09-20 08:33:13","iframe_src":"//2413.svetacdn.in/71tsRs29n5tZ/movie/43674"},{"id":43651,"title":"Процесс","kp_id":"1183564","imdb_id":"tt8897390","world_art_id":null,"type":"movie","add":"2020-09-18 12:29:44","orig_title":"Process","year":"2018-09-06","translations":["Оригинальная дорожка"],"quality":"webdl","translation":"Оригинальная дорожка","update":"2020-09-21 12:15:29","iframe_src":"//2413.svetacdn.in/71tsRs29n5tZ/movie/43651"},{"id":43587,"title":"Конец нетерпимости","kp_id":"1151062","imdb_id":"tt7970886","world_art_id":null,"type":"movie","add":"2020-09-16 05:41:15","orig_title":"Intolerance: No More","year":"2020-09-15","translations":["Любительский (многоголосый закадровый) (Синема УС)"],"quality":"webdl","translation":"Любительский (многоголосый закадровый) (Синема УС)","update":"2020-09-20 08:44:01","iframe_src":"//2413.svetacdn.in/71tsRs29n5tZ/movie/43587"},{"id":43585,"title":"У меня проблемы","kp_id":"1204338","imdb_id":"tt9043132","world_art_id":null,"type":"movie","add":"2020-09-16 05:14:37","orig_title":"I've Got Issues","year":"2019-10-25","translations":["Любительский (многоголосый закадровый) (Синема УС)"],"quality":"webdl","translation":"Любительский (многоголосый закадровый) (Синема УС)","update":"2020-09-20 11:01:43","iframe_src":"//2413.svetacdn.in/71tsRs29n5tZ/movie/43585"},{"id":43456,"title":"Внимание! Волки!","kp_id":"493905","imdb_id":"tt2017040","world_art_id":null,"type":"movie","add":"2020-09-12 20:42:51","orig_title":"Vnimanie! Volki!","year":"1970-01-01","translations":["Оригинальная дорожка","Оригинальная дорожка"],"quality":"dvdrip","translation":"Оригинальная дорожка","update":"2020-09-21 08:31:43","iframe_src":"//2413.svetacdn.in/71tsRs29n5tZ/movie/43456"},{"id":42618,"title":"Легенда о старом маяке","kp_id":"639364","imdb_id":"tt7564348","world_art_id":null,"type":"movie","add":"2020-08-20 19:33:19","orig_title":"Legenda o starom mayake","year":"1976-01-01","translations":["Оригинальная дорожка","Оригинальная дорожка"],"quality":"dvdrip","translation":"Оригинальная дорожка","update":"2020-09-21 08:28:49","iframe_src":"//2413.svetacdn.in/71tsRs29n5tZ/movie/42618"},{"id":42322,"title":"Одна из многих","kp_id":"818478","imdb_id":"tt6371922","world_art_id":null,"type":"movie","add":"2020-08-06 20:31:21","orig_title":"Odna iz mnogikh","year":"1943-01-01","translations":["Оригинальная дорожка"],"quality":"webdl","translation":"Оригинальная дорожка","update":"2020-09-21 08:29:38","iframe_src":"//2413.svetacdn.in/71tsRs29n5tZ/movie/42322"},{"id":39222,"title":"Человек из черной «Волги»","kp_id":"262969","imdb_id":"tt0465937","world_art_id":null,"type":"movie","add":"2020-04-13 07:44:22","orig_title":"Chelovek iz chyornoi Volgi","year":"1990-12-10","translations":["Оригинальная дорожка","Оригинальная дорожка"],"quality":"dvdscr","translation":"Оригинальная дорожка","update":"2020-09-21 08:26:36","iframe_src":"//2413.svetacdn.in/71tsRs29n5tZ/movie/39222"},{"id":34609,"title":"Фиксики против кработов","kp_id":"1115685","imdb_id":"tt11498676","world_art_id":null,"type":"movie","add":"2019-12-30 22:19:24","orig_title":"Fiksiki protiv krabotov","year":"2019-12-21","translations":["Оригинальная дорожка","Оригинальная дорожка"],"quality":"webdl","translation":"Оригинальная дорожка","update":"2020-09-21 08:27:37","iframe_src":"//2413.svetacdn.in/71tsRs29n5tZ/movie/34609"},{"id":32900,"title":"Урфин Джюс возвращается","kp_id":"1113015","imdb_id":"tt10975312","world_art_id":null,"type":"movie","add":"2019-11-11 08:11:29","orig_title":"Urfin Dzhyus vozvrashchaetsya","year":"2019-11-10","translations":["Оригинальная дорожка","Оригинальная дорожка"],"quality":"webdl","translation":"Оригинальная дорожка","update":"2020-09-21 08:30:34","iframe_src":"//2413.svetacdn.in/71tsRs29n5tZ/movie/32900"},{"id":25927,"title":"Невеста реаниматора","kp_id":"20816","imdb_id":"tt0099180","world_art_id":null,"type":"movie","add":"2019-05-04 07:22:49","orig_title":"Bride of Re-Animator","year":"1990-07-08","translations":["Профессиональный (многоголосый закадровый) (ТВ3)","Авторский (одноголосый закадровый) (Гаврилов Андрей)","Авторский (одноголосый закадровый) (Живов Юрий)","[EN] Original (English)","Профессиональный (двухголосый закадровый) (Инис)","Профессиональный (двухголосый закадровый)","Профессиональный (многоголосый закадровый) (ТВ3)"],"quality":"bd","translation":"Профессиональный (многоголосый закадровый) (ТВ3)","update":"2020-09-21 08:09:56","iframe_src":"//2413.svetacdn.in/71tsRs29n5tZ/movie/25927"},{"id":6694,"title":"Бездна","kp_id":"2342","imdb_id":"tt0096754","world_art_id":null,"type":"movie","add":"2016-10-26 05:18:02","orig_title":"The Abyss","year":"1989-08-09","translations":["Профессиональный (многоголосый закадровый)","Авторский (одноголосый закадровый) (Гаврилов Андрей)","Авторский (одноголосый закадровый) (Сербин Юрий)","Авторский (одноголосый закадровый) (Живов Юрий)","[EN] Original (English)","Профессиональный (двухголосый закадровый) (Lazer Video | Лазер видео)","Профессиональный (двухголосый закадровый) (Первый канал | ОРТ)","Профессиональный (двухголосый закадровый) (Премьер Видео Фильм)","Профессиональный (многоголосый закадровый) (НТВ)","Профессиональный (многоголосый закадровый) (Киномания)","Профессиональный (многоголосый закадровый)"],"quality":"bd","translation":"Профессиональный (многоголосый закадровый)","update":"2020-09-21 08:01:20","iframe_src":"//2413.svetacdn.in/71tsRs29n5tZ/movie/6694"},{"id":6550,"title":"Повелители вселенной","kp_id":"18279","imdb_id":"tt0093507","world_art_id":null,"type":"movie","add":"2016-10-21 05:13:45","orig_title":"Masters of the Universe","year":"1987-08-07","translations":["Профессиональный (многоголосый закадровый)","Авторский (одноголосый закадровый) (Гаврилов Андрей)"],"quality":"bd","translation":"Профессиональный (многоголосый закадровый)","update":"2020-09-21 13:20:45","iframe_src":"//2413.svetacdn.in/71tsRs29n5tZ/movie/6550"},{"id":3964,"title":"Преступления и проступки","kp_id":"2740","imdb_id":"tt0097123","world_art_id":null,"type":"movie","add":"2016-07-16 02:18:41","orig_title":"Crimes and Misdemeanors","year":"1989-10-13","translations":["Полное дублирование","Профессиональный (многоголосый закадровый)","Профессиональный (двухголосый закадровый) (НТВ)","Полное дублирование (Варус-Видео)","Авторский (одноголосый закадровый) (Сербин Юрий)"],"quality":"hdtv","translation":"Полное дублирование","update":"2020-09-20 14:33:23","iframe_src":"//2413.svetacdn.in/71tsRs29n5tZ/movie/3964"},{"id":1791,"title":"Путь Карлито","kp_id":"4275","imdb_id":"tt0106519","world_art_id":null,"type":"movie","add":"2016-05-03 04:55:46","orig_title":"Carlito's Way","year":"1993-11-12","translations":["Профессиональный (многоголосый закадровый)","Авторский (одноголосый закадровый) (Гаевский Евгений)","Авторский (одноголосый закадровый) (Гаврилов Андрей)","Авторский (одноголосый закадровый) (Кузнецов Сергей)","Авторский (одноголосый закадровый) (Визгунов Сергей)","Авторский (одноголосый закадровый) (Володарский Леонид)","Авторский (одноголосый закадровый) (Живов Юрий)","[EN] Original (English)","Любительский (одноголосый закадровый) (Строев Денис)","Профессиональный (двухголосый закадровый) (Гланц + Королёва)","Профессиональный (двухголосый закадровый) (НТВ)","Профессиональный (многоголосый закадровый) (Позитив)","Профессиональный (многоголосый закадровый)"],"quality":"bd","translation":"Профессиональный (многоголосый закадровый)","update":"2020-09-21 08:21:59","iframe_src":"//2413.svetacdn.in/71tsRs29n5tZ/movie/1791"}],"current_page":1054,"first_page_url":"https://videocdn.tv/api/short?limit=100&api_token=EnbO9h8pv1VyjbCJhg0WM9nG259n7mtz&cache31054=31054&page=1","from":105301,"last_page":723,"last_page_url":"https://videocdn.tv/api/short?limit=100&api_token=EnbO9h8pv1VyjbCJhg0WM9nG259n7mtz&cache31054=31054&page=723","next_page_url":null,"path":"https://videocdn.tv/api/short","per_page":100,"prev_page_url":"https://videocdn.tv/api/short?limit=100&api_token=EnbO9h8pv1VyjbCJhg0WM9nG259n7mtz&cache31054=31054&page=1053","to":105320,"total":72256}