{"result":true,"data":[{"id":46529,"title":"Винни Пух идет в гости","kp_id":"45781","imdb_id":"tt0211730","world_art_id":null,"type":"movie","add":"2020-12-30 09:49:50","orig_title":"Vinni-Pukh idyot v gosti","year":"1971-01-01","translations":["Оригинальная дорожка"],"quality":"dvdrip","translation":"Оригинальная дорожка","update":"2020-12-30 10:02:51","iframe_src":"//83.svetacdn.in/PfJ50H0ZBPg3/movie/46529"},{"id":46527,"title":"Болт","kp_id":"2867","imdb_id":"tt0109314","world_art_id":null,"type":"movie","add":"2020-12-30 08:10:17","orig_title":"Bolt","year":"1998-10-20","translations":["Профессиональный (многоголосый закадровый)"],"quality":"dvdrip","translation":"Профессиональный (многоголосый закадровый)","update":"2020-12-30 09:06:58","iframe_src":"//83.svetacdn.in/PfJ50H0ZBPg3/movie/46527"},{"id":46526,"title":"Мнения сторон","kp_id":"9703","imdb_id":"tt0260414","world_art_id":null,"type":"movie","add":"2020-12-30 07:07:19","orig_title":"Taking Sides","year":"2001-09-13","translations":["Профессиональный (двухголосый закадровый)"],"quality":"dvdrip","translation":"Профессиональный (двухголосый закадровый)","update":"2020-12-30 07:58:08","iframe_src":"//83.svetacdn.in/PfJ50H0ZBPg3/movie/46526"},{"id":46524,"title":"Джерри","kp_id":"20104","imdb_id":"tt0302674","world_art_id":null,"type":"movie","add":"2020-12-30 05:46:09","orig_title":"Gerry","year":"2002-01-12","translations":["Профессиональный (двухголосый закадровый)"],"quality":"dvdrip","translation":"Профессиональный (двухголосый закадровый)","update":"2020-12-30 07:09:59","iframe_src":"//83.svetacdn.in/PfJ50H0ZBPg3/movie/46524"},{"id":46523,"title":"Быстрый бегун","kp_id":"596","imdb_id":"tt0285441","world_art_id":null,"type":"movie","add":"2020-12-30 05:44:18","orig_title":"Atanarjuat","year":"2001-05-13","translations":["Профессиональный (двухголосый закадровый)"],"quality":"dvdrip","translation":"Профессиональный (двухголосый закадровый)","update":"2020-12-30 07:12:50","iframe_src":"//83.svetacdn.in/PfJ50H0ZBPg3/movie/46523"},{"id":46522,"title":"Твои руки на моей заднице","kp_id":"61479","imdb_id":"tt0339279","world_art_id":null,"type":"movie","add":"2020-12-30 05:30:53","orig_title":"Laisse tes mains sur mes hanches","year":"2003-04-02","translations":["Профессиональный (двухголосый закадровый)"],"quality":"dvdrip","translation":"Профессиональный (двухголосый закадровый)","update":"2020-12-30 07:13:55","iframe_src":"//83.svetacdn.in/PfJ50H0ZBPg3/movie/46522"},{"id":46521,"title":"Пой, ковбой, пой","kp_id":"98230","imdb_id":"tt0083083","world_art_id":null,"type":"movie","add":"2020-12-30 05:00:26","orig_title":"Sing, Cowboy, sing","year":"1981-06-12","translations":["Полное дублирование (Киностудия им. Горького)"],"quality":"dvdrip","translation":"Полное дублирование (Киностудия им. Горького)","update":"2020-12-30 05:52:16","iframe_src":"//83.svetacdn.in/PfJ50H0ZBPg3/movie/46521"},{"id":46508,"title":"Муфта, Полботинка и Моховая Борода","kp_id":"392100","imdb_id":"tt1075364","world_art_id":null,"type":"movie","add":"2020-12-29 17:09:50","orig_title":"Naksitrallid","year":"1984-01-01","translations":["Полное дублирование"],"quality":"dvdrip","translation":"Полное дублирование","update":"2020-12-30 05:22:51","iframe_src":"//83.svetacdn.in/PfJ50H0ZBPg3/movie/46508"},{"id":46507,"title":"Муфта, Полботинка и Моховая Борода 2","kp_id":"392099","imdb_id":"tt1075366","world_art_id":null,"type":"movie","add":"2020-12-29 17:08:00","orig_title":"Naksitrallid II","year":"1987-01-01","translations":["Полное дублирование"],"quality":"dvdrip","translation":"Полное дублирование","update":"2020-12-30 05:23:41","iframe_src":"//83.svetacdn.in/PfJ50H0ZBPg3/movie/46507"},{"id":46505,"title":"Призрак Сохо","kp_id":"122377","imdb_id":"tt0058466","world_art_id":null,"type":"movie","add":"2020-12-29 16:36:58","orig_title":"Das Phantom von Soho","year":"1964-02-14","translations":["Профессиональный (многоголосый закадровый) (5-й канал СПб)"],"quality":"dvdrip","translation":"Профессиональный (многоголосый закадровый) (5-й канал СПб)","update":"2020-12-30 05:38:40","iframe_src":"//83.svetacdn.in/PfJ50H0ZBPg3/movie/46505"},{"id":46504,"title":"Рождественский ужин","kp_id":"770782","imdb_id":"tt2966312","world_art_id":null,"type":"movie","add":"2020-12-29 16:32:46","orig_title":"La nuit du réveillon","year":"2011-10-16","translations":["Профессиональный (многоголосый закадровый)"],"quality":"hdtv","translation":"Профессиональный (многоголосый закадровый)","update":"2020-12-30 05:20:55","iframe_src":"//83.svetacdn.in/PfJ50H0ZBPg3/movie/46504"},{"id":46502,"title":"Асимметрия","kp_id":"1403546","imdb_id":"tt12988416","world_art_id":null,"type":"movie","add":"2020-12-29 13:34:27","orig_title":"Asymetria","year":"2020-11-13","translations":["Любительский (многоголосый закадровый) (@MUZOBOZ@)"],"quality":"webdl","translation":"Любительский (многоголосый закадровый) (@MUZOBOZ@)","update":"2020-12-29 20:51:20","iframe_src":"//83.svetacdn.in/PfJ50H0ZBPg3/movie/46502"},{"id":46500,"title":"Дом и Эдриан: 2020","kp_id":"1449465","imdb_id":"tt13345810","world_art_id":null,"type":"movie","add":"2020-12-29 13:28:14","orig_title":"Dom and Adrian: 2020","year":"2020-12-13","translations":["Любительский (многоголосый закадровый) (Синема УС)"],"quality":"webdl","translation":"Любительский (многоголосый закадровый) (Синема УС)","update":"2020-12-30 05:43:26","iframe_src":"//83.svetacdn.in/PfJ50H0ZBPg3/movie/46500"},{"id":46498,"title":"Геометрия: Фильм","kp_id":null,"imdb_id":"tt12769990","world_art_id":null,"type":"movie","add":"2020-12-29 13:21:36","orig_title":"Geometry: The Movie","year":"2020-08-08","translations":["Любительский (многоголосый закадровый) (Синема УС)"],"quality":"webdl","translation":"Любительский (многоголосый закадровый) (Синема УС)","update":"2020-12-29 20:50:32","iframe_src":"//83.svetacdn.in/PfJ50H0ZBPg3/movie/46498"},{"id":45588,"title":"Рождественские хроники 2","kp_id":"1309508","imdb_id":"tt11057644","world_art_id":null,"type":"movie","add":"2020-11-24 20:19:55","orig_title":"The Christmas Chronicles 2","year":"2020-11-25","translations":["Полное дублирование (Netflix)","Original (English)","Профессиональный (многоголосый закадровый) (Jaskier)","Профессиональный (многоголосый закадровый) (BaibaKo)"],"quality":"webdl","translation":"Полное дублирование (Netflix)","update":"2020-12-30 05:19:11","iframe_src":"//83.svetacdn.in/PfJ50H0ZBPg3/movie/45588"},{"id":45137,"title":"Порт де Лила: На окраине Парижа","kp_id":"257065","imdb_id":"tt0050850","world_art_id":null,"type":"movie","add":"2020-11-09 10:58:40","orig_title":"Porte des Lilas","year":"1957-09-20","translations":["Полное дублирование (Киностудия им. Горького)","Профессиональный (многоголосый закадровый) (5-й канал СПб)"],"quality":"bd","translation":"Полное дублирование (Киностудия им. Горького)","update":"2020-12-30 10:12:46","iframe_src":"//83.svetacdn.in/PfJ50H0ZBPg3/movie/45137"},{"id":42896,"title":"Ледяной капкан","kp_id":"1193097","imdb_id":"tt8945942","world_art_id":null,"type":"movie","add":"2020-08-28 20:18:37","orig_title":"Centigrade","year":"2020-08-28","translations":["Любительский (многоголосый закадровый) (AlphaProject)","Любительский (одноголосый закадровый) (datynet | Агапов Антон)","Любительский (двухголосый закадровый) (Mallorn Studio)","Original (English)","Полное дублирование (iTunes)"],"quality":"webdl","translation":"Любительский (многоголосый закадровый) (AlphaProject)","update":"2020-12-30 05:37:27","iframe_src":"//83.svetacdn.in/PfJ50H0ZBPg3/movie/42896"},{"id":39901,"title":"Ловец снов","kp_id":"1281639","imdb_id":"tt10553210","world_art_id":null,"type":"movie","add":"2020-04-28 13:23:36","orig_title":"Dreamkatcher","year":"2020-04-27","translations":["Любительский (многоголосый закадровый) (AlphaProject)","Original (English)","Полное дублирование (iTunes)","Авторский (одноголосый закадровый) (Дольский Андрей)"],"quality":"webdl","translation":"Любительский (многоголосый закадровый) (AlphaProject)","update":"2020-12-30 10:10:51","iframe_src":"//83.svetacdn.in/PfJ50H0ZBPg3/movie/39901"},{"id":3383,"title":"Поющие под дождем","kp_id":"368","imdb_id":"tt0045152","world_art_id":null,"type":"movie","add":"2016-06-27 19:16:46","orig_title":"Singin' in the Rain","year":"1952-03-27","translations":["Профессиональный (многоголосый закадровый)","Профессиональный (многоголосый закадровый)","Original (English)","Профессиональный (многоголосый закадровый) (SomeWax)","Авторский (одноголосый закадровый) (Гаврилов Андрей)","Профессиональный (многоголосый закадровый) (DVD Магия)"],"quality":"hdtv","translation":"Профессиональный (многоголосый закадровый)","update":"2020-12-30 09:31:19","iframe_src":"//83.svetacdn.in/PfJ50H0ZBPg3/movie/3383"},{"id":1643,"title":"Спасти рядового Райана","kp_id":"371","imdb_id":"tt0120815","world_art_id":null,"type":"movie","add":"2016-04-24 16:49:42","orig_title":"Saving Private Ryan","year":"1998-07-24","translations":["Полное дублирование","Original (English)","Авторский (одноголосый закадровый) (Гаврилов Андрей)","Авторский (одноголосый закадровый) (Живов Юрий)","Профессиональный (многоголосый закадровый) (НТВ)","Авторский (одноголосый закадровый) (Кашкин Александр | Первомайский)","Авторский (одноголосый закадровый) (Визгунов Сергей)"],"quality":"bd","translation":"Полное дублирование","update":"2020-12-30 09:29:37","iframe_src":"//83.svetacdn.in/PfJ50H0ZBPg3/movie/1643"}],"current_page":675,"first_page_url":"https://videocdn.tv/api/short?limit=100&api_token=RgFQdUIR2dRmwv8iYa5SnFNgnw3vpjKj&cache3675=3675&page=1","from":67401,"last_page":693,"last_page_url":"https://videocdn.tv/api/short?limit=100&api_token=RgFQdUIR2dRmwv8iYa5SnFNgnw3vpjKj&cache3675=3675&page=693","next_page_url":"https://videocdn.tv/api/short?limit=100&api_token=RgFQdUIR2dRmwv8iYa5SnFNgnw3vpjKj&cache3675=3675&page=676","path":"https://videocdn.tv/api/short","per_page":100,"prev_page_url":"https://videocdn.tv/api/short?limit=100&api_token=RgFQdUIR2dRmwv8iYa5SnFNgnw3vpjKj&cache3675=3675&page=674","to":67420,"total":69236}