{"result":true,"data":[{"id":5255,"title":"С 5 до 7. Время любовников","kp_id":"714846","imdb_id":"tt2486678","world_art_id":null,"type":"movie","add":"2016-09-14 05:39:44","orig_title":"5 to 7","year":"2014-04-19","translations":["Полное дублирование"],"quality":"bd","translation":"Полное дублирование","update":"2016-09-14 11:21:20","iframe_src":"//83.svetacdn.in/PfJ50H0ZBPg3/movie/5255"},{"id":5252,"title":"Летняя любовь","kp_id":"998096","imdb_id":"tt5950094","world_art_id":null,"type":"movie","add":"2016-09-14 05:34:17","orig_title":"Summer Love","year":"2016-08-20","translations":["Любительский (многоголосый закадровый) (Синема УС)"],"quality":"hdtv","translation":"Любительский (многоголосый закадровый) (Синема УС)","update":"2016-09-14 09:55:56","iframe_src":"//83.svetacdn.in/PfJ50H0ZBPg3/movie/5252"},{"id":5251,"title":"Новый уровень","kp_id":"902126","imdb_id":"tt4447108","world_art_id":null,"type":"movie","add":"2016-09-14 05:32:01","orig_title":"Level Up","year":"2016-08-26","translations":["Любительский (многоголосый закадровый) (Синема УС)"],"quality":"webdl","translation":"Любительский (многоголосый закадровый) (Синема УС)","update":"2016-09-14 09:47:19","iframe_src":"//83.svetacdn.in/PfJ50H0ZBPg3/movie/5251"},{"id":5250,"title":"Смертельное искушение","kp_id":"848950","imdb_id":"tt4113114","world_art_id":null,"type":"movie","add":"2016-09-14 05:30:39","orig_title":"Lethal Seduction","year":"2015-07-11","translations":["Любительский (многоголосый закадровый) (Синема УС)"],"quality":"webdl","translation":"Любительский (многоголосый закадровый) (Синема УС)","update":"2016-09-14 08:25:26","iframe_src":"//83.svetacdn.in/PfJ50H0ZBPg3/movie/5250"},{"id":5249,"title":"Допрос","kp_id":"902007","imdb_id":"tt4497338","world_art_id":null,"type":"movie","add":"2016-09-14 05:29:00","orig_title":"Interrogation","year":"2016-08-20","translations":["Любительский (многоголосый закадровый) (Синема УС)"],"quality":"bd","translation":"Любительский (многоголосый закадровый) (Синема УС)","update":"2016-09-14 09:59:17","iframe_src":"//83.svetacdn.in/PfJ50H0ZBPg3/movie/5249"},{"id":5248,"title":"С днём рождения","kp_id":"845910","imdb_id":"tt3620846","world_art_id":null,"type":"movie","add":"2016-09-14 05:27:27","orig_title":"Happy Birthday","year":"2016-08-18","translations":["Любительский (многоголосый закадровый) (Синема УС)"],"quality":"webdl","translation":"Любительский (многоголосый закадровый) (Синема УС)","update":"2016-09-14 07:58:02","iframe_src":"//83.svetacdn.in/PfJ50H0ZBPg3/movie/5248"},{"id":5247,"title":"Брат-Природа","kp_id":"853815","imdb_id":"tt4000956","world_art_id":null,"type":"movie","add":"2016-09-14 05:26:02","orig_title":"Brother Nature","year":"2016-09-09","translations":["Любительский (многоголосый закадровый) (Синема УС)"],"quality":"webdl","translation":"Любительский (многоголосый закадровый) (Синема УС)","update":"2016-09-14 07:50:26","iframe_src":"//83.svetacdn.in/PfJ50H0ZBPg3/movie/5247"},{"id":5246,"title":"Темная дорога","kp_id":"867343","imdb_id":"tt3829874","world_art_id":null,"type":"movie","add":"2016-09-14 05:24:26","orig_title":"Black Road","year":"2016-01-28","translations":["Любительский (многоголосый закадровый) (Студия Пиратского Дубляжа)"],"quality":"webdl","translation":"Любительский (многоголосый закадровый) (Студия Пиратского Дубляжа)","update":"2016-09-14 08:04:22","iframe_src":"//83.svetacdn.in/PfJ50H0ZBPg3/movie/5246"},{"id":5245,"title":"Альтамира","kp_id":"779290","imdb_id":"tt3014910","world_art_id":null,"type":"movie","add":"2016-09-14 05:22:44","orig_title":"Altamira","year":"2016-04-01","translations":["Любительский (многоголосый закадровый) (Синема УС)"],"quality":"bd","translation":"Любительский (многоголосый закадровый) (Синема УС)","update":"2016-09-14 08:07:49","iframe_src":"//83.svetacdn.in/PfJ50H0ZBPg3/movie/5245"},{"id":5244,"title":"Фото на недобрую память","kp_id":null,"imdb_id":null,"world_art_id":null,"type":"movie","add":"2016-09-13 14:26:59","orig_title":"Фото на недобрую память","year":"2016-09-12","translations":["Оригинальная дорожка"],"quality":"webdl","translation":"Оригинальная дорожка","update":"2016-09-14 05:01:09","iframe_src":"//83.svetacdn.in/PfJ50H0ZBPg3/movie/5244"},{"id":5151,"title":"Орбита Апокалипсиса","kp_id":"850939","imdb_id":"tt3630556","world_art_id":null,"type":"movie","add":"2016-09-08 14:56:42","orig_title":"Earthfall","year":"2015-06-22","translations":["Профессиональный (многоголосый закадровый)"],"quality":"webdl","translation":"Профессиональный (многоголосый закадровый)","update":"2016-09-14 16:01:16","iframe_src":"//83.svetacdn.in/PfJ50H0ZBPg3/movie/5151"},{"id":5148,"title":"Молния","kp_id":"808675","imdb_id":"tt3346224","world_art_id":null,"type":"movie","add":"2016-09-08 14:50:38","orig_title":"Zipper","year":"2015-01-27","translations":["Любительский (двухголосый закадровый) (Sunshine Studio)"],"quality":"bd","translation":"Любительский (двухголосый закадровый) (Sunshine Studio)","update":"2016-09-13 14:35:00","iframe_src":"//83.svetacdn.in/PfJ50H0ZBPg3/movie/5148"},{"id":5147,"title":"Повестка в суд","kp_id":"710384","imdb_id":"tt2429870","world_art_id":null,"type":"movie","add":"2016-09-08 14:49:55","orig_title":"Summoned","year":"2013-07-05","translations":["Профессиональный (многоголосый закадровый)"],"quality":"webdl","translation":"Профессиональный (многоголосый закадровый)","update":"2016-09-13 13:45:18","iframe_src":"//83.svetacdn.in/PfJ50H0ZBPg3/movie/5147"},{"id":5146,"title":"71","kp_id":"728548","imdb_id":"tt2614684","world_art_id":null,"type":"movie","add":"2016-09-08 14:49:07","orig_title":"'71","year":"2014-02-07","translations":["Любительский (одноголосый закадровый)"],"quality":"bd","translation":"Любительский (одноголосый закадровый)","update":"2016-09-13 13:39:19","iframe_src":"//83.svetacdn.in/PfJ50H0ZBPg3/movie/5146"},{"id":5145,"title":"Дьявол в голубом платье","kp_id":"9932","imdb_id":"tt0112857","world_art_id":null,"type":"movie","add":"2016-09-08 14:48:19","orig_title":"Devil in a Blue Dress","year":"1995-09-16","translations":["Профессиональный (многоголосый закадровый) (Amedia)"],"quality":"bd","translation":"Профессиональный (многоголосый закадровый) (Amedia)","update":"2016-09-13 13:39:49","iframe_src":"//83.svetacdn.in/PfJ50H0ZBPg3/movie/5145"},{"id":5142,"title":"Люди, места, вещи","kp_id":"846019","imdb_id":"tt4104022","world_art_id":null,"type":"movie","add":"2016-09-08 14:45:51","orig_title":"People Places Things","year":"2015-01-26","translations":["Профессиональный (двухголосый закадровый)"],"quality":"webdl","translation":"Профессиональный (двухголосый закадровый)","update":"2016-09-13 10:56:57","iframe_src":"//83.svetacdn.in/PfJ50H0ZBPg3/movie/5142"},{"id":5141,"title":"Последний праведник","kp_id":"813436","imdb_id":"tt3383420","world_art_id":null,"type":"movie","add":"2016-09-08 14:45:12","orig_title":"The Last Saint","year":"2014-08-28","translations":["Авторский (одноголосый закадровый) (Дольский Андрей)"],"quality":"bd","translation":"Авторский (одноголосый закадровый) (Дольский Андрей)","update":"2016-09-13 11:51:30","iframe_src":"//83.svetacdn.in/PfJ50H0ZBPg3/movie/5141"},{"id":5140,"title":"Как жениться и остаться холостым","kp_id":"197588","imdb_id":"tt0478724","world_art_id":null,"type":"movie","add":"2016-09-08 14:44:27","orig_title":"Prête-moi ta main","year":"2006-11-01","translations":["Полное дублирование"],"quality":"bd","translation":"Полное дублирование","update":"2016-09-13 10:44:56","iframe_src":"//83.svetacdn.in/PfJ50H0ZBPg3/movie/5140"},{"id":5139,"title":"Темный лес 2","kp_id":"738969","imdb_id":"tt2664880","world_art_id":null,"type":"movie","add":"2016-09-08 14:43:47","orig_title":"Villmark 2","year":"2015-10-09","translations":["Любительский (двухголосый закадровый)"],"quality":"bd","translation":"Любительский (двухголосый закадровый)","update":"2016-09-13 10:45:33","iframe_src":"//83.svetacdn.in/PfJ50H0ZBPg3/movie/5139"},{"id":5137,"title":"Последняя высадка","kp_id":"78125","imdb_id":"tt0398029","world_art_id":null,"type":"movie","add":"2016-09-08 14:42:02","orig_title":"The Last Drop","year":"2006-04-13","translations":["Профессиональный (многоголосый закадровый)"],"quality":"bd","translation":"Профессиональный (многоголосый закадровый)","update":"2016-09-13 10:40:38","iframe_src":"//83.svetacdn.in/PfJ50H0ZBPg3/movie/5137"}],"current_page":2258,"first_page_url":"https://videocdn.tv/api/short?limit=100&api_token=RgFQdUIR2dRmwv8iYa5SnFNgnw3vpjKj&cache32258=32258&page=1","from":225701,"last_page":608,"last_page_url":"https://videocdn.tv/api/short?limit=100&api_token=RgFQdUIR2dRmwv8iYa5SnFNgnw3vpjKj&cache32258=32258&page=608","next_page_url":null,"path":"https://videocdn.tv/api/short","per_page":100,"prev_page_url":"https://videocdn.tv/api/short?limit=100&api_token=RgFQdUIR2dRmwv8iYa5SnFNgnw3vpjKj&cache32258=32258&page=2257","to":225720,"total":60708}