{"result":true,"data":[{"id":40199,"title":"Помни о нас","kp_id":"1136026","imdb_id":"tt8242420","world_art_id":null,"type":"movie","add":"2020-05-07 22:27:49","orig_title":"Souviens-toi de nous","year":"2019-05-29","translations":["Любительский (многоголосый закадровый) (AlphaProject)"],"quality":"hdtv","translation":"Любительский (многоголосый закадровый) (AlphaProject)","update":"2020-05-08 13:01:41","iframe_src":"//2413.svetacdn.in/IAF0wWTdNYZm/movie/40199"},{"id":40198,"title":"Португалия","kp_id":"994387","imdb_id":"tt5793200","world_art_id":null,"type":"movie","add":"2020-05-07 22:23:16","orig_title":"Portugal","year":"2018-04-13","translations":["Любительский (многоголосый закадровый) (Синема УС)"],"quality":"webdl","translation":"Любительский (многоголосый закадровый) (Синема УС)","update":"2020-05-08 13:01:22","iframe_src":"//2413.svetacdn.in/IAF0wWTdNYZm/movie/40198"},{"id":40197,"title":"Фономания","kp_id":"1118643","imdb_id":"tt8176120","world_art_id":null,"type":"movie","add":"2020-05-07 22:12:44","orig_title":"Phonomanie","year":"2019-10-12","translations":["Любительский (двухголосый закадровый) (Колобок)"],"quality":"webdl","translation":"Любительский (двухголосый закадровый) (Колобок)","update":"2020-05-08 12:58:21","iframe_src":"//2413.svetacdn.in/IAF0wWTdNYZm/movie/40197"},{"id":40196,"title":"Жизнь Йоханнес Пьясуке","kp_id":"1228741","imdb_id":"tt9546082","world_art_id":null,"type":"movie","add":"2020-05-07 22:10:21","orig_title":"Johannes Pääsukese tõeline elu","year":"2019-01-11","translations":["Любительский (многоголосый закадровый) (Синема УС)"],"quality":"webdl","translation":"Любительский (многоголосый закадровый) (Синема УС)","update":"2020-05-08 12:55:47","iframe_src":"//2413.svetacdn.in/IAF0wWTdNYZm/movie/40196"},{"id":40194,"title":"Натали Вуд: Что остается за кадром","kp_id":"1337514","imdb_id":"tt9435952","world_art_id":null,"type":"movie","add":"2020-05-07 20:46:00","orig_title":"Natalie Wood: What Remains Behind","year":"2020-01-27","translations":["Профессиональный (многоголосый закадровый)"],"quality":"webdl","translation":"Профессиональный (многоголосый закадровый)","update":"2020-05-08 12:50:28","iframe_src":"//2413.svetacdn.in/IAF0wWTdNYZm/movie/40194"},{"id":40193,"title":"Шёпот","kp_id":"995462","imdb_id":"tt6004290","world_art_id":null,"type":"movie","add":"2020-05-07 20:42:04","orig_title":"Mo du xiong yin","year":"2016-07-22","translations":["Любительский (двухголосый закадровый) (Колобок)"],"quality":"webdl","translation":"Любительский (двухголосый закадровый) (Колобок)","update":"2020-05-08 12:51:43","iframe_src":"//2413.svetacdn.in/IAF0wWTdNYZm/movie/40193"},{"id":40189,"title":"Донор","kp_id":"21175","imdb_id":"tt0112886","world_art_id":null,"type":"movie","add":"2020-05-07 08:17:18","orig_title":"The Donor","year":"1995-09-19","translations":["Авторский (одноголосый закадровый) (Володарский Леонид)"],"quality":"sat","translation":"Авторский (одноголосый закадровый) (Володарский Леонид)","update":"2020-05-08 13:04:54","iframe_src":"//2413.svetacdn.in/IAF0wWTdNYZm/movie/40189"},{"id":40178,"title":"Существо","kp_id":"867564","imdb_id":"tt3877590","world_art_id":null,"type":"movie","add":"2020-05-07 05:47:56","orig_title":"Being","year":"2020-01-07","translations":["Любительский (многоголосый закадровый) (AlphaProject)","Любительский (двухголосый закадровый) (LakeFilms)"],"quality":"webdl","translation":"Любительский (многоголосый закадровый) (AlphaProject)","update":"2020-05-08 12:58:42","iframe_src":"//2413.svetacdn.in/IAF0wWTdNYZm/movie/40178"},{"id":40175,"title":"Второй шанс","kp_id":"1191218","imdb_id":"tt8983166","world_art_id":null,"type":"movie","add":"2020-05-07 05:32:47","orig_title":"Panga","year":"2020-01-24","translations":["Любительский (многоголосый закадровый) (Синема УС)"],"quality":"webdl","translation":"Любительский (многоголосый закадровый) (Синема УС)","update":"2020-05-07 17:32:28","iframe_src":"//2413.svetacdn.in/IAF0wWTdNYZm/movie/40175"},{"id":25141,"title":"Видок: Охотник на призраков","kp_id":"1063019","imdb_id":"tt7025976","world_art_id":null,"type":"movie","add":"2019-04-22 21:15:16","orig_title":"L'Empereur de Paris","year":"2018-11-03","translations":["Полное дублирование (iTunes)","Профессиональный (многоголосый закадровый)","Профессиональный (многоголосый закадровый) (HDrezka Studio)"],"quality":"bd","translation":"Полное дублирование (iTunes)","update":"2020-05-07 19:05:23","iframe_src":"//2413.svetacdn.in/IAF0wWTdNYZm/movie/25141"},{"id":24953,"title":"Безжалостный","kp_id":"1211403","imdb_id":"tt9239888","world_art_id":null,"type":"movie","add":"2019-04-21 00:26:45","orig_title":"Lo spietato","year":"2019-04-08","translations":["Любительский (многоголосый закадровый) (Mallorn Studio)","Профессиональный (многоголосый закадровый) (HDrezka Studio)"],"quality":"webdl","translation":"Любительский (многоголосый закадровый) (Mallorn Studio)","update":"2020-05-07 16:15:27","iframe_src":"//2413.svetacdn.in/IAF0wWTdNYZm/movie/24953"},{"id":24458,"title":"Давно потерянный","kp_id":"1070067","imdb_id":"tt7282278","world_art_id":null,"type":"movie","add":"2019-04-12 21:00:22","orig_title":"Long Lost","year":"2018-09-29","translations":["Профессиональный (многоголосый закадровый) (HDrezka Studio)"],"quality":"webdl","translation":"Профессиональный (многоголосый закадровый) (HDrezka Studio)","update":"2020-05-07 16:15:44","iframe_src":"//2413.svetacdn.in/IAF0wWTdNYZm/movie/24458"},{"id":23756,"title":"В поисках серебряного озера","kp_id":"1008351","imdb_id":"tt6241678","world_art_id":null,"type":"movie","add":"2019-04-02 06:37:55","orig_title":"Locating Silver Lake","year":"2018-04-28","translations":["Профессиональный (многоголосый закадровый) (HDrezka Studio)","[EN] Original (English)"],"quality":"webdl","translation":"Профессиональный (многоголосый закадровый) (HDrezka Studio)","update":"2020-05-07 20:39:37","iframe_src":"//2413.svetacdn.in/IAF0wWTdNYZm/movie/23756"},{"id":22273,"title":"Блуждающая Земля","kp_id":"1111788","imdb_id":"tt7605074","world_art_id":null,"type":"movie","add":"2019-02-13 23:45:05","orig_title":"Liu lang di qiu","year":"2019-02-05","translations":["Профессиональный (многоголосый закадровый) (HDrezka Studio)","Авторский (одноголосый закадровый) (Дольский Андрей)"],"quality":"webdl","translation":"Профессиональный (многоголосый закадровый) (HDrezka Studio)","update":"2020-05-07 19:01:57","iframe_src":"//2413.svetacdn.in/IAF0wWTdNYZm/movie/22273"},{"id":20691,"title":"Лепрекон возвращается","kp_id":"1114974","imdb_id":"tt8155182","world_art_id":null,"type":"movie","add":"2018-12-12 14:38:07","orig_title":"Leprechaun Returns","year":"2018-12-11","translations":["Профессиональный (многоголосый закадровый) (HDrezka Studio)"],"quality":"webdl","translation":"Профессиональный (многоголосый закадровый) (HDrezka Studio)","update":"2020-05-07 19:02:41","iframe_src":"//2413.svetacdn.in/IAF0wWTdNYZm/movie/20691"},{"id":20207,"title":"Игра","kp_id":"1058586","imdb_id":"tt7489816","world_art_id":null,"type":"movie","add":"2018-11-19 21:13:09","orig_title":"Le jeu","year":"2018-09-05","translations":["Любительский (многоголосый закадровый) (Синема УС)","Любительский (двухголосый закадровый) (LakeFilms)","Профессиональный (многоголосый закадровый) (HDrezka Studio)"],"quality":"webdl","translation":"Любительский (многоголосый закадровый) (Синема УС)","update":"2020-05-07 19:04:32","iframe_src":"//2413.svetacdn.in/IAF0wWTdNYZm/movie/20207"},{"id":19526,"title":"Никогда не возвращайтесь","kp_id":"1107934","imdb_id":"tt7690016","world_art_id":null,"type":"movie","add":"2018-10-12 23:16:04","orig_title":"Never Goin' Back","year":"2018-01-22","translations":["Профессиональный (многоголосый закадровый) (Jaskier)","Профессиональный (многоголосый закадровый) (HDrezka Studio)"],"quality":"webdl","translation":"Профессиональный (многоголосый закадровый) (Jaskier)","update":"2020-05-08 11:33:17","iframe_src":"//2413.svetacdn.in/IAF0wWTdNYZm/movie/19526"},{"id":18623,"title":"Озеро страха: Наследие","kp_id":"1118101","imdb_id":"tt7875948","world_art_id":null,"type":"movie","add":"2018-08-29 00:22:24","orig_title":"Lake Placid: Legacy","year":"2018-05-28","translations":["Профессиональный (многоголосый закадровый) (iTunes)","Профессиональный (многоголосый закадровый) (HDrezka Studio)"],"quality":"webdl","translation":"Профессиональный (многоголосый закадровый) (iTunes)","update":"2020-05-07 19:04:45","iframe_src":"//2413.svetacdn.in/IAF0wWTdNYZm/movie/18623"},{"id":17833,"title":"Оккупация","kp_id":"1068705","imdb_id":"tt6774786","world_art_id":null,"type":"movie","add":"2018-07-22 16:07:35","orig_title":"Occupation","year":"2018-05-25","translations":["Полное дублирование","Профессиональный (многоголосый закадровый) (HDrezka Studio)"],"quality":"bd","translation":"Полное дублирование","update":"2020-05-08 14:41:52","iframe_src":"//2413.svetacdn.in/IAF0wWTdNYZm/movie/17833"},{"id":14510,"title":"Кунг-фу путешественник","kp_id":"986034","imdb_id":"tt5775194","world_art_id":null,"type":"movie","add":"2017-11-30 22:49:13","orig_title":"Gong fu ji qi xia","year":"2017-02-01","translations":["Любительский (многоголосый закадровый) (Синема УС)","Профессиональный (многоголосый закадровый) (HDrezka Studio)"],"quality":"webdl","translation":"Любительский (многоголосый закадровый) (Синема УС)","update":"2020-05-08 11:14:26","iframe_src":"//2413.svetacdn.in/IAF0wWTdNYZm/movie/14510"}],"current_page":1208,"first_page_url":"https://videocdn.tv/api/short?limit=100&api_token=6Onb1W1alEUrBcKJZD3GoKBbWyAl2uG2&cache31208=31208&page=1","from":120701,"last_page":719,"last_page_url":"https://videocdn.tv/api/short?limit=100&api_token=6Onb1W1alEUrBcKJZD3GoKBbWyAl2uG2&cache31208=31208&page=719","next_page_url":null,"path":"https://videocdn.tv/api/short","per_page":100,"prev_page_url":"https://videocdn.tv/api/short?limit=100&api_token=6Onb1W1alEUrBcKJZD3GoKBbWyAl2uG2&cache31208=31208&page=1207","to":120720,"total":71819}