{"result":true,"data":[{"id":47192,"title":"Убийцы на треке","kp_id":"174491","imdb_id":"tt0058587","world_art_id":null,"type":"movie","add":"2021-01-17 17:22:38","orig_title":"Das siebente Opfer","year":"1964-11-27","translations":["Профессиональный (многоголосый закадровый)"],"quality":"webdl","translation":"Профессиональный (многоголосый закадровый)","update":"2021-01-18 09:39:19","iframe_src":"//8332.svetacdn.in/si4jsFRrtgrT/movie/47192"},{"id":47189,"title":"Эдемский сад","kp_id":"314552","imdb_id":"tt1031243","world_art_id":null,"type":"movie","add":"2021-01-17 16:47:21","orig_title":"The Garden of Eden","year":"2008-10-26","translations":["Любительский (одноголосый закадровый) (Voiz)"],"quality":"webdl","translation":"Любительский (одноголосый закадровый) (Voiz)","update":"2021-01-18 11:04:50","iframe_src":"//8332.svetacdn.in/si4jsFRrtgrT/movie/47189"},{"id":47188,"title":"Поймать шпиона","kp_id":"33770","imdb_id":"tt0061098","world_art_id":null,"type":"movie","add":"2021-01-17 16:29:49","orig_title":"To Trap a Spy","year":"1964-01-01","translations":["Профессиональный (многоголосый закадровый) (5-й канал СПб)"],"quality":"dvdrip","translation":"Профессиональный (многоголосый закадровый) (5-й канал СПб)","update":"2021-01-18 09:40:53","iframe_src":"//8332.svetacdn.in/si4jsFRrtgrT/movie/47188"},{"id":47187,"title":"Ганнибал: новые данные","kp_id":null,"imdb_id":"tt8207658","world_art_id":null,"type":"movie","add":"2021-01-17 16:26:30","orig_title":"Hannibal's Elephant Army: The New Evidence","year":"2018-02-25","translations":["Профессиональный (одноголосый закадровый)"],"quality":"hdtv","translation":"Профессиональный (одноголосый закадровый)","update":"2021-01-18 09:42:43","iframe_src":"//8332.svetacdn.in/si4jsFRrtgrT/movie/47187"},{"id":47184,"title":"Возвращение сестры уличного бойца","kp_id":"265969","imdb_id":"tt0196100","world_art_id":null,"type":"movie","add":"2021-01-17 15:31:03","orig_title":"Kaette kita onna hissatsu ken","year":"1975-08-30","translations":["Любительский (одноголосый закадровый) (Береговых Виктор | Jet)"],"quality":"bd","translation":"Любительский (одноголосый закадровый) (Береговых Виктор | Jet)","update":"2021-01-18 09:44:07","iframe_src":"//8332.svetacdn.in/si4jsFRrtgrT/movie/47184"},{"id":47182,"title":"Возвращение уличного бойца","kp_id":"32382","imdb_id":"tt0073623","world_art_id":null,"type":"movie","add":"2021-01-17 15:29:35","orig_title":"Satsujin ken 2","year":"1974-04-27","translations":["Авторский (одноголосый закадровый) (Визгунов Сергей)"],"quality":"bd","translation":"Авторский (одноголосый закадровый) (Визгунов Сергей)","update":"2021-01-18 09:45:14","iframe_src":"//8332.svetacdn.in/si4jsFRrtgrT/movie/47182"},{"id":47181,"title":"Звонок Ангелу","kp_id":"110706","imdb_id":"tt0411271","world_art_id":null,"type":"movie","add":"2021-01-17 15:26:34","orig_title":"Llamando a un ángel","year":"2008-02-14","translations":["Профессиональный (двухголосый закадровый)"],"quality":"dvdrip","translation":"Профессиональный (двухголосый закадровый)","update":"2021-01-18 13:00:50","iframe_src":"//8332.svetacdn.in/si4jsFRrtgrT/movie/47181"},{"id":47157,"title":"Пудинг с карамелью","kp_id":"1307667","imdb_id":"tt10938522","world_art_id":null,"type":"movie","add":"2021-01-16 21:19:51","orig_title":"Sticky Toffee Pudding","year":"2020-07-14","translations":["Любительский (многоголосый закадровый) (Синема УС)"],"quality":"webdl","translation":"Любительский (многоголосый закадровый) (Синема УС)","update":"2021-01-18 13:03:22","iframe_src":"//8332.svetacdn.in/si4jsFRrtgrT/movie/47157"},{"id":47142,"title":"В логове льва","kp_id":"597259","imdb_id":"tt1986871","world_art_id":null,"type":"movie","add":"2021-01-16 11:04:28","orig_title":"Into the Lion's Den","year":"2012-08-31","translations":["Авторский (одноголосый закадровый) (Кошкин Василий)"],"quality":"dvdrip","translation":"Авторский (одноголосый закадровый) (Кошкин Василий)","update":"2021-01-18 11:16:12","iframe_src":"//8332.svetacdn.in/si4jsFRrtgrT/movie/47142"},{"id":47141,"title":"Неописуемая молодость","kp_id":"688026","imdb_id":"tt2168288","world_art_id":null,"type":"movie","add":"2021-01-16 10:52:52","orig_title":"Silent Youth","year":"2012-10-19","translations":["Авторский (одноголосый закадровый) (Кошкин Василий)"],"quality":"dvdrip","translation":"Авторский (одноголосый закадровый) (Кошкин Василий)","update":"2021-01-18 11:15:25","iframe_src":"//8332.svetacdn.in/si4jsFRrtgrT/movie/47141"},{"id":47140,"title":"Мама всегда рядом","kp_id":"1008493","imdb_id":null,"world_art_id":null,"type":"movie","add":"2021-01-16 10:24:52","orig_title":"Мама всегда рядом","year":"2016-12-28","translations":["Оригинальная дорожка"],"quality":"webdl","translation":"Оригинальная дорожка","update":"2021-01-18 11:14:31","iframe_src":"//8332.svetacdn.in/si4jsFRrtgrT/movie/47140"},{"id":47139,"title":"Датские бандюганы","kp_id":"92655","imdb_id":"tt0382365","world_art_id":null,"type":"movie","add":"2021-01-16 10:06:07","orig_title":"Vet hard","year":"2005-02-03","translations":["Профессиональный (многоголосый закадровый)"],"quality":"hdrip","translation":"Профессиональный (многоголосый закадровый)","update":"2021-01-18 11:12:56","iframe_src":"//8332.svetacdn.in/si4jsFRrtgrT/movie/47139"},{"id":47120,"title":"Преждевременный человек","kp_id":"43241","imdb_id":"tt0191371","world_art_id":null,"type":"movie","add":"2021-01-15 17:45:16","orig_title":"Prezhdevremennyy chelovek","year":"1972-01-15","translations":["Оригинальная дорожка"],"quality":"dvb","translation":"Оригинальная дорожка","update":"2021-01-18 13:37:24","iframe_src":"//8332.svetacdn.in/si4jsFRrtgrT/movie/47120"},{"id":47119,"title":"Необычный день","kp_id":"592330","imdb_id":null,"world_art_id":null,"type":"movie","add":"2021-01-15 17:32:59","orig_title":"Необычный день","year":"1972-07-24","translations":["Оригинальная дорожка"],"quality":"vhs","translation":"Оригинальная дорожка","update":"2021-01-18 13:49:04","iframe_src":"//8332.svetacdn.in/si4jsFRrtgrT/movie/47119"},{"id":47118,"title":"Летние гастроли","kp_id":"331835","imdb_id":"tt0079461","world_art_id":null,"type":"movie","add":"2021-01-15 17:24:55","orig_title":"Letnie gastroli","year":"1979-02-03","translations":["Оригинальная дорожка"],"quality":"sat","translation":"Оригинальная дорожка","update":"2021-01-18 13:50:16","iframe_src":"//8332.svetacdn.in/si4jsFRrtgrT/movie/47118"},{"id":47117,"title":"Жена моя, дети мои","kp_id":"958581","imdb_id":"tt10035352","world_art_id":null,"type":"movie","add":"2021-01-15 17:19:17","orig_title":"Zhena moya, deti moi","year":"1978-01-01","translations":["Оригинальная дорожка"],"quality":"vhs","translation":"Оригинальная дорожка","update":"2021-01-18 13:51:32","iframe_src":"//8332.svetacdn.in/si4jsFRrtgrT/movie/47117"},{"id":5768,"title":"Перелётные птицы","kp_id":"1316552","imdb_id":null,"world_art_id":null,"type":"serial","add":"2019-11-17 22:27:49","orig_title":"Перелётные птицы","year":"2019-01-01","translations":["Оригинальная дорожка"],"seasons_count":1,"episodes_count":4,"episodes":4,"update":"2019-11-18 21:34:39","iframe_src":"//8332.svetacdn.in/si4jsFRrtgrT/tv-series/5768"},{"id":5766,"title":"Железный лес","kp_id":"1280672","imdb_id":null,"world_art_id":null,"type":"serial","add":"2019-11-17 21:58:11","orig_title":"Железный лес","year":"2019-11-17","translations":["Оригинальная дорожка"],"seasons_count":1,"episodes_count":4,"episodes":4,"update":"2019-11-18 09:29:43","iframe_src":"//8332.svetacdn.in/si4jsFRrtgrT/tv-series/5766"},{"id":5764,"title":"Лучшая курица","kp_id":"1183481","imdb_id":"tt9426382","world_art_id":null,"type":"serial","add":"2019-11-17 00:00:17","orig_title":"Choigoui Chikin","year":"2019-01-02","translations":["Любительский (двухголосый закадровый) (SoftBox)"],"seasons_count":1,"episodes_count":12,"episodes":12,"update":"2019-11-17 09:58:58","iframe_src":"//8332.svetacdn.in/si4jsFRrtgrT/tv-series/5764"},{"id":5762,"title":"Мэри Поппинс, до свидания","kp_id":"77333","imdb_id":"tt0085932","world_art_id":null,"type":"serial","add":"2019-11-15 20:23:18","orig_title":"Meri Poppins, do svidaniya","year":"1984-01-08","translations":["Оригинальная дорожка"],"seasons_count":1,"episodes_count":2,"episodes":2,"update":"2019-11-16 06:54:55","iframe_src":"//8332.svetacdn.in/si4jsFRrtgrT/tv-series/5762"},{"id":5761,"title":"Дикая Канада","kp_id":"1006711","imdb_id":"tt3690362","world_art_id":null,"type":"serial","add":"2019-11-15 19:58:15","orig_title":"Wild Canada","year":"2014-03-13","translations":["Профессиональный (одноголосый закадровый)"],"seasons_count":1,"episodes_count":4,"episodes":4,"update":"2019-11-16 07:16:40","iframe_src":"//8332.svetacdn.in/si4jsFRrtgrT/tv-series/5761"},{"id":5759,"title":"Такая порода","kp_id":"975650","imdb_id":null,"world_art_id":null,"type":"serial","add":"2019-11-15 11:25:25","orig_title":"Такая порода","year":"2006-05-15","translations":["Оригинальная дорожка"],"seasons_count":1,"episodes_count":4,"episodes":4,"update":"2019-11-16 07:13:01","iframe_src":"//8332.svetacdn.in/si4jsFRrtgrT/tv-series/5759"},{"id":5758,"title":"Паутина 11","kp_id":"1071408","imdb_id":null,"world_art_id":null,"type":"serial","add":"2019-11-15 11:19:52","orig_title":"Паутина 11","year":"2017-11-07","translations":["Оригинальная дорожка"],"seasons_count":1,"episodes_count":16,"episodes":16,"update":"2019-11-18 20:56:02","iframe_src":"//8332.svetacdn.in/si4jsFRrtgrT/tv-series/5758"},{"id":5757,"title":"Нити любви","kp_id":"843315","imdb_id":null,"world_art_id":null,"type":"serial","add":"2019-11-15 11:16:13","orig_title":"Нити любви","year":"2014-10-26","translations":["Оригинальная дорожка"],"seasons_count":1,"episodes_count":4,"episodes":4,"update":"2019-11-16 07:10:53","iframe_src":"//8332.svetacdn.in/si4jsFRrtgrT/tv-series/5757"},{"id":5756,"title":"Умельцы","kp_id":"712894","imdb_id":null,"world_art_id":null,"type":"serial","add":"2019-11-15 11:13:15","orig_title":"Умельцы","year":"2014-12-23","translations":["Оригинальная дорожка"],"seasons_count":1,"episodes_count":16,"episodes":16,"update":"2019-11-18 12:04:25","iframe_src":"//8332.svetacdn.in/si4jsFRrtgrT/tv-series/5756"},{"id":5755,"title":"Месть","kp_id":"726961","imdb_id":"tt2575740","world_art_id":null,"type":"serial","add":"2019-11-15 11:02:18","orig_title":"Intikam","year":"2013-01-03","translations":["Профессиональный (многоголосый закадровый) (Кириллица)"],"seasons_count":2,"episodes_count":44,"episodes":22,"update":"2019-11-15 20:55:26","iframe_src":"//8332.svetacdn.in/si4jsFRrtgrT/tv-series/5755"},{"id":5754,"title":"Кураж – трусливый пёс","kp_id":"281887","imdb_id":"tt0220880","world_art_id":null,"type":"serial","add":"2019-11-15 10:58:37","orig_title":"Courage the Cowardly Dog","year":"1999-11-12","translations":["Полное дублирование"],"seasons_count":4,"episodes_count":52,"episodes":13,"update":"2019-11-17 10:20:18","iframe_src":"//8332.svetacdn.in/si4jsFRrtgrT/tv-series/5754"},{"id":5731,"title":"Мылодрама 2","kp_id":"1297265","imdb_id":null,"world_art_id":null,"type":"serial","add":"2019-11-12 09:52:59","orig_title":"Мылодрама 2","year":"2019-11-11","translations":["Оригинальная дорожка"],"seasons_count":1,"episodes_count":9,"episodes":9,"update":"2019-11-16 05:43:05","iframe_src":"//8332.svetacdn.in/si4jsFRrtgrT/tv-series/5731"},{"id":5692,"title":"Музыкальный блог Доктора Ужасного","kp_id":"419532","imdb_id":"tt1227926","world_art_id":null,"type":"serial","add":"2019-11-08 11:26:49","orig_title":"Dr. Horrible's Sing-Along Blog","year":"2008-07-15","translations":["Любительский (двухголосый закадровый)"],"seasons_count":1,"episodes_count":1,"episodes":1,"update":"2019-11-16 06:51:37","iframe_src":"//8332.svetacdn.in/si4jsFRrtgrT/tv-series/5692"},{"id":5629,"title":"Отчим","kp_id":"1161789","imdb_id":null,"world_art_id":null,"type":"serial","add":"2019-11-04 22:51:01","orig_title":"Отчим","year":"2019-11-04","translations":["Оригинальная дорожка"],"seasons_count":1,"episodes_count":16,"episodes":16,"update":"2019-11-17 00:34:05","iframe_src":"//8332.svetacdn.in/si4jsFRrtgrT/tv-series/5629"},{"id":5562,"title":"Истории Райли","kp_id":"723030","imdb_id":"tt2543796","world_art_id":null,"type":"serial","add":"2019-10-28 19:46:07","orig_title":"Girl Meets World","year":"2014-06-27","translations":["Полное дублирование"],"seasons_count":1,"episodes_count":21,"episodes":21,"update":"2019-11-18 13:27:13","iframe_src":"//8332.svetacdn.in/si4jsFRrtgrT/tv-series/5562"},{"id":5486,"title":"Лаймтаун","kp_id":"1207875","imdb_id":"tt9103772","world_art_id":null,"type":"serial","add":"2019-10-17 11:36:26","orig_title":"Limetown","year":"2019-10-16","translations":["Любительский (многоголосый закадровый) (ColdFilm)","Профессиональный (двухголосый закадровый) (IdeaFilm)","Профессиональный (многоголосый закадровый) (BaibaKo)","Профессиональный (многоголосый закадровый) (HDrezka Studio)","Любительский (многоголосый закадровый) (Octopus)","Профессиональный (многоголосый закадровый) (TVShows)"],"seasons_count":1,"episodes_count":10,"episodes":10,"update":"2019-11-16 06:51:43","iframe_src":"//8332.svetacdn.in/si4jsFRrtgrT/tv-series/5486"},{"id":5098,"title":"Аватар короля","kp_id":"1289686","imdb_id":"tt10732794","world_art_id":null,"type":"serial","add":"2019-08-26 12:02:04","orig_title":"The King's Avatar","year":"2019-07-24","translations":["Любительский (двухголосый закадровый) (AniStar)","Любительский (двухголосый закадровый) (Voice Project Studio)","Любительский (двухголосый закадровый)"],"seasons_count":1,"episodes_count":40,"episodes":40,"update":"2019-11-15 19:34:30","iframe_src":"//8332.svetacdn.in/si4jsFRrtgrT/tv-series/5098"},{"id":28173,"title":"Ромео, мой сосед","kp_id":"475988","imdb_id":"tt11311028","world_art_id":null,"type":"movie","add":"2019-06-22 18:18:43","orig_title":"Romeo, moy sosed","year":"1964-09-10","translations":["Оригинальная дорожка","Полное дублирование"],"quality":"webdl","translation":"Оригинальная дорожка","update":"2021-01-18 13:35:44","iframe_src":"//8332.svetacdn.in/si4jsFRrtgrT/movie/28173"},{"id":25809,"title":"Спасти или погибнуть","kp_id":"1062807","imdb_id":"tt7210426","world_art_id":null,"type":"movie","add":"2019-05-01 20:38:42","orig_title":"Sauver ou périr","year":"2018-11-08","translations":["Профессиональный (многоголосый закадровый) (Первый канал | ОРТ)"],"quality":"bd","translation":"Профессиональный (многоголосый закадровый) (Первый канал | ОРТ)","update":"2021-01-18 12:57:57","iframe_src":"//8332.svetacdn.in/si4jsFRrtgrT/movie/25809"},{"id":22080,"title":"Женщина в красном","kp_id":"16723","imdb_id":"tt0088414","world_art_id":null,"type":"movie","add":"2019-02-05 15:00:29","orig_title":"The Woman in Red","year":"1984-08-15","translations":["Профессиональный (многоголосый закадровый) (СТС)","Original (English)","Авторский (одноголосый закадровый) (Михалёв Алексей)","Авторский (одноголосый закадровый) (Володарский Леонид)","Original (English)","Профессиональный (двухголосый закадровый) (Екатеринбург Арт)","Профессиональный (двухголосый закадровый) (НТВ)"],"quality":"bd","translation":"Профессиональный (многоголосый закадровый) (СТС)","update":"2021-01-18 10:32:35","iframe_src":"//8332.svetacdn.in/si4jsFRrtgrT/movie/22080"},{"id":3911,"title":"Несговорчивый хозяин","kp_id":"1201763","imdb_id":"tt8063866","world_art_id":null,"type":"serial","add":"2019-01-20 08:14:24","orig_title":"The Reluctant Landlord","year":"2018-10-30","translations":["Профессиональный (многоголосый закадровый) (BaibaKo)","Профессиональный (многоголосый закадровый) (HDrezka Studio)"],"seasons_count":2,"episodes_count":12,"episodes":6,"update":"2019-11-18 06:58:37","iframe_src":"//8332.svetacdn.in/si4jsFRrtgrT/tv-series/3911"},{"id":3352,"title":"Легкий как перышко","kp_id":"1173528","imdb_id":"tt8619822","world_art_id":null,"type":"serial","add":"2018-10-22 08:15:06","orig_title":"Light as a Feather","year":"2018-10-12","translations":["Профессиональный (многоголосый закадровый) (NewStudio)","Профессиональный (многоголосый закадровый) (LostFilm)","Профессиональный (многоголосый закадровый) (HDrezka Studio)","Профессиональный (многоголосый закадровый) (BaibaKo)"],"seasons_count":2,"episodes_count":26,"episodes":16,"update":"2019-11-15 17:25:43","iframe_src":"//8332.svetacdn.in/si4jsFRrtgrT/tv-series/3352"},{"id":2759,"title":"Импульс","kp_id":"1046497","imdb_id":"tt6160506","world_art_id":null,"type":"serial","add":"2018-06-07 10:59:11","orig_title":"Impulse","year":"2018-06-06","translations":["Любительский (двухголосый закадровый) (Sunshine Studio)","Профессиональный (многоголосый закадровый) (TVShows)","Профессиональный (многоголосый закадровый) (IdeaFilm)"],"seasons_count":2,"episodes_count":20,"episodes":10,"update":"2019-11-15 14:25:06","iframe_src":"//8332.svetacdn.in/si4jsFRrtgrT/tv-series/2759"},{"id":1752,"title":"Убить Билла 2","kp_id":"47015","imdb_id":"tt0378194","world_art_id":null,"type":"movie","add":"2016-04-30 17:05:30","orig_title":"Kill Bill: Vol. 2","year":"2004-04-16","translations":["Полное дублирование","Авторский (одноголосый закадровый) (Гаврилов Андрей)","Авторский (одноголосый закадровый) (Киреев Антон)","Авторский (одноголосый закадровый) (Яроцкий Михаил | Kyberpunk)","Полное дублирование","Original (English)","Профессиональный (двухголосый закадровый) (Гланц + Королёва)","Профессиональный (многоголосый закадровый)"],"quality":"bd","translation":"Полное дублирование","update":"2021-01-18 10:00:56","iframe_src":"//8332.svetacdn.in/si4jsFRrtgrT/movie/1752"}],"current_page":320,"first_page_url":"https://videocdn.tv/api/short?limit=100&api_token=X6EwAUfE5M9xbo7y0Bp0aPf3uXxG2KLL&cache3320=3320&page=1","from":31901,"last_page":634,"last_page_url":"https://videocdn.tv/api/short?limit=100&api_token=X6EwAUfE5M9xbo7y0Bp0aPf3uXxG2KLL&cache3320=3320&page=634","next_page_url":"https://videocdn.tv/api/short?limit=100&api_token=X6EwAUfE5M9xbo7y0Bp0aPf3uXxG2KLL&cache3320=3320&page=321","path":"https://videocdn.tv/api/short","per_page":100,"prev_page_url":"https://videocdn.tv/api/short?limit=100&api_token=X6EwAUfE5M9xbo7y0Bp0aPf3uXxG2KLL&cache3320=3320&page=319","to":31940,"total":63356}