{"result":true,"data":[{"id":40479,"title":"Операция \"Мумия\"","kp_id":"1192506","imdb_id":"tt8970198","world_art_id":null,"type":"movie","add":"2020-05-18 07:31:00","orig_title":"Operasjon Mumie","year":"2019-10-18","translations":["Любительский (многоголосый закадровый) (AlphaProject)"],"quality":"webdl","translation":"Любительский (многоголосый закадровый) (AlphaProject)","update":"2020-05-18 15:43:12","iframe_src":"//83.svetacdn.in/PfJ50H0ZBPg3/movie/40479"},{"id":40478,"title":"Грейс Спасает","kp_id":"1325205","imdb_id":"tt11198796","world_art_id":null,"type":"movie","add":"2020-05-18 07:26:59","orig_title":"Saved by Grace","year":"2020-01-20","translations":["Любительский (многоголосый закадровый) (Синема УС)"],"quality":"webdl","translation":"Любительский (многоголосый закадровый) (Синема УС)","update":"2020-05-18 15:42:34","iframe_src":"//83.svetacdn.in/PfJ50H0ZBPg3/movie/40478"},{"id":40476,"title":"Трое","kp_id":"9353","imdb_id":"tt0111418","world_art_id":null,"type":"movie","add":"2020-05-17 15:59:36","orig_title":"Threesome","year":"1994-04-08","translations":["Авторский (одноголосый закадровый) (Алексеев Антон)","Original (English)","Профессиональный (многоголосый закадровый) (Первый канал | ОРТ)"],"quality":"webdl","translation":"Авторский (одноголосый закадровый) (Алексеев Антон)","update":"2020-05-18 14:27:38","iframe_src":"//83.svetacdn.in/PfJ50H0ZBPg3/movie/40476"},{"id":40467,"title":"Том и Гек","kp_id":"687162","imdb_id":"tt2200376","world_art_id":null,"type":"movie","add":"2020-05-17 15:45:38","orig_title":"Tom und Hacke","year":"2012-07-01","translations":["Любительский (одноголосый закадровый) (Прошин Вячеслав | Slay73)"],"quality":"webdl","translation":"Любительский (одноголосый закадровый) (Прошин Вячеслав | Slay73)","update":"2020-05-19 06:20:20","iframe_src":"//83.svetacdn.in/PfJ50H0ZBPg3/movie/40467"},{"id":40463,"title":"Стирая его темное прошлое","kp_id":"1202081","imdb_id":"tt9114670","world_art_id":null,"type":"movie","add":"2020-05-17 08:01:42","orig_title":"Erasing His Past","year":"2019-10-11","translations":["Любительский (многоголосый закадровый) (Синема УС)"],"quality":"webdl","translation":"Любительский (многоголосый закадровый) (Синема УС)","update":"2020-05-17 19:44:09","iframe_src":"//83.svetacdn.in/PfJ50H0ZBPg3/movie/40463"},{"id":40462,"title":"Дети","kp_id":"1304271","imdb_id":"tt10937670","world_art_id":null,"type":"movie","add":"2020-05-17 07:57:46","orig_title":"Figli","year":"2020-01-23","translations":["Любительский (многоголосый закадровый) (AlphaProject)"],"quality":"webdl","translation":"Любительский (многоголосый закадровый) (AlphaProject)","update":"2020-05-18 06:15:01","iframe_src":"//83.svetacdn.in/PfJ50H0ZBPg3/movie/40462"},{"id":40461,"title":"Отбитый боксёр","kp_id":"1125434","imdb_id":"tt11135814","world_art_id":null,"type":"movie","add":"2020-05-17 07:54:30","orig_title":"My Punch-Drunk Boxer","year":"2019-10-09","translations":["Любительский (двухголосый закадровый) (Колобок)"],"quality":"webdl","translation":"Любительский (двухголосый закадровый) (Колобок)","update":"2020-05-17 19:39:46","iframe_src":"//83.svetacdn.in/PfJ50H0ZBPg3/movie/40461"},{"id":40460,"title":"Гордость и Предубеждение: Снято","kp_id":"1144774","imdb_id":"tt7919184","world_art_id":null,"type":"movie","add":"2020-05-17 07:52:14","orig_title":"Pride and Prejudice, Cut","year":"2019-09-28","translations":["Любительский (многоголосый закадровый) (AlphaProject)"],"quality":"webdl","translation":"Любительский (многоголосый закадровый) (AlphaProject)","update":"2020-05-18 06:12:31","iframe_src":"//83.svetacdn.in/PfJ50H0ZBPg3/movie/40460"},{"id":40459,"title":"Все причины забыть","kp_id":"1062915","imdb_id":"tt6964520","world_art_id":null,"type":"movie","add":"2020-05-17 07:49:34","orig_title":"Todas as Razões para Esquecer","year":"2018-03-01","translations":["Любительский (многоголосый закадровый) (Синема УС)"],"quality":"webdl","translation":"Любительский (многоголосый закадровый) (Синема УС)","update":"2020-05-18 06:14:13","iframe_src":"//83.svetacdn.in/PfJ50H0ZBPg3/movie/40459"},{"id":40457,"title":"Молчание до гроба","kp_id":"622617","imdb_id":"tt1959347","world_art_id":null,"type":"movie","add":"2020-05-16 16:58:26","orig_title":"Sexting in Suburbia","year":"2012-01-14","translations":["Профессиональный (многоголосый закадровый) (SDI Media)"],"quality":"dvb","translation":"Профессиональный (многоголосый закадровый) (SDI Media)","update":"2020-05-18 18:20:48","iframe_src":"//83.svetacdn.in/PfJ50H0ZBPg3/movie/40457"},{"id":40456,"title":"Все кроме любви","kp_id":"572417","imdb_id":"tt1735839","world_art_id":null,"type":"movie","add":"2020-05-16 16:57:14","orig_title":"Any Questions for Ben?","year":"2012-02-09","translations":["Профессиональный (многоголосый закадровый)"],"quality":"bd","translation":"Профессиональный (многоголосый закадровый)","update":"2020-05-18 18:22:09","iframe_src":"//83.svetacdn.in/PfJ50H0ZBPg3/movie/40456"},{"id":40455,"title":"Время смелых","kp_id":"105418","imdb_id":"tt0462570","world_art_id":null,"type":"movie","add":"2020-05-16 16:44:58","orig_title":"Tiempo de valientes","year":"2005-09-29","translations":["Профессиональный (многоголосый закадровый) (ViruseProject)"],"quality":"dvdrip","translation":"Профессиональный (многоголосый закадровый) (ViruseProject)","update":"2020-05-18 18:22:36","iframe_src":"//83.svetacdn.in/PfJ50H0ZBPg3/movie/40455"},{"id":40454,"title":"Божий гнев","kp_id":"622070","imdb_id":null,"world_art_id":null,"type":"movie","add":"2020-05-16 16:29:02","orig_title":"God's Wrath","year":"2010-11-09","translations":["Профессиональный (одноголосый закадровый)"],"quality":"hdrip","translation":"Профессиональный (одноголосый закадровый)","update":"2020-05-18 18:24:51","iframe_src":"//83.svetacdn.in/PfJ50H0ZBPg3/movie/40454"},{"id":40453,"title":"Молчание другого сорта","kp_id":"582186","imdb_id":"tt1837508","world_art_id":null,"type":"movie","add":"2020-05-16 16:27:22","orig_title":"Another Silence","year":"2011-09-07","translations":["Профессиональный (двухголосый закадровый) (НТВ)"],"quality":"dvb","translation":"Профессиональный (двухголосый закадровый) (НТВ)","update":"2020-05-18 18:20:22","iframe_src":"//83.svetacdn.in/PfJ50H0ZBPg3/movie/40453"},{"id":40444,"title":"Фингерпори","kp_id":"898395","imdb_id":"tt4476106","world_art_id":null,"type":"movie","add":"2020-05-16 13:34:33","orig_title":"Fingerpori","year":"2019-08-31","translations":["Любительский (многоголосый закадровый) (Синема УС)"],"quality":"webdl","translation":"Любительский (многоголосый закадровый) (Синема УС)","update":"2020-05-18 09:21:15","iframe_src":"//83.svetacdn.in/PfJ50H0ZBPg3/movie/40444"},{"id":40443,"title":"Избранники Господа","kp_id":"886740","imdb_id":null,"world_art_id":null,"type":"movie","add":"2020-05-16 13:31:38","orig_title":"God Send","year":"2017-01-01","translations":["Любительский (многоголосый закадровый) (Синема УС)"],"quality":"webdl","translation":"Любительский (многоголосый закадровый) (Синема УС)","update":"2020-05-18 09:17:23","iframe_src":"//83.svetacdn.in/PfJ50H0ZBPg3/movie/40443"},{"id":40442,"title":"Железный человек","kp_id":"1353323","imdb_id":"tt11803570","world_art_id":null,"type":"movie","add":"2020-05-16 13:28:59","orig_title":"Irumbu manithan","year":"2020-02-28","translations":["Любительский (многоголосый закадровый) (Синема УС)"],"quality":"webdl","translation":"Любительский (многоголосый закадровый) (Синема УС)","update":"2020-05-18 09:13:24","iframe_src":"//83.svetacdn.in/PfJ50H0ZBPg3/movie/40442"},{"id":40174,"title":"Честный кандидат","kp_id":"1275516","imdb_id":null,"world_art_id":null,"type":"movie","add":"2020-05-07 05:25:11","orig_title":"Jeongjikhan hubo","year":"2020-02-12","translations":["Любительский (двухголосый закадровый) (Колобок)","Любительский (двухголосый закадровый) (Колобок)"],"quality":"webdl","translation":"Любительский (двухголосый закадровый) (Колобок)","update":"2020-05-18 17:23:53","iframe_src":"//83.svetacdn.in/PfJ50H0ZBPg3/movie/40174"},{"id":38334,"title":"Хитмен","kp_id":"1267258","imdb_id":"tt11649614","world_art_id":null,"type":"movie","add":"2020-03-21 14:29:59","orig_title":"Hiteumaen","year":"2020-01-22","translations":["Любительский (многоголосый закадровый) (Синема УС)","Любительский (двухголосый закадровый)","Любительский (многоголосый закадровый) (WestFilm)"],"quality":"webdl","translation":"Любительский (многоголосый закадровый) (Синема УС)","update":"2020-05-17 23:25:44","iframe_src":"//83.svetacdn.in/PfJ50H0ZBPg3/movie/38334"},{"id":1434,"title":"Западня","kp_id":"8172","imdb_id":"tt0137494","world_art_id":null,"type":"movie","add":"2016-04-21 13:31:26","orig_title":"Entrapment","year":"1999-04-29","translations":["Полное дублирование","Original (English)","Авторский (одноголосый закадровый) (Гаврилов Андрей)","Авторский (одноголосый закадровый) (Кашкин Александр | Первомайский)","Полное дублирование","Профессиональный (двухголосый закадровый) (НТВ)","Профессиональный (многоголосый закадровый)","Профессиональный (многоголосый закадровый) (ТНТ)"],"quality":"bd","translation":"Полное дублирование","update":"2020-05-18 14:23:50","iframe_src":"//83.svetacdn.in/PfJ50H0ZBPg3/movie/1434"}],"current_page":707,"first_page_url":"https://videocdn.tv/api/short?limit=100&api_token=RgFQdUIR2dRmwv8iYa5SnFNgnw3vpjKj&cache3707=3707&page=1","from":70601,"last_page":637,"last_page_url":"https://videocdn.tv/api/short?limit=100&api_token=RgFQdUIR2dRmwv8iYa5SnFNgnw3vpjKj&cache3707=3707&page=637","next_page_url":null,"path":"https://videocdn.tv/api/short","per_page":100,"prev_page_url":"https://videocdn.tv/api/short?limit=100&api_token=RgFQdUIR2dRmwv8iYa5SnFNgnw3vpjKj&cache3707=3707&page=706","to":70620,"total":63673}