{"result":true,"data":[{"id":40238,"title":"Мои братья","kp_id":"1113405","imdb_id":"tt7724516","world_art_id":null,"type":"movie","add":"2020-05-09 03:20:13","orig_title":"Mes frères","year":"2018-03-16","translations":["Любительский (многоголосый закадровый) (Синема УС)"],"quality":"webdl","translation":"Любительский (многоголосый закадровый) (Синема УС)","update":"2020-05-09 14:40:11","iframe_src":"//8209.svetacdn.in/10IAF0wWTdNYZm/movie/40238"},{"id":40237,"title":"Мечты и дороги","kp_id":"1108932","imdb_id":"tt7655052","world_art_id":null,"type":"movie","add":"2020-05-09 03:18:35","orig_title":"The Path of Our Dream","year":"2017-12-19","translations":["Любительский (двухголосый закадровый) (Колобок)"],"quality":"webdl","translation":"Любительский (двухголосый закадровый) (Колобок)","update":"2020-05-09 12:28:04","iframe_src":"//8209.svetacdn.in/10IAF0wWTdNYZm/movie/40237"},{"id":40232,"title":"Бабочки в животе","kp_id":"1087336","imdb_id":"tt6489562","world_art_id":null,"type":"movie","add":"2020-05-09 03:01:12","orig_title":"Sweetness in the Belly","year":"2019-09-06","translations":["Любительский (многоголосый закадровый) (AlphaProject)"],"quality":"webdl","translation":"Любительский (многоголосый закадровый) (AlphaProject)","update":"2020-05-09 12:27:44","iframe_src":"//8209.svetacdn.in/10IAF0wWTdNYZm/movie/40232"},{"id":40229,"title":"Переход","kp_id":"1222110","imdb_id":"tt9386016","world_art_id":null,"type":"movie","add":"2020-05-09 02:58:16","orig_title":"Vert","year":"2019-11-06","translations":["Любительский (многоголосый закадровый) (Синема УС)"],"quality":"webdl","translation":"Любительский (многоголосый закадровый) (Синема УС)","update":"2020-05-09 12:28:35","iframe_src":"//8209.svetacdn.in/10IAF0wWTdNYZm/movie/40229"},{"id":34516,"title":"Небо измеряется милями","kp_id":"1245325","imdb_id":"tt11498678","world_art_id":null,"type":"movie","add":"2019-12-27 11:49:31","orig_title":"Nebo izmeryaetsya milyami","year":"2019-12-19","translations":["Оригинальная дорожка"],"quality":"webdl","translation":"Оригинальная дорожка","update":"2020-05-09 15:16:54","iframe_src":"//8209.svetacdn.in/10IAF0wWTdNYZm/movie/34516"},{"id":28690,"title":"Хладнокровный","kp_id":"1201649","imdb_id":"tt9082020","world_art_id":null,"type":"movie","add":"2019-07-06 21:35:16","orig_title":"Cold Blood Legacy","year":"2019-05-15","translations":["Полное дублирование","Original (English)","Профессиональный (многоголосый закадровый) (HDrezka Studio)","Профессиональный (многоголосый закадровый) (HDrezka Studio)"],"quality":"bd","translation":"Полное дублирование","update":"2020-05-09 15:06:47","iframe_src":"//8209.svetacdn.in/10IAF0wWTdNYZm/movie/28690"},{"id":26119,"title":"Железное небо 2","kp_id":"778732","imdb_id":"tt3038708","world_art_id":null,"type":"movie","add":"2019-05-07 14:02:24","orig_title":"Iron Sky: The Coming Race","year":"2019-01-16","translations":["Профессиональный (многоголосый закадровый) (HDrezka Studio)","Original (English)"],"quality":"webdl","translation":"Профессиональный (многоголосый закадровый) (HDrezka Studio)","update":"2020-05-09 15:14:50","iframe_src":"//8209.svetacdn.in/10IAF0wWTdNYZm/movie/26119"},{"id":25987,"title":"Я заберу твоего мертвеца","kp_id":"1115142","imdb_id":"tt7962932","world_art_id":null,"type":"movie","add":"2019-05-04 21:12:57","orig_title":"I'll Take Your Dead","year":"2018-09-27","translations":["Любительский (одноголосый закадровый) (Хихикающий доктор)","Профессиональный (многоголосый закадровый) (HDrezka Studio)"],"quality":"webdl","translation":"Любительский (одноголосый закадровый) (Хихикающий доктор)","update":"2020-05-09 14:32:33","iframe_src":"//8209.svetacdn.in/10IAF0wWTdNYZm/movie/25987"},{"id":25455,"title":"Я поймал Дьявола","kp_id":"1173687","imdb_id":"tt8708304","world_art_id":null,"type":"movie","add":"2019-04-27 20:40:28","orig_title":"I Trapped the Devil","year":"2019-04-12","translations":["Профессиональный (многоголосый закадровый) (HDrezka Studio)"],"quality":"webdl","translation":"Профессиональный (многоголосый закадровый) (HDrezka Studio)","update":"2020-05-09 15:06:12","iframe_src":"//8209.svetacdn.in/10IAF0wWTdNYZm/movie/25455"},{"id":24558,"title":"Крипто","kp_id":"1164589","imdb_id":"tt8563452","world_art_id":null,"type":"movie","add":"2019-04-14 11:56:42","orig_title":"Crypto","year":"2019-04-12","translations":["Полное дублирование","Профессиональный (многоголосый закадровый) (HDrezka Studio)"],"quality":"bd","translation":"Полное дублирование","update":"2020-05-09 14:28:32","iframe_src":"//8209.svetacdn.in/10IAF0wWTdNYZm/movie/24558"},{"id":24075,"title":"Потерянное звено","kp_id":"1118427","imdb_id":"tt6348138","world_art_id":null,"type":"movie","add":"2019-04-07 22:17:37","orig_title":"Missing Link","year":"2019-04-05","translations":["Полное дублирование (iTunes)","Профессиональный (многоголосый закадровый) (HDrezka Studio)"],"quality":"bd","translation":"Полное дублирование (iTunes)","update":"2020-05-09 13:03:09","iframe_src":"//8209.svetacdn.in/10IAF0wWTdNYZm/movie/24075"},{"id":23155,"title":"Штамм химеры","kp_id":"905840","imdb_id":"tt4209174","world_art_id":null,"type":"movie","add":"2019-03-17 22:08:31","orig_title":"Chimera Strain","year":"2018-02-24","translations":["Профессиональный (многоголосый закадровый) (HDrezka Studio)"],"quality":"webdl","translation":"Профессиональный (многоголосый закадровый) (HDrezka Studio)","update":"2020-05-09 14:27:31","iframe_src":"//8209.svetacdn.in/10IAF0wWTdNYZm/movie/23155"},{"id":22855,"title":"Меня здесь нет","kp_id":"975709","imdb_id":"tt5657712","world_art_id":null,"type":"movie","add":"2019-03-10 15:04:50","orig_title":"I'm Not Here","year":"2017-09-21","translations":["Любительский (многоголосый закадровый) (@MUZOBOZ@)","Профессиональный (многоголосый закадровый) (HDrezka Studio)"],"quality":"webdl","translation":"Любительский (многоголосый закадровый) (@MUZOBOZ@)","update":"2020-05-09 12:34:21","iframe_src":"//8209.svetacdn.in/10IAF0wWTdNYZm/movie/22855"},{"id":22087,"title":"Гибрид","kp_id":"953116","imdb_id":"tt5258074","world_art_id":null,"type":"movie","add":"2019-02-06 07:18:41","orig_title":"Crossbreed","year":"2019-02-05","translations":["Профессиональный (многоголосый закадровый) (HDrezka Studio)"],"quality":"webdl","translation":"Профессиональный (многоголосый закадровый) (HDrezka Studio)","update":"2020-05-09 14:28:12","iframe_src":"//8209.svetacdn.in/10IAF0wWTdNYZm/movie/22087"},{"id":18765,"title":"Основано на реальных событиях","kp_id":"992990","imdb_id":"tt5893264","world_art_id":null,"type":"movie","add":"2018-09-03 23:18:33","orig_title":"D'après une histoire vraie","year":"2017-05-27","translations":["Полное дублирование (iTunes)","Профессиональный (многоголосый закадровый) (GreenРай Studio)","Любительский (многоголосый закадровый) (@MUZOBOZ@)","Профессиональный (многоголосый закадровый) (HDrezka Studio)"],"quality":"bd","translation":"Полное дублирование (iTunes)","update":"2020-05-09 14:30:27","iframe_src":"//8209.svetacdn.in/10IAF0wWTdNYZm/movie/18765"},{"id":17483,"title":"Идеальный дом","kp_id":"958572","imdb_id":"tt5460880","world_art_id":null,"type":"movie","add":"2018-07-01 23:44:29","orig_title":"Ideal Home","year":"2018-02-15","translations":["Профессиональный (многоголосый закадровый) (HDrezka Studio)"],"quality":"webdl","translation":"Профессиональный (многоголосый закадровый) (HDrezka Studio)","update":"2020-05-09 13:02:46","iframe_src":"//8209.svetacdn.in/10IAF0wWTdNYZm/movie/17483"},{"id":16919,"title":"Невидимка","kp_id":"977435","imdb_id":"tt5164184","world_art_id":null,"type":"movie","add":"2018-05-27 00:05:58","orig_title":"In Darkness","year":"2018-05-23","translations":["Полное дублирование","Любительский (одноголосый закадровый) (BadBajo)","Любительский (многоголосый закадровый) (AlphaProject)","Original (English)","Профессиональный (многоголосый закадровый) (HDrezka Studio)"],"quality":"bd","translation":"Полное дублирование","update":"2020-05-09 13:02:30","iframe_src":"//8209.svetacdn.in/10IAF0wWTdNYZm/movie/16919"},{"id":16785,"title":"Истерия","kp_id":"630222","imdb_id":"tt2069797","world_art_id":null,"type":"movie","add":"2018-05-15 06:00:16","orig_title":"Delirium","year":"2018-05-10","translations":["Полное дублирование","Профессиональный (многоголосый закадровый) (HDrezka Studio)"],"quality":"bd","translation":"Полное дублирование","update":"2020-05-09 14:30:48","iframe_src":"//8209.svetacdn.in/10IAF0wWTdNYZm/movie/16785"},{"id":16303,"title":"Еретик","kp_id":"557769","imdb_id":"tt1690967","world_art_id":null,"type":"movie","add":"2018-04-15 22:15:46","orig_title":"Come Sunday","year":"2018-01-21","translations":["Профессиональный (многоголосый закадровый) (NewStudio)","Профессиональный (многоголосый закадровый) (HDrezka Studio)"],"quality":"webdl","translation":"Профессиональный (многоголосый закадровый) (NewStudio)","update":"2020-05-09 14:27:43","iframe_src":"//8209.svetacdn.in/10IAF0wWTdNYZm/movie/16303"},{"id":15712,"title":"Дорогой диктатор","kp_id":"985934","imdb_id":"tt5779540","world_art_id":null,"type":"movie","add":"2018-03-17 22:13:30","orig_title":"Dear Dictator","year":"2018-03-16","translations":["Полное дублирование (iTunes)","Профессиональный (многоголосый закадровый) (HDrezka Studio)"],"quality":"bd","translation":"Полное дублирование (iTunes)","update":"2020-05-09 14:29:11","iframe_src":"//8209.svetacdn.in/10IAF0wWTdNYZm/movie/15712"}],"current_page":861,"first_page_url":"https://videocdn.tv/api/short?limit=100&api_token=6Onb1W1alEUrBcKJZD3GoKBbWyAl2uG2&cache3861=3861&page=1","from":86001,"last_page":663,"last_page_url":"https://videocdn.tv/api/short?limit=100&api_token=6Onb1W1alEUrBcKJZD3GoKBbWyAl2uG2&cache3861=3861&page=663","next_page_url":null,"path":"https://videocdn.tv/api/short","per_page":100,"prev_page_url":"https://videocdn.tv/api/short?limit=100&api_token=6Onb1W1alEUrBcKJZD3GoKBbWyAl2uG2&cache3861=3861&page=860","to":86020,"total":66262}