{"result":true,"data":[{"id":44244,"title":"Амитивилль. Кровавая жатва","kp_id":"1317221","imdb_id":"tt11177556","world_art_id":null,"type":"movie","add":"2020-10-08 20:10:25","orig_title":"The Amityville Harvest","year":"2020-10-20","translations":["Любительский (многоголосый закадровый) (Синема УС)"],"quality":"dvdrip","translation":"Любительский (многоголосый закадровый) (Синема УС)","update":"2020-10-09 06:06:03","iframe_src":"//8332.svetacdn.in/IAF0wWTdNYZm/movie/44244"},{"id":44239,"title":"Американское убийство: Семья по соседству","kp_id":"1405935","imdb_id":"tt12987894","world_art_id":null,"type":"movie","add":"2020-10-08 11:32:39","orig_title":"NAmerican Murder: The Familyext Door","year":"2020-09-30","translations":["Любительский (двухголосый закадровый) (OnisFilms)"],"quality":"webdl","translation":"Любительский (двухголосый закадровый) (OnisFilms)","update":"2020-10-08 21:59:00","iframe_src":"//8332.svetacdn.in/IAF0wWTdNYZm/movie/44239"},{"id":44235,"title":"Трамп против иллюминатов","kp_id":"1404020","imdb_id":"tt12969958","world_art_id":null,"type":"movie","add":"2020-10-08 09:05:10","orig_title":"Trump vs the Illuminati","year":"2020-10-06","translations":["Любительский (многоголосый закадровый) (@MUZOBOZ@)"],"quality":"webdl","translation":"Любительский (многоголосый закадровый) (@MUZOBOZ@)","update":"2020-10-08 12:43:41","iframe_src":"//8332.svetacdn.in/IAF0wWTdNYZm/movie/44235"},{"id":44232,"title":"Королева","kp_id":"1162784","imdb_id":null,"world_art_id":null,"type":"movie","add":"2020-10-08 07:31:07","orig_title":"Королева","year":"2020-09-10","translations":["Оригинальная дорожка"],"quality":"webdl","translation":"Оригинальная дорожка","update":"2020-10-08 13:55:39","iframe_src":"//8332.svetacdn.in/IAF0wWTdNYZm/movie/44232"},{"id":44231,"title":"Классика Тайди Тима","kp_id":"1142301","imdb_id":"tt8005256","world_art_id":null,"type":"movie","add":"2020-10-08 06:36:19","orig_title":"Tidy Tim's","year":"2020-02-15","translations":["Любительский (многоголосый закадровый) (@MUZOBOZ@)"],"quality":"webdl","translation":"Любительский (многоголосый закадровый) (@MUZOBOZ@)","update":"2020-10-08 12:37:41","iframe_src":"//8332.svetacdn.in/IAF0wWTdNYZm/movie/44231"},{"id":44230,"title":"Под контролем","kp_id":"789324","imdb_id":"tt3107252","world_art_id":null,"type":"movie","add":"2020-10-08 06:33:33","orig_title":"Trolls World","year":"2020-01-01","translations":["Любительский (многоголосый закадровый) (@MUZOBOZ@)"],"quality":"webdl","translation":"Любительский (многоголосый закадровый) (@MUZOBOZ@)","update":"2020-10-08 12:37:07","iframe_src":"//8332.svetacdn.in/IAF0wWTdNYZm/movie/44230"},{"id":44203,"title":"Бланш Фьюри","kp_id":"201636","imdb_id":"tt0039195","world_art_id":null,"type":"movie","add":"2020-10-07 13:28:24","orig_title":"Blanche Fury","year":"1948-02-18","translations":["Любительский (одноголосый закадровый)"],"quality":"dvdrip","translation":"Любительский (одноголосый закадровый)","update":"2020-10-09 07:22:05","iframe_src":"//8332.svetacdn.in/IAF0wWTdNYZm/movie/44203"},{"id":44202,"title":"Золотая каска","kp_id":"26777","imdb_id":"tt0043386","world_art_id":null,"type":"movie","add":"2020-10-07 12:28:10","orig_title":"Casque d'or","year":"1952-03-13","translations":["Профессиональный (многоголосый закадровый) (Кипарис)"],"quality":"bd","translation":"Профессиональный (многоголосый закадровый) (Кипарис)","update":"2020-10-09 07:20:43","iframe_src":"//8332.svetacdn.in/IAF0wWTdNYZm/movie/44202"},{"id":44199,"title":"Мисс Грант захватывает Ричмонд","kp_id":"11203","imdb_id":"tt0041652","world_art_id":null,"type":"movie","add":"2020-10-07 11:13:15","orig_title":"Miss Grant Takes Richmond","year":"1949-09-20","translations":["Original (English)","Авторский (одноголосый закадровый) (Яковлев Алексей)"],"quality":"dvdrip","translation":"Original (English)","update":"2020-10-09 07:26:23","iframe_src":"//8332.svetacdn.in/IAF0wWTdNYZm/movie/44199"},{"id":44192,"title":"Невинные чародеи","kp_id":"11626","imdb_id":"tt0054119","world_art_id":null,"type":"movie","add":"2020-10-07 10:35:53","orig_title":"Niewinni czarodzieje","year":"1960-12-17","translations":["Профессиональный (одноголосый закадровый)"],"quality":"dvdrip","translation":"Профессиональный (одноголосый закадровый)","update":"2020-10-08 16:02:24","iframe_src":"//8332.svetacdn.in/IAF0wWTdNYZm/movie/44192"},{"id":44191,"title":"Чистокровки не плачут","kp_id":"13750","imdb_id":"tt0029664","world_art_id":null,"type":"movie","add":"2020-10-07 10:32:06","orig_title":"Thoroughbreds Don't Cry","year":"1937-11-25","translations":["Профессиональный (одноголосый закадровый)"],"quality":"dvdrip","translation":"Профессиональный (одноголосый закадровый)","update":"2020-10-08 16:16:04","iframe_src":"//8332.svetacdn.in/IAF0wWTdNYZm/movie/44191"},{"id":44183,"title":"Расплата","kp_id":"1100922","imdb_id":"tt7631568","world_art_id":null,"type":"movie","add":"2020-10-06 20:35:18","orig_title":"Reckoning","year":"2019-04-07","translations":["Любительский (многоголосый закадровый) (@MUZOBOZ@)"],"quality":"webdl","translation":"Любительский (многоголосый закадровый) (@MUZOBOZ@)","update":"2020-10-08 20:44:39","iframe_src":"//8332.svetacdn.in/IAF0wWTdNYZm/movie/44183"},{"id":44182,"title":"Парк Ужаса","kp_id":"1299061","imdb_id":"tt10887520","world_art_id":null,"type":"movie","add":"2020-10-06 20:33:30","orig_title":"Carnival Evil","year":"2018-05-07","translations":["Любительский (многоголосый закадровый) (Синема УС)"],"quality":"webdl","translation":"Любительский (многоголосый закадровый) (Синема УС)","update":"2020-10-08 20:44:05","iframe_src":"//8332.svetacdn.in/IAF0wWTdNYZm/movie/44182"},{"id":44181,"title":"Кубинец","kp_id":"1108628","imdb_id":"tt7671124","world_art_id":null,"type":"movie","add":"2020-10-06 20:31:59","orig_title":"The Cuban","year":"2019-12-07","translations":["Любительский (многоголосый закадровый) (@MUZOBOZ@)"],"quality":"webdl","translation":"Любительский (многоголосый закадровый) (@MUZOBOZ@)","update":"2020-10-08 20:43:26","iframe_src":"//8332.svetacdn.in/IAF0wWTdNYZm/movie/44181"},{"id":44178,"title":"Герои не умирают","kp_id":"1198127","imdb_id":"tt9041212","world_art_id":null,"type":"movie","add":"2020-10-06 20:27:25","orig_title":"Les héros ne meurent jamais","year":"2019-05-17","translations":["Любительский (многоголосый закадровый) (Синема УС)"],"quality":"ts","translation":"Любительский (многоголосый закадровый) (Синема УС)","update":"2020-10-08 20:42:54","iframe_src":"//8332.svetacdn.in/IAF0wWTdNYZm/movie/44178"},{"id":44177,"title":"Ничего личного","kp_id":"432846","imdb_id":"tt1320352","world_art_id":null,"type":"movie","add":"2020-10-06 20:25:38","orig_title":"Nothing Personal","year":"2009-08-14","translations":["Original (English)"],"quality":"webdl","translation":"Original (English)","update":"2020-10-08 20:42:26","iframe_src":"//8332.svetacdn.in/IAF0wWTdNYZm/movie/44177"},{"id":44175,"title":"Броуновское движение","kp_id":"492577","imdb_id":"tt1529240","world_art_id":null,"type":"movie","add":"2020-10-06 20:08:53","orig_title":"Brownian Movement","year":"2010-09-10","translations":["Original (English)"],"quality":"webdl","translation":"Original (English)","update":"2020-10-08 20:36:10","iframe_src":"//8332.svetacdn.in/IAF0wWTdNYZm/movie/44175"},{"id":44075,"title":"Вампиры в Бронксе","kp_id":"1191666","imdb_id":"tt8976576","world_art_id":null,"type":"movie","add":"2020-10-02 14:29:43","orig_title":"Vampires vs. the Bronx","year":"2020-10-02","translations":["Любительский (многоголосый закадровый) (@MUZOBOZ@)","Любительский (двухголосый закадровый) (OnisFilms)","Original (English)"],"quality":"webdl","translation":"Любительский (многоголосый закадровый) (@MUZOBOZ@)","update":"2020-10-08 20:39:29","iframe_src":"//8332.svetacdn.in/IAF0wWTdNYZm/movie/44075"},{"id":44067,"title":"12-часовая смена","kp_id":"1263495","imdb_id":"tt10309552","world_art_id":null,"type":"movie","add":"2020-10-02 10:45:46","orig_title":"12 Hour Shift","year":"2020-04-15","translations":["Любительский (многоголосый закадровый) (@MUZOBOZ@)","Original (English)"],"quality":"webdl","translation":"Любительский (многоголосый закадровый) (@MUZOBOZ@)","update":"2020-10-08 20:36:46","iframe_src":"//8332.svetacdn.in/IAF0wWTdNYZm/movie/44067"},{"id":1114,"title":"Тещины блины","kp_id":"806648","imdb_id":null,"world_art_id":null,"type":"serial","add":"2017-03-15 07:12:57","orig_title":"Тещины блины","year":"2014-03-04","translations":["Оригинальная дорожка"],"seasons_count":1,"episodes_count":4,"episodes":4,"update":"2017-03-15 14:59:55","iframe_src":"//8332.svetacdn.in/IAF0wWTdNYZm/tv-series/1114"},{"id":1112,"title":"Обещание","kp_id":"1008916","imdb_id":null,"world_art_id":null,"type":"serial","add":"2017-03-15 06:59:48","orig_title":"Обещание","year":"2017-01-26","translations":["Оригинальная дорожка"],"seasons_count":1,"episodes_count":2,"episodes":2,"update":"2017-03-15 15:03:01","iframe_src":"//8332.svetacdn.in/IAF0wWTdNYZm/tv-series/1112"},{"id":1111,"title":"Ключи","kp_id":"1008791","imdb_id":null,"world_art_id":null,"type":"serial","add":"2017-03-15 06:55:30","orig_title":"Ключи","year":"2017-01-28","translations":["Оригинальная дорожка"],"seasons_count":1,"episodes_count":2,"episodes":2,"update":"2017-03-16 11:25:35","iframe_src":"//8332.svetacdn.in/IAF0wWTdNYZm/tv-series/1111"},{"id":1109,"title":"Я никогда не плачу","kp_id":"1009650","imdb_id":null,"world_art_id":null,"type":"serial","add":"2017-03-15 06:19:31","orig_title":"Я никогда не плачу","year":"2017-02-04","translations":["Оригинальная дорожка"],"seasons_count":1,"episodes_count":4,"episodes":4,"update":"2017-03-15 11:11:35","iframe_src":"//8332.svetacdn.in/IAF0wWTdNYZm/tv-series/1109"},{"id":1107,"title":"Семья почемучек","kp_id":"460248","imdb_id":"tt0149545","world_art_id":null,"type":"serial","add":"2017-03-14 13:40:53","orig_title":"The Why Why? Family","year":"1996-01-01","translations":["Профессиональный (многоголосый закадровый)"],"seasons_count":1,"episodes_count":25,"episodes":25,"update":"2017-03-16 05:55:42","iframe_src":"//8332.svetacdn.in/IAF0wWTdNYZm/tv-series/1107"},{"id":1106,"title":"Убить Дрозда","kp_id":"760472","imdb_id":null,"world_art_id":null,"type":"serial","add":"2017-03-14 13:37:55","orig_title":"Убить Дрозда","year":"2013-05-01","translations":["Оригинальная дорожка"],"seasons_count":1,"episodes_count":4,"episodes":4,"update":"2017-03-15 13:02:11","iframe_src":"//8332.svetacdn.in/IAF0wWTdNYZm/tv-series/1106"},{"id":1104,"title":"Хроники Эйфелевой башни","kp_id":"372217","imdb_id":"tt0469791","world_art_id":null,"type":"serial","add":"2017-03-14 08:00:33","orig_title":"La légende vraie de la tour Eiffe","year":"2005-12-18","translations":["Профессиональный (многоголосый закадровый)"],"seasons_count":1,"episodes_count":2,"episodes":2,"update":"2017-03-17 06:02:41","iframe_src":"//8332.svetacdn.in/IAF0wWTdNYZm/tv-series/1104"},{"id":1103,"title":"Слуга. Правдивая история Пан-джа","kp_id":"905018","imdb_id":"tt3591270","world_art_id":null,"type":"serial","add":"2017-03-14 07:53:24","orig_title":"Bang-ja Chronicles","year":"2011-11-05","translations":["Любительский (многоголосый закадровый) (GREEN TEA)"],"seasons_count":1,"episodes_count":4,"episodes":4,"update":"2017-03-17 05:38:00","iframe_src":"//8332.svetacdn.in/IAF0wWTdNYZm/tv-series/1103"},{"id":1102,"title":"Тест на любовь","kp_id":"808626","imdb_id":null,"world_art_id":null,"type":"serial","add":"2017-03-14 07:50:22","orig_title":"Тест на любовь","year":"2013-11-24","translations":["Оригинальная дорожка"],"seasons_count":1,"episodes_count":4,"episodes":4,"update":"2017-03-17 05:20:13","iframe_src":"//8332.svetacdn.in/IAF0wWTdNYZm/tv-series/1102"},{"id":1101,"title":"Товарищ Сталин","kp_id":"584031","imdb_id":"tt3769740","world_art_id":null,"type":"serial","add":"2017-03-14 07:46:37","orig_title":"Tovarishch Stalin","year":"2011-12-09","translations":["Оригинальная дорожка"],"seasons_count":1,"episodes_count":4,"episodes":4,"update":"2017-03-15 13:01:46","iframe_src":"//8332.svetacdn.in/IAF0wWTdNYZm/tv-series/1101"},{"id":1099,"title":"Дальнобойщики 3. Десять лет спустя","kp_id":"484371","imdb_id":"tt4586304","world_art_id":null,"type":"serial","add":"2017-03-13 12:15:28","orig_title":"Дальнобойщики. Десять лет спустя","year":"2012-01-28","translations":["Оригинальная дорожка"],"seasons_count":1,"episodes_count":12,"episodes":12,"update":"2017-03-15 12:48:10","iframe_src":"//8332.svetacdn.in/IAF0wWTdNYZm/tv-series/1099"},{"id":1098,"title":"Дальнобойщики 2","kp_id":"446052","imdb_id":"tt4178954","world_art_id":null,"type":"serial","add":"2017-03-13 12:10:05","orig_title":"Dalnoboyshiki dva","year":"2004-01-01","translations":["Оригинальная дорожка"],"seasons_count":1,"episodes_count":12,"episodes":12,"update":"2017-03-15 11:37:55","iframe_src":"//8332.svetacdn.in/IAF0wWTdNYZm/tv-series/1098"},{"id":1097,"title":"Дальнобойщики","kp_id":"94088","imdb_id":"tt0313055","world_art_id":null,"type":"serial","add":"2017-03-13 12:07:51","orig_title":"Dalnoboyshchiki","year":"2001-01-01","translations":["Оригинальная дорожка"],"seasons_count":1,"episodes_count":20,"episodes":20,"update":"2017-03-15 06:36:39","iframe_src":"//8332.svetacdn.in/IAF0wWTdNYZm/tv-series/1097"},{"id":1094,"title":"Охота на гауляйтера","kp_id":"648887","imdb_id":"tt2729386","world_art_id":null,"type":"serial","add":"2017-03-12 10:52:29","orig_title":"Okhota na gaulyaytera","year":"2012-11-05","translations":["Оригинальная дорожка"],"seasons_count":1,"episodes_count":10,"episodes":10,"update":"2017-03-13 05:27:36","iframe_src":"//8332.svetacdn.in/IAF0wWTdNYZm/tv-series/1094"},{"id":1092,"title":"Одинокие сердца","kp_id":"818297","imdb_id":null,"world_art_id":null,"type":"serial","add":"2017-03-12 10:48:41","orig_title":"Одинокие сердца","year":"2013-11-16","translations":["Оригинальная дорожка"],"seasons_count":1,"episodes_count":2,"episodes":2,"update":"2017-03-13 11:02:44","iframe_src":"//8332.svetacdn.in/IAF0wWTdNYZm/tv-series/1092"},{"id":1091,"title":"Мурка","kp_id":"957472","imdb_id":null,"world_art_id":null,"type":"serial","add":"2017-03-10 07:10:49","orig_title":"Мурка","year":"2017-03-09","translations":["Оригинальная дорожка"],"seasons_count":1,"episodes_count":12,"episodes":12,"update":"2017-03-17 05:06:36","iframe_src":"//8332.svetacdn.in/IAF0wWTdNYZm/tv-series/1091"},{"id":1085,"title":"Интерны","kp_id":"501998","imdb_id":"tt1647423","world_art_id":null,"type":"serial","add":"2017-03-07 10:37:03","orig_title":"Interny","year":"2010-03-29","translations":["Оригинальная дорожка"],"seasons_count":4,"episodes_count":279,"episodes":98,"update":"2017-03-14 12:07:02","iframe_src":"//8332.svetacdn.in/IAF0wWTdNYZm/tv-series/1085"},{"id":1075,"title":"Отбросы","kp_id":"485542","imdb_id":"tt1548850","world_art_id":null,"type":"serial","add":"2017-03-04 06:07:15","orig_title":"Misfits","year":"2009-11-12","translations":["Профессиональный (двухголосый закадровый) (Кубик в Кубе)"],"seasons_count":5,"episodes_count":38,"episodes":8,"update":"2017-03-13 09:51:34","iframe_src":"//8332.svetacdn.in/IAF0wWTdNYZm/tv-series/1075"},{"id":1057,"title":"Учитель в законе. Схватка","kp_id":"841955","imdb_id":null,"world_art_id":null,"type":"serial","add":"2017-02-28 13:38:05","orig_title":"Учитель в законе. Схватка","year":"2017-02-27","translations":["Оригинальная дорожка"],"seasons_count":1,"episodes_count":16,"episodes":16,"update":"2017-03-13 12:04:06","iframe_src":"//8332.svetacdn.in/IAF0wWTdNYZm/tv-series/1057"},{"id":4398,"title":"Сыщики под прикрытием","kp_id":"762897","imdb_id":"tt2857458","world_art_id":null,"type":"movie","add":"2016-08-12 05:41:47","orig_title":"Mortadelo y Filemón contra Jimmy el Cachondo","year":"2014-11-28","translations":["Любительский (одноголосый закадровый)","Профессиональный (многоголосый закадровый) (iTunes)"],"quality":"bd","translation":"Любительский (одноголосый закадровый)","update":"2020-10-09 07:23:42","iframe_src":"//8332.svetacdn.in/IAF0wWTdNYZm/movie/4398"},{"id":16,"title":"Дневники вампира","kp_id":"453191","imdb_id":"tt1405406","world_art_id":null,"type":"serial","add":"2016-03-13 10:01:46","orig_title":"The Vampire Diaries","year":"2009-09-10","translations":["Профессиональный (многоголосый закадровый) (LostFilm)"],"seasons_count":8,"episodes_count":171,"episodes":16,"update":"2017-03-13 11:08:53","iframe_src":"//8332.svetacdn.in/IAF0wWTdNYZm/tv-series/16"}],"current_page":505,"first_page_url":"https://videocdn.tv/api/short?limit=100&api_token=6Onb1W1alEUrBcKJZD3GoKBbWyAl2uG2&cache3505=3505&page=1","from":50401,"last_page":638,"last_page_url":"https://videocdn.tv/api/short?limit=100&api_token=6Onb1W1alEUrBcKJZD3GoKBbWyAl2uG2&cache3505=3505&page=638","next_page_url":"https://videocdn.tv/api/short?limit=100&api_token=6Onb1W1alEUrBcKJZD3GoKBbWyAl2uG2&cache3505=3505&page=506","path":"https://videocdn.tv/api/short","per_page":100,"prev_page_url":"https://videocdn.tv/api/short?limit=100&api_token=6Onb1W1alEUrBcKJZD3GoKBbWyAl2uG2&cache3505=3505&page=504","to":50440,"total":63713}