{"result":true,"data":[{"id":36788,"title":"Голди","kp_id":"1067379","imdb_id":"tt7335104","world_art_id":null,"type":"movie","add":"2020-02-22 22:50:28","orig_title":"Goldie","year":"2019-02-10","translations":["Любительский (многоголосый закадровый) (Синема УС)"],"quality":"webdl","translation":"Любительский (многоголосый закадровый) (Синема УС)","update":"2020-02-24 09:18:49","iframe_src":"//83.svetacdn.in/PfJ50H0ZBPg3/movie/36788"},{"id":36783,"title":"Приключения мальчишек","kp_id":"1235238","imdb_id":"tt9671918","world_art_id":null,"type":"movie","add":"2020-02-22 22:32:16","orig_title":"Adventure Boyz","year":"2019-07-20","translations":["Любительский (многоголосый закадровый) (Синема УС)"],"quality":"webdl","translation":"Любительский (многоголосый закадровый) (Синема УС)","update":"2020-02-24 09:19:41","iframe_src":"//83.svetacdn.in/PfJ50H0ZBPg3/movie/36783"},{"id":36732,"title":"Иммануил","kp_id":"756459","imdb_id":"tt2787096","world_art_id":null,"type":"movie","add":"2020-02-21 20:36:38","orig_title":"Immanuel","year":"2013-04-05","translations":["Профессиональный (многоголосый закадровый) (Red Media)"],"quality":"hdrip","translation":"Профессиональный (многоголосый закадровый) (Red Media)","update":"2020-02-24 12:38:21","iframe_src":"//83.svetacdn.in/PfJ50H0ZBPg3/movie/36732"},{"id":36722,"title":"Рай 2","kp_id":"674269","imdb_id":"tt2319889","world_art_id":null,"type":"movie","add":"2020-02-21 17:16:27","orig_title":"Jannat 2","year":"2012-05-03","translations":["Профессиональный (многоголосый закадровый) (Red Media)"],"quality":"bd","translation":"Профессиональный (многоголосый закадровый) (Red Media)","update":"2020-02-24 12:31:12","iframe_src":"//83.svetacdn.in/PfJ50H0ZBPg3/movie/36722"},{"id":36721,"title":"Небеса. В поисках рая","kp_id":"414587","imdb_id":"tt1216300","world_art_id":null,"type":"movie","add":"2020-02-21 17:11:34","orig_title":"Jannat: In Search of Heaven...","year":"2008-05-16","translations":["Профессиональный (многоголосый закадровый)"],"quality":"bd","translation":"Профессиональный (многоголосый закадровый)","update":"2020-02-24 12:30:18","iframe_src":"//83.svetacdn.in/PfJ50H0ZBPg3/movie/36721"},{"id":36720,"title":"Приключения повара в Лондоне","kp_id":"237939","imdb_id":"tt0476848","world_art_id":null,"type":"movie","add":"2020-02-21 17:02:42","orig_title":"Ramji Londonwaley","year":"2005-09-02","translations":["Профессиональный (многоголосый закадровый) (Red Media)"],"quality":"dvdrip","translation":"Профессиональный (многоголосый закадровый) (Red Media)","update":"2020-02-24 12:27:58","iframe_src":"//83.svetacdn.in/PfJ50H0ZBPg3/movie/36720"},{"id":36719,"title":"Смертоносные ангелы","kp_id":"281164","imdb_id":"tt0991232","world_art_id":null,"type":"movie","add":"2020-02-21 16:50:02","orig_title":"Moh gwai tin si","year":"2006-06-01","translations":["Любительский (одноголосый закадровый) (Береговых Виктор | Jet)"],"quality":"dvdrip","translation":"Любительский (одноголосый закадровый) (Береговых Виктор | Jet)","update":"2020-02-24 12:10:52","iframe_src":"//83.svetacdn.in/PfJ50H0ZBPg3/movie/36719"},{"id":36697,"title":"Любовь – это жизнь","kp_id":"78550","imdb_id":"tt0074730","world_art_id":null,"type":"movie","add":"2020-02-20 22:36:17","orig_title":"Kabhie Kabhie","year":"1976-02-27","translations":["Профессиональный (многоголосый закадровый) (Формат AB)"],"quality":"bd","translation":"Профессиональный (многоголосый закадровый) (Формат AB)","update":"2020-02-24 12:09:31","iframe_src":"//83.svetacdn.in/PfJ50H0ZBPg3/movie/36697"},{"id":36696,"title":"Кама Сутра: История любви","kp_id":"23840","imdb_id":"tt0116743","world_art_id":null,"type":"movie","add":"2020-02-20 22:31:04","orig_title":"Kama Sutra: A Tale of Love","year":"1996-09-11","translations":["Профессиональный (многоголосый закадровый)"],"quality":"bd","translation":"Профессиональный (многоголосый закадровый)","update":"2020-02-24 12:07:02","iframe_src":"//83.svetacdn.in/PfJ50H0ZBPg3/movie/36696"},{"id":36695,"title":"Игрок 786","kp_id":"687151","imdb_id":"tt2166214","world_art_id":null,"type":"movie","add":"2020-02-20 22:26:23","orig_title":"Khiladi 786","year":"2012-12-06","translations":["Любительский (многоголосый закадровый) (ICG)","Профессиональный (многоголосый закадровый) (SDI Media)"],"quality":"bd","translation":"Любительский (многоголосый закадровый) (ICG)","update":"2020-02-24 12:45:49","iframe_src":"//83.svetacdn.in/PfJ50H0ZBPg3/movie/36695"},{"id":36694,"title":"Крутые братья","kp_id":"208078","imdb_id":"tt0135641","world_art_id":null,"type":"movie","add":"2020-02-20 22:20:24","orig_title":"Sapoot","year":"1996-11-08","translations":["Профессиональный (двухголосый закадровый)"],"quality":"dvdrip","translation":"Профессиональный (двухголосый закадровый)","update":"2020-02-24 11:51:19","iframe_src":"//83.svetacdn.in/PfJ50H0ZBPg3/movie/36694"},{"id":36693,"title":"Кто может быть лучше тебя?","kp_id":"240184","imdb_id":"tt0158294","world_art_id":null,"type":"movie","add":"2020-02-20 22:18:05","orig_title":"Tumse Achha Kaun Hai","year":"1969-01-01","translations":["Профессиональный (двухголосый закадровый)"],"quality":"dvdrip","translation":"Профессиональный (двухголосый закадровый)","update":"2020-02-24 11:49:42","iframe_src":"//83.svetacdn.in/PfJ50H0ZBPg3/movie/36693"},{"id":36692,"title":"Разбойник","kp_id":"667215","imdb_id":"tt2224317","world_art_id":null,"type":"movie","add":"2020-02-20 22:15:00","orig_title":"Lootera","year":"2013-07-04","translations":["Профессиональный (многоголосый закадровый)"],"quality":"webdl","translation":"Профессиональный (многоголосый закадровый)","update":"2020-02-24 11:48:46","iframe_src":"//83.svetacdn.in/PfJ50H0ZBPg3/movie/36692"},{"id":17280,"title":"Смерть Супермена","kp_id":"1047166","imdb_id":"tt7167658","world_art_id":null,"type":"movie","add":"2018-06-21 00:43:37","orig_title":"The Death of Superman","year":"2018-07-24","translations":["Профессиональный (многоголосый закадровый) (HDrezka Studio)","Любительский (многоголосый закадровый) (AlphaProject)","Профессиональный (многоголосый закадровый) (GreenРай Studio)"],"quality":"bd","translation":"Профессиональный (многоголосый закадровый) (HDrezka Studio)","update":"2020-02-24 11:11:34","iframe_src":"//83.svetacdn.in/PfJ50H0ZBPg3/movie/17280"},{"id":15725,"title":"Тихоокеанский рубеж 2","kp_id":"721154","imdb_id":"tt2557478","world_art_id":null,"type":"movie","add":"2018-03-18 21:43:07","orig_title":"Pacific Rim Uprising","year":"2018-03-21","translations":["Полное дублирование","Любительский (многоголосый закадровый) (@MUZOBOZ@)","Профессиональный (многоголосый закадровый) (HDrezka Studio)","Original (English)","Профессиональный (многоголосый закадровый) (HDrezka Studio)"],"quality":"bd","translation":"Полное дублирование","update":"2020-02-24 11:11:08","iframe_src":"//83.svetacdn.in/PfJ50H0ZBPg3/movie/15725"},{"id":15540,"title":"Аутсайдер","kp_id":"603351","imdb_id":"tt2011311","world_art_id":null,"type":"movie","add":"2018-03-09 21:25:30","orig_title":"The Outsider","year":"2018-03-09","translations":["Профессиональный (многоголосый закадровый) (HDrezka Studio)","Любительский (многоголосый закадровый) (@MUZOBOZ@)","Любительский (одноголосый закадровый) (Хихикающий доктор)","Любительский (двухголосый закадровый) (HiWayGrope)","Профессиональный (многоголосый закадровый) (NewStudio)","Полное дублирование","Профессиональный (многоголосый закадровый) (GreenРай Studio)","Профессиональный (многоголосый закадровый) (Jaskier)"],"quality":"webdl","translation":"Профессиональный (многоголосый закадровый) (HDrezka Studio)","update":"2020-02-24 11:23:15","iframe_src":"//83.svetacdn.in/PfJ50H0ZBPg3/movie/15540"},{"id":10743,"title":"Удар","kp_id":"705287","imdb_id":"tt2372222","world_art_id":null,"type":"movie","add":"2017-04-05 05:12:33","orig_title":"Kick","year":"2014-07-25","translations":["Профессиональный (многоголосый закадровый) (SDI Media)","Любительский (многоголосый закадровый) (ICG)"],"quality":"bd","translation":"Профессиональный (многоголосый закадровый) (SDI Media)","update":"2020-02-24 11:52:42","iframe_src":"//83.svetacdn.in/PfJ50H0ZBPg3/movie/10743"},{"id":10466,"title":"Кто","kp_id":"666063","imdb_id":"tt2211173","world_art_id":null,"type":"movie","add":"2017-03-22 12:10:33","orig_title":"Yevadu","year":"2014-01-11","translations":["Любительский (многоголосый закадровый) (ICG)","Профессиональный (многоголосый закадровый) (SDI Media)"],"quality":"bd","translation":"Любительский (многоголосый закадровый) (ICG)","update":"2020-02-24 12:17:06","iframe_src":"//83.svetacdn.in/PfJ50H0ZBPg3/movie/10466"},{"id":8835,"title":"Тигр","kp_id":"854204","imdb_id":"tt3803860","world_art_id":null,"type":"movie","add":"2017-01-11 13:11:16","orig_title":"Puli","year":"2015-09-30","translations":["Любительский (многоголосый закадровый)"],"quality":"webdl","translation":"Любительский (многоголосый закадровый)","update":"2020-02-24 12:25:15","iframe_src":"//83.svetacdn.in/PfJ50H0ZBPg3/movie/8835"},{"id":8833,"title":"Методы борьбы со светом","kp_id":"893076","imdb_id":"tt4467262","world_art_id":null,"type":"movie","add":"2017-01-11 13:09:04","orig_title":"Katti Batti","year":"2015-09-17","translations":["Любительский (двухголосый закадровый)","Профессиональный (многоголосый закадровый)"],"quality":"webdl","translation":"Любительский (двухголосый закадровый)","update":"2020-02-24 12:05:50","iframe_src":"//83.svetacdn.in/PfJ50H0ZBPg3/movie/8833"}],"current_page":885,"first_page_url":"https://videocdn.tv/api/short?limit=100&api_token=RgFQdUIR2dRmwv8iYa5SnFNgnw3vpjKj&cache3885=3885&page=1","from":88401,"last_page":632,"last_page_url":"https://videocdn.tv/api/short?limit=100&api_token=RgFQdUIR2dRmwv8iYa5SnFNgnw3vpjKj&cache3885=3885&page=632","next_page_url":null,"path":"https://videocdn.tv/api/short","per_page":100,"prev_page_url":"https://videocdn.tv/api/short?limit=100&api_token=RgFQdUIR2dRmwv8iYa5SnFNgnw3vpjKj&cache3885=3885&page=884","to":88420,"total":63136}