{"result":true,"data":[{"id":35330,"title":"Император в августе","kp_id":"884316","imdb_id":"tt4289340","world_art_id":null,"type":"movie","add":"2020-01-22 11:01:03","orig_title":"Nihon no ichiban nagai hi ketteiban","year":"2015-08-08","translations":["Авторский (одноголосый закадровый) (Рутилов Виктор | fiendover | overfiend)"],"quality":"dvdrip","translation":"Авторский (одноголосый закадровый) (Рутилов Виктор | fiendover | overfiend)","update":"2020-01-23 07:21:58","iframe_src":"//8944266443434.svetacdn.in/PfJ50H0ZBPg3/movie/35330"},{"id":35328,"title":"Безумие","kp_id":"874357","imdb_id":"tt4305562","world_art_id":null,"type":"movie","add":"2020-01-22 10:52:03","orig_title":"Bo fung yu","year":"2014-11-19","translations":["Любительский (двухголосый закадровый) (Колобок)"],"quality":"bd","translation":"Любительский (двухголосый закадровый) (Колобок)","update":"2020-01-23 07:21:23","iframe_src":"//8944266443434.svetacdn.in/PfJ50H0ZBPg3/movie/35328"},{"id":35325,"title":"Дом","kp_id":"96137","imdb_id":"tt0076162","world_art_id":null,"type":"movie","add":"2020-01-22 08:33:26","orig_title":"Hausu","year":"1977-07-30","translations":["Любительский (одноголосый закадровый) (Бирюков Михаил)"],"quality":"bd","translation":"Любительский (одноголосый закадровый) (Бирюков Михаил)","update":"2020-01-23 07:20:18","iframe_src":"//8944266443434.svetacdn.in/PfJ50H0ZBPg3/movie/35325"},{"id":35293,"title":"Тереза и Эллисон","kp_id":"902269","imdb_id":"tt4297380","world_art_id":null,"type":"movie","add":"2020-01-21 12:25:03","orig_title":"Theresa & Allison","year":"2019-01-26","translations":["Любительский (многоголосый закадровый) (Синема УС)","[EN] Original (English)"],"quality":"webdl","translation":"Любительский (многоголосый закадровый) (Синема УС)","update":"2020-01-23 07:04:29","iframe_src":"//8944266443434.svetacdn.in/PfJ50H0ZBPg3/movie/35293"},{"id":35291,"title":"Родственные духи","kp_id":"1204493","imdb_id":"tt9161168","world_art_id":null,"type":"movie","add":"2020-01-21 12:20:09","orig_title":"Kindred Spirits","year":"2019-06-16","translations":["Любительский (многоголосый закадровый) (Синема УС)","[EN] Original (English)"],"quality":"webdl","translation":"Любительский (многоголосый закадровый) (Синема УС)","update":"2020-01-23 06:54:59","iframe_src":"//8944266443434.svetacdn.in/PfJ50H0ZBPg3/movie/35291"},{"id":35289,"title":"В погоне за тобой","kp_id":"1067182","imdb_id":"tt6985424","world_art_id":null,"type":"movie","add":"2020-01-21 12:16:57","orig_title":"Chasing After You","year":"2019-08-10","translations":["[EN] Original (English)"],"quality":"webdl","translation":"[EN] Original (English)","update":"2020-01-23 06:50:59","iframe_src":"//8944266443434.svetacdn.in/PfJ50H0ZBPg3/movie/35289"},{"id":35288,"title":"Призраки на Брокуэй-стрит","kp_id":null,"imdb_id":"tt11305096","world_art_id":null,"type":"movie","add":"2020-01-21 12:14:46","orig_title":"A Haunting on Brockway Street","year":"2019-11-15","translations":["[EN] Original (English)"],"quality":"webdl","translation":"[EN] Original (English)","update":"2020-01-23 06:48:21","iframe_src":"//8944266443434.svetacdn.in/PfJ50H0ZBPg3/movie/35288"},{"id":35250,"title":"Бестселлер","kp_id":"521843","imdb_id":"tt1655617","world_art_id":null,"type":"movie","add":"2020-01-20 07:56:25","orig_title":"Beseuteuselleo","year":"2010-04-15","translations":["Любительский (одноголосый закадровый)"],"quality":"bd","translation":"Любительский (одноголосый закадровый)","update":"2020-01-23 06:22:15","iframe_src":"//8944266443434.svetacdn.in/PfJ50H0ZBPg3/movie/35250"},{"id":35245,"title":"Культ","kp_id":"693887","imdb_id":"tt2281002","world_art_id":null,"type":"movie","add":"2020-01-20 07:21:37","orig_title":"Karuto","year":"2013-04-04","translations":["Любительский (одноголосый закадровый) (den904)"],"quality":"bd","translation":"Любительский (одноголосый закадровый) (den904)","update":"2020-01-23 06:21:28","iframe_src":"//8944266443434.svetacdn.in/PfJ50H0ZBPg3/movie/35245"},{"id":35229,"title":"Потанцуем вместе","kp_id":"994817","imdb_id":"tt5907618","world_art_id":null,"type":"movie","add":"2020-01-19 18:58:26","orig_title":"Dance Together","year":"2019-10-19","translations":["Любительский (многоголосый закадровый) (Синема УС)","[EN] Original (English)"],"quality":"webdl","translation":"Любительский (многоголосый закадровый) (Синема УС)","update":"2020-01-23 06:51:50","iframe_src":"//8944266443434.svetacdn.in/PfJ50H0ZBPg3/movie/35229"},{"id":35192,"title":"Мой второй брат","kp_id":"175369","imdb_id":"tt0053111","world_art_id":null,"type":"movie","add":"2020-01-18 18:45:47","orig_title":"Nianchan","year":"1959-10-28","translations":["Авторский (одноголосый закадровый) (Воротилин Олег)"],"quality":"bd","translation":"Авторский (одноголосый закадровый) (Воротилин Олег)","update":"2020-01-23 06:28:12","iframe_src":"//8944266443434.svetacdn.in/PfJ50H0ZBPg3/movie/35192"},{"id":35164,"title":"Теплые летние дни","kp_id":"477895","imdb_id":"tt1519640","world_art_id":null,"type":"movie","add":"2020-01-17 22:40:28","orig_title":"Chuen sing yit luen - yit lat lat","year":"2010-02-11","translations":["Любительский (одноголосый закадровый) (GREEN TEA)"],"quality":"bd","translation":"Любительский (одноголосый закадровый) (GREEN TEA)","update":"2020-01-23 06:26:26","iframe_src":"//8944266443434.svetacdn.in/PfJ50H0ZBPg3/movie/35164"},{"id":35159,"title":"Опосредованная война","kp_id":"55458","imdb_id":"tt0070244","world_art_id":null,"type":"movie","add":"2020-01-17 22:14:51","orig_title":"Jingi naki tatakai: Dairi sensô","year":"1973-09-25","translations":["Авторский (одноголосый закадровый) (Сербин Юрий)"],"quality":"bd","translation":"Авторский (одноголосый закадровый) (Сербин Юрий)","update":"2020-01-23 06:29:10","iframe_src":"//8944266443434.svetacdn.in/PfJ50H0ZBPg3/movie/35159"},{"id":35158,"title":"Полицейская тактика","kp_id":"55456","imdb_id":"tt0071696","world_art_id":null,"type":"movie","add":"2020-01-17 22:12:09","orig_title":"Jingi naki tatakai: Chôjô sakusen","year":"1974-01-15","translations":["Авторский (одноголосый закадровый) (Сербин Юрий)"],"quality":"bd","translation":"Авторский (одноголосый закадровый) (Сербин Юрий)","update":"2020-01-23 06:29:58","iframe_src":"//8944266443434.svetacdn.in/PfJ50H0ZBPg3/movie/35158"},{"id":34559,"title":"Изгои Войны 3: Смерть Нации","kp_id":"1155796","imdb_id":"tt7983744","world_art_id":null,"type":"movie","add":"2019-12-28 23:15:01","orig_title":"Rogue Warfare: Death of a Nation","year":"2020-02-03","translations":["Любительский (многоголосый закадровый) (Синема УС)","[EN] Original (English)"],"quality":"bd","translation":"Любительский (многоголосый закадровый) (Синема УС)","update":"2020-01-23 06:40:48","iframe_src":"//8944266443434.svetacdn.in/PfJ50H0ZBPg3/movie/34559"},{"id":34354,"title":"Миссис Лаури и сын","kp_id":"1120239","imdb_id":"tt7590074","world_art_id":null,"type":"movie","add":"2019-12-22 07:22:16","orig_title":"Mrs Lowry & Son","year":"2019-06-30","translations":["Любительский (многоголосый закадровый) (Синема УС)","[EN] Original (English)"],"quality":"webdl","translation":"Любительский (многоголосый закадровый) (Синема УС)","update":"2020-01-23 06:39:51","iframe_src":"//8944266443434.svetacdn.in/PfJ50H0ZBPg3/movie/34354"},{"id":34324,"title":"Гномилость","kp_id":"870386","imdb_id":"tt4191592","world_art_id":null,"type":"movie","add":"2019-12-21 07:22:42","orig_title":"Gnomercy","year":"2019-09-01","translations":["Любительский (многоголосый закадровый) (Синема УС)","[EN] Original (English)"],"quality":"webdl","translation":"Любительский (многоголосый закадровый) (Синема УС)","update":"2020-01-23 06:54:14","iframe_src":"//8944266443434.svetacdn.in/PfJ50H0ZBPg3/movie/34324"},{"id":33562,"title":"Фантазия","kp_id":"1093371","imdb_id":"tt6769598","world_art_id":null,"type":"movie","add":"2019-11-30 11:04:03","orig_title":"Fantasy","year":"2019-08-30","translations":["Любительский (многоголосый закадровый) (Синема УС)","[EN] Original (English)"],"quality":"webdl","translation":"Любительский (многоголосый закадровый) (Синема УС)","update":"2020-01-23 06:52:52","iframe_src":"//8944266443434.svetacdn.in/PfJ50H0ZBPg3/movie/33562"},{"id":28860,"title":"Шахта 9","kp_id":"837339","imdb_id":"tt3517870","world_art_id":null,"type":"movie","add":"2019-07-10 20:06:55","orig_title":"Mine 9","year":"2019-03-08","translations":["Любительский (двухголосый закадровый) (LakeFilms)","[EN] Original (English)"],"quality":"bd","translation":"Любительский (двухголосый закадровый) (LakeFilms)","update":"2020-01-23 06:38:59","iframe_src":"//8944266443434.svetacdn.in/PfJ50H0ZBPg3/movie/28860"},{"id":27182,"title":"Игра престолов. Последний дозор","kp_id":"1260303","imdb_id":"tt10090796","world_art_id":null,"type":"movie","add":"2019-05-28 01:36:24","orig_title":"Game of Thrones: The Last Watch","year":"2019-05-26","translations":["Профессиональный (многоголосый закадровый) (Кравец)","Профессиональный (многоголосый закадровый) (HDrezka Studio)","[EN] Original (English)"],"quality":"webdl","translation":"Профессиональный (многоголосый закадровый) (Кравец)","update":"2020-01-23 06:38:01","iframe_src":"//8944266443434.svetacdn.in/PfJ50H0ZBPg3/movie/27182"}],"current_page":1545,"first_page_url":"https://videocdn.tv/api/short?limit=100&api_token=RgFQdUIR2dRmwv8iYa5SnFNgnw3vpjKj&cache31545=31545&page=1","from":154401,"last_page":733,"last_page_url":"https://videocdn.tv/api/short?limit=100&api_token=RgFQdUIR2dRmwv8iYa5SnFNgnw3vpjKj&cache31545=31545&page=733","next_page_url":null,"path":"https://videocdn.tv/api/short","per_page":100,"prev_page_url":"https://videocdn.tv/api/short?limit=100&api_token=RgFQdUIR2dRmwv8iYa5SnFNgnw3vpjKj&cache31545=31545&page=1544","to":154420,"total":73212}