{"result":true,"data":[{"id":18389,"title":"Все стили","kp_id":"1055411","imdb_id":"tt7307136","world_art_id":null,"type":"movie","add":"2018-08-19 20:43:27","orig_title":"All Styles","year":"2018-08-06","translations":["Любительский (многоголосый закадровый) (Синема УС)"],"quality":"webdl","translation":"Любительский (многоголосый закадровый) (Синема УС)","update":"2018-08-21 05:49:10","iframe_src":"//7720.svetacdn.in/IAF0wWTdNYZm/movie/18389"},{"id":18385,"title":"Насилие в женской тюрьме","kp_id":"140966","imdb_id":"tt0084869","world_art_id":null,"type":"movie","add":"2018-08-19 07:14:02","orig_title":"Violenza in un carcere femminile","year":"1982-09-09","translations":["Профессиональный (многоголосый закадровый) (СВ-Дубль)"],"quality":"bd","translation":"Профессиональный (многоголосый закадровый) (СВ-Дубль)","update":"2018-08-20 06:01:37","iframe_src":"//7720.svetacdn.in/IAF0wWTdNYZm/movie/18385"},{"id":18384,"title":"Возвращение помидоров-убийц","kp_id":"20555","imdb_id":"tt0095989","world_art_id":null,"type":"movie","add":"2018-08-19 07:12:41","orig_title":"Return of the Killer Tomatoes!","year":"1988-04-22","translations":["Профессиональный (многоголосый закадровый) (CP Digital)"],"quality":"bd","translation":"Профессиональный (многоголосый закадровый) (CP Digital)","update":"2018-08-20 05:55:31","iframe_src":"//7720.svetacdn.in/IAF0wWTdNYZm/movie/18384"},{"id":18383,"title":"Восход луны","kp_id":"3269","imdb_id":"tt0040607","world_art_id":null,"type":"movie","add":"2018-08-19 07:11:11","orig_title":"Moonrise","year":"1948-10-01","translations":["Профессиональный (многоголосый закадровый) (СТС)"],"quality":"bd","translation":"Профессиональный (многоголосый закадровый) (СТС)","update":"2018-08-20 06:00:06","iframe_src":"//7720.svetacdn.in/IAF0wWTdNYZm/movie/18383"},{"id":18382,"title":"Мисима: Жизнь в четырёх главах","kp_id":"7326","imdb_id":"tt0089603","world_art_id":null,"type":"movie","add":"2018-08-19 07:10:08","orig_title":"Mishima: A Life in Four Chapters","year":"1985-05-15","translations":["Профессиональный (многоголосый закадровый) (НТВ)"],"quality":"bd","translation":"Профессиональный (многоголосый закадровый) (НТВ)","update":"2018-08-20 05:58:51","iframe_src":"//7720.svetacdn.in/IAF0wWTdNYZm/movie/18382"},{"id":18381,"title":"Рыжая белка","kp_id":"77236","imdb_id":"tt0106305","world_art_id":null,"type":"movie","add":"2018-08-19 07:08:25","orig_title":"La ardilla roja","year":"1993-04-21","translations":["Профессиональный (многоголосый закадровый)"],"quality":"bd","translation":"Профессиональный (многоголосый закадровый)","update":"2018-08-20 06:31:41","iframe_src":"//7720.svetacdn.in/IAF0wWTdNYZm/movie/18381"},{"id":18380,"title":"Без иллюзий","kp_id":"52250","imdb_id":"tt0109384","world_art_id":null,"type":"movie","add":"2018-08-19 07:07:13","orig_title":"Casa de Lava","year":"1995-02-10","translations":["Профессиональный (многоголосый закадровый) (СВ-Дубль)"],"quality":"bd","translation":"Профессиональный (многоголосый закадровый) (СВ-Дубль)","update":"2018-08-20 05:56:53","iframe_src":"//7720.svetacdn.in/IAF0wWTdNYZm/movie/18380"},{"id":18379,"title":"Нападение помидоров-убийц","kp_id":"34866","imdb_id":"tt0080391","world_art_id":null,"type":"movie","add":"2018-08-19 07:05:40","orig_title":"Attack of the Killer Tomatoes!","year":"1978-10-08","translations":["Профессиональный (многоголосый закадровый)"],"quality":"bd","translation":"Профессиональный (многоголосый закадровый)","update":"2018-08-20 05:54:17","iframe_src":"//7720.svetacdn.in/IAF0wWTdNYZm/movie/18379"},{"id":18378,"title":"Шесть степеней отчуждения","kp_id":"3511","imdb_id":"tt0108149","world_art_id":null,"type":"movie","add":"2018-08-19 07:04:17","orig_title":"Six Degrees of Separation","year":"1993-12-08","translations":["Профессиональный (двухголосый закадровый) (НТВ)"],"quality":"webdl","translation":"Профессиональный (двухголосый закадровый) (НТВ)","update":"2018-08-20 05:52:46","iframe_src":"//7720.svetacdn.in/IAF0wWTdNYZm/movie/18378"},{"id":18376,"title":"Шугар Хилл","kp_id":"91532","imdb_id":"tt0072225","world_art_id":null,"type":"movie","add":"2018-08-19 07:00:02","orig_title":"Sugar Hill","year":"1974-03-20","translations":["Профессиональный (двухголосый закадровый) (НТВ)"],"quality":"hdtv","translation":"Профессиональный (двухголосый закадровый) (НТВ)","update":"2018-08-20 05:50:22","iframe_src":"//7720.svetacdn.in/IAF0wWTdNYZm/movie/18376"},{"id":18371,"title":"Барон Мюнхгаузен","kp_id":"96395","imdb_id":"tt0054665","world_art_id":null,"type":"movie","add":"2018-08-16 23:36:51","orig_title":"Baron Prásil","year":"1962-09-21","translations":["Полное дублирование"],"quality":"bd","translation":"Полное дублирование","update":"2018-08-17 10:40:52","iframe_src":"//7720.svetacdn.in/IAF0wWTdNYZm/movie/18371"},{"id":18369,"title":"Энджи","kp_id":"13131","imdb_id":"tt0109129","world_art_id":null,"type":"movie","add":"2018-08-16 23:33:05","orig_title":"Angie","year":"1994-03-04","translations":["Профессиональный (двухголосый закадровый)"],"quality":"bd","translation":"Профессиональный (двухголосый закадровый)","update":"2018-08-17 10:39:25","iframe_src":"//7720.svetacdn.in/IAF0wWTdNYZm/movie/18369"},{"id":18349,"title":"Криминальный квартет","kp_id":"44983","imdb_id":"tt0234056","world_art_id":null,"type":"movie","add":"2018-08-16 13:26:29","orig_title":"Kriminalnyy kvartet","year":"1990-05-01","translations":["Оригинальная дорожка"],"quality":"webdl","translation":"Оригинальная дорожка","update":"2018-08-17 06:54:27","iframe_src":"//7720.svetacdn.in/IAF0wWTdNYZm/movie/18349"},{"id":18346,"title":"Новые детишки","kp_id":"9605","imdb_id":"tt0089679","world_art_id":null,"type":"movie","add":"2018-08-16 13:22:06","orig_title":"The New Kids","year":"1985-01-18","translations":["Любительский (одноголосый закадровый)"],"quality":"webdl","translation":"Любительский (одноголосый закадровый)","update":"2018-08-17 06:51:31","iframe_src":"//7720.svetacdn.in/IAF0wWTdNYZm/movie/18346"},{"id":18345,"title":"Поцелуй меня Кэт","kp_id":"77866","imdb_id":"tt0045963","world_art_id":null,"type":"movie","add":"2018-08-16 13:20:59","orig_title":"Kiss Me Kate","year":"1953-11-05","translations":["Любительский (одноголосый закадровый)"],"quality":"webdl","translation":"Любительский (одноголосый закадровый)","update":"2018-08-17 06:49:44","iframe_src":"//7720.svetacdn.in/IAF0wWTdNYZm/movie/18345"},{"id":18344,"title":"Две тысячи маньяков","kp_id":"106283","imdb_id":"tt0058694","world_art_id":null,"type":"movie","add":"2018-08-16 13:19:58","orig_title":"Two Thousand Maniacs!","year":"1964-03-20","translations":["Любительский (одноголосый закадровый) (liosaa)"],"quality":"bd","translation":"Любительский (одноголосый закадровый) (liosaa)","update":"2018-08-17 06:48:31","iframe_src":"//7720.svetacdn.in/IAF0wWTdNYZm/movie/18344"},{"id":18343,"title":"Весенние каникулы","kp_id":"53245","imdb_id":"tt0086352","world_art_id":null,"type":"movie","add":"2018-08-16 13:19:08","orig_title":"Spring Break","year":"1983-03-25","translations":["Любительский (одноголосый закадровый)"],"quality":"bd","translation":"Любительский (одноголосый закадровый)","update":"2018-08-17 06:47:29","iframe_src":"//7720.svetacdn.in/IAF0wWTdNYZm/movie/18343"},{"id":18342,"title":"Крёстный отец диско","kp_id":"13141","imdb_id":"tt0074412","world_art_id":null,"type":"movie","add":"2018-08-16 13:18:03","orig_title":"Disco Godfather","year":"1979-08-01","translations":["Любительский (одноголосый закадровый)"],"quality":"bd","translation":"Любительский (одноголосый закадровый)","update":"2018-08-17 06:46:25","iframe_src":"//7720.svetacdn.in/IAF0wWTdNYZm/movie/18342"},{"id":18341,"title":"Дочери пыли","kp_id":"91381","imdb_id":"tt0104057","world_art_id":null,"type":"movie","add":"2018-08-16 13:16:04","orig_title":"Daughters of the Dust","year":"1991-08-04","translations":["Любительский (одноголосый закадровый)"],"quality":"bd","translation":"Любительский (одноголосый закадровый)","update":"2018-08-17 06:45:29","iframe_src":"//7720.svetacdn.in/IAF0wWTdNYZm/movie/18341"},{"id":18338,"title":"Болотная тварь","kp_id":"25449","imdb_id":"tt0084745","world_art_id":null,"type":"movie","add":"2018-08-16 05:52:45","orig_title":"Swamp Thing","year":"1982-02-19","translations":["Профессиональный (многоголосый закадровый)"],"quality":"bd","translation":"Профессиональный (многоголосый закадровый)","update":"2018-08-17 06:52:42","iframe_src":"//7720.svetacdn.in/IAF0wWTdNYZm/movie/18338"}],"current_page":1891,"first_page_url":"https://videocdn.tv/api/short?limit=100&api_token=6Onb1W1alEUrBcKJZD3GoKBbWyAl2uG2&cache31891=31891&page=1","from":189001,"last_page":650,"last_page_url":"https://videocdn.tv/api/short?limit=100&api_token=6Onb1W1alEUrBcKJZD3GoKBbWyAl2uG2&cache31891=31891&page=650","next_page_url":null,"path":"https://videocdn.tv/api/short","per_page":100,"prev_page_url":"https://videocdn.tv/api/short?limit=100&api_token=6Onb1W1alEUrBcKJZD3GoKBbWyAl2uG2&cache31891=31891&page=1890","to":189020,"total":64957}