{"result":true,"data":[{"id":28997,"title":"Сверстницы","kp_id":"44049","imdb_id":"tt0174192","world_art_id":null,"type":"movie","add":"2019-07-14 23:31:32","orig_title":"Sverstnitsy","year":"1959-05-16","translations":["Оригинальная дорожка"],"quality":"dvdrip","translation":"Оригинальная дорожка","update":"2019-07-15 11:55:38","iframe_src":"//83.svetacdn.in/PfJ50H0ZBPg3/movie/28997"},{"id":28996,"title":"Кавказский пленник","kp_id":"232140","imdb_id":"tt0491413","world_art_id":null,"type":"movie","add":"2019-07-14 23:28:18","orig_title":"Kavkasieli tkve","year":"1975-03-15","translations":["Оригинальная дорожка"],"quality":"sat","translation":"Оригинальная дорожка","update":"2019-07-15 11:55:02","iframe_src":"//83.svetacdn.in/PfJ50H0ZBPg3/movie/28996"},{"id":28995,"title":"Лурджа Магданы","kp_id":"46496","imdb_id":"tt0048324","world_art_id":null,"type":"movie","add":"2019-07-14 23:22:02","orig_title":"Magdanas lurja","year":"1956-03-25","translations":["Профессиональный (многоголосый закадровый)"],"quality":"dvdrip","translation":"Профессиональный (многоголосый закадровый)","update":"2019-07-15 11:53:58","iframe_src":"//83.svetacdn.in/PfJ50H0ZBPg3/movie/28995"},{"id":28994,"title":"Сердце бьётся вновь...","kp_id":"43684","imdb_id":"tt0194352","world_art_id":null,"type":"movie","add":"2019-07-14 23:07:22","orig_title":"Serdtse byotsya vnov","year":"1956-11-21","translations":["Оригинальная дорожка"],"quality":"dvdrip","translation":"Оригинальная дорожка","update":"2019-07-15 11:53:07","iframe_src":"//83.svetacdn.in/PfJ50H0ZBPg3/movie/28994"},{"id":28993,"title":"Мост","kp_id":"711076","imdb_id":"tt10438510","world_art_id":null,"type":"movie","add":"2019-07-14 21:31:00","orig_title":"Tiltas","year":"1957-12-30","translations":["Оригинальная дорожка"],"quality":"sat","translation":"Оригинальная дорожка","update":"2019-07-15 11:52:31","iframe_src":"//83.svetacdn.in/PfJ50H0ZBPg3/movie/28993"},{"id":28992,"title":"Мой остров синий","kp_id":"425051","imdb_id":"tt6087942","world_art_id":null,"type":"movie","add":"2019-07-14 21:25:20","orig_title":"Moy ostrov siniy...","year":"1972-07-08","translations":["Оригинальная дорожка"],"quality":"dvdrip","translation":"Оригинальная дорожка","update":"2019-07-15 11:48:18","iframe_src":"//83.svetacdn.in/PfJ50H0ZBPg3/movie/28992"},{"id":28991,"title":"Одна строка","kp_id":"493935","imdb_id":"tt2375363","world_art_id":null,"type":"movie","add":"2019-07-14 21:20:51","orig_title":"Odna stroka","year":"1961-08-21","translations":["Оригинальная дорожка"],"quality":"sat","translation":"Оригинальная дорожка","update":"2019-07-15 11:47:28","iframe_src":"//83.svetacdn.in/PfJ50H0ZBPg3/movie/28991"},{"id":28990,"title":"Рикошет","kp_id":"223283","imdb_id":"tt0204596","world_art_id":null,"type":"movie","add":"2019-07-14 21:16:47","orig_title":"Rikoshet","year":"1997-01-01","translations":["Оригинальная дорожка"],"quality":"dvdrip","translation":"Оригинальная дорожка","update":"2019-07-15 11:38:31","iframe_src":"//83.svetacdn.in/PfJ50H0ZBPg3/movie/28990"},{"id":28989,"title":"Он был не один","kp_id":"468350","imdb_id":"tt5084406","world_art_id":null,"type":"movie","add":"2019-07-14 21:14:06","orig_title":"On byl ne odin","year":"1970-12-14","translations":["Оригинальная дорожка"],"quality":"sat","translation":"Оригинальная дорожка","update":"2019-07-15 11:33:59","iframe_src":"//83.svetacdn.in/PfJ50H0ZBPg3/movie/28989"},{"id":28988,"title":"Призвание","kp_id":"43281","imdb_id":"tt0050433","world_art_id":null,"type":"movie","add":"2019-07-14 21:11:18","orig_title":"Prizvaniye","year":"1957-02-05","translations":["Оригинальная дорожка"],"quality":"sat","translation":"Оригинальная дорожка","update":"2019-07-15 11:33:39","iframe_src":"//83.svetacdn.in/PfJ50H0ZBPg3/movie/28988"},{"id":28987,"title":"Пролог","kp_id":"43302","imdb_id":"tt0049638","world_art_id":null,"type":"movie","add":"2019-07-14 20:31:50","orig_title":"Prolog","year":"1956-12-03","translations":["Оригинальная дорожка"],"quality":"vhs","translation":"Оригинальная дорожка","update":"2019-07-15 11:32:22","iframe_src":"//83.svetacdn.in/PfJ50H0ZBPg3/movie/28987"},{"id":28985,"title":"Ленинградцы, дети мои...","kp_id":"45069","imdb_id":"tt0230456","world_art_id":null,"type":"movie","add":"2019-07-14 20:17:39","orig_title":"Leningradtsy, deti moi...","year":"1980-09-01","translations":["Оригинальная дорожка"],"quality":"webdl","translation":"Оригинальная дорожка","update":"2019-07-15 11:31:26","iframe_src":"//83.svetacdn.in/PfJ50H0ZBPg3/movie/28985"},{"id":28983,"title":"Хаги – Траггер","kp_id":"41205","imdb_id":"tt0135439","world_art_id":null,"type":"movie","add":"2019-07-14 20:07:29","orig_title":"Khagi-tragger","year":"1994-11-13","translations":["Оригинальная дорожка"],"quality":"dvdrip","translation":"Оригинальная дорожка","update":"2019-07-15 11:22:57","iframe_src":"//83.svetacdn.in/PfJ50H0ZBPg3/movie/28983"},{"id":28982,"title":"Две жизни","kp_id":"512249","imdb_id":"tt4174578","world_art_id":null,"type":"movie","add":"2019-07-14 04:06:58","orig_title":"Sestry","year":"1957-02-10","translations":["Оригинальная дорожка"],"quality":"sat","translation":"Оригинальная дорожка","update":"2019-07-15 11:20:04","iframe_src":"//83.svetacdn.in/PfJ50H0ZBPg3/movie/28982"},{"id":28981,"title":"Физики","kp_id":"331753","imdb_id":"tt0308723","world_art_id":null,"type":"movie","add":"2019-07-14 04:00:51","orig_title":"Fiziki","year":"1989-03-23","translations":["Оригинальная дорожка"],"quality":"sat","translation":"Оригинальная дорожка","update":"2019-07-15 11:17:46","iframe_src":"//83.svetacdn.in/PfJ50H0ZBPg3/movie/28981"},{"id":28980,"title":"Они были первыми","kp_id":"42769","imdb_id":"tt0049574","world_art_id":null,"type":"movie","add":"2019-07-14 03:51:38","orig_title":"Oni byli pervymi","year":"1956-05-15","translations":["Оригинальная дорожка"],"quality":"dvdrip","translation":"Оригинальная дорожка","update":"2019-07-15 11:14:16","iframe_src":"//83.svetacdn.in/PfJ50H0ZBPg3/movie/28980"},{"id":28979,"title":"Песня табунщика","kp_id":"487459","imdb_id":null,"world_art_id":null,"type":"movie","add":"2019-07-14 03:48:13","orig_title":"Песня табунщика","year":"1957-03-12","translations":["Оригинальная дорожка"],"quality":"vhs","translation":"Оригинальная дорожка","update":"2019-07-15 11:13:34","iframe_src":"//83.svetacdn.in/PfJ50H0ZBPg3/movie/28979"},{"id":28978,"title":"Поцелуев мост","kp_id":"1008819","imdb_id":null,"world_art_id":null,"type":"movie","add":"2019-07-14 03:42:25","orig_title":"Поцелуев мост","year":"2016-12-26","translations":["Оригинальная дорожка"],"quality":"hdtv","translation":"Оригинальная дорожка","update":"2019-07-15 11:13:19","iframe_src":"//83.svetacdn.in/PfJ50H0ZBPg3/movie/28978"},{"id":28970,"title":"Посеяли девушки лен","kp_id":"939342","imdb_id":"tt5110986","world_art_id":null,"type":"movie","add":"2019-07-13 20:18:47","orig_title":"Poseyali devushki lyon","year":"1956-09-10","translations":["Оригинальная дорожка"],"quality":"dvdrip","translation":"Оригинальная дорожка","update":"2019-07-15 11:11:50","iframe_src":"//83.svetacdn.in/PfJ50H0ZBPg3/movie/28970"},{"id":7494,"title":"Инсайт","kp_id":"705345","imdb_id":"tt3858874","world_art_id":null,"type":"movie","add":"2016-11-19 08:45:15","orig_title":"Инсайт","year":"2016-11-07","translations":["Оригинальная дорожка","Оригинальная дорожка"],"quality":"sat","translation":"Оригинальная дорожка","update":"2019-07-15 11:17:24","iframe_src":"//83.svetacdn.in/PfJ50H0ZBPg3/movie/7494"}],"current_page":1300,"first_page_url":"https://videocdn.tv/api/short?limit=100&api_token=RgFQdUIR2dRmwv8iYa5SnFNgnw3vpjKj&cache31300=31300&page=1","from":129901,"last_page":632,"last_page_url":"https://videocdn.tv/api/short?limit=100&api_token=RgFQdUIR2dRmwv8iYa5SnFNgnw3vpjKj&cache31300=31300&page=632","next_page_url":null,"path":"https://videocdn.tv/api/short","per_page":100,"prev_page_url":"https://videocdn.tv/api/short?limit=100&api_token=RgFQdUIR2dRmwv8iYa5SnFNgnw3vpjKj&cache31300=31300&page=1299","to":129920,"total":63120}