{"result":true,"data":[{"id":22831,"title":"Ослиная шкура","kp_id":"721568","imdb_id":"tt2562290","world_art_id":null,"type":"movie","add":"2019-03-07 22:27:07","orig_title":"Allerleirauh","year":"2012-11-04","translations":["Профессиональный (многоголосый закадровый) (Игмар)"],"quality":"hdtv","translation":"Профессиональный (многоголосый закадровый) (Игмар)","update":"2019-03-08 06:10:36","iframe_src":"//24213.svetacdn.in/si4jsFRrtgrT/movie/22831"},{"id":22830,"title":"Как я стал русским","kp_id":"1111720","imdb_id":"tt9387352","world_art_id":null,"type":"movie","add":"2019-03-07 22:25:45","orig_title":"Kak ya stal russkim","year":"2019-01-24","translations":["Оригинальная дорожка"],"quality":"webdl","translation":"Оригинальная дорожка","update":"2019-03-08 06:24:22","iframe_src":"//24213.svetacdn.in/si4jsFRrtgrT/movie/22830"},{"id":22829,"title":"Волшебное деревце","kp_id":"1009029","imdb_id":"tt6288394","world_art_id":null,"type":"movie","add":"2019-03-07 22:24:04","orig_title":"Das singende, klingende Bäumchen","year":"2016-12-25","translations":["Профессиональный (многоголосый закадровый) (Игмар)"],"quality":"hdtv","translation":"Профессиональный (многоголосый закадровый) (Игмар)","update":"2019-03-08 06:25:12","iframe_src":"//24213.svetacdn.in/si4jsFRrtgrT/movie/22829"},{"id":22828,"title":"Карлик Нос","kp_id":"313902","imdb_id":"tt1027206","world_art_id":null,"type":"movie","add":"2019-03-07 22:22:35","orig_title":"Zwerg Nase","year":"1978-12-30","translations":["Любительский (многоголосый закадровый)"],"quality":"dvdrip","translation":"Любительский (многоголосый закадровый)","update":"2019-03-08 06:26:48","iframe_src":"//24213.svetacdn.in/si4jsFRrtgrT/movie/22828"},{"id":22826,"title":"Ён-джу","kp_id":"1199834","imdb_id":null,"world_art_id":null,"type":"movie","add":"2019-03-07 22:19:51","orig_title":"Yeong-ju","year":"2018-11-22","translations":["Любительский (многоголосый закадровый) (Колобок)"],"quality":"webdl","translation":"Любительский (многоголосый закадровый) (Колобок)","update":"2019-03-08 05:53:09","iframe_src":"//24213.svetacdn.in/si4jsFRrtgrT/movie/22826"},{"id":22822,"title":"Подруга","kp_id":"1118062","imdb_id":"tt8286894","world_art_id":null,"type":"movie","add":"2019-03-07 22:07:47","orig_title":"Rafiki","year":"2018-05-09","translations":["Любительский (многоголосый закадровый) (Колобок)"],"quality":"webdl","translation":"Любительский (многоголосый закадровый) (Колобок)","update":"2019-03-08 05:58:25","iframe_src":"//24213.svetacdn.in/si4jsFRrtgrT/movie/22822"},{"id":22817,"title":"Девочка из шахты","kp_id":"856557","imdb_id":"tt3995766","world_art_id":null,"type":"movie","add":"2019-03-07 21:57:04","orig_title":"La Niña de la Mina","year":"2016-07-01","translations":["Любительский (многоголосый закадровый) (Колобок)"],"quality":"webdl","translation":"Любительский (многоголосый закадровый) (Колобок)","update":"2019-03-08 06:05:51","iframe_src":"//24213.svetacdn.in/si4jsFRrtgrT/movie/22817"},{"id":22814,"title":"Каникулы","kp_id":"1081942","imdb_id":"tt7328154","world_art_id":null,"type":"movie","add":"2019-03-07 21:49:08","orig_title":"Holiday","year":"2018-01-21","translations":["Любительский (многоголосый закадровый) (Синема УС)"],"quality":"webdl","translation":"Любительский (многоголосый закадровый) (Синема УС)","update":"2019-03-08 05:56:08","iframe_src":"//24213.svetacdn.in/si4jsFRrtgrT/movie/22814"},{"id":22813,"title":"Я – извращенец","kp_id":"1047109","imdb_id":"tt6138770","world_art_id":null,"type":"movie","add":"2019-03-07 21:47:31","orig_title":"Hentaida","year":"2016-11-02","translations":["Любительский (многоголосый закадровый) (Колобок)"],"quality":"bd","translation":"Любительский (многоголосый закадровый) (Колобок)","update":"2019-03-08 05:54:21","iframe_src":"//24213.svetacdn.in/si4jsFRrtgrT/movie/22813"},{"id":22812,"title":"Кома от квашеной капусты","kp_id":"1164095","imdb_id":"tt8500060","world_art_id":null,"type":"movie","add":"2019-03-07 21:40:57","orig_title":"Sauerkrautkoma","year":"2018-08-09","translations":["Любительский (многоголосый закадровый) (Синема УС)"],"quality":"webdl","translation":"Любительский (многоголосый закадровый) (Синема УС)","update":"2019-03-08 06:36:17","iframe_src":"//24213.svetacdn.in/si4jsFRrtgrT/movie/22812"},{"id":22810,"title":"Холодное сердце","kp_id":"877084","imdb_id":"tt4295982","world_art_id":null,"type":"movie","add":"2019-03-07 21:37:21","orig_title":"Das kalte Herz","year":"2014-09-28","translations":["Профессиональный (многоголосый закадровый) (Игмар)"],"quality":"hdtv","translation":"Профессиональный (многоголосый закадровый) (Игмар)","update":"2019-03-08 06:34:48","iframe_src":"//24213.svetacdn.in/si4jsFRrtgrT/movie/22810"},{"id":22807,"title":"Чужие письма","kp_id":"45542","imdb_id":"tt0072784","world_art_id":null,"type":"movie","add":"2019-03-07 05:04:34","orig_title":"Chuzhie pisma","year":"1976-08-16","translations":["Оригинальная дорожка"],"quality":"dvdrip","translation":"Оригинальная дорожка","update":"2019-03-07 07:50:06","iframe_src":"//24213.svetacdn.in/si4jsFRrtgrT/movie/22807"},{"id":22806,"title":"Сын","kp_id":"1112167","imdb_id":"tt8196214","world_art_id":null,"type":"movie","add":"2019-03-07 05:02:58","orig_title":"Le Fils","year":"2017-01-01","translations":["Оригинальная дорожка"],"quality":"hdtv","translation":"Оригинальная дорожка","update":"2019-03-07 07:46:24","iframe_src":"//24213.svetacdn.in/si4jsFRrtgrT/movie/22806"},{"id":22805,"title":"Сокровище Тарзана","kp_id":"1046810","imdb_id":"tt7109902","world_art_id":null,"type":"movie","add":"2019-03-07 05:00:36","orig_title":"Ouale lui Tarzan","year":"2017-06-09","translations":["Оригинальная дорожка"],"quality":"hdtv","translation":"Оригинальная дорожка","update":"2019-03-07 07:49:14","iframe_src":"//24213.svetacdn.in/si4jsFRrtgrT/movie/22805"},{"id":22803,"title":"Поздняя встреча","kp_id":"313480","imdb_id":"tt1031958","world_art_id":null,"type":"movie","add":"2019-03-07 04:53:42","orig_title":"Pozdnyaya vstrecha","year":"1979-04-24","translations":["Оригинальная дорожка"],"quality":"sat","translation":"Оригинальная дорожка","update":"2019-03-07 07:47:12","iframe_src":"//24213.svetacdn.in/si4jsFRrtgrT/movie/22803"},{"id":22802,"title":"Обиженные","kp_id":null,"imdb_id":"tt6497796","world_art_id":null,"type":"movie","add":"2019-03-07 04:48:58","orig_title":"The Offended","year":"2016-10-24","translations":["Профессиональный (многоголосый закадровый)"],"quality":"webdl","translation":"Профессиональный (многоголосый закадровый)","update":"2019-03-07 07:41:19","iframe_src":"//24213.svetacdn.in/si4jsFRrtgrT/movie/22802"},{"id":22801,"title":"О тебе","kp_id":"331740","imdb_id":"tt0237514","world_art_id":null,"type":"movie","add":"2019-03-07 04:47:31","orig_title":"O tebe","year":"1985-11-10","translations":["Оригинальная дорожка"],"quality":"dvb","translation":"Оригинальная дорожка","update":"2019-03-07 07:40:34","iframe_src":"//24213.svetacdn.in/si4jsFRrtgrT/movie/22801"},{"id":21350,"title":"Черная полоса","kp_id":"999713","imdb_id":"tt6009104","world_art_id":null,"type":"movie","add":"2019-01-09 09:16:40","orig_title":"Fleuve noir","year":"2018-04-06","translations":["Любительский (многоголосый закадровый) (@MUZOBOZ@)","Полное дублирование (iTunes)"],"quality":"bd","translation":"Любительский (многоголосый закадровый) (@MUZOBOZ@)","update":"2019-03-08 06:04:39","iframe_src":"//24213.svetacdn.in/si4jsFRrtgrT/movie/21350"},{"id":20663,"title":"Любовь и прочий зоопарк","kp_id":"978961","imdb_id":"tt5729818","world_art_id":null,"type":"movie","add":"2018-12-11 21:57:12","orig_title":"Gaspard va au mariage","year":"2017-10-23","translations":["Любительский (многоголосый закадровый) (Синема УС)","Любительский (двухголосый закадровый) (LakeFilms)","Профессиональный (многоголосый закадровый) (iTunes)"],"quality":"webdl","translation":"Любительский (многоголосый закадровый) (Синема УС)","update":"2019-03-07 12:23:59","iframe_src":"//24213.svetacdn.in/si4jsFRrtgrT/movie/20663"},{"id":17900,"title":"Старомодная комедия","kp_id":"43979","imdb_id":"tt0304750","world_art_id":null,"type":"movie","add":"2018-07-25 23:47:21","orig_title":"Staromodnaya komediya","year":"1980-02-11","translations":["Оригинальная дорожка"],"quality":"dvdrip","translation":"Оригинальная дорожка","update":"2019-03-08 05:47:31","iframe_src":"//24213.svetacdn.in/si4jsFRrtgrT/movie/17900"}],"current_page":2082,"first_page_url":"https://videocdn.tv/api/short?limit=100&api_token=X6EwAUfE5M9xbo7y0Bp0aPf3uXxG2KLL&cache32082=32082&page=1","from":208101,"last_page":725,"last_page_url":"https://videocdn.tv/api/short?limit=100&api_token=X6EwAUfE5M9xbo7y0Bp0aPf3uXxG2KLL&cache32082=32082&page=725","next_page_url":null,"path":"https://videocdn.tv/api/short","per_page":100,"prev_page_url":"https://videocdn.tv/api/short?limit=100&api_token=X6EwAUfE5M9xbo7y0Bp0aPf3uXxG2KLL&cache32082=32082&page=2081","to":208120,"total":72431}