{"result":true,"data":[{"id":28259,"title":"Девушки из «Согдианы»","kp_id":"44188","imdb_id":"tt0294526","world_art_id":null,"type":"movie","add":"2019-06-24 23:11:07","orig_title":"Devushki iz Sogdiany","year":"1987-10-17","translations":["Оригинальная дорожка"],"quality":"webdl","translation":"Оригинальная дорожка","update":"2019-06-25 08:43:49","iframe_src":"//7923.svetacdn.in/si4jsFRrtgrT/movie/28259"},{"id":28258,"title":"На перевале не стрелять!","kp_id":"503470","imdb_id":"tt1626907","world_art_id":null,"type":"movie","add":"2019-06-24 23:05:37","orig_title":"Na perevale ne strelyat!","year":"1983-10-31","translations":["Оригинальная дорожка"],"quality":"sat","translation":"Оригинальная дорожка","update":"2019-06-25 08:43:08","iframe_src":"//7923.svetacdn.in/si4jsFRrtgrT/movie/28258"},{"id":28253,"title":"Берлин","kp_id":"46091","imdb_id":"tt0037537","world_art_id":null,"type":"movie","add":"2019-06-24 22:39:15","orig_title":"Berlin","year":"1945-06-17","translations":["Оригинальная дорожка"],"quality":"dvdrip","translation":"Оригинальная дорожка","update":"2019-06-25 08:41:44","iframe_src":"//7923.svetacdn.in/si4jsFRrtgrT/movie/28253"},{"id":28250,"title":"Битва за нашу Советскую Украину","kp_id":"46139","imdb_id":"tt0035702","world_art_id":null,"type":"movie","add":"2019-06-24 22:35:24","orig_title":"Bitva za nashu Sovetskuyu Ukrainu","year":"1943-04-02","translations":["Оригинальная дорожка"],"quality":"dvdrip","translation":"Оригинальная дорожка","update":"2019-06-25 08:40:22","iframe_src":"//7923.svetacdn.in/si4jsFRrtgrT/movie/28250"},{"id":28249,"title":"Наше счастливое время","kp_id":"274707","imdb_id":"tt0870967","world_art_id":null,"type":"movie","add":"2019-06-24 22:32:05","orig_title":"Urideului haengbokhan shigan","year":"2006-09-14","translations":["Любительский (одноголосый закадровый)"],"quality":"dvdrip","translation":"Любительский (одноголосый закадровый)","update":"2019-06-25 08:38:08","iframe_src":"//7923.svetacdn.in/si4jsFRrtgrT/movie/28249"},{"id":28248,"title":"Дело Артамоновых","kp_id":"44122","imdb_id":"tt0033522","world_art_id":null,"type":"movie","add":"2019-06-24 22:31:48","orig_title":"Delo Artamonovykh","year":"1941-10-07","translations":["Оригинальная дорожка"],"quality":"sat","translation":"Оригинальная дорожка","update":"2019-06-25 08:39:16","iframe_src":"//7923.svetacdn.in/si4jsFRrtgrT/movie/28248"},{"id":28246,"title":"Девушка с маяка","kp_id":"44185","imdb_id":"tt0350805","world_art_id":null,"type":"movie","add":"2019-06-24 22:26:56","orig_title":"Devushka s mayaka","year":"1957-08-09","translations":["Оригинальная дорожка"],"quality":"webdl","translation":"Оригинальная дорожка","update":"2019-06-25 08:37:58","iframe_src":"//7923.svetacdn.in/si4jsFRrtgrT/movie/28246"},{"id":28244,"title":"Экстренное торможение","kp_id":"260330","imdb_id":null,"world_art_id":null,"type":"movie","add":"2019-06-24 22:07:58","orig_title":"Экстренное торможение","year":"2004-01-01","translations":["Оригинальная дорожка"],"quality":"dvdrip","translation":"Оригинальная дорожка","update":"2019-06-25 08:36:56","iframe_src":"//7923.svetacdn.in/si4jsFRrtgrT/movie/28244"},{"id":28240,"title":"Как закалялась сталь","kp_id":"44686","imdb_id":"tt0034932","world_art_id":null,"type":"movie","add":"2019-06-24 21:53:17","orig_title":"Kak zakalyalas stal","year":"1942-09-28","translations":["Оригинальная дорожка"],"quality":"dvdrip","translation":"Оригинальная дорожка","update":"2019-06-25 08:32:49","iframe_src":"//7923.svetacdn.in/si4jsFRrtgrT/movie/28240"},{"id":28239,"title":"Кавалер Золотой звезды","kp_id":"44744","imdb_id":"tt0043701","world_art_id":null,"type":"movie","add":"2019-06-24 21:49:22","orig_title":"Kavalier zolotoy zvezdy","year":"1951-07-09","translations":["Оригинальная дорожка"],"quality":"dvdrip","translation":"Оригинальная дорожка","update":"2019-06-25 08:36:27","iframe_src":"//7923.svetacdn.in/si4jsFRrtgrT/movie/28239"},{"id":28235,"title":"Концерт фронту","kp_id":"44909","imdb_id":"tt0177891","world_art_id":null,"type":"movie","add":"2019-06-24 21:36:49","orig_title":"Kontsert frontu","year":"1942-11-06","translations":["Оригинальная дорожка"],"quality":"dvdrip","translation":"Оригинальная дорожка","update":"2019-06-25 08:31:02","iframe_src":"//7923.svetacdn.in/si4jsFRrtgrT/movie/28235"},{"id":28234,"title":"Земля забвения","kp_id":"506486","imdb_id":"tt1555084","world_art_id":null,"type":"movie","add":"2019-06-24 21:33:07","orig_title":"La terre outragée","year":"2011-09-04","translations":["Оригинальная дорожка"],"quality":"webdl","translation":"Оригинальная дорожка","update":"2019-06-25 08:33:20","iframe_src":"//7923.svetacdn.in/si4jsFRrtgrT/movie/28234"},{"id":28233,"title":"Люди не все знают","kp_id":"45168","imdb_id":"tt0314339","world_art_id":null,"type":"movie","add":"2019-06-24 21:03:18","orig_title":"Lyudi ne vsyo znayut","year":"1963-11-02","translations":["Оригинальная дорожка"],"quality":"vhs","translation":"Оригинальная дорожка","update":"2019-06-25 08:29:51","iframe_src":"//7923.svetacdn.in/si4jsFRrtgrT/movie/28233"},{"id":28232,"title":"Машенька","kp_id":"46549","imdb_id":"tt0035044","world_art_id":null,"type":"movie","add":"2019-06-24 20:57:15","orig_title":"Mashenka","year":"1942-04-10","translations":["Оригинальная дорожка"],"quality":"sat","translation":"Оригинальная дорожка","update":"2019-06-25 08:28:15","iframe_src":"//7923.svetacdn.in/si4jsFRrtgrT/movie/28232"},{"id":28231,"title":"Одна","kp_id":"42730","imdb_id":"tt0022215","world_art_id":null,"type":"movie","add":"2019-06-24 20:52:25","orig_title":"Odna","year":"1931-10-10","translations":["Оригинальная дорожка"],"quality":"dvdrip","translation":"Оригинальная дорожка","update":"2019-06-25 08:27:26","iframe_src":"//7923.svetacdn.in/si4jsFRrtgrT/movie/28231"},{"id":28230,"title":"Охота за тенью","kp_id":"427018","imdb_id":null,"world_art_id":null,"type":"movie","add":"2019-06-24 20:43:17","orig_title":"Охота за тенью","year":"2005-01-01","translations":["Оригинальная дорожка"],"quality":"dvdrip","translation":"Оригинальная дорожка","update":"2019-06-25 08:28:23","iframe_src":"//7923.svetacdn.in/si4jsFRrtgrT/movie/28230"},{"id":28229,"title":"Остров сокровищ","kp_id":"42826","imdb_id":"tt0029356","world_art_id":null,"type":"movie","add":"2019-06-24 20:35:42","orig_title":"Ostrov sokrovishch","year":"1938-01-05","translations":["Оригинальная дорожка"],"quality":"dvdrip","translation":"Оригинальная дорожка","update":"2019-06-25 08:28:21","iframe_src":"//7923.svetacdn.in/si4jsFRrtgrT/movie/28229"},{"id":28228,"title":"Последняя прядь","kp_id":"916849","imdb_id":"tt4859520","world_art_id":null,"type":"movie","add":"2019-06-24 20:30:18","orig_title":"Poslednyaya pryad","year":"1968-01-01","translations":["Оригинальная дорожка"],"quality":"iptv","translation":"Оригинальная дорожка","update":"2019-06-25 08:25:18","iframe_src":"//7923.svetacdn.in/si4jsFRrtgrT/movie/28228"},{"id":24204,"title":"Испытание верности","kp_id":"42640","imdb_id":"tt0047992","world_art_id":null,"type":"movie","add":"2019-04-09 20:46:50","orig_title":"Ispytanie vernosti","year":"1954-12-01","translations":["Оригинальная дорожка"],"quality":"hdtv","translation":"Оригинальная дорожка","update":"2019-06-25 08:35:31","iframe_src":"//7923.svetacdn.in/si4jsFRrtgrT/movie/24204"},{"id":9562,"title":"9 дней и одно утро","kp_id":"838997","imdb_id":"tt3727544","world_art_id":null,"type":"movie","add":"2017-02-09 12:14:52","orig_title":"9 dney i odno utro","year":"2014-11-09","translations":["Оригинальная дорожка"],"quality":"webdl","translation":"Оригинальная дорожка","update":"2019-06-25 08:40:12","iframe_src":"//7923.svetacdn.in/si4jsFRrtgrT/movie/9562"}],"current_page":1393,"first_page_url":"https://videocdn.tv/api/short?limit=100&api_token=X6EwAUfE5M9xbo7y0Bp0aPf3uXxG2KLL&cache31393=31393&page=1","from":139201,"last_page":644,"last_page_url":"https://videocdn.tv/api/short?limit=100&api_token=X6EwAUfE5M9xbo7y0Bp0aPf3uXxG2KLL&cache31393=31393&page=644","next_page_url":null,"path":"https://videocdn.tv/api/short","per_page":100,"prev_page_url":"https://videocdn.tv/api/short?limit=100&api_token=X6EwAUfE5M9xbo7y0Bp0aPf3uXxG2KLL&cache31393=31393&page=1392","to":139220,"total":64307}