{"result":true,"data":[{"id":41500,"title":"Сильная слабая женщина","kp_id":"503453","imdb_id":null,"world_art_id":null,"type":"movie","add":"2020-06-30 12:57:26","orig_title":"Сильная слабая женщина","year":"2010-05-16","translations":["Оригинальная дорожка"],"quality":"dvdrip","translation":"Оригинальная дорожка","update":"2020-06-30 20:43:43","iframe_src":"//8543.svetacdn.in/71tsRs29n5tZ/movie/41500"},{"id":41499,"title":"Я был, я есть, я буду","kp_id":"1216273","imdb_id":"tt9233612","world_art_id":null,"type":"movie","add":"2020-06-30 12:55:09","orig_title":"Es gilt das gesprochene Wort","year":"2019-07-02","translations":["Любительский (многоголосый закадровый) (Синема УС)"],"quality":"webdl","translation":"Любительский (многоголосый закадровый) (Синема УС)","update":"2020-06-30 15:24:04","iframe_src":"//8543.svetacdn.in/71tsRs29n5tZ/movie/41499"},{"id":41498,"title":"Тот день","kp_id":"61144","imdb_id":"tt0343524","world_art_id":null,"type":"movie","add":"2020-06-30 12:46:40","orig_title":"Ce jour-là","year":"2003-05-15","translations":["Профессиональный (двухголосый закадровый)"],"quality":"dvdrip","translation":"Профессиональный (двухголосый закадровый)","update":"2020-07-01 06:43:53","iframe_src":"//8543.svetacdn.in/71tsRs29n5tZ/movie/41498"},{"id":41497,"title":"Гость","kp_id":null,"imdb_id":"tt8792882","world_art_id":null,"type":"movie","add":"2020-06-30 12:31:43","orig_title":"L'ospite","year":"2019-07-10","translations":["Любительский (многоголосый закадровый) (Синема УС)"],"quality":"webdl","translation":"Любительский (многоголосый закадровый) (Синема УС)","update":"2020-06-30 20:44:13","iframe_src":"//8543.svetacdn.in/71tsRs29n5tZ/movie/41497"},{"id":41496,"title":"Новоландия: Замок в небесах. Повернуть время вспять","kp_id":"1381854","imdb_id":"tt12205316","world_art_id":null,"type":"movie","add":"2020-06-30 10:25:19","orig_title":"Novoland the Castle in the Sky - Time Reversal","year":"2020-04-24","translations":["Любительский (двухголосый закадровый) (Колобок)"],"quality":"webdl","translation":"Любительский (двухголосый закадровый) (Колобок)","update":"2020-06-30 15:21:24","iframe_src":"//8543.svetacdn.in/71tsRs29n5tZ/movie/41496"},{"id":41495,"title":"Картофельный салат 3 - Мюзикл","kp_id":"1331172","imdb_id":"tt11449072","world_art_id":null,"type":"movie","add":"2020-06-30 10:22:03","orig_title":"Kartoffelsalat 3 - Das Musical","year":"2020-01-30","translations":["Любительский (многоголосый закадровый) (AlphaProject)"],"quality":"webdl","translation":"Любительский (многоголосый закадровый) (AlphaProject)","update":"2020-06-30 15:14:46","iframe_src":"//8543.svetacdn.in/71tsRs29n5tZ/movie/41495"},{"id":41494,"title":"Гуадалупе-Рейес","kp_id":"1315023","imdb_id":"tt11165442","world_art_id":null,"type":"movie","add":"2020-06-30 10:13:04","orig_title":"Guadalupe Reyes","year":"2019-11-29","translations":["Любительский (многоголосый закадровый) (Синема УС)"],"quality":"webdl","translation":"Любительский (многоголосый закадровый) (Синема УС)","update":"2020-06-30 15:13:51","iframe_src":"//8543.svetacdn.in/71tsRs29n5tZ/movie/41494"},{"id":41492,"title":"Ученик убийцы","kp_id":"1289115","imdb_id":"tt9805996","world_art_id":null,"type":"movie","add":"2020-06-30 10:05:45","orig_title":"That Son Tam Linh","year":"2019-10-09","translations":["Любительский (многоголосый закадровый) (Синема УС)"],"quality":"webdl","translation":"Любительский (многоголосый закадровый) (Синема УС)","update":"2020-06-30 15:16:51","iframe_src":"//8543.svetacdn.in/71tsRs29n5tZ/movie/41492"},{"id":41491,"title":"Прелюд","kp_id":"1174265","imdb_id":"tt8585418","world_art_id":null,"type":"movie","add":"2020-06-30 10:04:08","orig_title":"Prélude","year":"2019-06-28","translations":["Любительский (многоголосый закадровый) (Синема УС)"],"quality":"webdl","translation":"Любительский (многоголосый закадровый) (Синема УС)","update":"2020-06-30 15:15:39","iframe_src":"//8543.svetacdn.in/71tsRs29n5tZ/movie/41491"},{"id":41490,"title":"Муниципалитет: переходя все границы","kp_id":"1205287","imdb_id":"tt9169966","world_art_id":null,"type":"movie","add":"2020-06-30 10:01:52","orig_title":"Les municipaux - Trop c'est trop","year":"2019-10-23","translations":["Любительский (многоголосый закадровый) (AlphaProject)"],"quality":"webdl","translation":"Любительский (многоголосый закадровый) (AlphaProject)","update":"2020-06-30 15:17:53","iframe_src":"//8543.svetacdn.in/71tsRs29n5tZ/movie/41490"},{"id":41488,"title":"Моя худшая свадьба 2","kp_id":"1190455","imdb_id":"tt8932338","world_art_id":null,"type":"movie","add":"2020-06-30 09:58:22","orig_title":"La Peor de Mis Bodas 2","year":"2019-01-10","translations":["Любительский (многоголосый закадровый) (Синема УС)"],"quality":"webdl","translation":"Любительский (многоголосый закадровый) (Синема УС)","update":"2020-06-30 15:20:28","iframe_src":"//8543.svetacdn.in/71tsRs29n5tZ/movie/41488"},{"id":41487,"title":"Овод","kp_id":"1045138","imdb_id":null,"world_art_id":null,"type":"movie","add":"2020-06-30 09:54:45","orig_title":"Soepari","year":"2017-05-25","translations":["Любительский (двухголосый закадровый) (Колобок)"],"quality":"webdl","translation":"Любительский (двухголосый закадровый) (Колобок)","update":"2020-06-30 15:13:10","iframe_src":"//8543.svetacdn.in/71tsRs29n5tZ/movie/41487"},{"id":41486,"title":"Идеальный четырнадцатый","kp_id":"840163","imdb_id":"tt3302266","world_art_id":null,"type":"movie","add":"2020-06-30 09:51:37","orig_title":"A Perfect 14","year":"2018-09-22","translations":["Любительский (многоголосый закадровый) (Синема УС)"],"quality":"bd","translation":"Любительский (многоголосый закадровый) (Синема УС)","update":"2020-06-30 15:11:30","iframe_src":"//8543.svetacdn.in/71tsRs29n5tZ/movie/41486"},{"id":41485,"title":"Меня зовут По-ри","kp_id":"1371992","imdb_id":null,"world_art_id":null,"type":"movie","add":"2020-06-30 09:44:54","orig_title":"Naneun Bo-ri","year":"2020-05-21","translations":["Любительский (двухголосый закадровый) (Колобок)"],"quality":"webdl","translation":"Любительский (двухголосый закадровый) (Колобок)","update":"2020-06-30 15:12:37","iframe_src":"//8543.svetacdn.in/71tsRs29n5tZ/movie/41485"},{"id":41478,"title":"Чёрный корсар","kp_id":"25759","imdb_id":"tt0066950","world_art_id":null,"type":"movie","add":"2020-06-29 21:16:41","orig_title":"Il corsaro nero","year":"1971-03-12","translations":["Профессиональный (многоголосый закадровый)"],"quality":"hdtv","translation":"Профессиональный (многоголосый закадровый)","update":"2020-06-30 20:46:36","iframe_src":"//8543.svetacdn.in/71tsRs29n5tZ/movie/41478"},{"id":41476,"title":"Слепое правосудие","kp_id":"5956","imdb_id":"tt0109294","world_art_id":null,"type":"movie","add":"2020-06-29 21:08:17","orig_title":"Blind Justice","year":"1994-06-25","translations":["Профессиональный (многоголосый закадровый)"],"quality":"dvdrip","translation":"Профессиональный (многоголосый закадровый)","update":"2020-06-30 20:46:53","iframe_src":"//8543.svetacdn.in/71tsRs29n5tZ/movie/41476"},{"id":41469,"title":"Пересечение","kp_id":"411968","imdb_id":"tt1133922","world_art_id":null,"type":"movie","add":"2020-06-29 16:43:31","orig_title":"Keurosing","year":"2008-06-05","translations":["Любительский (одноголосый закадровый) (D.I.M.)"],"quality":"bd","translation":"Любительский (одноголосый закадровый) (D.I.M.)","update":"2020-06-30 15:06:54","iframe_src":"//8543.svetacdn.in/71tsRs29n5tZ/movie/41469"},{"id":22038,"title":"Как не стать президентом","kp_id":"1046885","imdb_id":"tt7074886","world_art_id":null,"type":"movie","add":"2019-02-03 23:51:02","orig_title":"The Front Runner","year":"2018-08-31","translations":["Любительский (многоголосый закадровый) (Синема УС)","Любительский (многоголосый закадровый) (@MUZOBOZ@)","Профессиональный (многоголосый закадровый) (iTunes)","Профессиональный (многоголосый закадровый) (HDrezka Studio)"],"quality":"dvdrip","translation":"Любительский (многоголосый закадровый) (Синема УС)","update":"2020-06-30 18:06:05","iframe_src":"//8543.svetacdn.in/71tsRs29n5tZ/movie/22038"},{"id":19900,"title":"Великая битва","kp_id":"1018645","imdb_id":"tt6931414","world_art_id":null,"type":"movie","add":"2018-11-01 00:29:37","orig_title":"Ansiseong","year":"2018-09-19","translations":["Любительский (многоголосый закадровый) (Колобок)","Профессиональный (многоголосый закадровый) (HDrezka Studio)","Любительский (многоголосый закадровый) (STEPonee)","Профессиональный (многоголосый закадровый) (HDrezka Studio)","Профессиональный (многоголосый закадровый) (HDrezka Studio)"],"quality":"webdl","translation":"Любительский (многоголосый закадровый) (Колобок)","update":"2020-06-30 18:07:48","iframe_src":"//8543.svetacdn.in/71tsRs29n5tZ/movie/19900"},{"id":452,"title":"Отцовский инстинкт","kp_id":"702035","imdb_id":null,"world_art_id":null,"type":"serial","add":"2016-09-19 04:09:23","orig_title":"Отцовский инстинкт","year":"2012-09-09","translations":["Оригинальная дорожка"],"seasons_count":1,"episodes_count":4,"episodes":4,"update":"2016-09-19 11:49:57","iframe_src":"//8543.svetacdn.in/71tsRs29n5tZ/tv-series/452"},{"id":451,"title":"Багряное поле","kp_id":"838421","imdb_id":"tt3494220","world_art_id":null,"type":"serial","add":"2016-09-18 16:04:30","orig_title":"The Crimson Field","year":"2014-04-06","translations":["Профессиональный (многоголосый закадровый) (ViruseProject)"],"seasons_count":1,"episodes_count":6,"episodes":6,"update":"2016-09-19 09:42:39","iframe_src":"//8543.svetacdn.in/71tsRs29n5tZ/tv-series/451"},{"id":450,"title":"После многих бед","kp_id":"990841","imdb_id":null,"world_art_id":null,"type":"serial","add":"2016-09-18 15:53:35","orig_title":"После многих бед","year":"2016-09-17","translations":["Оригинальная дорожка"],"seasons_count":1,"episodes_count":2,"episodes":2,"update":"2016-09-19 11:48:17","iframe_src":"//8543.svetacdn.in/71tsRs29n5tZ/tv-series/450"},{"id":449,"title":"Ивановы","kp_id":"940716","imdb_id":null,"world_art_id":null,"type":"serial","add":"2016-09-18 15:49:44","orig_title":"Ивановы","year":"2016-09-16","translations":["Оригинальная дорожка"],"seasons_count":1,"episodes_count":2,"episodes":2,"update":"2016-09-19 05:38:50","iframe_src":"//8543.svetacdn.in/71tsRs29n5tZ/tv-series/449"},{"id":448,"title":"Свой чужой сын","kp_id":"1006631","imdb_id":null,"world_art_id":null,"type":"serial","add":"2016-09-18 15:44:05","orig_title":"Свой чужой сын","year":"2016-06-17","translations":["Оригинальная дорожка"],"seasons_count":1,"episodes_count":4,"episodes":4,"update":"2016-09-19 05:49:38","iframe_src":"//8543.svetacdn.in/71tsRs29n5tZ/tv-series/448"},{"id":447,"title":"Отель последней надежды","kp_id":"996638","imdb_id":null,"world_art_id":null,"type":"serial","add":"2016-09-18 15:37:55","orig_title":"Отель последней надежды","year":"2016-09-17","translations":["Оригинальная дорожка"],"seasons_count":1,"episodes_count":4,"episodes":4,"update":"2016-09-19 05:24:10","iframe_src":"//8543.svetacdn.in/71tsRs29n5tZ/tv-series/447"},{"id":446,"title":"Капитан полиции метро","kp_id":"1001699","imdb_id":null,"world_art_id":null,"type":"serial","add":"2016-09-16 15:19:03","orig_title":"Капитан полиции метро","year":"2016-09-16","translations":["Оригинальная дорожка"],"seasons_count":1,"episodes_count":2,"episodes":2,"update":"2016-09-19 06:01:23","iframe_src":"//8543.svetacdn.in/71tsRs29n5tZ/tv-series/446"},{"id":444,"title":"Белая королева","kp_id":"723644","imdb_id":"tt2372220","world_art_id":null,"type":"serial","add":"2016-09-16 05:33:43","orig_title":"The White Queen","year":"2013-06-16","translations":["Профессиональный (многоголосый закадровый) (Amedia)"],"seasons_count":1,"episodes_count":10,"episodes":10,"update":"2016-09-19 12:15:31","iframe_src":"//8543.svetacdn.in/71tsRs29n5tZ/tv-series/444"},{"id":440,"title":"Тиран","kp_id":"723534","imdb_id":"tt2568204","world_art_id":null,"type":"serial","add":"2016-09-14 14:02:41","orig_title":"Tyrant","year":"2014-06-24","translations":["Профессиональный (многоголосый закадровый) (NewStudio)"],"seasons_count":3,"episodes_count":32,"episodes":10,"update":"2016-09-15 11:06:37","iframe_src":"//8543.svetacdn.in/71tsRs29n5tZ/tv-series/440"},{"id":438,"title":"Чтобы увидеть радугу...","kp_id":"966755","imdb_id":null,"world_art_id":null,"type":"serial","add":"2016-09-12 11:41:42","orig_title":"Чтобы увидеть радугу...","year":"2016-02-27","translations":["Оригинальная дорожка"],"seasons_count":1,"episodes_count":4,"episodes":4,"update":"2016-09-14 07:54:38","iframe_src":"//8543.svetacdn.in/71tsRs29n5tZ/tv-series/438"},{"id":434,"title":"Экспресс-командировка","kp_id":"986685","imdb_id":null,"world_art_id":null,"type":"serial","add":"2016-09-12 04:50:47","orig_title":"Экспресс-командировка","year":"2016-09-10","translations":["Оригинальная дорожка"],"seasons_count":1,"episodes_count":4,"episodes":4,"update":"2016-09-12 06:43:00","iframe_src":"//8543.svetacdn.in/71tsRs29n5tZ/tv-series/434"},{"id":433,"title":"Куда уходят дожди","kp_id":"999458","imdb_id":null,"world_art_id":null,"type":"serial","add":"2016-09-11 08:36:41","orig_title":"Куда уходят дожди","year":"2016-09-10","translations":["Оригинальная дорожка"],"seasons_count":1,"episodes_count":2,"episodes":2,"update":"2016-09-12 05:49:36","iframe_src":"//8543.svetacdn.in/71tsRs29n5tZ/tv-series/433"},{"id":432,"title":"На белом коне","kp_id":"977753","imdb_id":null,"world_art_id":null,"type":"serial","add":"2016-09-11 08:33:05","orig_title":"На белом коне","year":"2016-09-10","translations":["Оригинальная дорожка"],"seasons_count":1,"episodes_count":4,"episodes":4,"update":"2016-09-12 05:49:57","iframe_src":"//8543.svetacdn.in/71tsRs29n5tZ/tv-series/432"},{"id":429,"title":"Харли и братья Дэвидсон","kp_id":"983078","imdb_id":"tt5111414","world_art_id":null,"type":"serial","add":"2016-09-09 17:04:41","orig_title":"Harley and the Davidsons","year":"2016-09-05","translations":["Профессиональный (многоголосый закадровый) (NewStudio)"],"seasons_count":1,"episodes_count":3,"episodes":3,"update":"2016-09-12 10:09:30","iframe_src":"//8543.svetacdn.in/71tsRs29n5tZ/tv-series/429"},{"id":427,"title":"Инспектор Купер 2","kp_id":"837752","imdb_id":"tt4792606","world_art_id":null,"type":"serial","add":"2016-09-09 05:44:42","orig_title":"Inspektor Kuper 2","year":"2015-05-25","translations":["Оригинальная дорожка"],"seasons_count":1,"episodes_count":30,"episodes":30,"update":"2016-09-13 07:40:02","iframe_src":"//8543.svetacdn.in/71tsRs29n5tZ/tv-series/427"},{"id":412,"title":"Жемчуга (Тайна русской жемчужины)","kp_id":"957750","imdb_id":null,"world_art_id":null,"type":"serial","add":"2016-09-06 06:07:09","orig_title":"Жемчуга (Тайна русской жемчужины)","year":"2016-09-05","translations":["Оригинальная дорожка"],"seasons_count":1,"episodes_count":24,"episodes":24,"update":"2016-09-16 07:03:28","iframe_src":"//8543.svetacdn.in/71tsRs29n5tZ/tv-series/412"},{"id":359,"title":"Будни аэропорта","kp_id":"842452","imdb_id":"tt4612828","world_art_id":null,"type":"serial","add":"2016-08-23 10:07:45","orig_title":"The Airport Diary","year":"2012-09-01","translations":["Оригинальная дорожка"],"seasons_count":1,"episodes_count":78,"episodes":78,"update":"2016-09-14 18:27:53","iframe_src":"//8543.svetacdn.in/71tsRs29n5tZ/tv-series/359"},{"id":314,"title":"Шаман","kp_id":"646791","imdb_id":"tt3172272","world_art_id":null,"type":"serial","add":"2016-07-26 15:51:22","orig_title":"Shaman","year":"2011-12-19","translations":["Оригинальная дорожка"],"seasons_count":3,"episodes_count":80,"episodes":32,"update":"2016-09-16 07:22:32","iframe_src":"//8543.svetacdn.in/71tsRs29n5tZ/tv-series/314"},{"id":244,"title":"Американская готика","kp_id":"958573","imdb_id":"tt5257744","world_art_id":null,"type":"serial","add":"2016-07-03 06:44:36","orig_title":"American Gothic","year":"2016-06-22","translations":["Профессиональный (многоголосый закадровый) (NewStudio)"],"seasons_count":1,"episodes_count":13,"episodes":13,"update":"2016-09-15 04:52:55","iframe_src":"//8543.svetacdn.in/71tsRs29n5tZ/tv-series/244"},{"id":201,"title":"Водолей","kp_id":"841000","imdb_id":"tt3768572","world_art_id":null,"type":"serial","add":"2016-06-19 12:15:33","orig_title":"Aquarius","year":"2015-05-28","translations":["Профессиональный (многоголосый закадровый) (Jaskier)"],"seasons_count":2,"episodes_count":26,"episodes":13,"update":"2016-09-19 08:36:11","iframe_src":"//8543.svetacdn.in/71tsRs29n5tZ/tv-series/201"},{"id":617,"title":"Как приручить дракона","kp_id":"280172","imdb_id":"tt0892769","world_art_id":null,"type":"movie","add":"2016-04-05 16:06:21","orig_title":"How to Train Your Dragon","year":"2010-03-18","translations":["Полное дублирование","Авторский (одноголосый закадровый) (Гоблин | Пучков Дмитрий)"],"quality":"bd","translation":"Полное дублирование","update":"2020-06-30 15:09:45","iframe_src":"//8543.svetacdn.in/71tsRs29n5tZ/movie/617"}],"current_page":497,"first_page_url":"https://videocdn.tv/api/short?limit=100&api_token=EnbO9h8pv1VyjbCJhg0WM9nG259n7mtz&cache3497=3497&page=1","from":49601,"last_page":609,"last_page_url":"https://videocdn.tv/api/short?limit=100&api_token=EnbO9h8pv1VyjbCJhg0WM9nG259n7mtz&cache3497=3497&page=609","next_page_url":"https://videocdn.tv/api/short?limit=100&api_token=EnbO9h8pv1VyjbCJhg0WM9nG259n7mtz&cache3497=3497&page=498","path":"https://videocdn.tv/api/short","per_page":100,"prev_page_url":"https://videocdn.tv/api/short?limit=100&api_token=EnbO9h8pv1VyjbCJhg0WM9nG259n7mtz&cache3497=3497&page=496","to":49640,"total":60809}