{"result":true,"data":[{"id":24101,"title":"Полное дыхание","kp_id":"356795","imdb_id":"tt1325618","world_art_id":null,"type":"movie","add":"2019-04-08 01:56:30","orig_title":"Polnoe dykhanie","year":"2008-11-07","translations":["Оригинальная дорожка"],"quality":"dvdrip","translation":"Оригинальная дорожка","update":"2019-04-10 08:55:43","iframe_src":"//83.svetacdn.in/PfJ50H0ZBPg3/movie/24101"},{"id":24099,"title":"Плюс один","kp_id":"395697","imdb_id":"tt1224449","world_art_id":null,"type":"movie","add":"2019-04-08 01:35:35","orig_title":"Plyus odin","year":"2008-06-20","translations":["Оригинальная дорожка"],"quality":"dvdrip","translation":"Оригинальная дорожка","update":"2019-04-10 08:51:13","iframe_src":"//83.svetacdn.in/PfJ50H0ZBPg3/movie/24099"},{"id":24098,"title":"Петя по дороге в Царствие Небесное","kp_id":"466440","imdb_id":"tt1477055","world_art_id":null,"type":"movie","add":"2019-04-08 01:21:48","orig_title":"Petya po doroge v Tsarstvie Nebesnoe","year":"2009-09-19","translations":["Оригинальная дорожка"],"quality":"dvdrip","translation":"Оригинальная дорожка","update":"2019-04-10 08:32:33","iframe_src":"//83.svetacdn.in/PfJ50H0ZBPg3/movie/24098"},{"id":24097,"title":"Первоклассница","kp_id":"42938","imdb_id":"tt0040689","world_art_id":null,"type":"movie","add":"2019-04-08 01:16:03","orig_title":"Pervoklassnitsa","year":"1948-03-22","translations":["Оригинальная дорожка"],"quality":"dvdrip","translation":"Оригинальная дорожка","update":"2019-04-10 08:31:25","iframe_src":"//83.svetacdn.in/PfJ50H0ZBPg3/movie/24097"},{"id":24096,"title":"Адмирал Нахимов","kp_id":"43408","imdb_id":"tt0039132","world_art_id":null,"type":"movie","add":"2019-04-08 01:10:47","orig_title":"Admiral Nakhimov","year":"1947-01-02","translations":["Оригинальная дорожка"],"quality":"dvdrip","translation":"Оригинальная дорожка","update":"2019-04-10 08:30:48","iframe_src":"//83.svetacdn.in/PfJ50H0ZBPg3/movie/24096"},{"id":24095,"title":"Сто солдат и две девушки","kp_id":"417815","imdb_id":"tt3042438","world_art_id":null,"type":"movie","add":"2019-04-08 01:02:05","orig_title":"Sto soldat i dve devushki","year":"1989-01-01","translations":["Оригинальная дорожка"],"quality":"tv","translation":"Оригинальная дорожка","update":"2019-04-10 08:30:18","iframe_src":"//83.svetacdn.in/PfJ50H0ZBPg3/movie/24095"},{"id":24094,"title":"Сыщик петербургской полиции","kp_id":"41110","imdb_id":"tt0176207","world_art_id":null,"type":"movie","add":"2019-04-08 00:52:09","orig_title":"Syshchik Peterburgskoy politsii","year":"1991-01-01","translations":["Оригинальная дорожка"],"quality":"dvdrip","translation":"Оригинальная дорожка","update":"2019-04-10 08:29:27","iframe_src":"//83.svetacdn.in/PfJ50H0ZBPg3/movie/24094"},{"id":24093,"title":"Точка","kp_id":"252125","imdb_id":"tt0820153","world_art_id":null,"type":"movie","add":"2019-04-08 00:44:30","orig_title":"Tochka","year":"2006-10-13","translations":["Оригинальная дорожка"],"quality":"dvdrip","translation":"Оригинальная дорожка","update":"2019-04-10 08:27:29","iframe_src":"//83.svetacdn.in/PfJ50H0ZBPg3/movie/24093"},{"id":24092,"title":"Третий удар","kp_id":"42286","imdb_id":"tt0040900","world_art_id":null,"type":"movie","add":"2019-04-08 00:38:09","orig_title":"Tretiy udar","year":"1948-04-26","translations":["Оригинальная дорожка"],"quality":"dvdrip","translation":"Оригинальная дорожка","update":"2019-04-10 08:26:39","iframe_src":"//83.svetacdn.in/PfJ50H0ZBPg3/movie/24092"},{"id":24091,"title":"У твоего порога","kp_id":"42481","imdb_id":"tt0174300","world_art_id":null,"type":"movie","add":"2019-04-08 00:33:22","orig_title":"U tvoego poroga","year":"1963-03-27","translations":["Оригинальная дорожка"],"quality":"dvdrip","translation":"Оригинальная дорожка","update":"2019-04-10 08:25:33","iframe_src":"//83.svetacdn.in/PfJ50H0ZBPg3/movie/24091"},{"id":24090,"title":"Укрощение строптивой","kp_id":"42514","imdb_id":"tt0125571","world_art_id":null,"type":"movie","add":"2019-04-08 00:27:12","orig_title":"Ukroshchenie stroptivoy","year":"1961-09-24","translations":["Оригинальная дорожка"],"quality":"dvdrip","translation":"Оригинальная дорожка","update":"2019-04-10 08:24:40","iframe_src":"//83.svetacdn.in/PfJ50H0ZBPg3/movie/24090"},{"id":24089,"title":"Великий перелом","kp_id":"45706","imdb_id":"tt0037426","world_art_id":null,"type":"movie","add":"2019-04-08 00:22:00","orig_title":"Velikiy perelom","year":"1945-01-29","translations":["Оригинальная дорожка"],"quality":"dvdrip","translation":"Оригинальная дорожка","update":"2019-04-10 08:23:36","iframe_src":"//83.svetacdn.in/PfJ50H0ZBPg3/movie/24089"},{"id":24087,"title":"Выше радуги","kp_id":"85175","imdb_id":"tt0367210","world_art_id":null,"type":"movie","add":"2019-04-08 00:03:28","orig_title":"Vyshe radugi","year":"1986-05-02","translations":["Оригинальная дорожка"],"quality":"dvdrip","translation":"Оригинальная дорожка","update":"2019-04-10 08:22:55","iframe_src":"//83.svetacdn.in/PfJ50H0ZBPg3/movie/24087"},{"id":24086,"title":"Ярик","kp_id":"420319","imdb_id":"tt1993446","world_art_id":null,"type":"movie","add":"2019-04-07 23:52:57","orig_title":"Yarik","year":"2008-01-03","translations":["Оригинальная дорожка"],"quality":"dvdrip","translation":"Оригинальная дорожка","update":"2019-04-10 08:22:17","iframe_src":"//83.svetacdn.in/PfJ50H0ZBPg3/movie/24086"},{"id":24085,"title":"Загадка старого кладбища","kp_id":"423993","imdb_id":"tt1837710","world_art_id":null,"type":"movie","add":"2019-04-07 23:46:31","orig_title":"Zagadka starogo kladbishcha","year":"2008-09-11","translations":["Оригинальная дорожка"],"quality":"dvdrip","translation":"Оригинальная дорожка","update":"2019-04-10 08:21:10","iframe_src":"//83.svetacdn.in/PfJ50H0ZBPg3/movie/24085"},{"id":24083,"title":"Друг","kp_id":"44302","imdb_id":"tt0092930","world_art_id":null,"type":"movie","add":"2019-04-07 23:17:26","orig_title":"Drug","year":"1988-05-10","translations":["Оригинальная дорожка"],"quality":"dvdrip","translation":"Оригинальная дорожка","update":"2019-04-10 08:19:29","iframe_src":"//83.svetacdn.in/PfJ50H0ZBPg3/movie/24083"},{"id":24081,"title":"Земля","kp_id":"45267","imdb_id":"tt0021571","world_art_id":null,"type":"movie","add":"2019-04-07 22:50:55","orig_title":"Zemlya","year":"1930-04-08","translations":["Оригинальная дорожка"],"quality":"dvdrip","translation":"Оригинальная дорожка","update":"2019-04-10 08:18:08","iframe_src":"//83.svetacdn.in/PfJ50H0ZBPg3/movie/24081"},{"id":24076,"title":"Безумный день, или Женитьба Фигаро","kp_id":"81094","imdb_id":"tt0233325","world_art_id":null,"type":"movie","add":"2019-04-07 22:40:10","orig_title":"Bezumnyy den ili zhenitba Figaro","year":"1974-08-03","translations":["Оригинальная дорожка"],"quality":"dvdrip","translation":"Оригинальная дорожка","update":"2019-04-10 08:16:12","iframe_src":"//83.svetacdn.in/PfJ50H0ZBPg3/movie/24076"},{"id":24073,"title":"Всадник без головы","kp_id":"45918","imdb_id":"tt0202080","world_art_id":null,"type":"movie","add":"2019-04-07 22:14:09","orig_title":"Vsadnik bez golovy","year":"1973-07-23","translations":["Оригинальная дорожка"],"quality":"dvdrip","translation":"Оригинальная дорожка","update":"2019-04-10 08:14:32","iframe_src":"//83.svetacdn.in/PfJ50H0ZBPg3/movie/24073"},{"id":24072,"title":"Первая любовь","kp_id":"430506","imdb_id":"tt1351212","world_art_id":null,"type":"movie","add":"2019-04-07 22:12:40","orig_title":"Pervaya lyubov: Vot takaya muzyka!","year":"2009-03-05","translations":["Оригинальная дорожка"],"quality":"dvdrip","translation":"Оригинальная дорожка","update":"2019-04-10 08:13:46","iframe_src":"//83.svetacdn.in/PfJ50H0ZBPg3/movie/24072"}],"current_page":1564,"first_page_url":"https://videocdn.tv/api/short?limit=100&api_token=RgFQdUIR2dRmwv8iYa5SnFNgnw3vpjKj&cache31564=31564&page=1","from":156301,"last_page":637,"last_page_url":"https://videocdn.tv/api/short?limit=100&api_token=RgFQdUIR2dRmwv8iYa5SnFNgnw3vpjKj&cache31564=31564&page=637","next_page_url":null,"path":"https://videocdn.tv/api/short","per_page":100,"prev_page_url":"https://videocdn.tv/api/short?limit=100&api_token=RgFQdUIR2dRmwv8iYa5SnFNgnw3vpjKj&cache31564=31564&page=1563","to":156320,"total":63673}