{"result":true,"data":[{"id":48774,"title":"Во имя Иисуса","kp_id":null,"imdb_id":"tt10954196","world_art_id":null,"type":"movie","add":"2021-03-15 13:24:12","orig_title":"In Jesus Name","year":"2019-04-02","translations":["Любительский (многоголосый закадровый) (Синема УС)"],"quality":"webdl","translation":"Любительский (многоголосый закадровый) (Синема УС)","update":"2021-03-16 07:36:02","iframe_src":"//5091.svetacdn.in/IAF0wWTdNYZm/movie/48774"},{"id":48773,"title":"Иберион","kp_id":null,"imdb_id":"tt10661376","world_art_id":null,"type":"movie","add":"2021-03-15 13:22:42","orig_title":"Iberion","year":"2019-07-04","translations":["Любительский (многоголосый закадровый) (Синема УС)"],"quality":"webdl","translation":"Любительский (многоголосый закадровый) (Синема УС)","update":"2021-03-15 20:13:21","iframe_src":"//5091.svetacdn.in/IAF0wWTdNYZm/movie/48773"},{"id":48772,"title":"Война за лайки","kp_id":"1324659","imdb_id":"tt11332500","world_art_id":null,"type":"movie","add":"2021-03-15 13:02:58","orig_title":"Guerra de Likes","year":"2021-03-12","translations":["Любительский (многоголосый закадровый) (AlphaProject)"],"quality":"webdl","translation":"Любительский (многоголосый закадровый) (AlphaProject)","update":"2021-03-15 20:18:33","iframe_src":"//5091.svetacdn.in/IAF0wWTdNYZm/movie/48772"},{"id":48771,"title":"Смерть ловеласа","kp_id":"1261968","imdb_id":"tt7923118","world_art_id":null,"type":"movie","add":"2021-03-15 12:58:53","orig_title":"Death of a Ladies' Man","year":"2020-09-24","translations":["Любительский (многоголосый закадровый) (@MUZOBOZ@)"],"quality":"webdl","translation":"Любительский (многоголосый закадровый) (@MUZOBOZ@)","update":"2021-03-15 20:19:23","iframe_src":"//5091.svetacdn.in/IAF0wWTdNYZm/movie/48771"},{"id":48770,"title":"Еда, напитки, свадьба","kp_id":"1266295","imdb_id":"tt10346362","world_art_id":null,"type":"movie","add":"2021-03-15 12:56:59","orig_title":"Eat, Drink & Be Married","year":"2019-06-22","translations":["Любительский (многоголосый закадровый) (AlphaProject)"],"quality":"webdl","translation":"Любительский (многоголосый закадровый) (AlphaProject)","update":"2021-03-15 20:19:56","iframe_src":"//5091.svetacdn.in/IAF0wWTdNYZm/movie/48770"},{"id":48769,"title":"Разборки 2","kp_id":"1449120","imdb_id":"tt13438740","world_art_id":null,"type":"movie","add":"2021-03-15 12:55:34","orig_title":"I Got This 2","year":"2020-11-06","translations":["Любительский (многоголосый закадровый) (Синема УС)"],"quality":"webdl","translation":"Любительский (многоголосый закадровый) (Синема УС)","update":"2021-03-15 20:20:22","iframe_src":"//5091.svetacdn.in/IAF0wWTdNYZm/movie/48769"},{"id":48764,"title":"Малазия: Поколение 90-х","kp_id":"1353902","imdb_id":"tt11835236","world_art_id":null,"type":"movie","add":"2021-03-15 12:40:57","orig_title":"Generasi 90an: Melankolia","year":"2020-12-24","translations":["Любительский (многоголосый закадровый) (Синема УС)"],"quality":"webdl","translation":"Любительский (многоголосый закадровый) (Синема УС)","update":"2021-03-15 20:22:34","iframe_src":"//5091.svetacdn.in/IAF0wWTdNYZm/movie/48764"},{"id":48763,"title":"Видение","kp_id":"854124","imdb_id":"tt3963674","world_art_id":null,"type":"movie","add":"2021-03-15 12:37:54","orig_title":"Insight","year":"2021-03-12","translations":["Любительский (многоголосый закадровый) (@MUZOBOZ@)"],"quality":"webdl","translation":"Любительский (многоголосый закадровый) (@MUZOBOZ@)","update":"2021-03-15 20:23:04","iframe_src":"//5091.svetacdn.in/IAF0wWTdNYZm/movie/48763"},{"id":48761,"title":"Запах ночи","kp_id":"57901","imdb_id":"tt0140428","world_art_id":null,"type":"movie","add":"2021-03-15 11:03:22","orig_title":"L'odore della notte","year":"1998-09-08","translations":["Профессиональный (многоголосый закадровый) (Монолит)"],"quality":"bd","translation":"Профессиональный (многоголосый закадровый) (Монолит)","update":"2021-03-16 08:06:42","iframe_src":"//5091.svetacdn.in/IAF0wWTdNYZm/movie/48761"},{"id":48752,"title":"Корабль идет в Индию","kp_id":"74161","imdb_id":"tt0039834","world_art_id":null,"type":"movie","add":"2021-03-15 07:25:41","orig_title":"Skepp till India land","year":"1947-09-22","translations":["Профессиональный (одноголосый закадровый)"],"quality":"bd","translation":"Профессиональный (одноголосый закадровый)","update":"2021-03-16 08:07:48","iframe_src":"//5091.svetacdn.in/IAF0wWTdNYZm/movie/48752"},{"id":48751,"title":"Синсэнгуми","kp_id":"222877","imdb_id":"tt0066372","world_art_id":null,"type":"movie","add":"2021-03-15 07:24:00","orig_title":"Shinsengumi","year":"1969-12-05","translations":["Авторский (одноголосый закадровый) (Кузнецов Сергей)"],"quality":"webdl","translation":"Авторский (одноголосый закадровый) (Кузнецов Сергей)","update":"2021-03-16 08:19:06","iframe_src":"//5091.svetacdn.in/IAF0wWTdNYZm/movie/48751"},{"id":48709,"title":"Хрупкие жизни","kp_id":"1429238","imdb_id":"tt13045890","world_art_id":null,"type":"movie","add":"2021-03-13 06:37:12","orig_title":"Kagittan Hayatlar","year":"2021-03-12","translations":["Любительский (двухголосый закадровый) (OnisFilms)","Любительский (многоголосый закадровый) (@MUZOBOZ@)"],"quality":"webdl","translation":"Любительский (двухголосый закадровый) (OnisFilms)","update":"2021-03-15 20:19:03","iframe_src":"//5091.svetacdn.in/IAF0wWTdNYZm/movie/48709"},{"id":48697,"title":"Ярость","kp_id":"42422","imdb_id":"tt0184049","world_art_id":null,"type":"movie","add":"2021-03-12 18:25:24","orig_title":"Yarost","year":"1966-02-14","translations":["Оригинальная дорожка"],"quality":"sat","translation":"Оригинальная дорожка","update":"2021-03-15 16:49:48","iframe_src":"//5091.svetacdn.in/IAF0wWTdNYZm/movie/48697"},{"id":48696,"title":"Профессор Мамлок","kp_id":"43295","imdb_id":"tt0163797","world_art_id":null,"type":"movie","add":"2021-03-12 18:22:16","orig_title":"Professor Mamlok","year":"1938-09-05","translations":["Оригинальная дорожка"],"quality":"webdl","translation":"Оригинальная дорожка","update":"2021-03-15 16:49:05","iframe_src":"//5091.svetacdn.in/IAF0wWTdNYZm/movie/48696"},{"id":48695,"title":"Поручик Киже","kp_id":"43133","imdb_id":"tt0025671","world_art_id":null,"type":"movie","add":"2021-03-12 18:19:17","orig_title":"Poruchik Kizhe","year":"1934-03-07","translations":["Оригинальная дорожка"],"quality":"webdl","translation":"Оригинальная дорожка","update":"2021-03-15 16:48:13","iframe_src":"//5091.svetacdn.in/IAF0wWTdNYZm/movie/48695"},{"id":48694,"title":"Надежда","kp_id":"46300","imdb_id":"tt0070431","world_art_id":null,"type":"movie","add":"2021-03-12 18:10:19","orig_title":"Nadezhda","year":"1973-11-05","translations":["Оригинальная дорожка"],"quality":"webdl","translation":"Оригинальная дорожка","update":"2021-03-15 16:47:28","iframe_src":"//5091.svetacdn.in/IAF0wWTdNYZm/movie/48694"},{"id":48680,"title":"Акеларре","kp_id":"1254396","imdb_id":"tt9916362","world_art_id":null,"type":"movie","add":"2021-03-12 09:38:01","orig_title":"Akelarre","year":"2020-10-02","translations":["Любительский (многоголосый закадровый) (@MUZOBOZ@)","Любительский (многоголосый закадровый) (@MUZOBOZ@)"],"quality":"webdl","translation":"Любительский (многоголосый закадровый) (@MUZOBOZ@)","update":"2021-03-16 08:14:27","iframe_src":"//5091.svetacdn.in/IAF0wWTdNYZm/movie/48680"},{"id":44915,"title":"Мисс","kp_id":"1253449","imdb_id":"tt10123698","world_art_id":null,"type":"movie","add":"2020-10-30 19:16:29","orig_title":"Miss","year":"2020-01-18","translations":["Любительский (многоголосый закадровый) (@MUZOBOZ@)","Любительский (многоголосый закадровый) (@MUZOBOZ@)"],"quality":"ts","translation":"Любительский (многоголосый закадровый) (@MUZOBOZ@)","update":"2021-03-16 07:36:50","iframe_src":"//5091.svetacdn.in/IAF0wWTdNYZm/movie/44915"},{"id":5212,"title":"Замкнутый круг","kp_id":"1142606","imdb_id":"tt10037050","world_art_id":null,"type":"serial","add":"2019-09-16 19:09:34","orig_title":"Zamknutyy krug","year":"2018-04-28","translations":["Оригинальная дорожка"],"seasons_count":1,"episodes_count":4,"episodes":4,"update":"2019-09-17 11:23:42","iframe_src":"//5091.svetacdn.in/IAF0wWTdNYZm/tv-series/5212"},{"id":5210,"title":"Возвращение Мухтара 7","kp_id":"574589","imdb_id":"tt4124208","world_art_id":null,"type":"serial","add":"2019-09-16 14:14:26","orig_title":"Vozvrashchenie Mukhtara 7","year":"2011-05-10","translations":["Оригинальная дорожка"],"seasons_count":1,"episodes_count":96,"episodes":96,"update":"2019-09-16 20:54:43","iframe_src":"//5091.svetacdn.in/IAF0wWTdNYZm/tv-series/5210"},{"id":5204,"title":"Ученица чародея","kp_id":"1274276","imdb_id":null,"world_art_id":null,"type":"serial","add":"2019-09-16 11:44:37","orig_title":"Ученица чародея","year":"2019-09-13","translations":["Оригинальная дорожка"],"seasons_count":1,"episodes_count":2,"episodes":2,"update":"2019-09-16 16:30:18","iframe_src":"//5091.svetacdn.in/IAF0wWTdNYZm/tv-series/5204"},{"id":5201,"title":"Мама Маша","kp_id":"1199628","imdb_id":null,"world_art_id":null,"type":"serial","add":"2019-09-16 08:21:01","orig_title":"Мама Маша","year":"2019-09-14","translations":["Оригинальная дорожка"],"seasons_count":1,"episodes_count":2,"episodes":2,"update":"2019-09-16 17:34:40","iframe_src":"//5091.svetacdn.in/IAF0wWTdNYZm/tv-series/5201"},{"id":5197,"title":"Три девушки","kp_id":"1045514","imdb_id":"tt6835252","world_art_id":null,"type":"serial","add":"2019-09-13 11:34:55","orig_title":"Three Girls","year":"2019-05-16","translations":["Профессиональный (многоголосый закадровый) (BaibaKo)"],"seasons_count":1,"episodes_count":3,"episodes":3,"update":"2019-09-14 06:53:34","iframe_src":"//5091.svetacdn.in/IAF0wWTdNYZm/tv-series/5197"},{"id":5196,"title":"Возвращение Мухтара 6","kp_id":"573654","imdb_id":"tt4124204","world_art_id":null,"type":"serial","add":"2019-09-13 10:35:06","orig_title":"Vozvrashchenie Mukhtara 6","year":"2009-01-01","translations":["Оригинальная дорожка"],"seasons_count":1,"episodes_count":96,"episodes":96,"update":"2019-09-16 19:55:03","iframe_src":"//5091.svetacdn.in/IAF0wWTdNYZm/tv-series/5196"},{"id":5191,"title":"Возвращение Мухтара 5","kp_id":"493882","imdb_id":"tt4124202","world_art_id":null,"type":"serial","add":"2019-09-12 11:31:06","orig_title":"Vozvrashchenie Mukhtara 5","year":"2009-01-01","translations":["Оригинальная дорожка"],"seasons_count":1,"episodes_count":96,"episodes":96,"update":"2019-09-13 19:03:17","iframe_src":"//5091.svetacdn.in/IAF0wWTdNYZm/tv-series/5191"},{"id":5186,"title":"Новости","kp_id":"566821","imdb_id":"tt4605380","world_art_id":null,"type":"serial","add":"2019-09-11 08:48:21","orig_title":"Novosti","year":"2011-01-31","translations":["Оригинальная дорожка"],"seasons_count":3,"episodes_count":60,"episodes":20,"update":"2019-09-13 12:34:04","iframe_src":"//5091.svetacdn.in/IAF0wWTdNYZm/tv-series/5186"},{"id":5178,"title":"Воины Шаолиня","kp_id":null,"imdb_id":"tt4695308","world_art_id":null,"type":"serial","add":"2019-09-10 07:06:34","orig_title":"Shao Lin Seng Bing","year":"2008-01-01","translations":["Любительский (одноголосый закадровый)"],"seasons_count":1,"episodes_count":5,"episodes":5,"update":"2019-09-14 15:38:35","iframe_src":"//5091.svetacdn.in/IAF0wWTdNYZm/tv-series/5178"},{"id":5176,"title":"Людмила Гурченко","kp_id":"927138","imdb_id":"tt10066160","world_art_id":null,"type":"serial","add":"2019-09-10 06:30:26","orig_title":"Lyudmila Gurchenko","year":"2015-11-09","translations":["Оригинальная дорожка"],"seasons_count":1,"episodes_count":16,"episodes":16,"update":"2019-09-13 18:36:48","iframe_src":"//5091.svetacdn.in/IAF0wWTdNYZm/tv-series/5176"},{"id":5173,"title":"Я требую любви!","kp_id":"1177457","imdb_id":null,"world_art_id":null,"type":"serial","add":"2019-09-10 05:06:57","orig_title":"Я требую любви!","year":"2018-07-19","translations":["Оригинальная дорожка"],"seasons_count":1,"episodes_count":4,"episodes":4,"update":"2019-09-17 07:49:18","iframe_src":"//5091.svetacdn.in/IAF0wWTdNYZm/tv-series/5173"},{"id":5169,"title":"Музыкальный город","kp_id":"1142592","imdb_id":"tt7616830","world_art_id":null,"type":"serial","add":"2019-09-10 04:54:50","orig_title":"Music City","year":"2018-02-22","translations":["Любительский (двухголосый закадровый) (GoldTeam)"],"seasons_count":1,"episodes_count":8,"episodes":8,"update":"2019-09-17 11:23:08","iframe_src":"//5091.svetacdn.in/IAF0wWTdNYZm/tv-series/5169"},{"id":5168,"title":"Поле разума","kp_id":"1008960","imdb_id":"tt6439562","world_art_id":null,"type":"serial","add":"2019-09-10 04:40:54","orig_title":"Mind Field","year":"2017-01-18","translations":["Любительский (одноголосый закадровый) (VoicePower)"],"seasons_count":2,"episodes_count":16,"episodes":8,"update":"2019-09-13 13:12:54","iframe_src":"//5091.svetacdn.in/IAF0wWTdNYZm/tv-series/5168"},{"id":5167,"title":"Подруги","kp_id":"1112138","imdb_id":"tt7278232","world_art_id":null,"type":"serial","add":"2019-09-10 04:37:54","orig_title":"Girlfriends","year":"2018-01-03","translations":["Профессиональный (многоголосый закадровый) (BaibaKo)"],"seasons_count":1,"episodes_count":6,"episodes":6,"update":"2019-09-17 07:44:41","iframe_src":"//5091.svetacdn.in/IAF0wWTdNYZm/tv-series/5167"},{"id":5141,"title":"Балабол 3","kp_id":"1228277","imdb_id":null,"world_art_id":null,"type":"serial","add":"2019-09-04 16:07:39","orig_title":"Балабол 3","year":"2019-09-04","translations":["Оригинальная дорожка"],"seasons_count":1,"episodes_count":16,"episodes":16,"update":"2019-09-16 15:08:23","iframe_src":"//5091.svetacdn.in/IAF0wWTdNYZm/tv-series/5141"},{"id":5111,"title":"Земля любви, земля надежды","kp_id":"231145","imdb_id":"tt0288401","world_art_id":null,"type":"serial","add":"2019-08-28 10:49:58","orig_title":"Terra Speranza","year":"2002-06-17","translations":["Профессиональный (многоголосый закадровый)"],"seasons_count":1,"episodes_count":220,"episodes":220,"update":"2019-09-13 16:36:41","iframe_src":"//5091.svetacdn.in/IAF0wWTdNYZm/tv-series/5111"},{"id":5015,"title":"Жизнь Мехэк","kp_id":"1199908","imdb_id":"tt6856948","world_art_id":null,"type":"serial","add":"2019-08-09 09:32:21","orig_title":"Zindagi ki Mehak","year":"2016-09-19","translations":["Профессиональный (многоголосый закадровый) (ZEE TV)"],"seasons_count":1,"episodes_count":315,"episodes":315,"update":"2019-09-14 15:55:53","iframe_src":"//5091.svetacdn.in/IAF0wWTdNYZm/tv-series/5015"},{"id":29431,"title":"Осенние сны","kp_id":"42802","imdb_id":"tt0300307","world_art_id":null,"type":"movie","add":"2019-07-26 21:35:22","orig_title":"Osenniye sny","year":"1987-10-05","translations":["Оригинальная дорожка","Оригинальная дорожка"],"quality":"dvdrip","translation":"Оригинальная дорожка","update":"2021-03-16 08:11:10","iframe_src":"//5091.svetacdn.in/IAF0wWTdNYZm/movie/29431"},{"id":1373,"title":"Слуга народа","kp_id":"942397","imdb_id":null,"world_art_id":null,"type":"serial","add":"2017-07-06 10:30:50","orig_title":"Слуга народа","year":"2015-11-16","translations":["Оригинальная дорожка"],"seasons_count":3,"episodes_count":49,"episodes":3,"update":"2019-09-17 07:52:19","iframe_src":"//5091.svetacdn.in/IAF0wWTdNYZm/tv-series/1373"},{"id":1305,"title":"Мухтар. Новый след","kp_id":"987902","imdb_id":null,"world_art_id":null,"type":"serial","add":"2017-06-14 06:31:54","orig_title":"Мухтар. Новый след","year":"2017-03-20","translations":["Оригинальная дорожка"],"seasons_count":1,"episodes_count":192,"episodes":192,"update":"2019-09-17 08:57:52","iframe_src":"//5091.svetacdn.in/IAF0wWTdNYZm/tv-series/1305"},{"id":10340,"title":"Вечер шутов","kp_id":"95294","imdb_id":"tt0045848","world_art_id":null,"type":"movie","add":"2017-03-14 23:05:41","orig_title":"Gycklarnas afton","year":"1953-09-14","translations":["Профессиональный (многоголосый закадровый)","Профессиональный (двухголосый закадровый) (Фортуна-Фильм)"],"quality":"bd","translation":"Профессиональный (многоголосый закадровый)","update":"2021-03-16 08:08:43","iframe_src":"//5091.svetacdn.in/IAF0wWTdNYZm/movie/10340"},{"id":826,"title":"Пороки и их поклонники","kp_id":"277380","imdb_id":"tt3945426","world_art_id":null,"type":"serial","add":"2017-01-07 11:35:21","orig_title":"Poroki i ikh poklonniki","year":"2006-07-20","translations":["Оригинальная дорожка"],"seasons_count":1,"episodes_count":4,"episodes":4,"update":"2019-09-17 07:56:19","iframe_src":"//5091.svetacdn.in/IAF0wWTdNYZm/tv-series/826"}],"current_page":378,"first_page_url":"https://videocdn.tv/api/short?limit=100&api_token=6Onb1W1alEUrBcKJZD3GoKBbWyAl2uG2&cache3378=3378&page=1","from":37701,"last_page":664,"last_page_url":"https://videocdn.tv/api/short?limit=100&api_token=6Onb1W1alEUrBcKJZD3GoKBbWyAl2uG2&cache3378=3378&page=664","next_page_url":"https://videocdn.tv/api/short?limit=100&api_token=6Onb1W1alEUrBcKJZD3GoKBbWyAl2uG2&cache3378=3378&page=379","path":"https://videocdn.tv/api/short","per_page":100,"prev_page_url":"https://videocdn.tv/api/short?limit=100&api_token=6Onb1W1alEUrBcKJZD3GoKBbWyAl2uG2&cache3378=3378&page=377","to":37740,"total":66383}