{"result":true,"data":[{"id":56077,"title":"Щен из созвездия «Гончих псов»","kp_id":"43730","imdb_id":"tt0102852","world_art_id":null,"type":"movie","add":"2022-01-20 06:44:26","orig_title":"Shchen iz sozvezdiya Gonchikh psov","year":"1991-01-01","translations":["Оригинальная дорожка"],"quality":"webdl","translation":"Оригинальная дорожка","update":"2022-01-20 11:41:42","iframe_src":"//7741.svetacdn.in/IAF0wWTdNYZm/movie/56077"},{"id":56061,"title":"Любовники","kp_id":"1245561","imdb_id":"tt9800670","world_art_id":null,"type":"movie","add":"2022-01-19 15:27:32","orig_title":"Amants","year":"2020-09-03","translations":["Любительский (многоголосый закадровый) (AlphaProject)"],"quality":"ts","translation":"Любительский (многоголосый закадровый) (AlphaProject)","update":"2022-01-20 09:22:35","iframe_src":"//7741.svetacdn.in/IAF0wWTdNYZm/movie/56061"},{"id":56059,"title":"Звездные талеры счастья","kp_id":"4710698","imdb_id":"tt15721276","world_art_id":null,"type":"movie","add":"2022-01-19 15:21:30","orig_title":"Die Sterntaler des Glücks","year":"2021-11-13","translations":["Любительский (многоголосый закадровый) (Синема УС)"],"quality":"webdl","translation":"Любительский (многоголосый закадровый) (Синема УС)","update":"2022-01-20 09:20:50","iframe_src":"//7741.svetacdn.in/IAF0wWTdNYZm/movie/56059"},{"id":56058,"title":"Калаврита 1943","kp_id":null,"imdb_id":"tt4593154","world_art_id":null,"type":"movie","add":"2022-01-19 15:18:49","orig_title":"Kalavryta 1943","year":"2021-11-11","translations":["Любительский (многоголосый закадровый) (Синема УС)"],"quality":"webdl","translation":"Любительский (многоголосый закадровый) (Синема УС)","update":"2022-01-20 09:21:12","iframe_src":"//7741.svetacdn.in/IAF0wWTdNYZm/movie/56058"},{"id":56049,"title":"Лохматый пес","kp_id":"12532","imdb_id":"tt0053271","world_art_id":null,"type":"movie","add":"2022-01-19 06:35:55","orig_title":"The Shaggy Dog","year":"1959-03-19","translations":["Полное дублирование (СВ-Дубль)"],"quality":"webdl","translation":"Полное дублирование (СВ-Дубль)","update":"2022-01-20 11:46:58","iframe_src":"//7741.svetacdn.in/IAF0wWTdNYZm/movie/56049"},{"id":56043,"title":"Мадам Икс","kp_id":null,"imdb_id":"tt15052172","world_art_id":null,"type":"movie","add":"2022-01-18 19:02:00","orig_title":"Madame X","year":"2021-12-29","translations":["[PT] Полное дублирование (Portugues)"],"quality":"webdl","translation":"[PT] Полное дублирование (Portugues)","update":"2022-01-20 09:01:24","iframe_src":"//7741.svetacdn.in/IAF0wWTdNYZm/movie/56043"},{"id":55992,"title":"Засада на перевале Симаррон","kp_id":"10864","imdb_id":"tt0051349","world_art_id":null,"type":"movie","add":"2022-01-17 06:35:43","orig_title":"Ambush at Cimarron Pass","year":"1958-02-11","translations":["Авторский (одноголосый закадровый) (Назаров Вадим)"],"quality":"bd","translation":"Авторский (одноголосый закадровый) (Назаров Вадим)","update":"2022-01-20 12:03:20","iframe_src":"//7741.svetacdn.in/IAF0wWTdNYZm/movie/55992"},{"id":55937,"title":"Кровная месть","kp_id":"144165","imdb_id":"tt0199580","world_art_id":null,"type":"movie","add":"2022-01-15 06:37:06","orig_title":"Hakuôki","year":"1959-11-22","translations":["Авторский (одноголосый закадровый) (Кузнецов Сергей)"],"quality":"bd","translation":"Авторский (одноголосый закадровый) (Кузнецов Сергей)","update":"2022-01-20 12:04:35","iframe_src":"//7741.svetacdn.in/IAF0wWTdNYZm/movie/55937"},{"id":55823,"title":"Мистер Ревность","kp_id":"9595","imdb_id":"tt0119717","world_art_id":null,"type":"movie","add":"2022-01-10 14:37:25","orig_title":"Mr. Jealousy","year":"1997-09-11","translations":["Авторский (одноголосый закадровый) (Сербин Юрий)"],"quality":"bd","translation":"Авторский (одноголосый закадровый) (Сербин Юрий)","update":"2022-01-20 11:55:59","iframe_src":"//7741.svetacdn.in/IAF0wWTdNYZm/movie/55823"},{"id":54986,"title":"Отведи меня домой","kp_id":"4726123","imdb_id":"tt5750510","world_art_id":null,"type":"movie","add":"2021-12-04 08:47:23","orig_title":"Lead Me Home","year":"2021-11-18","translations":["Любительский (двухголосый закадровый) (OnisFilms)","[PT] Полное дублирование (Portugues)"],"quality":"webdl","translation":"Любительский (двухголосый закадровый) (OnisFilms)","update":"2022-01-20 09:03:02","iframe_src":"//7741.svetacdn.in/IAF0wWTdNYZm/movie/54986"},{"id":54869,"title":"Вознесение Габриеля","kp_id":"1345084","imdb_id":"tt11641654","world_art_id":null,"type":"movie","add":"2021-11-27 06:42:48","orig_title":"Gabriel's Rapture: Part One","year":"2021-11-24","translations":["Любительский (многоголосый закадровый) (Синема УС)","Любительский (двухголосый закадровый) (Синема УС)","[PT] Полное дублирование (Portugues)"],"quality":"webdl","translation":"Любительский (многоголосый закадровый) (Синема УС)","update":"2022-01-20 08:57:45","iframe_src":"//7741.svetacdn.in/IAF0wWTdNYZm/movie/54869"},{"id":53114,"title":"Власть пса","kp_id":"1262931","imdb_id":"tt10293406","world_art_id":null,"type":"movie","add":"2021-09-14 10:05:02","orig_title":"The Power of the Dog","year":"2021-10-01","translations":["Любительский (многоголосый закадровый) (AlphaProject)","[EN] Original (English)","Полное дублирование (Пифагор)","Профессиональный (многоголосый закадровый) (Jaskier)","[PT] Полное дублирование (Portugues)"],"quality":"webdl","translation":"Любительский (многоголосый закадровый) (AlphaProject)","update":"2022-01-20 08:58:45","iframe_src":"//7741.svetacdn.in/IAF0wWTdNYZm/movie/53114"},{"id":10933,"title":"Наполеон и Жозефина. История любви","kp_id":"233520","imdb_id":"tt0092411","world_art_id":null,"type":"serial","add":"2021-06-23 10:36:57","orig_title":"Napoleon and Josephine: A Love Story","year":"1987-11-10","translations":["Полное дублирование (Первый канал | ОРТ)"],"seasons_count":1,"episodes_count":3,"episodes":3,"update":"2021-06-24 06:34:51","iframe_src":"//7741.svetacdn.in/IAF0wWTdNYZm/tv-series/10933"},{"id":10931,"title":"Нам здесь жить","kp_id":"596031","imdb_id":"tt4554556","world_art_id":null,"type":"serial","add":"2021-06-23 08:09:24","orig_title":"Nam zdes zhit","year":"1982-01-01","translations":["Оригинальная дорожка"],"seasons_count":1,"episodes_count":3,"episodes":3,"update":"2021-06-24 06:31:02","iframe_src":"//7741.svetacdn.in/IAF0wWTdNYZm/tv-series/10931"},{"id":10930,"title":"Призрак","kp_id":"1224113","imdb_id":null,"world_art_id":null,"type":"serial","add":"2021-06-21 11:05:55","orig_title":"Призрак","year":"2021-06-23","translations":["Оригинальная дорожка"],"seasons_count":1,"episodes_count":4,"episodes":4,"update":"2021-06-25 07:13:57","iframe_src":"//7741.svetacdn.in/IAF0wWTdNYZm/tv-series/10930"},{"id":10906,"title":"Хитрости","kp_id":"4467466","imdb_id":"tt11815682","world_art_id":null,"type":"serial","add":"2021-06-15 19:09:13","orig_title":"Hacks","year":"2021-05-13","translations":["Профессиональный (многоголосый закадровый) (TVShows)","Профессиональный (многоголосый закадровый) (Novamedia)"],"seasons_count":1,"episodes_count":10,"episodes":10,"update":"2021-06-23 20:23:16","iframe_src":"//7741.svetacdn.in/IAF0wWTdNYZm/tv-series/10906"},{"id":10891,"title":"Смешанный лицей","kp_id":"1404674","imdb_id":"tt11243112","world_art_id":null,"type":"serial","add":"2021-06-14 08:44:53","orig_title":"Mixte","year":"2021-06-14","translations":["Любительский (многоголосый закадровый) (Ultradox)","Любительский (многоголосый закадровый) (ColdFilm)"],"seasons_count":1,"episodes_count":8,"episodes":8,"update":"2021-06-23 12:54:18","iframe_src":"//7741.svetacdn.in/IAF0wWTdNYZm/tv-series/10891"},{"id":10860,"title":"Мемфис Бит","kp_id":"462486","imdb_id":"tt1409008","world_art_id":null,"type":"serial","add":"2021-06-09 07:44:16","orig_title":"Memphis Beat","year":"2010-06-22","translations":["Профессиональный (двухголосый закадровый) (Кубик в Кубе)","Любительский (многоголосый закадровый)"],"seasons_count":2,"episodes_count":20,"episodes":10,"update":"2021-06-23 19:02:45","iframe_src":"//7741.svetacdn.in/IAF0wWTdNYZm/tv-series/10860"},{"id":10859,"title":"Жена моего зятя","kp_id":"971168","imdb_id":"tt5546078","world_art_id":null,"type":"serial","add":"2021-06-09 07:33:18","orig_title":"Nae sawiui yeoja","year":"2016-01-04","translations":["Любительский (двухголосый закадровый) (SoftBox)"],"seasons_count":1,"episodes_count":72,"episodes":72,"update":"2021-06-24 19:06:53","iframe_src":"//7741.svetacdn.in/IAF0wWTdNYZm/tv-series/10859"},{"id":10856,"title":"Ведьма","kp_id":"592466","imdb_id":"tt1947083","world_art_id":null,"type":"serial","add":"2021-06-08 20:08:09","orig_title":"La Bruja","year":"2011-05-30","translations":["Профессиональный (многоголосый закадровый) (Видеопродакшн)"],"seasons_count":1,"episodes_count":29,"episodes":29,"update":"2021-06-23 19:26:40","iframe_src":"//7741.svetacdn.in/IAF0wWTdNYZm/tv-series/10856"},{"id":10841,"title":"Срок","kp_id":"1447322","imdb_id":"tt13138834","world_art_id":null,"type":"serial","add":"2021-06-07 06:20:32","orig_title":"Time","year":"2021-06-06","translations":["Любительский (многоголосый закадровый) (Ultradox)","Любительский (многоголосый закадровый) (ColdFilm)","Профессиональный (многоголосый закадровый) (BaibaKo)","Профессиональный (многоголосый закадровый) (The Kitchen Russia)","Профессиональный (многоголосый закадровый) (LostFilm)","Профессиональный (многоголосый закадровый) (HDrezka Studio)"],"seasons_count":1,"episodes_count":3,"episodes":3,"update":"2021-06-25 09:18:15","iframe_src":"//7741.svetacdn.in/IAF0wWTdNYZm/tv-series/10841"},{"id":10835,"title":"Больница на окраине города","kp_id":"408416","imdb_id":"tt0247886","world_art_id":null,"type":"serial","add":"2021-06-05 08:15:47","orig_title":"Nemocnice na kraji mesta","year":"1978-11-05","translations":["Любительский (одноголосый закадровый) (Zerzia)"],"seasons_count":2,"episodes_count":20,"episodes":7,"update":"2021-06-22 20:15:10","iframe_src":"//7741.svetacdn.in/IAF0wWTdNYZm/tv-series/10835"},{"id":10834,"title":"Записки Пиквикского клуба","kp_id":"257349","imdb_id":"tt0278228","world_art_id":null,"type":"serial","add":"2021-06-05 08:12:17","orig_title":"The Pickwick Papers","year":"1985-01-06","translations":["Профессиональный (многоголосый закадровый)"],"seasons_count":1,"episodes_count":12,"episodes":12,"update":"2021-06-22 20:09:49","iframe_src":"//7741.svetacdn.in/IAF0wWTdNYZm/tv-series/10834"},{"id":10791,"title":"Госпожа Горничная","kp_id":"646362","imdb_id":"tt2087566","world_art_id":null,"type":"serial","add":"2021-05-31 20:21:04","orig_title":"Una Maid en Manhattan","year":"2011-11-29","translations":["Профессиональный (многоголосый закадровый)"],"seasons_count":1,"episodes_count":163,"episodes":163,"update":"2021-06-22 21:01:17","iframe_src":"//7741.svetacdn.in/IAF0wWTdNYZm/tv-series/10791"},{"id":7637,"title":"Поселенцы","kp_id":"1245521","imdb_id":"tt9426272","world_art_id":null,"type":"serial","add":"2020-05-26 16:49:09","orig_title":"Barkskins","year":"2020-05-25","translations":["Любительский (многоголосый закадровый) (Octopus)","Профессиональный (многоголосый закадровый) (BaibaKo)","Профессиональный (многоголосый закадровый) (IdeaFilm)","Любительский (многоголосый закадровый) (ColdFilm)","Профессиональный (многоголосый закадровый) (Велес)","Профессиональный (многоголосый закадровый) (TVShows)"],"seasons_count":1,"episodes_count":8,"episodes":8,"update":"2021-06-24 09:32:37","iframe_src":"//7741.svetacdn.in/IAF0wWTdNYZm/tv-series/7637"},{"id":7311,"title":"Том и Джерри","kp_id":"1145146","imdb_id":"tt12158994","world_art_id":null,"type":"serial","add":"2020-04-26 09:35:21","orig_title":"Tom and Jerry","year":"1940-02-10","translations":["Профессиональный (многоголосый закадровый) (СТС)","Любительский (одноголосый закадровый) (Ошурков Максим)","Любительский (одноголосый закадровый)","Профессиональный (многоголосый закадровый)"],"seasons_count":1,"episodes_count":161,"episodes":34,"update":"2021-06-23 12:25:12","iframe_src":"//7741.svetacdn.in/IAF0wWTdNYZm/tv-series/7311"},{"id":39382,"title":"Лэсси","kp_id":"11485","imdb_id":"tt0110305","world_art_id":null,"type":"movie","add":"2020-04-16 14:22:51","orig_title":"Lassie","year":"1994-07-22","translations":["Профессиональный (многоголосый закадровый)","Профессиональный (многоголосый закадровый)","[EN] Original (English)","Профессиональный (многоголосый закадровый) (Премьер Видео Фильм)"],"quality":"dvdrip","translation":"Профессиональный (многоголосый закадровый)","update":"2022-01-20 12:00:12","iframe_src":"//7741.svetacdn.in/IAF0wWTdNYZm/movie/39382"},{"id":38446,"title":"Худший брак в Джорджтауне","kp_id":"906738","imdb_id":"tt4669252","world_art_id":null,"type":"movie","add":"2020-03-24 06:24:17","orig_title":"Georgetown","year":"2019-04-27","translations":["Любительский (многоголосый закадровый) (AlphaProject)","Полное дублирование (SDI Media | Iyuno-SDI Group Russia)"],"quality":"webdl","translation":"Любительский (многоголосый закадровый) (AlphaProject)","update":"2022-01-20 11:53:28","iframe_src":"//7741.svetacdn.in/IAF0wWTdNYZm/movie/38446"},{"id":5337,"title":"Триада","kp_id":"1271111","imdb_id":"tt11041540","world_art_id":null,"type":"serial","add":"2019-09-30 15:38:58","orig_title":"Триада","year":"2019-09-30","translations":["Оригинальная дорожка"],"seasons_count":2,"episodes_count":32,"episodes":16,"update":"2021-06-25 07:13:09","iframe_src":"//7741.svetacdn.in/IAF0wWTdNYZm/tv-series/5337"},{"id":4443,"title":"Джентльмен Джек","kp_id":"1166571","imdb_id":"tt7211618","world_art_id":null,"type":"serial","add":"2019-05-03 15:09:00","orig_title":"Gentleman Jack","year":"2019-04-22","translations":["Профессиональный (многоголосый закадровый) (TVShows)","Профессиональный (многоголосый закадровый) (NewStudio)","Профессиональный (многоголосый закадровый) (HDrezka Studio)","Профессиональный (многоголосый закадровый) (Greb&Creative)"],"seasons_count":1,"episodes_count":8,"episodes":8,"update":"2021-06-23 07:55:12","iframe_src":"//7741.svetacdn.in/IAF0wWTdNYZm/tv-series/4443"},{"id":21755,"title":"Один король — одна Франция","kp_id":"1046450","imdb_id":"tt7073522","world_art_id":null,"type":"movie","add":"2019-01-24 10:40:39","orig_title":"Un peuple et son roi","year":"2018-09-07","translations":["Полное дублирование","Полное дублирование (Мосфильм)"],"quality":"bd","translation":"Полное дублирование","update":"2022-01-20 11:48:00","iframe_src":"//7741.svetacdn.in/IAF0wWTdNYZm/movie/21755"},{"id":20841,"title":"Обмен принцессами","kp_id":"1014291","imdb_id":"tt6350304","world_art_id":null,"type":"movie","add":"2018-12-19 00:45:55","orig_title":"L'échange des princesses","year":"2017-12-27","translations":["Любительский (многоголосый закадровый) (Синема УС)","Профессиональный (многоголосый закадровый) (Первый канал | ОРТ)"],"quality":"bd","translation":"Любительский (многоголосый закадровый) (Синема УС)","update":"2022-01-20 11:38:48","iframe_src":"//7741.svetacdn.in/IAF0wWTdNYZm/movie/20841"},{"id":3274,"title":"Элита","kp_id":"1117735","imdb_id":"tt7134908","world_art_id":null,"type":"serial","add":"2018-10-09 11:56:06","orig_title":"Élite","year":"2018-10-05","translations":["Профессиональный (многоголосый закадровый) (IdeaFilm)","Профессиональный (многоголосый закадровый) (NewStudio)","Профессиональный (многоголосый закадровый) (HDrezka Studio)","Профессиональный (многоголосый закадровый) (TVShows)","Профессиональный (двухголосый закадровый) (ViruseProject)","Полное дублирование (Пифагор)","Профессиональный (многоголосый закадровый) (HDrezka Studio 18+)","Любительский (двухголосый закадровый) (Hamster Studio)","Профессиональный (двухголосый закадровый) (Gears Media)","Любительский (многоголосый закадровый) (Octopus)","Любительский (многоголосый закадровый) (ColdFilm)","Профессиональный (многоголосый закадровый) (BaibaKo)","Любительский (многоголосый закадровый) (Ultradox)"],"seasons_count":4,"episodes_count":32,"episodes":8,"update":"2021-06-24 19:37:29","iframe_src":"//7741.svetacdn.in/IAF0wWTdNYZm/tv-series/3274"},{"id":17965,"title":"Дом свиданий","kp_id":"44269","imdb_id":"tt0194822","world_art_id":null,"type":"movie","add":"2018-07-29 19:23:18","orig_title":"Dom svidaniy","year":"1991-01-01","translations":["Оригинальная дорожка","Оригинальная дорожка"],"quality":"dvdrip","translation":"Оригинальная дорожка","update":"2022-01-20 11:43:20","iframe_src":"//7741.svetacdn.in/IAF0wWTdNYZm/movie/17965"},{"id":11692,"title":"Самый приятный бордель в Техасе","kp_id":"29576","imdb_id":"tt0083642","world_art_id":null,"type":"movie","add":"2017-05-30 06:58:59","orig_title":"The Best Little Whorehouse in Texas","year":"1982-07-23","translations":["Профессиональный (многоголосый закадровый) (СТС)","Профессиональный (многоголосый закадровый) (СТС)"],"quality":"hdtv","translation":"Профессиональный (многоголосый закадровый) (СТС)","update":"2022-01-20 11:51:17","iframe_src":"//7741.svetacdn.in/IAF0wWTdNYZm/movie/11692"},{"id":1037,"title":"Большая маленькая ложь","kp_id":"947758","imdb_id":"tt3920596","world_art_id":null,"type":"serial","add":"2017-02-23 04:58:08","orig_title":"Big Little Lies","year":"2017-02-19","translations":["Профессиональный (многоголосый закадровый) (NewStudio)","Профессиональный (многоголосый закадровый) (Amedia)","Профессиональный (многоголосый закадровый) (TVShows)","Профессиональный (многоголосый закадровый) (HDrezka Studio)","Любительский (двухголосый закадровый) (Hamster Studio)","Профессиональный (многоголосый закадровый) (LostFilm)","Профессиональный (многоголосый закадровый) (Novamedia)"],"seasons_count":2,"episodes_count":14,"episodes":7,"update":"2021-06-23 10:32:06","iframe_src":"//7741.svetacdn.in/IAF0wWTdNYZm/tv-series/1037"},{"id":8741,"title":"#ВСЕ_ИСПРАВИТЬ!?!","kp_id":"927804","imdb_id":"tt15576878","world_art_id":null,"type":"movie","add":"2017-01-09 09:41:45","orig_title":"#VSYO_ISPRAVIT!?!","year":"2016-12-05","translations":["Оригинальная дорожка","Оригинальная дорожка","Оригинальная дорожка"],"quality":"dvdrip","translation":"Оригинальная дорожка","update":"2022-01-20 11:39:55","iframe_src":"//7741.svetacdn.in/IAF0wWTdNYZm/movie/8741"},{"id":7728,"title":"Тропы","kp_id":"683139","imdb_id":"tt2167266","world_art_id":null,"type":"movie","add":"2016-11-29 06:16:09","orig_title":"Tracks","year":"2013-08-29","translations":["Профессиональный (многоголосый закадровый)","Профессиональный (многоголосый закадровый)"],"quality":"bd","translation":"Профессиональный (многоголосый закадровый)","update":"2022-01-20 11:45:13","iframe_src":"//7741.svetacdn.in/IAF0wWTdNYZm/movie/7728"},{"id":153,"title":"Дарреллы","kp_id":"957807","imdb_id":"tt5014882","world_art_id":null,"type":"serial","add":"2016-06-07 13:05:27","orig_title":"The Durrells","year":"2016-04-03","translations":["Профессиональный (многоголосый закадровый) (Jaskier)","Профессиональный (многоголосый закадровый) (TVShows)","Полное дублирование (Lucky Production)","Профессиональный (многоголосый закадровый) (BaibaKo)","Любительский (двухголосый закадровый) (Sunshine Studio)"],"seasons_count":4,"episodes_count":26,"episodes":6,"update":"2021-06-24 11:46:51","iframe_src":"//7741.svetacdn.in/IAF0wWTdNYZm/tv-series/153"},{"id":61,"title":"Сумеречные охотники","kp_id":"893830","imdb_id":"tt4145054","world_art_id":null,"type":"serial","add":"2016-04-22 07:24:11","orig_title":"Shadowhunters","year":"2016-01-12","translations":["Профессиональный (многоголосый закадровый) (OMSKBIRD records)","Профессиональный (многоголосый закадровый) (NewStudio)","Полное дублирование (RuFilms)","Профессиональный (многоголосый закадровый) (BaibaKo)","Любительский (двухголосый закадровый) (NEON Studio)","Профессиональный (многоголосый закадровый) (TVShows)"],"seasons_count":3,"episodes_count":55,"episodes":22,"update":"2021-06-23 08:54:59","iframe_src":"//7741.svetacdn.in/IAF0wWTdNYZm/tv-series/61"}],"current_page":129,"first_page_url":"https://videocdn.tv/api/short?limit=100&api_token=6Onb1W1alEUrBcKJZD3GoKBbWyAl2uG2&cache3129=3129&page=1","from":12801,"last_page":707,"last_page_url":"https://videocdn.tv/api/short?limit=100&api_token=6Onb1W1alEUrBcKJZD3GoKBbWyAl2uG2&cache3129=3129&page=707","next_page_url":"https://videocdn.tv/api/short?limit=100&api_token=6Onb1W1alEUrBcKJZD3GoKBbWyAl2uG2&cache3129=3129&page=130","path":"https://videocdn.tv/api/short","per_page":100,"prev_page_url":"https://videocdn.tv/api/short?limit=100&api_token=6Onb1W1alEUrBcKJZD3GoKBbWyAl2uG2&cache3129=3129&page=128","to":12840,"total":70605}