{"result":true,"data":[{"id":3811,"title":"Имитатор","kp_id":"3938","imdb_id":"tt0112722","world_art_id":null,"type":"movie","add":"2016-07-08 14:59:25","orig_title":"Copycat","year":"1995-10-27","translations":["Профессиональный (многоголосый закадровый)"],"quality":"bd","translation":"Профессиональный (многоголосый закадровый)","update":"2016-07-09 09:37:52","iframe_src":"//7923.svetacdn.in/71tsRs29n5tZ/movie/3811"},{"id":3809,"title":"Красная Королева убивает семь раз","kp_id":"132329","imdb_id":"tt0068444","world_art_id":null,"type":"movie","add":"2016-07-08 14:54:47","orig_title":"La Dama rossa uccide sette volte","year":"1972-08-18","translations":["Любительский (одноголосый закадровый)"],"quality":"bd","translation":"Любительский (одноголосый закадровый)","update":"2016-07-09 09:34:48","iframe_src":"//7923.svetacdn.in/71tsRs29n5tZ/movie/3809"},{"id":3808,"title":"Трип","kp_id":"4239","imdb_id":"tt0062395","world_art_id":null,"type":"movie","add":"2016-07-08 14:53:49","orig_title":"The Trip","year":"1967-08-23","translations":["Профессиональный (многоголосый закадровый)"],"quality":"bd","translation":"Профессиональный (многоголосый закадровый)","update":"2016-07-09 09:30:28","iframe_src":"//7923.svetacdn.in/71tsRs29n5tZ/movie/3808"},{"id":3807,"title":"Замёрзшие","kp_id":"432713","imdb_id":"tt1323045","world_art_id":null,"type":"movie","add":"2016-07-08 14:52:38","orig_title":"Frozen","year":"2010-01-24","translations":["Полное дублирование"],"quality":"bd","translation":"Полное дублирование","update":"2016-07-09 09:26:39","iframe_src":"//7923.svetacdn.in/71tsRs29n5tZ/movie/3807"},{"id":3806,"title":"В постели с врагом","kp_id":"8157","imdb_id":"tt0102945","world_art_id":null,"type":"movie","add":"2016-07-08 14:46:59","orig_title":"Sleeping with the Enemy","year":"1991-02-04","translations":["Полное дублирование"],"quality":"bd","translation":"Полное дублирование","update":"2016-07-09 10:20:20","iframe_src":"//7923.svetacdn.in/71tsRs29n5tZ/movie/3806"},{"id":3804,"title":"Стальные магнолии","kp_id":"2558","imdb_id":"tt0098384","world_art_id":null,"type":"movie","add":"2016-07-08 14:41:06","orig_title":"Steel Magnolias","year":"1989-11-05","translations":["Профессиональный (многоголосый закадровый)"],"quality":"bd","translation":"Профессиональный (многоголосый закадровый)","update":"2016-07-09 10:12:59","iframe_src":"//7923.svetacdn.in/71tsRs29n5tZ/movie/3804"},{"id":3803,"title":"Любимцы Америки","kp_id":"1592","imdb_id":"tt0265029","world_art_id":null,"type":"movie","add":"2016-07-08 14:40:17","orig_title":"America's Sweethearts","year":"2001-07-17","translations":["Профессиональный (многоголосый закадровый)"],"quality":"bd","translation":"Профессиональный (многоголосый закадровый)","update":"2016-07-09 10:08:39","iframe_src":"//7923.svetacdn.in/71tsRs29n5tZ/movie/3803"},{"id":3802,"title":"Истинные ценности","kp_id":"1882","imdb_id":"tt0120776","world_art_id":null,"type":"movie","add":"2016-07-08 14:39:32","orig_title":"One True Thing","year":"1998-09-18","translations":["Профессиональный (многоголосый закадровый)"],"quality":"webdl","translation":"Профессиональный (многоголосый закадровый)","update":"2016-07-09 10:05:55","iframe_src":"//7923.svetacdn.in/71tsRs29n5tZ/movie/3802"},{"id":3800,"title":"И пришел паук","kp_id":"586","imdb_id":"tt0164334","world_art_id":null,"type":"movie","add":"2016-07-08 14:38:01","orig_title":"Along Came a Spider","year":"2001-04-02","translations":["Профессиональный (многоголосый закадровый)"],"quality":"bd","translation":"Профессиональный (многоголосый закадровый)","update":"2016-07-09 09:59:17","iframe_src":"//7923.svetacdn.in/71tsRs29n5tZ/movie/3800"},{"id":3798,"title":"Звездная болезнь","kp_id":"494373","imdb_id":"tt1579247","world_art_id":null,"type":"movie","add":"2016-07-08 14:35:31","orig_title":"StarStruck","year":"2010-02-14","translations":["Полное дублирование"],"quality":"webdl","translation":"Полное дублирование","update":"2016-07-09 09:50:40","iframe_src":"//7923.svetacdn.in/71tsRs29n5tZ/movie/3798"},{"id":3797,"title":"Симпсоны в кино","kp_id":"195332","imdb_id":"tt0462538","world_art_id":null,"type":"movie","add":"2016-07-08 14:09:26","orig_title":"The Simpsons Movie","year":"2007-07-21","translations":["Полное дублирование"],"quality":"bd","translation":"Полное дублирование","update":"2016-07-11 05:04:31","iframe_src":"//7923.svetacdn.in/71tsRs29n5tZ/movie/3797"},{"id":3794,"title":"Эпик","kp_id":"463868","imdb_id":"tt0848537","world_art_id":null,"type":"movie","add":"2016-07-08 13:55:49","orig_title":"Epic","year":"2013-05-15","translations":["Полное дублирование"],"quality":"bd","translation":"Полное дублирование","update":"2016-07-11 05:25:40","iframe_src":"//7923.svetacdn.in/71tsRs29n5tZ/movie/3794"},{"id":3780,"title":"Сорвиголова","kp_id":"648","imdb_id":"tt0287978","world_art_id":null,"type":"movie","add":"2016-07-08 12:37:07","orig_title":"Daredevil","year":"2003-02-09","translations":["Полное дублирование"],"quality":"bd","translation":"Полное дублирование","update":"2016-07-08 21:02:54","iframe_src":"//7923.svetacdn.in/71tsRs29n5tZ/movie/3780"},{"id":3775,"title":"Разоблачение","kp_id":"4569","imdb_id":"tt0109635","world_art_id":null,"type":"movie","add":"2016-07-08 12:31:29","orig_title":"Disclosure","year":"1994-11-28","translations":["Полное дублирование"],"quality":"bd","translation":"Полное дублирование","update":"2016-07-09 10:32:36","iframe_src":"//7923.svetacdn.in/71tsRs29n5tZ/movie/3775"},{"id":3773,"title":"Привет семье!","kp_id":"4887","imdb_id":"tt0356680","world_art_id":null,"type":"movie","add":"2016-07-08 12:30:08","orig_title":"The Family Stone","year":"2005-11-26","translations":["Полное дублирование"],"quality":"hdtv","translation":"Полное дублирование","update":"2016-07-08 20:22:56","iframe_src":"//7923.svetacdn.in/71tsRs29n5tZ/movie/3773"},{"id":3761,"title":"Молодая Виктория","kp_id":"384138","imdb_id":"tt0962736","world_art_id":null,"type":"movie","add":"2016-07-07 13:13:03","orig_title":"The Young Victoria","year":"2009-03-06","translations":["Полное дублирование"],"quality":"bd","translation":"Полное дублирование","update":"2016-07-08 21:06:52","iframe_src":"//7923.svetacdn.in/71tsRs29n5tZ/movie/3761"},{"id":3756,"title":"Благодаря Винн Дикси","kp_id":"41951","imdb_id":"tt0317132","world_art_id":null,"type":"movie","add":"2016-07-07 13:05:38","orig_title":"Because of Winn-Dixie","year":"2005-01-26","translations":["Профессиональный (многоголосый закадровый)"],"quality":"bd","translation":"Профессиональный (многоголосый закадровый)","update":"2016-07-09 10:27:46","iframe_src":"//7923.svetacdn.in/71tsRs29n5tZ/movie/3756"},{"id":3754,"title":"Бабье лето","kp_id":"2224","imdb_id":"tt3706628","world_art_id":null,"type":"movie","add":"2016-07-07 13:02:47","orig_title":"Indian Summer","year":"1993-04-23","translations":["Авторский (одноголосый закадровый) (Сербин Юрий)"],"quality":"bd","translation":"Авторский (одноголосый закадровый) (Сербин Юрий)","update":"2016-07-08 20:56:58","iframe_src":"//7923.svetacdn.in/71tsRs29n5tZ/movie/3754"},{"id":3329,"title":"Уитнэйл и Я","kp_id":"17818","imdb_id":"tt0094336","world_art_id":null,"type":"movie","add":"2016-06-23 11:24:25","orig_title":"Withnail & I","year":"1987-03-27","translations":["Профессиональный (многоголосый закадровый)"],"quality":"bd","translation":"Профессиональный (многоголосый закадровый)","update":"2016-07-08 21:05:26","iframe_src":"//7923.svetacdn.in/71tsRs29n5tZ/movie/3329"},{"id":346,"title":"Книга жизни","kp_id":"669880","imdb_id":"tt2262227","world_art_id":null,"type":"movie","add":"2016-03-28 22:14:24","orig_title":"The Book of Life","year":"2014-10-03","translations":["Полное дублирование"],"quality":"bd","translation":"Полное дублирование","update":"2016-07-11 05:15:58","iframe_src":"//7923.svetacdn.in/71tsRs29n5tZ/movie/346"}],"current_page":2448,"first_page_url":"https://videocdn.tv/api/short?limit=100&api_token=EnbO9h8pv1VyjbCJhg0WM9nG259n7mtz&cache32448=32448&page=1","from":244701,"last_page":642,"last_page_url":"https://videocdn.tv/api/short?limit=100&api_token=EnbO9h8pv1VyjbCJhg0WM9nG259n7mtz&cache32448=32448&page=642","next_page_url":null,"path":"https://videocdn.tv/api/short","per_page":100,"prev_page_url":"https://videocdn.tv/api/short?limit=100&api_token=EnbO9h8pv1VyjbCJhg0WM9nG259n7mtz&cache32448=32448&page=2447","to":244720,"total":64126}