{"result":true,"data":[{"id":43200,"title":"Голодный сирота","kp_id":"221764","imdb_id":"tt0050384","world_art_id":null,"type":"movie","add":"2020-09-07 11:48:26","orig_title":"Feedin' the Kiddie","year":"1957-06-07","translations":["Профессиональный (многоголосый закадровый)"],"quality":"dvdrip","translation":"Профессиональный (многоголосый закадровый)","update":"2020-09-08 06:17:47","iframe_src":"//2413.svetacdn.in/IAF0wWTdNYZm/movie/43200"},{"id":43199,"title":"Мышонок-тореадор","kp_id":"92356","imdb_id":"tt0050732","world_art_id":null,"type":"movie","add":"2020-09-07 11:46:15","orig_title":"Mucho Mouse","year":"1957-09-06","translations":["Профессиональный (многоголосый закадровый)"],"quality":"dvdrip","translation":"Профессиональный (многоголосый закадровый)","update":"2020-09-08 06:20:07","iframe_src":"//2413.svetacdn.in/IAF0wWTdNYZm/movie/43199"},{"id":43198,"title":"Неопровержимая улика","kp_id":"92354","imdb_id":"tt0051096","world_art_id":null,"type":"movie","add":"2020-09-07 11:43:46","orig_title":"Tom's Photo Finish","year":"1957-11-01","translations":["Профессиональный (многоголосый закадровый)"],"quality":"dvdrip","translation":"Профессиональный (многоголосый закадровый)","update":"2020-09-08 06:21:26","iframe_src":"//2413.svetacdn.in/IAF0wWTdNYZm/movie/43198"},{"id":43197,"title":"Пасхальное яичко в подарок","kp_id":"221762","imdb_id":"tt0051698","world_art_id":null,"type":"movie","add":"2020-09-07 11:41:13","orig_title":"Happy Go Ducky","year":"1958-01-03","translations":["Профессиональный (многоголосый закадровый)"],"quality":"dvdrip","translation":"Профессиональный (многоголосый закадровый)","update":"2020-09-08 06:22:22","iframe_src":"//2413.svetacdn.in/IAF0wWTdNYZm/movie/43197"},{"id":43196,"title":"Дайте же королю поспать","kp_id":"221761","imdb_id":"tt0052149","world_art_id":null,"type":"movie","add":"2020-09-07 11:31:30","orig_title":"Royal Cat Nap","year":"1958-03-07","translations":["Профессиональный (многоголосый закадровый)"],"quality":"dvdrip","translation":"Профессиональный (многоголосый закадровый)","update":"2020-09-08 06:25:05","iframe_src":"//2413.svetacdn.in/IAF0wWTdNYZm/movie/43196"},{"id":43193,"title":"План","kp_id":"1236784","imdb_id":"tt9733094","world_art_id":null,"type":"movie","add":"2020-09-07 10:58:31","orig_title":"El plan","year":"2019-10-22","translations":["Любительский (многоголосый закадровый) (@MUZOBOZ@)"],"quality":"bd","translation":"Любительский (многоголосый закадровый) (@MUZOBOZ@)","update":"2020-09-07 17:19:49","iframe_src":"//2413.svetacdn.in/IAF0wWTdNYZm/movie/43193"},{"id":43192,"title":"Любовь под домашним арестом","kp_id":"1214083","imdb_id":"tt9328744","world_art_id":null,"type":"movie","add":"2020-09-07 10:47:58","orig_title":"L'amore a domicilio","year":"2019-04-30","translations":["Любительский (многоголосый закадровый) (AlphaProject)"],"quality":"webdl","translation":"Любительский (многоголосый закадровый) (AlphaProject)","update":"2020-09-07 22:03:47","iframe_src":"//2413.svetacdn.in/IAF0wWTdNYZm/movie/43192"},{"id":43190,"title":"Невидимый утенок","kp_id":"54136","imdb_id":"tt0052347","world_art_id":null,"type":"movie","add":"2020-09-07 10:15:31","orig_title":"The Vanishing Duck","year":"1958-05-02","translations":["Профессиональный (многоголосый закадровый)"],"quality":"dvdrip","translation":"Профессиональный (многоголосый закадровый)","update":"2020-09-08 06:26:27","iframe_src":"//2413.svetacdn.in/IAF0wWTdNYZm/movie/43190"},{"id":43189,"title":"Спасти Робин Гуда","kp_id":"221760","imdb_id":"tt0052140","world_art_id":null,"type":"movie","add":"2020-09-07 10:13:36","orig_title":"Robin Hoodwinked","year":"1958-06-06","translations":["Профессиональный (многоголосый закадровый)"],"quality":"dvdrip","translation":"Профессиональный (многоголосый закадровый)","update":"2020-09-08 06:28:09","iframe_src":"//2413.svetacdn.in/IAF0wWTdNYZm/movie/43189"},{"id":43164,"title":"Кто же так ловит мышей?","kp_id":"34088","imdb_id":"tt0058993","world_art_id":null,"type":"movie","add":"2020-09-07 08:20:31","orig_title":"The Brothers Carry-Mouse-Off","year":"1965-03-03","translations":["Профессиональный (многоголосый закадровый)"],"quality":"dvdrip","translation":"Профессиональный (многоголосый закадровый)","update":"2020-09-07 22:08:30","iframe_src":"//2413.svetacdn.in/IAF0wWTdNYZm/movie/43164"},{"id":43163,"title":"Цирк приехал","kp_id":"34089","imdb_id":"tt0059332","world_art_id":null,"type":"movie","add":"2020-09-07 08:17:05","orig_title":"Jerry-Go-Round","year":"1965-01-01","translations":["Профессиональный (многоголосый закадровый)"],"quality":"dvdrip","translation":"Профессиональный (многоголосый закадровый)","update":"2020-09-07 22:11:18","iframe_src":"//2413.svetacdn.in/IAF0wWTdNYZm/movie/43163"},{"id":43161,"title":"Неугомонные","kp_id":"33840","imdb_id":"tt0059820","world_art_id":null,"type":"movie","add":"2020-09-07 08:11:56","orig_title":"Tom-ic Energy","year":"1965-01-27","translations":["Профессиональный (многоголосый закадровый)"],"quality":"dvdrip","translation":"Профессиональный (многоголосый закадровый)","update":"2020-09-07 22:12:37","iframe_src":"//2413.svetacdn.in/IAF0wWTdNYZm/movie/43161"},{"id":43160,"title":"Вот такие фокусы","kp_id":"33836","imdb_id":"tt0059257","world_art_id":null,"type":"movie","add":"2020-09-07 08:09:23","orig_title":"Haunted Mouse","year":"1965-03-24","translations":["Профессиональный (многоголосый закадровый)"],"quality":"dvdrip","translation":"Профессиональный (многоголосый закадровый)","update":"2020-09-07 22:13:55","iframe_src":"//2413.svetacdn.in/IAF0wWTdNYZm/movie/43160"},{"id":43159,"title":"Ай, да Джерри","kp_id":"33837","imdb_id":"tt0059299","world_art_id":null,"type":"movie","add":"2020-09-07 08:04:23","orig_title":"I'm Just Wild About Jerry","year":"1965-04-07","translations":["Профессиональный (многоголосый закадровый)"],"quality":"dvdrip","translation":"Профессиональный (многоголосый закадровый)","update":"2020-09-07 22:14:57","iframe_src":"//2413.svetacdn.in/IAF0wWTdNYZm/movie/43159"},{"id":43106,"title":"Иштар","kp_id":"4519","imdb_id":"tt0093278","world_art_id":null,"type":"movie","add":"2020-09-06 13:18:11","orig_title":"Ishtar","year":"1987-05-15","translations":["[EN] Original (English)","Авторский (одноголосый закадровый) (Алексеев Антон)","Авторский (одноголосый закадровый) (Горчаков Василий)","Профессиональный (двухголосый закадровый) (НТВ)"],"quality":"bd","translation":"[EN] Original (English)","update":"2020-09-07 15:22:40","iframe_src":"//2413.svetacdn.in/IAF0wWTdNYZm/movie/43106"},{"id":33439,"title":"Щенячий патруль: скорей спешим на помощь","kp_id":"1314200","imdb_id":"tt11015752","world_art_id":null,"type":"movie","add":"2019-11-25 20:07:54","orig_title":"Paw Patrol: Ready, Race, Rescue!","year":"2019-09-03","translations":["Любительский (многоголосый закадровый) (Синема УС)","Полное дублирование (SDI Media | Iyuno-SDI Group Russia)"],"quality":"webdl","translation":"Любительский (многоголосый закадровый) (Синема УС)","update":"2020-09-07 18:56:12","iframe_src":"//2413.svetacdn.in/IAF0wWTdNYZm/movie/33439"},{"id":18977,"title":"Закон о детях","kp_id":"1005848","imdb_id":"tt6040662","world_art_id":null,"type":"movie","add":"2018-09-14 00:04:40","orig_title":"The Children Act","year":"2017-09-09","translations":["Любительский (многоголосый закадровый) (Синема УС)","Профессиональный (многоголосый закадровый) (HDrezka Studio)","Профессиональный (многоголосый закадровый) (HDrezka Studio)"],"quality":"webdl","translation":"Любительский (многоголосый закадровый) (Синема УС)","update":"2020-09-07 14:59:36","iframe_src":"//2413.svetacdn.in/IAF0wWTdNYZm/movie/18977"},{"id":16985,"title":"Они остаются","kp_id":"935226","imdb_id":"tt4991112","world_art_id":null,"type":"movie","add":"2018-05-31 08:11:15","orig_title":"They Remain","year":"2018-01-28","translations":["Любительский (многоголосый закадровый) (Синема УС)","Профессиональный (многоголосый закадровый) (HDrezka Studio)","Профессиональный (многоголосый закадровый) (Jaskier)","Профессиональный (многоголосый закадровый) (HDrezka Studio)"],"quality":"webdl","translation":"Любительский (многоголосый закадровый) (Синема УС)","update":"2020-09-07 14:59:15","iframe_src":"//2413.svetacdn.in/IAF0wWTdNYZm/movie/16985"},{"id":16679,"title":"Мобильные дома","kp_id":"975630","imdb_id":"tt5613402","world_art_id":null,"type":"movie","add":"2018-05-07 21:21:47","orig_title":"Mobile Homes","year":"2017-05-21","translations":["Любительский (многоголосый закадровый) (Синема УС)","Любительский (двухголосый закадровый) (HiWayGrope)","Профессиональный (многоголосый закадровый) (HDrezka Studio)","Профессиональный (многоголосый закадровый) (HDrezka Studio)"],"quality":"webdl","translation":"Любительский (многоголосый закадровый) (Синема УС)","update":"2020-09-07 14:58:36","iframe_src":"//2413.svetacdn.in/IAF0wWTdNYZm/movie/16679"},{"id":6529,"title":"Тот, кто меня бережет","kp_id":"2615","imdb_id":"tt0094008","world_art_id":null,"type":"movie","add":"2016-10-20 15:11:40","orig_title":"Someone to Watch Over Me","year":"1987-10-09","translations":["Профессиональный (двухголосый закадровый)","Авторский (одноголосый закадровый) (Гаврилов Андрей)","[EN] Original (English)","Профессиональный (двухголосый закадровый) (Видеосервис)","Профессиональный (многоголосый закадровый)"],"quality":"webdl","translation":"Профессиональный (двухголосый закадровый)","update":"2020-09-07 15:28:42","iframe_src":"//2413.svetacdn.in/IAF0wWTdNYZm/movie/6529"}],"current_page":1061,"first_page_url":"https://videocdn.tv/api/short?limit=100&api_token=6Onb1W1alEUrBcKJZD3GoKBbWyAl2uG2&cache31061=31061&page=1","from":106001,"last_page":720,"last_page_url":"https://videocdn.tv/api/short?limit=100&api_token=6Onb1W1alEUrBcKJZD3GoKBbWyAl2uG2&cache31061=31061&page=720","next_page_url":null,"path":"https://videocdn.tv/api/short","per_page":100,"prev_page_url":"https://videocdn.tv/api/short?limit=100&api_token=6Onb1W1alEUrBcKJZD3GoKBbWyAl2uG2&cache31061=31061&page=1060","to":106020,"total":71979}