{"result":true,"data":[{"id":978,"title":"Мордекай","kp_id":"778963","imdb_id":"tt3045616","world_art_id":null,"type":"movie","add":"2016-04-12 11:47:09","orig_title":"Mortdecai","year":"2015-01-21","translations":["Полное дублирование"],"quality":"bd","translation":"Полное дублирование","update":"2016-04-13 05:27:40","iframe_src":"//83.svetacdn.in/PfJ50H0ZBPg3/movie/978"},{"id":977,"title":"Орлеан","kp_id":"838963","imdb_id":"tt4761270","world_art_id":null,"type":"movie","add":"2016-04-12 11:46:13","orig_title":"Orlean","year":"2015-11-07","translations":["Оригинальная дорожка"],"quality":"webdl","translation":"Оригинальная дорожка","update":"2016-04-13 05:31:09","iframe_src":"//83.svetacdn.in/PfJ50H0ZBPg3/movie/977"},{"id":976,"title":"Эвакуация","kp_id":"753958","imdb_id":"tt2823574","world_art_id":null,"type":"movie","add":"2016-04-12 11:44:56","orig_title":"Extraction","year":"2013-09-05","translations":["Профессиональный (многоголосый закадровый)"],"quality":"webdl","translation":"Профессиональный (многоголосый закадровый)","update":"2016-04-13 05:34:34","iframe_src":"//83.svetacdn.in/PfJ50H0ZBPg3/movie/976"},{"id":975,"title":"Потерянный север","kp_id":"824421","imdb_id":"tt3500544","world_art_id":null,"type":"movie","add":"2016-04-12 11:43:37","orig_title":"Perdiendo el norte","year":"2015-03-03","translations":["Любительский (одноголосый закадровый)"],"quality":"bd","translation":"Любительский (одноголосый закадровый)","update":"2016-04-13 05:37:09","iframe_src":"//83.svetacdn.in/PfJ50H0ZBPg3/movie/975"},{"id":973,"title":"Тотем волка","kp_id":"762923","imdb_id":"tt2909116","world_art_id":null,"type":"movie","add":"2016-04-12 11:41:17","orig_title":"Le dernier loup","year":"2015-02-19","translations":["Любительский (двухголосый закадровый)"],"quality":"bd","translation":"Любительский (двухголосый закадровый)","update":"2016-04-13 05:42:37","iframe_src":"//83.svetacdn.in/PfJ50H0ZBPg3/movie/973"},{"id":971,"title":"Поклонник","kp_id":"797575","imdb_id":"tt3181822","world_art_id":null,"type":"movie","add":"2016-04-12 11:38:53","orig_title":"The Boy Next Door","year":"2015-01-22","translations":["Полное дублирование"],"quality":"bd","translation":"Полное дублирование","update":"2016-04-13 05:53:36","iframe_src":"//83.svetacdn.in/PfJ50H0ZBPg3/movie/971"},{"id":970,"title":"Энни","kp_id":"582212","imdb_id":"tt1823664","world_art_id":null,"type":"movie","add":"2016-04-12 11:37:35","orig_title":"Annie","year":"2014-12-07","translations":["Полное дублирование"],"quality":"bd","translation":"Полное дублирование","update":"2016-04-13 06:02:12","iframe_src":"//83.svetacdn.in/PfJ50H0ZBPg3/movie/970"},{"id":963,"title":"Опасное погружение","kp_id":"779160","imdb_id":"tt3029476","world_art_id":null,"type":"movie","add":"2016-04-12 10:38:48","orig_title":"Pressure","year":"2015-02-23","translations":["Полное дублирование"],"quality":"bd","translation":"Полное дублирование","update":"2016-04-13 05:24:27","iframe_src":"//83.svetacdn.in/PfJ50H0ZBPg3/movie/963"},{"id":962,"title":"Он никогда не умирал","kp_id":"710513","imdb_id":"tt2386404","world_art_id":null,"type":"movie","add":"2016-04-12 10:25:28","orig_title":"He Never Died","year":"2015-03-17","translations":["Любительский (двухголосый закадровый)"],"quality":"bd","translation":"Любительский (двухголосый закадровый)","update":"2016-04-13 05:17:40","iframe_src":"//83.svetacdn.in/PfJ50H0ZBPg3/movie/962"},{"id":961,"title":"Окулус","kp_id":"680499","imdb_id":"tt2388715","world_art_id":null,"type":"movie","add":"2016-04-12 10:23:17","orig_title":"Oculus","year":"2013-09-08","translations":["Полное дублирование"],"quality":"bd","translation":"Полное дублирование","update":"2016-04-13 05:14:24","iframe_src":"//83.svetacdn.in/PfJ50H0ZBPg3/movie/961"},{"id":960,"title":"Убрать из друзей","kp_id":"839972","imdb_id":"tt3713166","world_art_id":null,"type":"movie","add":"2016-04-12 10:09:54","orig_title":"Cybernatural","year":"2014-06-20","translations":["Полное дублирование"],"quality":"bd","translation":"Полное дублирование","update":"2016-04-13 05:21:56","iframe_src":"//83.svetacdn.in/PfJ50H0ZBPg3/movie/960"},{"id":954,"title":"Красотки в бегах","kp_id":"770625","imdb_id":"tt2967224","world_art_id":null,"type":"movie","add":"2016-04-12 08:25:36","orig_title":"Hot Pursuit","year":"2015-05-07","translations":["Полное дублирование"],"quality":"bd","translation":"Полное дублирование","update":"2016-04-13 05:06:28","iframe_src":"//83.svetacdn.in/PfJ50H0ZBPg3/movie/954"},{"id":613,"title":"Феи: Загадка пиратского острова","kp_id":"726839","imdb_id":"tt2483260","world_art_id":null,"type":"movie","add":"2016-04-05 15:47:44","orig_title":"The Pirate Fairy","year":"2014-02-13","translations":["Полное дублирование"],"quality":"bd","translation":"Полное дублирование","update":"2016-04-12 19:28:54","iframe_src":"//83.svetacdn.in/PfJ50H0ZBPg3/movie/613"},{"id":612,"title":"Цыплёнок Цыпа","kp_id":"70953","imdb_id":"tt0371606","world_art_id":null,"type":"movie","add":"2016-04-05 15:22:39","orig_title":"Chicken Little","year":"2005-10-30","translations":["Полное дублирование"],"quality":"bd","translation":"Полное дублирование","update":"2016-04-12 20:10:54","iframe_src":"//83.svetacdn.in/PfJ50H0ZBPg3/movie/612"},{"id":611,"title":"Оз: Возвращение в Изумрудный Город","kp_id":"489291","imdb_id":"tt0884726","world_art_id":null,"type":"movie","add":"2016-04-05 15:05:38","orig_title":"Legends of Oz: Dorothy's Return","year":"2013-06-14","translations":["Полное дублирование"],"quality":"bd","translation":"Полное дублирование","update":"2016-04-12 20:22:26","iframe_src":"//83.svetacdn.in/PfJ50H0ZBPg3/movie/611"},{"id":609,"title":"Покахонтас","kp_id":"5213","imdb_id":"tt0114148","world_art_id":null,"type":"movie","add":"2016-04-05 14:57:32","orig_title":"Pocahontas","year":"1995-06-15","translations":["Полное дублирование"],"quality":"bd","translation":"Полное дублирование","update":"2016-04-12 20:15:55","iframe_src":"//83.svetacdn.in/PfJ50H0ZBPg3/movie/609"},{"id":608,"title":"Лис и пёс 2","kp_id":"229895","imdb_id":"tt0465997","world_art_id":null,"type":"movie","add":"2016-04-05 14:47:09","orig_title":"The Fox and the Hound 2","year":"2006-11-09","translations":["Полное дублирование"],"quality":"bd","translation":"Полное дублирование","update":"2016-04-12 20:17:14","iframe_src":"//83.svetacdn.in/PfJ50H0ZBPg3/movie/608"},{"id":607,"title":"Лис и пёс","kp_id":"16117","imdb_id":"tt0082406","world_art_id":null,"type":"movie","add":"2016-04-05 14:34:37","orig_title":"The Fox and the Hound","year":"1981-07-10","translations":["Полное дублирование"],"quality":"bd","translation":"Полное дублирование","update":"2016-04-12 20:09:19","iframe_src":"//83.svetacdn.in/PfJ50H0ZBPg3/movie/607"},{"id":606,"title":"Самолеты","kp_id":"592300","imdb_id":"tt1691917","world_art_id":null,"type":"movie","add":"2016-04-05 14:22:09","orig_title":"Planes","year":"2013-08-05","translations":["Полное дублирование"],"quality":"bd","translation":"Полное дублирование","update":"2016-04-12 20:19:38","iframe_src":"//83.svetacdn.in/PfJ50H0ZBPg3/movie/606"},{"id":602,"title":"Астробой","kp_id":"61323","imdb_id":"tt0375568","world_art_id":null,"type":"movie","add":"2016-04-05 14:07:04","orig_title":"Astro Boy","year":"2009-10-05","translations":["Полное дублирование"],"quality":"bd","translation":"Полное дублирование","update":"2016-04-12 20:21:10","iframe_src":"//83.svetacdn.in/PfJ50H0ZBPg3/movie/602"}],"current_page":2614,"first_page_url":"https://videocdn.tv/api/short?limit=100&api_token=RgFQdUIR2dRmwv8iYa5SnFNgnw3vpjKj&cache32614=32614&page=1","from":261301,"last_page":662,"last_page_url":"https://videocdn.tv/api/short?limit=100&api_token=RgFQdUIR2dRmwv8iYa5SnFNgnw3vpjKj&cache32614=32614&page=662","next_page_url":null,"path":"https://videocdn.tv/api/short","per_page":100,"prev_page_url":"https://videocdn.tv/api/short?limit=100&api_token=RgFQdUIR2dRmwv8iYa5SnFNgnw3vpjKj&cache32614=32614&page=2613","to":261320,"total":66126}