{"result":true,"data":[{"id":45889,"title":"Комендант Лаутербурга","kp_id":"635090","imdb_id":"tt5902720","world_art_id":null,"type":"movie","add":"2020-12-07 16:10:34","orig_title":"Komendant Lauterburga","year":"1969-01-01","translations":["Оригинальная дорожка"],"quality":"webdl","translation":"Оригинальная дорожка","update":"2020-12-07 20:00:50","iframe_src":"//5322.svetacdn.in/71tsRs29n5tZ/movie/45889"},{"id":45887,"title":"Первая Леди","kp_id":"1313046","imdb_id":"tt11076496","world_art_id":null,"type":"movie","add":"2020-12-07 11:42:36","orig_title":"The Ghost and the House of Truth","year":"2019-11-01","translations":["Любительский (многоголосый закадровый) (Синема УС)"],"quality":"webdl","translation":"Любительский (многоголосый закадровый) (Синема УС)","update":"2020-12-08 06:28:41","iframe_src":"//5322.svetacdn.in/71tsRs29n5tZ/movie/45887"},{"id":45886,"title":"Рождественское кольцо","kp_id":"1438034","imdb_id":"tt13267034","world_art_id":null,"type":"movie","add":"2020-12-07 11:40:43","orig_title":"The Christmas Ring","year":"2020-11-07","translations":["Любительский (многоголосый закадровый) (Синема УС)"],"quality":"hdtv","translation":"Любительский (многоголосый закадровый) (Синема УС)","update":"2020-12-08 06:28:11","iframe_src":"//5322.svetacdn.in/71tsRs29n5tZ/movie/45886"},{"id":45883,"title":"Увидимся завтра","kp_id":"682165","imdb_id":"tt2402565","world_art_id":null,"type":"movie","add":"2020-12-06 16:19:33","orig_title":"Ci vediamo domani","year":"2013-04-11","translations":["Профессиональный (двухголосый закадровый) (НТВ)"],"quality":"dvdrip","translation":"Профессиональный (двухголосый закадровый) (НТВ)","update":"2020-12-07 12:26:07","iframe_src":"//5322.svetacdn.in/71tsRs29n5tZ/movie/45883"},{"id":45882,"title":"Зомби-брат","kp_id":"1022770","imdb_id":"tt5852314","world_art_id":null,"type":"movie","add":"2020-12-06 12:50:15","orig_title":"Zombie Bro","year":"2020-12-18","translations":["Любительский (многоголосый закадровый) (@MUZOBOZ@)"],"quality":"webdl","translation":"Любительский (многоголосый закадровый) (@MUZOBOZ@)","update":"2020-12-06 20:19:51","iframe_src":"//5322.svetacdn.in/71tsRs29n5tZ/movie/45882"},{"id":45881,"title":"Навыки выживания","kp_id":"1167288","imdb_id":"tt8622348","world_art_id":null,"type":"movie","add":"2020-12-06 12:48:34","orig_title":"Survival Skills","year":"2020-03-06","translations":["Любительский (многоголосый закадровый) (@MUZOBOZ@)"],"quality":"webdl","translation":"Любительский (многоголосый закадровый) (@MUZOBOZ@)","update":"2020-12-06 19:08:15","iframe_src":"//5322.svetacdn.in/71tsRs29n5tZ/movie/45881"},{"id":45880,"title":"Королева утреннего спокойствия","kp_id":"1212900","imdb_id":"tt9265018","world_art_id":null,"type":"movie","add":"2020-12-06 12:46:57","orig_title":"Queen of the Morning Calm","year":"2019-12-07","translations":["Любительский (многоголосый закадровый) (@MUZOBOZ@)"],"quality":"webdl","translation":"Любительский (многоголосый закадровый) (@MUZOBOZ@)","update":"2020-12-06 20:50:11","iframe_src":"//5322.svetacdn.in/71tsRs29n5tZ/movie/45880"},{"id":45879,"title":"Вечные скитальцы","kp_id":"1202623","imdb_id":"tt9121616","world_art_id":null,"type":"movie","add":"2020-12-06 12:44:18","orig_title":"Paradise Drifters","year":"2020-11-03","translations":["Любительский (многоголосый закадровый) (AlphaProject)"],"quality":"bd","translation":"Любительский (многоголосый закадровый) (AlphaProject)","update":"2020-12-06 17:37:28","iframe_src":"//5322.svetacdn.in/71tsRs29n5tZ/movie/45879"},{"id":45877,"title":"Луксор","kp_id":"1253521","imdb_id":"tt10039524","world_art_id":null,"type":"movie","add":"2020-12-06 12:38:25","orig_title":"Luxor","year":"2020-11-06","translations":["Любительский (многоголосый закадровый) (@MUZOBOZ@)"],"quality":"webdl","translation":"Любительский (многоголосый закадровый) (@MUZOBOZ@)","update":"2020-12-06 21:32:39","iframe_src":"//5322.svetacdn.in/71tsRs29n5tZ/movie/45877"},{"id":45875,"title":"Возвышенность","kp_id":"1211147","imdb_id":"tt9286908","world_art_id":null,"type":"movie","add":"2020-12-06 12:35:21","orig_title":"High Ground","year":"2020-02-23","translations":["Любительский (многоголосый закадровый) (@MUZOBOZ@)"],"quality":"bd","translation":"Любительский (многоголосый закадровый) (@MUZOBOZ@)","update":"2020-12-06 18:24:42","iframe_src":"//5322.svetacdn.in/71tsRs29n5tZ/movie/45875"},{"id":45712,"title":"Дамарукам","kp_id":"607171","imdb_id":"tt1842347","world_art_id":null,"type":"movie","add":"2020-11-30 15:50:43","orig_title":"Damarukam","year":"2012-11-22","translations":["Любительский (одноголосый закадровый)"],"quality":"webdl","translation":"Любительский (одноголосый закадровый)","update":"2020-12-07 13:56:33","iframe_src":"//5322.svetacdn.in/71tsRs29n5tZ/movie/45712"},{"id":44609,"title":"Парадоксы","kp_id":"1399299","imdb_id":"tt13321514","world_art_id":null,"type":"movie","add":"2020-10-19 20:20:52","orig_title":"Paradoksy","year":"2020-10-15","translations":["Оригинальная дорожка"],"quality":"webdl","translation":"Оригинальная дорожка","update":"2020-12-08 07:17:51","iframe_src":"//5322.svetacdn.in/71tsRs29n5tZ/movie/44609"},{"id":41797,"title":"Ясновидец 2: Ласси возвращается домой","kp_id":"1245557","imdb_id":"tt9792884","world_art_id":null,"type":"movie","add":"2020-07-16 19:53:30","orig_title":"Psych 2: Lassie Come Home","year":"2020-07-15","translations":["Профессиональный (многоголосый закадровый) (HDrezka Studio)","Полное дублирование (iTunes)"],"quality":"webdl","translation":"Профессиональный (многоголосый закадровый) (HDrezka Studio)","update":"2020-12-07 13:55:14","iframe_src":"//5322.svetacdn.in/71tsRs29n5tZ/movie/41797"},{"id":5190,"title":"Грозовой перевал","kp_id":"415287","imdb_id":"tt1238834","world_art_id":null,"type":"serial","add":"2019-09-12 11:23:40","orig_title":"Wuthering Heights","year":"2009-01-18","translations":["Профессиональный (многоголосый закадровый)"],"seasons_count":1,"episodes_count":2,"episodes":2,"update":"2019-09-12 16:27:18","iframe_src":"//5322.svetacdn.in/71tsRs29n5tZ/tv-series/5190"},{"id":5188,"title":"Возвращение Мухтара 4","kp_id":"469752","imdb_id":"tt4072156","world_art_id":null,"type":"serial","add":"2019-09-11 11:43:51","orig_title":"Vozvrashchenie Mukhtara 4","year":"2007-01-01","translations":["Оригинальная дорожка"],"seasons_count":1,"episodes_count":80,"episodes":80,"update":"2019-09-12 16:42:38","iframe_src":"//5322.svetacdn.in/71tsRs29n5tZ/tv-series/5188"},{"id":5186,"title":"Новости","kp_id":"566821","imdb_id":"tt4605380","world_art_id":null,"type":"serial","add":"2019-09-11 08:48:21","orig_title":"Novosti","year":"2011-01-31","translations":["Оригинальная дорожка"],"seasons_count":3,"episodes_count":60,"episodes":20,"update":"2019-09-13 12:34:04","iframe_src":"//5322.svetacdn.in/71tsRs29n5tZ/tv-series/5186"},{"id":5182,"title":"Возвращение Мухтара 3","kp_id":"468791","imdb_id":"tt3973886","world_art_id":null,"type":"serial","add":"2019-09-10 20:03:20","orig_title":"Возвращение Мухтара 3","year":"2006-01-01","translations":["Оригинальная дорожка"],"seasons_count":1,"episodes_count":100,"episodes":100,"update":"2019-09-11 18:53:44","iframe_src":"//5322.svetacdn.in/71tsRs29n5tZ/tv-series/5182"},{"id":5181,"title":"Блэкпул","kp_id":"277566","imdb_id":"tt0408375","world_art_id":null,"type":"serial","add":"2019-09-10 11:17:49","orig_title":"Blackpool","year":"2004-11-11","translations":["Любительский (одноголосый закадровый)"],"seasons_count":1,"episodes_count":6,"episodes":6,"update":"2019-09-10 15:40:24","iframe_src":"//5322.svetacdn.in/71tsRs29n5tZ/tv-series/5181"},{"id":5179,"title":"Московский романс","kp_id":"1272221","imdb_id":null,"world_art_id":null,"type":"serial","add":"2019-09-10 11:10:46","orig_title":"Московский романс","year":"2019-09-06","translations":["Оригинальная дорожка"],"seasons_count":1,"episodes_count":2,"episodes":2,"update":"2019-09-10 15:37:34","iframe_src":"//5322.svetacdn.in/71tsRs29n5tZ/tv-series/5179"},{"id":5174,"title":"Дороги Индии","kp_id":"441286","imdb_id":"tt1360961","world_art_id":null,"type":"serial","add":"2019-09-10 05:57:02","orig_title":"Caminho das Índias","year":"2009-01-19","translations":["Профессиональный (многоголосый закадровый)"],"seasons_count":1,"episodes_count":160,"episodes":160,"update":"2019-09-12 13:08:20","iframe_src":"//5322.svetacdn.in/71tsRs29n5tZ/tv-series/5174"},{"id":5172,"title":"Случайная невеста","kp_id":"1178195","imdb_id":null,"world_art_id":null,"type":"serial","add":"2019-09-10 05:04:49","orig_title":"Случайная невеста","year":"2018-08-08","translations":["Оригинальная дорожка"],"seasons_count":1,"episodes_count":4,"episodes":4,"update":"2019-09-12 11:59:39","iframe_src":"//5322.svetacdn.in/71tsRs29n5tZ/tv-series/5172"},{"id":5171,"title":"Правило боя","kp_id":"969101","imdb_id":"tt5511146","world_art_id":null,"type":"serial","add":"2019-09-10 05:01:19","orig_title":"Pravilo boya","year":"2017-01-26","translations":["Оригинальная дорожка"],"seasons_count":1,"episodes_count":4,"episodes":4,"update":"2019-09-12 11:56:03","iframe_src":"//5322.svetacdn.in/71tsRs29n5tZ/tv-series/5171"},{"id":5170,"title":"Наступит рассвет","kp_id":"1049375","imdb_id":null,"world_art_id":null,"type":"serial","add":"2019-09-10 04:58:06","orig_title":"Наступит рассвет","year":"2017-09-30","translations":["Оригинальная дорожка"],"seasons_count":1,"episodes_count":4,"episodes":4,"update":"2019-09-12 11:51:54","iframe_src":"//5322.svetacdn.in/71tsRs29n5tZ/tv-series/5170"},{"id":5168,"title":"Поле разума","kp_id":"1008960","imdb_id":"tt6439562","world_art_id":null,"type":"serial","add":"2019-09-10 04:40:54","orig_title":"Mind Field","year":"2017-01-18","translations":["Любительский (одноголосый закадровый) (VoicePower)"],"seasons_count":2,"episodes_count":16,"episodes":8,"update":"2019-09-13 13:12:54","iframe_src":"//5322.svetacdn.in/71tsRs29n5tZ/tv-series/5168"},{"id":5166,"title":"В поисках истины","kp_id":"419545","imdb_id":"tt0179699","world_art_id":null,"type":"serial","add":"2019-09-09 19:29:39","orig_title":"Cambio de piel","year":"1998-01-01","translations":["Профессиональный (двухголосый закадровый)"],"seasons_count":1,"episodes_count":110,"episodes":110,"update":"2019-09-11 11:12:01","iframe_src":"//5322.svetacdn.in/71tsRs29n5tZ/tv-series/5166"},{"id":5164,"title":"Кассандра","kp_id":"416312","imdb_id":"tt0270789","world_art_id":null,"type":"serial","add":"2019-09-08 22:42:02","orig_title":"Kassandra","year":"1992-10-08","translations":["Профессиональный (двухголосый закадровый)","Профессиональный (многоголосый закадровый)"],"seasons_count":1,"episodes_count":150,"episodes":150,"update":"2019-09-12 14:40:33","iframe_src":"//5322.svetacdn.in/71tsRs29n5tZ/tv-series/5164"},{"id":5161,"title":"Другая я","kp_id":"1118209","imdb_id":null,"world_art_id":null,"type":"serial","add":"2019-09-07 07:08:10","orig_title":"Другая я","year":"2018-04-28","translations":["Оригинальная дорожка"],"seasons_count":1,"episodes_count":4,"episodes":4,"update":"2019-09-12 11:47:47","iframe_src":"//5322.svetacdn.in/71tsRs29n5tZ/tv-series/5161"},{"id":5159,"title":"Кроуфорд","kp_id":"1112396","imdb_id":"tt6635810","world_art_id":null,"type":"serial","add":"2019-09-07 07:01:46","orig_title":"Crawford","year":"2018-02-02","translations":["Профессиональный (многоголосый закадровый) (BaibaKo)"],"seasons_count":1,"episodes_count":12,"episodes":12,"update":"2019-09-13 12:21:32","iframe_src":"//5322.svetacdn.in/71tsRs29n5tZ/tv-series/5159"},{"id":5111,"title":"Земля любви, земля надежды","kp_id":"231145","imdb_id":"tt0288401","world_art_id":null,"type":"serial","add":"2019-08-28 10:49:58","orig_title":"Terra Speranza","year":"2002-06-17","translations":["Профессиональный (многоголосый закадровый)"],"seasons_count":1,"episodes_count":220,"episodes":220,"update":"2019-09-13 16:36:41","iframe_src":"//5322.svetacdn.in/71tsRs29n5tZ/tv-series/5111"},{"id":5105,"title":"Это моя жизнь","kp_id":"840984","imdb_id":"tt3659018","world_art_id":null,"type":"serial","add":"2019-08-27 09:47:11","orig_title":"O Hayat Benim","year":"2014-02-16","translations":["Любительский (одноголосый закадровый) (Максимова Лидия)"],"seasons_count":4,"episodes_count":131,"episodes":31,"update":"2019-09-13 08:02:28","iframe_src":"//5322.svetacdn.in/71tsRs29n5tZ/tv-series/5105"},{"id":5054,"title":"Игры ключей","kp_id":"1245696","imdb_id":"tt9863788","world_art_id":null,"type":"serial","add":"2019-08-19 20:01:52","orig_title":"El Juego de las Llaves","year":"2019-08-16","translations":["Профессиональный (многоголосый закадровый) (IdeaFilm)","Профессиональный (многоголосый закадровый) (BaibaKo)"],"seasons_count":1,"episodes_count":10,"episodes":10,"update":"2019-09-10 19:07:27","iframe_src":"//5322.svetacdn.in/71tsRs29n5tZ/tv-series/5054"},{"id":4949,"title":"Родители 2","kp_id":"1254076","imdb_id":null,"world_art_id":null,"type":"serial","add":"2019-07-26 06:00:48","orig_title":"Родители 2","year":"2019-07-26","translations":["Оригинальная дорожка"],"seasons_count":1,"episodes_count":20,"episodes":20,"update":"2019-09-12 05:53:52","iframe_src":"//5322.svetacdn.in/71tsRs29n5tZ/tv-series/4949"},{"id":4694,"title":"Гранд Отель","kp_id":"1123486","imdb_id":"tt7671068","world_art_id":null,"type":"serial","add":"2019-06-18 07:54:48","orig_title":"Grand Hotel","year":"2019-06-17","translations":["Профессиональный (многоголосый закадровый) (LostFilm)"],"seasons_count":1,"episodes_count":13,"episodes":13,"update":"2019-09-12 05:52:30","iframe_src":"//5322.svetacdn.in/71tsRs29n5tZ/tv-series/4694"},{"id":25881,"title":"Фантазеры","kp_id":"44402","imdb_id":"tt0165282","world_art_id":null,"type":"movie","add":"2019-05-03 18:12:16","orig_title":"Fantazyory","year":"1965-07-12","translations":["Оригинальная дорожка"],"quality":"tc","translation":"Оригинальная дорожка","update":"2020-12-07 13:52:57","iframe_src":"//5322.svetacdn.in/71tsRs29n5tZ/movie/25881"},{"id":20190,"title":"Скорость убивает","kp_id":"1093396","imdb_id":"tt6749318","world_art_id":null,"type":"movie","add":"2018-11-18 19:55:19","orig_title":"Speed Kills","year":"2018-08-16","translations":["Любительский (многоголосый закадровый) (@MUZOBOZ@)","Профессиональный (многоголосый закадровый) (HDrezka Studio)","Original (English)","Профессиональный (многоголосый закадровый) (HDrezka Studio)"],"quality":"webdl","translation":"Любительский (многоголосый закадровый) (@MUZOBOZ@)","update":"2020-12-07 14:22:25","iframe_src":"//5322.svetacdn.in/71tsRs29n5tZ/movie/20190"},{"id":5659,"title":"Лунатики","kp_id":"3681","imdb_id":"tt0105428","world_art_id":null,"type":"movie","add":"2016-09-28 15:10:42","orig_title":"Sleepwalkers","year":"1992-04-10","translations":["Профессиональный (многоголосый закадровый)","Профессиональный (многоголосый)","Авторский (одноголосый закадровый) (Гаврилов Андрей)","Авторский (одноголосый закадровый) (Живов Юрий)","Original (English)","Профессиональный (многоголосый закадровый) (Видеосервис)"],"quality":"bd","translation":"Профессиональный (многоголосый закадровый)","update":"2020-12-07 13:53:49","iframe_src":"//5322.svetacdn.in/71tsRs29n5tZ/movie/5659"},{"id":1926,"title":"Казино","kp_id":"2494","imdb_id":"tt0112641","world_art_id":null,"type":"movie","add":"2016-05-07 08:20:34","orig_title":"Casino","year":"1995-11-14","translations":["Профессиональный (многоголосый закадровый)","Авторский (одноголосый закадровый) (Гаевский Евгений)","Авторский (одноголосый закадровый) (Гаврилов Андрей)","Авторский (одноголосый закадровый) (Гоблин | Пучков Дмитрий)","Авторский (одноголосый закадровый) (Карцев Пётр)","Авторский (одноголосый закадровый) (Визгунов Сергей)","Авторский (одноголосый закадровый) (Живов Юрий)","Original (English)","Профессиональный (двухголосый закадровый)","Профессиональный (двухголосый закадровый) (РенТВ)","Профессиональный (многоголосый закадровый) (Первый канал | ОРТ)","Профессиональный (многоголосый закадровый) (Премьер Видео Фильм)"],"quality":"bd","translation":"Профессиональный (многоголосый закадровый)","update":"2020-12-07 14:15:48","iframe_src":"//5322.svetacdn.in/71tsRs29n5tZ/movie/1926"},{"id":912,"title":"Гран Торино","kp_id":"408410","imdb_id":"tt1205489","world_art_id":null,"type":"movie","add":"2016-04-09 17:44:36","orig_title":"Gran Torino","year":"2008-12-09","translations":["Полное дублирование","Авторский (одноголосый закадровый) (Гаврилов Андрей)","Авторский (одноголосый закадровый) (Гоблин | Пучков Дмитрий)","Авторский (одноголосый закадровый) (Киреев Антон)","Авторский (одноголосый закадровый) (Сербин Юрий)","Полное дублирование","Original (English)","Профессиональный (многоголосый закадровый) (Первый канал | ОРТ)"],"quality":"bd","translation":"Полное дублирование","update":"2020-12-07 14:32:39","iframe_src":"//5322.svetacdn.in/71tsRs29n5tZ/movie/912"},{"id":837,"title":"Знакомьтесь, Джо Блэк","kp_id":"5059","imdb_id":"tt0119643","world_art_id":null,"type":"movie","add":"2016-04-08 17:20:18","orig_title":"Meet Joe Black","year":"1998-11-02","translations":["Полное дублирование","Original (English)","Авторский (одноголосый закадровый) (Кашкин Александр | Первомайский)","Авторский (одноголосый закадровый) (Латышев Максим | CDV)","Авторский (одноголосый закадровый) (Живов Юрий)","Original (English)","Профессиональный (двухголосый закадровый) (Гланц + Королёва)","Профессиональный (многоголосый закадровый)","Профессиональный (многоголосый закадровый) (Позитив)"],"quality":"bd","translation":"Полное дублирование","update":"2020-12-07 14:42:22","iframe_src":"//5322.svetacdn.in/71tsRs29n5tZ/movie/837"},{"id":81,"title":"Несносные боссы 2","kp_id":"662337","imdb_id":"tt2170439","world_art_id":null,"type":"movie","add":"2016-02-09 11:31:57","orig_title":"Horrible Bosses 2","year":"2014-11-12","translations":["Полное дублирование","Original (English)","Авторский (одноголосый закадровый) (Гоблин | Пучков Дмитрий)"],"quality":"bd","translation":"Полное дублирование","update":"2020-12-07 14:59:28","iframe_src":"//5322.svetacdn.in/71tsRs29n5tZ/movie/81"}],"current_page":329,"first_page_url":"https://videocdn.tv/api/short?limit=100&api_token=EnbO9h8pv1VyjbCJhg0WM9nG259n7mtz&cache3329=3329&page=1","from":32801,"last_page":622,"last_page_url":"https://videocdn.tv/api/short?limit=100&api_token=EnbO9h8pv1VyjbCJhg0WM9nG259n7mtz&cache3329=3329&page=622","next_page_url":"https://videocdn.tv/api/short?limit=100&api_token=EnbO9h8pv1VyjbCJhg0WM9nG259n7mtz&cache3329=3329&page=330","path":"https://videocdn.tv/api/short","per_page":100,"prev_page_url":"https://videocdn.tv/api/short?limit=100&api_token=EnbO9h8pv1VyjbCJhg0WM9nG259n7mtz&cache3329=3329&page=328","to":32840,"total":62135}