{"result":true,"data":[{"id":16370,"title":"Смерть онлайн","kp_id":"1047706","imdb_id":"tt7154176","world_art_id":null,"type":"movie","add":"2018-04-19 22:41:58","orig_title":"Net I Die","year":"2017-08-17","translations":["Любительский (многоголосый закадровый) (Колобок)"],"quality":"bd","translation":"Любительский (многоголосый закадровый) (Колобок)","update":"2018-04-20 04:24:21","iframe_src":"//83.svetacdn.in/PfJ50H0ZBPg3/movie/16370"},{"id":16368,"title":"Золотое яичко","kp_id":"581820","imdb_id":null,"world_art_id":null,"type":"movie","add":"2018-04-19 22:34:35","orig_title":"Das Goldene Ei","year":"2006-01-01","translations":["Оригинальная дорожка"],"quality":"hdtv","translation":"Оригинальная дорожка","update":"2018-04-20 04:29:03","iframe_src":"//83.svetacdn.in/PfJ50H0ZBPg3/movie/16368"},{"id":16367,"title":"Где-то за пределами тьмы","kp_id":"1048919","imdb_id":"tt7757028","world_art_id":null,"type":"movie","add":"2018-04-19 22:27:04","orig_title":"Lan tian bai yun","year":"2017-10-15","translations":["Любительский (многоголосый закадровый) (Колобок)"],"quality":"bd","translation":"Любительский (многоголосый закадровый) (Колобок)","update":"2018-04-20 04:32:34","iframe_src":"//83.svetacdn.in/PfJ50H0ZBPg3/movie/16367"},{"id":16366,"title":"Соблазн","kp_id":"656150","imdb_id":"tt2140177","world_art_id":null,"type":"movie","add":"2018-04-19 22:19:14","orig_title":"Nafs","year":"2011-10-27","translations":["Полное дублирование"],"quality":"webdl","translation":"Полное дублирование","update":"2018-04-20 05:43:21","iframe_src":"//83.svetacdn.in/PfJ50H0ZBPg3/movie/16366"},{"id":16364,"title":"Жизнь возможна","kp_id":"954532","imdb_id":"tt5247720","world_art_id":null,"type":"movie","add":"2018-04-19 22:13:54","orig_title":"La vita possibile","year":"2016-09-22","translations":["Профессиональный (многоголосый закадровый) (GreenРай Studio)"],"quality":"dvdrip","translation":"Профессиональный (многоголосый закадровый) (GreenРай Studio)","update":"2018-04-20 05:33:51","iframe_src":"//83.svetacdn.in/PfJ50H0ZBPg3/movie/16364"},{"id":16363,"title":"Я умер, но у меня друзья","kp_id":"859089","imdb_id":"tt4075488","world_art_id":null,"type":"movie","add":"2018-04-19 22:11:58","orig_title":"Je suis mort mais j'ai des amis","year":"2015-06-11","translations":["Профессиональный (многоголосый закадровый) (GreenРай Studio)"],"quality":"dvdrip","translation":"Профессиональный (многоголосый закадровый) (GreenРай Studio)","update":"2018-04-20 05:42:24","iframe_src":"//83.svetacdn.in/PfJ50H0ZBPg3/movie/16363"},{"id":16341,"title":"Рождественская история","kp_id":"317463","imdb_id":"tt0772176","world_art_id":null,"type":"movie","add":"2018-04-18 14:26:35","orig_title":"Joulutarina","year":"2007-11-04","translations":["Профессиональный (многоголосый закадровый)"],"quality":"bd","translation":"Профессиональный (многоголосый закадровый)","update":"2018-04-19 05:46:56","iframe_src":"//83.svetacdn.in/PfJ50H0ZBPg3/movie/16341"},{"id":16340,"title":"Гадкий утенок и я","kp_id":"255042","imdb_id":"tt0396042","world_art_id":null,"type":"movie","add":"2018-04-18 14:17:18","orig_title":"The Ugly Duckling and Me!","year":"2006-09-10","translations":["Полное дублирование"],"quality":"hdtv","translation":"Полное дублирование","update":"2018-04-19 05:48:00","iframe_src":"//83.svetacdn.in/PfJ50H0ZBPg3/movie/16340"},{"id":16339,"title":"Экспедиция на Сатурн","kp_id":"394536","imdb_id":"tt1095423","world_art_id":null,"type":"movie","add":"2018-04-18 14:05:46","orig_title":"Rejsen til Saturn","year":"2008-09-26","translations":["Профессиональный (многоголосый закадровый)"],"quality":"bd","translation":"Профессиональный (многоголосый закадровый)","update":"2018-04-19 05:50:43","iframe_src":"//83.svetacdn.in/PfJ50H0ZBPg3/movie/16339"},{"id":16338,"title":"Друзья навсегда","kp_id":"451967","imdb_id":"tt1395050","world_art_id":null,"type":"movie","add":"2018-04-18 14:01:37","orig_title":"Mullewapp","year":"2009-07-23","translations":["Полное дублирование"],"quality":"bd","translation":"Полное дублирование","update":"2018-04-19 05:51:47","iframe_src":"//83.svetacdn.in/PfJ50H0ZBPg3/movie/16338"},{"id":16337,"title":"Доктор Стрэндж и Тайна Ордена магов","kp_id":"308423","imdb_id":"tt0910865","world_art_id":null,"type":"movie","add":"2018-04-18 13:57:47","orig_title":"Doctor Strange","year":"2007-08-14","translations":["Профессиональный (многоголосый закадровый)"],"quality":"bd","translation":"Профессиональный (многоголосый закадровый)","update":"2018-04-19 05:55:23","iframe_src":"//83.svetacdn.in/PfJ50H0ZBPg3/movie/16337"},{"id":16336,"title":"Витрина DC: Зеленая стрела","kp_id":"535301","imdb_id":"tt1663633","world_art_id":null,"type":"movie","add":"2018-04-18 13:55:06","orig_title":"Green Arrow","year":"2010-09-28","translations":["Любительский (многоголосый закадровый)"],"quality":"hdtv","translation":"Любительский (многоголосый закадровый)","update":"2018-04-19 05:56:21","iframe_src":"//83.svetacdn.in/PfJ50H0ZBPg3/movie/16336"},{"id":16335,"title":"Блок C","kp_id":null,"imdb_id":"tt1409005","world_art_id":null,"type":"movie","add":"2018-04-18 13:16:54","orig_title":"C BLOCK","year":"2008-06-10","translations":["Оригинальная дорожка"],"quality":"hdtv","translation":"Оригинальная дорожка","update":"2018-04-19 05:45:14","iframe_src":"//83.svetacdn.in/PfJ50H0ZBPg3/movie/16335"},{"id":16334,"title":"Бэтмен: Под колпаком","kp_id":"498822","imdb_id":"tt1569923","world_art_id":null,"type":"movie","add":"2018-04-18 13:10:56","orig_title":"Batman: Under the Red Hood","year":"2010-06-27","translations":["Любительский (многоголосый закадровый)"],"quality":"bd","translation":"Любительский (многоголосый закадровый)","update":"2018-04-19 05:57:21","iframe_src":"//83.svetacdn.in/PfJ50H0ZBPg3/movie/16334"},{"id":16332,"title":"Бабка Ёжка и другие","kp_id":"400107","imdb_id":"tt6857302","world_art_id":null,"type":"movie","add":"2018-04-18 13:01:34","orig_title":"Babka Yozhka i drugiye","year":"2008-02-21","translations":["Оригинальная дорожка"],"quality":"bd","translation":"Оригинальная дорожка","update":"2018-04-19 06:00:34","iframe_src":"//83.svetacdn.in/PfJ50H0ZBPg3/movie/16332"},{"id":16330,"title":"Аэротачки","kp_id":"648779","imdb_id":"tt2104985","world_art_id":null,"type":"movie","add":"2018-04-18 12:25:53","orig_title":"Sky Force 3D","year":"2012-04-22","translations":["Полное дублирование"],"quality":"bd","translation":"Полное дублирование","update":"2018-04-19 06:01:54","iframe_src":"//83.svetacdn.in/PfJ50H0ZBPg3/movie/16330"},{"id":16329,"title":"Злоупотребление слабостью","kp_id":"711584","imdb_id":"tt2418372","world_art_id":null,"type":"movie","add":"2018-04-18 12:24:08","orig_title":"Abus de faiblesse","year":"2013-09-06","translations":["Профессиональный (многоголосый закадровый) (GreenРай Studio)"],"quality":"dvdrip","translation":"Профессиональный (многоголосый закадровый) (GreenРай Studio)","update":"2018-04-19 06:03:09","iframe_src":"//83.svetacdn.in/PfJ50H0ZBPg3/movie/16329"},{"id":12127,"title":"Долина папоротников: Последний тропический лес","kp_id":"20098","imdb_id":"tt0104254","world_art_id":null,"type":"movie","add":"2017-06-23 11:11:50","orig_title":"FernGully: The Last Rainforest","year":"1992-04-10","translations":["Профессиональный (многоголосый закадровый)","Авторский (одноголосый закадровый) (Михалёв Алексей)"],"quality":"bd","translation":"Профессиональный (многоголосый закадровый)","update":"2018-04-19 05:48:42","iframe_src":"//83.svetacdn.in/PfJ50H0ZBPg3/movie/12127"},{"id":8105,"title":"Рождественские страшилки","kp_id":"846808","imdb_id":"tt3688406","world_art_id":null,"type":"movie","add":"2016-12-17 09:03:35","orig_title":"A Christmas Horror Story","year":"2015-07-20","translations":["Любительский (двухголосый закадровый)","Авторский (одноголосый закадровый) (Немахов Юрий)"],"quality":"bd","translation":"Любительский (двухголосый закадровый)","update":"2018-04-19 06:04:13","iframe_src":"//83.svetacdn.in/PfJ50H0ZBPg3/movie/8105"},{"id":5254,"title":"Транс-Пекос","kp_id":"916762","imdb_id":"tt4687464","world_art_id":null,"type":"movie","add":"2016-09-14 05:38:20","orig_title":"Transpecos","year":"2016-03-13","translations":["Любительский (многоголосый закадровый) (Синема УС)","Профессиональный (многоголосый закадровый) (GreenРай Studio)","Профессиональный (многоголосый закадровый)"],"quality":"webdl","translation":"Любительский (многоголосый закадровый) (Синема УС)","update":"2018-04-20 05:33:00","iframe_src":"//83.svetacdn.in/PfJ50H0ZBPg3/movie/5254"}],"current_page":1819,"first_page_url":"https://videocdn.tv/api/short?limit=100&api_token=RgFQdUIR2dRmwv8iYa5SnFNgnw3vpjKj&cache31819=31819&page=1","from":181801,"last_page":612,"last_page_url":"https://videocdn.tv/api/short?limit=100&api_token=RgFQdUIR2dRmwv8iYa5SnFNgnw3vpjKj&cache31819=31819&page=612","next_page_url":null,"path":"https://videocdn.tv/api/short","per_page":100,"prev_page_url":"https://videocdn.tv/api/short?limit=100&api_token=RgFQdUIR2dRmwv8iYa5SnFNgnw3vpjKj&cache31819=31819&page=1818","to":181820,"total":61154}