{"result":true,"data":[{"id":10902,"title":"Билет","kp_id":"856309","imdb_id":"tt3893280","world_art_id":null,"type":"movie","add":"2017-04-11 22:32:48","orig_title":"The Ticket","year":"2016-04-16","translations":["Любительский (многоголосый закадровый) (Синема УС)"],"quality":"webdl","translation":"Любительский (многоголосый закадровый) (Синема УС)","update":"2017-04-12 04:52:57","iframe_src":"//8209.svetacdn.in/IAF0wWTdNYZm/movie/10902"},{"id":10900,"title":"Гроздья гнева","kp_id":"446","imdb_id":"tt0032551","world_art_id":null,"type":"movie","add":"2017-04-11 22:14:25","orig_title":"The Grapes of Wrath","year":"1940-01-24","translations":["Профессиональный (многоголосый закадровый)"],"quality":"bd","translation":"Профессиональный (многоголосый закадровый)","update":"2017-04-12 05:32:14","iframe_src":"//8209.svetacdn.in/IAF0wWTdNYZm/movie/10900"},{"id":10899,"title":"Город звука","kp_id":"674859","imdb_id":"tt2306745","world_art_id":null,"type":"movie","add":"2017-04-11 22:11:54","orig_title":"Sound City","year":"2013-01-18","translations":["Профессиональный (двухголосый закадровый)"],"quality":"bd","translation":"Профессиональный (двухголосый закадровый)","update":"2017-04-12 05:34:56","iframe_src":"//8209.svetacdn.in/IAF0wWTdNYZm/movie/10899"},{"id":10898,"title":"Неудача","kp_id":"847447","imdb_id":"tt3731176","world_art_id":null,"type":"movie","add":"2017-04-11 22:09:43","orig_title":"Misfortune","year":"2016-08-05","translations":["Любительский (многоголосый закадровый) (Синема УС)"],"quality":"webdl","translation":"Любительский (многоголосый закадровый) (Синема УС)","update":"2017-04-12 04:54:06","iframe_src":"//8209.svetacdn.in/IAF0wWTdNYZm/movie/10898"},{"id":10897,"title":"Средний человек","kp_id":"921601","imdb_id":"tt4835894","world_art_id":null,"type":"movie","add":"2017-04-11 22:07:53","orig_title":"Middle Man","year":"2016-06-10","translations":["Любительский (многоголосый закадровый) (Синема УС)"],"quality":"webdl","translation":"Любительский (многоголосый закадровый) (Синема УС)","update":"2017-04-12 04:55:44","iframe_src":"//8209.svetacdn.in/IAF0wWTdNYZm/movie/10897"},{"id":10896,"title":"Грязная кампания за честные выборы","kp_id":"575249","imdb_id":"tt1790886","world_art_id":null,"type":"movie","add":"2017-04-11 22:04:57","orig_title":"The Campaign","year":"2012-08-04","translations":["Профессиональный (многоголосый закадровый)"],"quality":"bd","translation":"Профессиональный (многоголосый закадровый)","update":"2017-04-12 05:37:01","iframe_src":"//8209.svetacdn.in/IAF0wWTdNYZm/movie/10896"},{"id":10894,"title":"Бриллиантовый картель","kp_id":"1009449","imdb_id":"tt6282314","world_art_id":null,"type":"movie","add":"2017-04-11 22:01:31","orig_title":"Diamond Cartel","year":"2017-03-31","translations":["Любительский (многоголосый закадровый) (Синема УС)"],"quality":"webdl","translation":"Любительский (многоголосый закадровый) (Синема УС)","update":"2017-04-12 04:57:13","iframe_src":"//8209.svetacdn.in/IAF0wWTdNYZm/movie/10894"},{"id":10882,"title":"Фильм-социализм","kp_id":"466575","imdb_id":"tt1438535","world_art_id":null,"type":"movie","add":"2017-04-10 23:26:03","orig_title":"Film socialisme","year":"2010-05-17","translations":["Профессиональный (многоголосый закадровый)"],"quality":"bd","translation":"Профессиональный (многоголосый закадровый)","update":"2017-04-12 05:43:56","iframe_src":"//8209.svetacdn.in/IAF0wWTdNYZm/movie/10882"},{"id":10881,"title":"Крутожопый монстромочитель","kp_id":"954533","imdb_id":"tt5252606","world_art_id":null,"type":"movie","add":"2017-04-10 23:23:52","orig_title":"Badass Monster Killer","year":"2015-12-03","translations":["Любительский (двухголосый закадровый) (DeadSno & den904)"],"quality":"webdl","translation":"Любительский (двухголосый закадровый) (DeadSno & den904)","update":"2017-04-12 05:45:34","iframe_src":"//8209.svetacdn.in/IAF0wWTdNYZm/movie/10881"},{"id":10869,"title":"Доброе сердце","kp_id":"256496","imdb_id":"tt0808285","world_art_id":null,"type":"movie","add":"2017-04-10 23:04:38","orig_title":"The Good Heart","year":"2009-09-11","translations":["Профессиональный (многоголосый закадровый)"],"quality":"bd","translation":"Профессиональный (многоголосый закадровый)","update":"2017-04-12 05:46:32","iframe_src":"//8209.svetacdn.in/IAF0wWTdNYZm/movie/10869"},{"id":10855,"title":"Новые муравьи в штанах","kp_id":"64098","imdb_id":"tt0295375","world_art_id":null,"type":"movie","add":"2017-04-10 14:22:28","orig_title":"Knallharte Jungs","year":"2002-03-14","translations":["Профессиональный (многоголосый закадровый)"],"quality":"dvdrip","translation":"Профессиональный (многоголосый закадровый)","update":"2017-04-12 05:55:28","iframe_src":"//8209.svetacdn.in/IAF0wWTdNYZm/movie/10855"},{"id":10854,"title":"Эльвира: Повелительница тьмы 2","kp_id":"32061","imdb_id":"tt0265171","world_art_id":null,"type":"movie","add":"2017-04-10 14:20:52","orig_title":"Elvira's Haunted Hills","year":"2001-06-23","translations":["Профессиональный (многоголосый закадровый)"],"quality":"dvdrip","translation":"Профессиональный (многоголосый закадровый)","update":"2017-04-12 05:57:17","iframe_src":"//8209.svetacdn.in/IAF0wWTdNYZm/movie/10854"},{"id":10852,"title":"Тайные страсти","kp_id":"47080","imdb_id":"tt0287963","world_art_id":null,"type":"movie","add":"2017-04-10 14:17:36","orig_title":"Choses secrètes","year":"2002-10-16","translations":["Профессиональный (многоголосый закадровый)"],"quality":"dvdrip","translation":"Профессиональный (многоголосый закадровый)","update":"2017-04-12 05:59:58","iframe_src":"//8209.svetacdn.in/IAF0wWTdNYZm/movie/10852"},{"id":10850,"title":"Всеобщее чувство стыда","kp_id":"13508","imdb_id":"tt0074339","world_art_id":null,"type":"movie","add":"2017-04-10 14:14:50","orig_title":"Il comune senso del pudore","year":"1976-04-10","translations":["Профессиональный (двухголосый закадровый)"],"quality":"dvdrip","translation":"Профессиональный (двухголосый закадровый)","update":"2017-04-12 06:05:34","iframe_src":"//8209.svetacdn.in/IAF0wWTdNYZm/movie/10850"},{"id":10849,"title":"Прах времен","kp_id":"414157","imdb_id":"tt0109688","world_art_id":null,"type":"movie","add":"2017-04-10 14:13:37","orig_title":"Dung che sai duk","year":"1994-09-12","translations":["Профессиональный (двухголосый закадровый)"],"quality":"bd","translation":"Профессиональный (двухголосый закадровый)","update":"2017-04-12 06:12:23","iframe_src":"//8209.svetacdn.in/IAF0wWTdNYZm/movie/10849"},{"id":10848,"title":"От 180 и выше","kp_id":"95943","imdb_id":"tt0450077","world_art_id":null,"type":"movie","add":"2017-04-10 14:09:31","orig_title":"Ot 180 i vyshe","year":"2005-03-24","translations":["Оригинальная дорожка"],"quality":"dvdrip","translation":"Оригинальная дорожка","update":"2017-04-12 06:14:04","iframe_src":"//8209.svetacdn.in/IAF0wWTdNYZm/movie/10848"},{"id":10847,"title":"Дикое поле","kp_id":"418255","imdb_id":"tt1252383","world_art_id":null,"type":"movie","add":"2017-04-10 14:07:26","orig_title":"Dikoe pole","year":"2008-01-22","translations":["Оригинальная дорожка"],"quality":"dvdrip","translation":"Оригинальная дорожка","update":"2017-04-12 06:15:34","iframe_src":"//8209.svetacdn.in/IAF0wWTdNYZm/movie/10847"},{"id":10846,"title":"Броненосец Потёмкин","kp_id":"481","imdb_id":"tt0015648","world_art_id":null,"type":"movie","add":"2017-04-10 07:08:21","orig_title":"Bronenosets Potyomkin","year":"1926-09-30","translations":["Оригинальная дорожка"],"quality":"bd","translation":"Оригинальная дорожка","update":"2017-04-11 15:35:10","iframe_src":"//8209.svetacdn.in/IAF0wWTdNYZm/movie/10846"},{"id":10841,"title":"Американский пирог представляет Переполох в общаге","kp_id":"295060","imdb_id":"tt0974959","world_art_id":null,"type":"movie","add":"2017-04-10 07:04:13","orig_title":"Beta House","year":"2007-12-10","translations":["Профессиональный (двухголосый закадровый)"],"quality":"webdl","translation":"Профессиональный (двухголосый закадровый)","update":"2017-04-11 15:33:13","iframe_src":"//8209.svetacdn.in/IAF0wWTdNYZm/movie/10841"},{"id":10837,"title":"Малыш и я","kp_id":"81627","imdb_id":"tt0416891","world_art_id":null,"type":"movie","add":"2017-04-10 06:59:49","orig_title":"The Kid & I","year":"2005-12-02","translations":["Профессиональный (многоголосый закадровый)"],"quality":"dvdrip","translation":"Профессиональный (многоголосый закадровый)","update":"2017-04-11 15:34:24","iframe_src":"//8209.svetacdn.in/IAF0wWTdNYZm/movie/10837"}],"current_page":2252,"first_page_url":"https://videocdn.tv/api/short?limit=100&api_token=6Onb1W1alEUrBcKJZD3GoKBbWyAl2uG2&cache32252=32252&page=1","from":225101,"last_page":657,"last_page_url":"https://videocdn.tv/api/short?limit=100&api_token=6Onb1W1alEUrBcKJZD3GoKBbWyAl2uG2&cache32252=32252&page=657","next_page_url":null,"path":"https://videocdn.tv/api/short","per_page":100,"prev_page_url":"https://videocdn.tv/api/short?limit=100&api_token=6Onb1W1alEUrBcKJZD3GoKBbWyAl2uG2&cache32252=32252&page=2251","to":225120,"total":65684}