{"result":true,"data":[{"id":4870,"title":"Иди и смотри","kp_id":"42571","imdb_id":"tt0091251","world_art_id":null,"type":"movie","add":"2016-08-29 15:32:42","orig_title":"Idi i smotri","year":"1985-09-03","translations":["Оригинальная дорожка"],"quality":"bd","translation":"Оригинальная дорожка","update":"2016-08-30 07:46:01","iframe_src":"//2413.svetacdn.in/IAF0wWTdNYZm/movie/4870"},{"id":4869,"title":"Гусарская баллада","kp_id":"44623","imdb_id":"tt0056045","world_art_id":null,"type":"movie","add":"2016-08-29 15:31:25","orig_title":"Gusarskaya ballada","year":"1962-09-07","translations":["Оригинальная дорожка"],"quality":"bd","translation":"Оригинальная дорожка","update":"2016-08-30 07:44:04","iframe_src":"//2413.svetacdn.in/IAF0wWTdNYZm/movie/4869"},{"id":4864,"title":"Человек-амфибия","kp_id":"45478","imdb_id":"tt0055844","world_art_id":null,"type":"movie","add":"2016-08-29 15:23:59","orig_title":"Chelovek-Amfibiya","year":"1962-01-03","translations":["Оригинальная дорожка"],"quality":"bd","translation":"Оригинальная дорожка","update":"2016-08-30 07:37:17","iframe_src":"//2413.svetacdn.in/IAF0wWTdNYZm/movie/4864"},{"id":4861,"title":"Белое солнце пустыни","kp_id":"46066","imdb_id":"tt0066565","world_art_id":null,"type":"movie","add":"2016-08-29 15:19:25","orig_title":"Beloe solntse pustyni","year":"1970-03-30","translations":["Оригинальная дорожка"],"quality":"bd","translation":"Оригинальная дорожка","update":"2016-08-30 07:33:30","iframe_src":"//2413.svetacdn.in/IAF0wWTdNYZm/movie/4861"},{"id":4860,"title":"Баллада о солдате","kp_id":"46019","imdb_id":"tt0052600","world_art_id":null,"type":"movie","add":"2016-08-29 15:17:58","orig_title":"Ballada o soldate","year":"1959-12-01","translations":["Оригинальная дорожка"],"quality":"bd","translation":"Оригинальная дорожка","update":"2016-08-30 07:21:56","iframe_src":"//2413.svetacdn.in/IAF0wWTdNYZm/movie/4860"},{"id":4859,"title":"Афоня","kp_id":"43423","imdb_id":"tt0072613","world_art_id":null,"type":"movie","add":"2016-08-29 15:15:35","orig_title":"Afonya","year":"1975-10-13","translations":["Оригинальная дорожка"],"quality":"bd","translation":"Оригинальная дорожка","update":"2016-08-30 07:37:02","iframe_src":"//2413.svetacdn.in/IAF0wWTdNYZm/movie/4859"},{"id":4857,"title":"Фантом","kp_id":"6845","imdb_id":"tt0117331","world_art_id":null,"type":"movie","add":"2016-08-29 14:57:11","orig_title":"The Phantom","year":"1996-06-07","translations":["Профессиональный (многоголосый закадровый)"],"quality":"bd","translation":"Профессиональный (многоголосый закадровый)","update":"2016-08-30 07:19:44","iframe_src":"//2413.svetacdn.in/IAF0wWTdNYZm/movie/4857"},{"id":4856,"title":"Перепутанные наследники","kp_id":"6669","imdb_id":"tt0108207","world_art_id":null,"type":"movie","add":"2016-08-29 14:55:01","orig_title":"Splitting Heirs","year":"1993-04-02","translations":["Любительский (одноголосый закадровый)"],"quality":"hdtv","translation":"Любительский (одноголосый закадровый)","update":"2016-08-30 07:27:26","iframe_src":"//2413.svetacdn.in/IAF0wWTdNYZm/movie/4856"},{"id":4855,"title":"Синдбад: легенда семи морей","kp_id":"7971","imdb_id":"tt0165982","world_art_id":null,"type":"movie","add":"2016-08-29 14:52:35","orig_title":"Sinbad: Legend of the Seven Seas","year":"2003-07-02","translations":["Полное дублирование"],"quality":"webdl","translation":"Полное дублирование","update":"2016-08-30 07:03:20","iframe_src":"//2413.svetacdn.in/IAF0wWTdNYZm/movie/4855"},{"id":4854,"title":"Рок на века","kp_id":"462926","imdb_id":"tt1336608","world_art_id":null,"type":"movie","add":"2016-08-29 14:51:14","orig_title":"Rock of Ages","year":"2012-06-13","translations":["Полное дублирование"],"quality":"bd","translation":"Полное дублирование","update":"2016-08-30 07:21:40","iframe_src":"//2413.svetacdn.in/IAF0wWTdNYZm/movie/4854"},{"id":4853,"title":"Ночное дежурство","kp_id":"4143","imdb_id":"tt0119791","world_art_id":null,"type":"movie","add":"2016-08-29 14:49:58","orig_title":"Nightwatch","year":"1998-04-17","translations":["Профессиональный (двухголосый закадровый)"],"quality":"bd","translation":"Профессиональный (двухголосый закадровый)","update":"2016-08-30 07:12:32","iframe_src":"//2413.svetacdn.in/IAF0wWTdNYZm/movie/4853"},{"id":4851,"title":"Смертельный номер","kp_id":"195429","imdb_id":"tt0472071","world_art_id":null,"type":"movie","add":"2016-08-29 14:47:04","orig_title":"Death Defying Acts","year":"2007-09-13","translations":["Полное дублирование"],"quality":"bd","translation":"Полное дублирование","update":"2016-08-30 07:01:17","iframe_src":"//2413.svetacdn.in/IAF0wWTdNYZm/movie/4851"},{"id":4786,"title":"Солдат","kp_id":"13328","imdb_id":"tt0120157","world_art_id":null,"type":"movie","add":"2016-08-29 08:09:47","orig_title":"Soldier","year":"1998-10-23","translations":["Полное дублирование"],"quality":"bd","translation":"Полное дублирование","update":"2016-08-29 17:09:40","iframe_src":"//2413.svetacdn.in/IAF0wWTdNYZm/movie/4786"},{"id":4784,"title":"Крупье","kp_id":"22140","imdb_id":"tt0159382","world_art_id":null,"type":"movie","add":"2016-08-29 08:08:18","orig_title":"Croupier","year":"1998-06-25","translations":["Профессиональный (двухголосый закадровый)"],"quality":"bd","translation":"Профессиональный (двухголосый закадровый)","update":"2016-08-29 17:06:38","iframe_src":"//2413.svetacdn.in/IAF0wWTdNYZm/movie/4784"},{"id":4783,"title":"Гражданский иск","kp_id":"2985","imdb_id":"tt0120633","world_art_id":null,"type":"movie","add":"2016-08-29 08:07:39","orig_title":"A Civil Action","year":"1998-12-25","translations":["Профессиональный (многоголосый закадровый)"],"quality":"bd","translation":"Профессиональный (многоголосый закадровый)","update":"2016-08-29 17:04:15","iframe_src":"//2413.svetacdn.in/IAF0wWTdNYZm/movie/4783"},{"id":4777,"title":"Боги и монстры","kp_id":"3502","imdb_id":"tt0120684","world_art_id":null,"type":"movie","add":"2016-08-29 08:03:00","orig_title":"Gods and Monsters","year":"1998-01-21","translations":["Профессиональный (многоголосый закадровый)"],"quality":"webdl","translation":"Профессиональный (многоголосый закадровый)","update":"2016-08-29 16:56:01","iframe_src":"//2413.svetacdn.in/IAF0wWTdNYZm/movie/4777"},{"id":4775,"title":"Шесть дней, семь ночей","kp_id":"4120","imdb_id":"tt0120828","world_art_id":null,"type":"movie","add":"2016-08-29 08:01:36","orig_title":"Six Days Seven Nights","year":"1998-06-12","translations":["Полное дублирование"],"quality":"webdl","translation":"Полное дублирование","update":"2016-08-29 16:41:35","iframe_src":"//2413.svetacdn.in/IAF0wWTdNYZm/movie/4775"},{"id":4770,"title":"Идеальное убийство","kp_id":"5504","imdb_id":"tt0120787","world_art_id":null,"type":"movie","add":"2016-08-29 07:57:48","orig_title":"A Perfect Murder","year":"1998-06-05","translations":["Полное дублирование"],"quality":"bd","translation":"Полное дублирование","update":"2016-08-29 16:32:02","iframe_src":"//2413.svetacdn.in/IAF0wWTdNYZm/movie/4770"},{"id":4764,"title":"Волшебный меч: Спасение Камелота","kp_id":"1718","imdb_id":"tt0120800","world_art_id":null,"type":"movie","add":"2016-08-29 07:52:50","orig_title":"Quest for Camelot","year":"1998-05-15","translations":["Полное дублирование"],"quality":"webdl","translation":"Полное дублирование","update":"2016-08-29 16:33:48","iframe_src":"//2413.svetacdn.in/IAF0wWTdNYZm/movie/4764"},{"id":4708,"title":"Серая сова","kp_id":"15651","imdb_id":"tt0128239","world_art_id":null,"type":"movie","add":"2016-08-25 18:38:59","orig_title":"Grey Owl","year":"1999-09-10","translations":["Профессиональный (двухголосый закадровый)"],"quality":"webdl","translation":"Профессиональный (двухголосый закадровый)","update":"2016-08-30 06:12:09","iframe_src":"//2413.svetacdn.in/IAF0wWTdNYZm/movie/4708"}],"current_page":2709,"first_page_url":"https://videocdn.tv/api/short?limit=100&api_token=6Onb1W1alEUrBcKJZD3GoKBbWyAl2uG2&cache32709=32709&page=1","from":270801,"last_page":711,"last_page_url":"https://videocdn.tv/api/short?limit=100&api_token=6Onb1W1alEUrBcKJZD3GoKBbWyAl2uG2&cache32709=32709&page=711","next_page_url":null,"path":"https://videocdn.tv/api/short","per_page":100,"prev_page_url":"https://videocdn.tv/api/short?limit=100&api_token=6Onb1W1alEUrBcKJZD3GoKBbWyAl2uG2&cache32709=32709&page=2708","to":270820,"total":71091}