{"result":true,"data":[{"id":46429,"title":"Тяжелая вода","kp_id":"425081","imdb_id":"tt4971476","world_art_id":null,"type":"movie","add":"2020-12-27 19:59:30","orig_title":"Tyazhyolaya voda","year":"1979-10-09","translations":["Оригинальная дорожка"],"quality":"dvdrip","translation":"Оригинальная дорожка","update":"2020-12-29 11:53:30","iframe_src":"//8209.svetacdn.in/si4jsFRrtgrT/movie/46429"},{"id":46428,"title":"Вижу цель!","kp_id":"472255","imdb_id":"tt4897710","world_art_id":null,"type":"movie","add":"2020-12-27 19:56:20","orig_title":"Vizhu tsel","year":"1978-01-01","translations":["Оригинальная дорожка"],"quality":"tv","translation":"Оригинальная дорожка","update":"2020-12-29 11:52:51","iframe_src":"//8209.svetacdn.in/si4jsFRrtgrT/movie/46428"},{"id":46427,"title":"Вторжение","kp_id":"45956","imdb_id":"tt0081731","world_art_id":null,"type":"movie","add":"2020-12-27 19:52:32","orig_title":"Vtorzheniye","year":"1981-02-09","translations":["Оригинальная дорожка"],"quality":"hdtv","translation":"Оригинальная дорожка","update":"2020-12-29 11:52:02","iframe_src":"//8209.svetacdn.in/si4jsFRrtgrT/movie/46427"},{"id":46426,"title":"Яблоки сорок первого года","kp_id":"42410","imdb_id":"tt0170069","world_art_id":null,"type":"movie","add":"2020-12-27 19:48:58","orig_title":"Yabloki sorok pervogo goda","year":"1970-02-23","translations":["Оригинальная дорожка"],"quality":"sat","translation":"Оригинальная дорожка","update":"2020-12-29 11:50:38","iframe_src":"//8209.svetacdn.in/si4jsFRrtgrT/movie/46426"},{"id":46425,"title":"Восточный дантист","kp_id":"352256","imdb_id":"tt0417443","world_art_id":null,"type":"movie","add":"2020-12-27 19:42:25","orig_title":"Atamnabuyzhn arevelyan","year":"1982-05-08","translations":["Оригинальная дорожка"],"quality":"sat","translation":"Оригинальная дорожка","update":"2020-12-29 11:46:20","iframe_src":"//8209.svetacdn.in/si4jsFRrtgrT/movie/46425"},{"id":46424,"title":"Гариб в стране джиннов","kp_id":"635823","imdb_id":"tt2081344","world_art_id":null,"type":"movie","add":"2020-12-27 19:38:43","orig_title":"Qärib cinlär diyarinda","year":"1977-07-01","translations":["Полное дублирование"],"quality":"vhs","translation":"Полное дублирование","update":"2020-12-29 11:42:07","iframe_src":"//8209.svetacdn.in/si4jsFRrtgrT/movie/46424"},{"id":46423,"title":"Зимовье на Студеной","kp_id":"731897","imdb_id":"tt8810180","world_art_id":null,"type":"movie","add":"2020-12-27 19:34:56","orig_title":"Zimovye na Studyonoy","year":"1986-01-01","translations":["Оригинальная дорожка"],"quality":"webdl","translation":"Оригинальная дорожка","update":"2020-12-29 11:37:22","iframe_src":"//8209.svetacdn.in/si4jsFRrtgrT/movie/46423"},{"id":46422,"title":"Солнце, снова солнце","kp_id":"464830","imdb_id":"tt1456898","world_art_id":null,"type":"movie","add":"2020-12-27 19:29:20","orig_title":"Solntse, snova solntse","year":"1977-05-12","translations":["Оригинальная дорожка"],"quality":"sat","translation":"Оригинальная дорожка","update":"2020-12-29 11:35:23","iframe_src":"//8209.svetacdn.in/si4jsFRrtgrT/movie/46422"},{"id":46407,"title":"Климко","kp_id":"44821","imdb_id":"tt0263577","world_art_id":null,"type":"movie","add":"2020-12-26 20:03:11","orig_title":"Klimko","year":"1984-07-16","translations":["Оригинальная дорожка"],"quality":"vhs","translation":"Оригинальная дорожка","update":"2020-12-29 11:34:37","iframe_src":"//8209.svetacdn.in/si4jsFRrtgrT/movie/46407"},{"id":46406,"title":"Семья как семья","kp_id":"1046007","imdb_id":"tt5947606","world_art_id":null,"type":"movie","add":"2020-12-26 20:00:21","orig_title":"Semya kak semya","year":"1970-12-31","translations":["Оригинальная дорожка"],"quality":"sat","translation":"Оригинальная дорожка","update":"2020-12-29 11:32:08","iframe_src":"//8209.svetacdn.in/si4jsFRrtgrT/movie/46406"},{"id":46405,"title":"Лобо","kp_id":"741053","imdb_id":"tt12731900","world_art_id":null,"type":"movie","add":"2020-12-26 19:55:53","orig_title":"Lobo","year":"1978-10-28","translations":["Оригинальная дорожка"],"quality":"webdl","translation":"Оригинальная дорожка","update":"2020-12-29 11:31:01","iframe_src":"//8209.svetacdn.in/si4jsFRrtgrT/movie/46405"},{"id":46404,"title":"Люби меня, как я тебя","kp_id":"474664","imdb_id":"tt12467142","world_art_id":null,"type":"movie","add":"2020-12-26 19:49:44","orig_title":"Lyubi menya, kak ya tebya","year":"1986-01-01","translations":["Оригинальная дорожка"],"quality":"sat","translation":"Оригинальная дорожка","update":"2020-12-29 11:29:39","iframe_src":"//8209.svetacdn.in/si4jsFRrtgrT/movie/46404"},{"id":46401,"title":"Преследование","kp_id":"43236","imdb_id":"tt0307350","world_art_id":null,"type":"movie","add":"2020-12-26 19:01:59","orig_title":"Presledovaniye","year":"1988-01-01","translations":["Оригинальная дорожка"],"quality":"vhs","translation":"Оригинальная дорожка","update":"2020-12-29 11:28:41","iframe_src":"//8209.svetacdn.in/si4jsFRrtgrT/movie/46401"},{"id":46400,"title":"Расскажи мне о себе","kp_id":"42051","imdb_id":"tt0067654","world_art_id":null,"type":"movie","add":"2020-12-26 18:58:46","orig_title":"Rasskazhi mne o sebe","year":"1972-06-26","translations":["Оригинальная дорожка"],"quality":"sat","translation":"Оригинальная дорожка","update":"2020-12-29 11:27:46","iframe_src":"//8209.svetacdn.in/si4jsFRrtgrT/movie/46400"},{"id":46398,"title":"Софья Перовская","kp_id":"43896","imdb_id":"tt0170606","world_art_id":null,"type":"movie","add":"2020-12-26 18:49:17","orig_title":"Sofiya Perovskaya","year":"1968-03-16","translations":["Оригинальная дорожка"],"quality":"sat","translation":"Оригинальная дорожка","update":"2020-12-29 11:23:05","iframe_src":"//8209.svetacdn.in/si4jsFRrtgrT/movie/46398"},{"id":34696,"title":"Праздник к нам приходит","kp_id":"1311794","imdb_id":"tt10952042","world_art_id":null,"type":"movie","add":"2020-01-03 18:56:22","orig_title":"It's Beginning to Look a Lot Like Christmas","year":"2019-12-21","translations":["Любительский (многоголосый закадровый) (AlphaProject)","Профессиональный (многоголосый закадровый) (IVI)"],"quality":"hdtv","translation":"Любительский (многоголосый закадровый) (AlphaProject)","update":"2020-12-29 10:23:40","iframe_src":"//8209.svetacdn.in/si4jsFRrtgrT/movie/34696"},{"id":28775,"title":"Ребро Адама","kp_id":"42078","imdb_id":"tt0100465","world_art_id":null,"type":"movie","add":"2019-07-09 06:40:10","orig_title":"Rebro Adama","year":"1990-09-07","translations":["Оригинальная дорожка","Оригинальная дорожка"],"quality":"dvdrip","translation":"Оригинальная дорожка","update":"2020-12-29 11:26:22","iframe_src":"//8209.svetacdn.in/si4jsFRrtgrT/movie/28775"},{"id":24944,"title":"Седьмой спутник","kp_id":"43644","imdb_id":"tt0062245","world_art_id":null,"type":"movie","add":"2019-04-20 21:33:22","orig_title":"Sedmoy sputnik","year":"1968-04-15","translations":["Оригинальная дорожка","Оригинальная дорожка"],"quality":"dvdrip","translation":"Оригинальная дорожка","update":"2020-12-29 11:24:40","iframe_src":"//8209.svetacdn.in/si4jsFRrtgrT/movie/24944"},{"id":24381,"title":"Знак беды","kp_id":"45368","imdb_id":"tt0092293","world_art_id":null,"type":"movie","add":"2019-04-12 08:39:27","orig_title":"Znak bedy","year":"1987-04-28","translations":["Оригинальная дорожка","Оригинальная дорожка"],"quality":"dvdrip","translation":"Оригинальная дорожка","update":"2020-12-29 11:36:09","iframe_src":"//8209.svetacdn.in/si4jsFRrtgrT/movie/24381"},{"id":23329,"title":"Зайчик","kp_id":"45209","imdb_id":"tt0058767","world_art_id":null,"type":"movie","add":"2019-03-21 09:11:12","orig_title":"Zaychik","year":"1965-05-25","translations":["Оригинальная дорожка","Оригинальная дорожка"],"quality":"dvdrip","translation":"Оригинальная дорожка","update":"2020-12-29 11:40:45","iframe_src":"//8209.svetacdn.in/si4jsFRrtgrT/movie/23329"},{"id":2550,"title":"Один в поле воин","kp_id":"1118426","imdb_id":null,"world_art_id":null,"type":"serial","add":"2018-05-10 03:48:08","orig_title":"Один в поле воин","year":"2018-05-09","translations":["Оригинальная дорожка"],"seasons_count":1,"episodes_count":4,"episodes":4,"update":"2018-05-10 06:01:30","iframe_src":"//8209.svetacdn.in/si4jsFRrtgrT/tv-series/2550"},{"id":2547,"title":"Деревенщина","kp_id":"840241","imdb_id":null,"world_art_id":null,"type":"serial","add":"2018-05-09 09:38:51","orig_title":"Деревенщина","year":"2014-10-04","translations":["Оригинальная дорожка"],"seasons_count":1,"episodes_count":2,"episodes":2,"update":"2018-05-09 12:02:44","iframe_src":"//8209.svetacdn.in/si4jsFRrtgrT/tv-series/2547"},{"id":2546,"title":"Чёрная река","kp_id":"842168","imdb_id":"tt4793740","world_art_id":null,"type":"serial","add":"2018-05-09 04:55:26","orig_title":"Chernaya reka","year":"2015-05-18","translations":["Оригинальная дорожка"],"seasons_count":1,"episodes_count":8,"episodes":8,"update":"2018-05-09 07:34:47","iframe_src":"//8209.svetacdn.in/si4jsFRrtgrT/tv-series/2546"},{"id":2544,"title":"Манекенщица","kp_id":"837659","imdb_id":"tt4003306","world_art_id":null,"type":"serial","add":"2018-05-09 04:07:23","orig_title":"Манекенщица","year":"2014-03-05","translations":["Оригинальная дорожка"],"seasons_count":1,"episodes_count":4,"episodes":4,"update":"2018-05-09 07:38:00","iframe_src":"//8209.svetacdn.in/si4jsFRrtgrT/tv-series/2544"},{"id":2543,"title":"Исповедь","kp_id":"579618","imdb_id":"tt1809362","world_art_id":null,"type":"serial","add":"2018-05-08 10:10:02","orig_title":"The Confession","year":"2011-03-11","translations":["Профессиональный (многоголосый закадровый)"],"seasons_count":1,"episodes_count":1,"episodes":1,"update":"2018-05-09 12:02:19","iframe_src":"//8209.svetacdn.in/si4jsFRrtgrT/tv-series/2543"},{"id":2537,"title":"Ильджимэ","kp_id":"517438","imdb_id":"tt1622764","world_art_id":null,"type":"serial","add":"2018-05-06 22:52:01","orig_title":"Iljimae","year":"2008-05-21","translations":["Любительский (одноголосый закадровый) (GREEN TEA)"],"seasons_count":1,"episodes_count":20,"episodes":20,"update":"2018-05-08 10:10:51","iframe_src":"//8209.svetacdn.in/si4jsFRrtgrT/tv-series/2537"},{"id":2524,"title":"Мамочка, я киллера люблю","kp_id":"447456","imdb_id":"tt4353812","world_art_id":null,"type":"serial","add":"2018-05-06 05:01:12","orig_title":"Mamochka, ia killera lyublyu","year":"2009-03-08","translations":["Оригинальная дорожка"],"seasons_count":1,"episodes_count":12,"episodes":12,"update":"2018-05-10 10:33:26","iframe_src":"//8209.svetacdn.in/si4jsFRrtgrT/tv-series/2524"},{"id":2523,"title":"Петля времени","kp_id":"818871","imdb_id":"tt4498758","world_art_id":null,"type":"serial","add":"2018-05-06 04:56:02","orig_title":"Petlya vremeni","year":"2014-01-13","translations":["Оригинальная дорожка"],"seasons_count":1,"episodes_count":4,"episodes":4,"update":"2018-05-10 10:25:44","iframe_src":"//8209.svetacdn.in/si4jsFRrtgrT/tv-series/2523"},{"id":2522,"title":"Третья мировая","kp_id":"717455","imdb_id":"tt3751504","world_art_id":null,"type":"serial","add":"2018-05-06 04:52:52","orig_title":"Tretya mirovaya","year":"2013-12-11","translations":["Оригинальная дорожка"],"seasons_count":1,"episodes_count":4,"episodes":4,"update":"2018-05-10 10:21:32","iframe_src":"//8209.svetacdn.in/si4jsFRrtgrT/tv-series/2522"},{"id":2521,"title":"Привет от Катюши","kp_id":"730937","imdb_id":"tt3238034","world_art_id":null,"type":"serial","add":"2018-05-06 04:49:59","orig_title":"Privet ot Katyushi","year":"2013-05-09","translations":["Оригинальная дорожка"],"seasons_count":1,"episodes_count":4,"episodes":4,"update":"2018-05-10 10:16:28","iframe_src":"//8209.svetacdn.in/si4jsFRrtgrT/tv-series/2521"},{"id":2520,"title":"Любовь - не картошка","kp_id":"818206","imdb_id":"tt4466486","world_art_id":null,"type":"serial","add":"2018-05-06 04:46:49","orig_title":"Lyubov - ne kartoshka","year":"2013-12-23","translations":["Оригинальная дорожка"],"seasons_count":1,"episodes_count":8,"episodes":8,"update":"2018-05-10 06:34:34","iframe_src":"//8209.svetacdn.in/si4jsFRrtgrT/tv-series/2520"},{"id":2519,"title":"Задания особой важности: Операция «Тайфун»","kp_id":"616354","imdb_id":"tt3260122","world_art_id":null,"type":"serial","add":"2018-05-06 04:43:21","orig_title":"Zadaniya osoboy vazhnosti. Operatsiya 'Tayfun'","year":"2013-04-14","translations":["Оригинальная дорожка"],"seasons_count":1,"episodes_count":4,"episodes":4,"update":"2018-05-10 06:26:12","iframe_src":"//8209.svetacdn.in/si4jsFRrtgrT/tv-series/2519"},{"id":2518,"title":"Разведчицы","kp_id":"731958","imdb_id":"tt3994956","world_art_id":null,"type":"serial","add":"2018-05-06 04:39:43","orig_title":"Razvedchitsy","year":"2013-05-07","translations":["Оригинальная дорожка"],"seasons_count":1,"episodes_count":12,"episodes":12,"update":"2018-05-09 07:47:46","iframe_src":"//8209.svetacdn.in/si4jsFRrtgrT/tv-series/2518"},{"id":2517,"title":"Станица","kp_id":"795852","imdb_id":"tt3872002","world_art_id":null,"type":"serial","add":"2018-05-06 04:36:13","orig_title":"Stanitsa","year":"2013-09-02","translations":["Оригинальная дорожка"],"seasons_count":1,"episodes_count":12,"episodes":12,"update":"2018-05-10 06:22:08","iframe_src":"//8209.svetacdn.in/si4jsFRrtgrT/tv-series/2517"},{"id":2515,"title":"Любовь нежданная нагрянет","kp_id":"627297","imdb_id":"tt3547944","world_art_id":null,"type":"serial","add":"2018-05-06 04:16:14","orig_title":"Lyubov nezhdannaya nagryanet","year":"2013-12-14","translations":["Оригинальная дорожка"],"seasons_count":1,"episodes_count":4,"episodes":4,"update":"2018-05-10 06:05:50","iframe_src":"//8209.svetacdn.in/si4jsFRrtgrT/tv-series/2515"},{"id":2514,"title":"Его любовь","kp_id":"757140","imdb_id":"tt3303676","world_art_id":null,"type":"serial","add":"2018-05-06 04:13:23","orig_title":"Ego lyubov","year":"2013-08-24","translations":["Оригинальная дорожка"],"seasons_count":1,"episodes_count":2,"episodes":2,"update":"2018-05-10 05:43:12","iframe_src":"//8209.svetacdn.in/si4jsFRrtgrT/tv-series/2514"},{"id":2513,"title":"Будет светлым день","kp_id":"743071","imdb_id":"tt3299516","world_art_id":null,"type":"serial","add":"2018-05-06 04:09:57","orig_title":"Budet svetlym den","year":"2013-03-16","translations":["Оригинальная дорожка"],"seasons_count":1,"episodes_count":2,"episodes":2,"update":"2018-05-10 05:01:53","iframe_src":"//8209.svetacdn.in/si4jsFRrtgrT/tv-series/2513"},{"id":2510,"title":"Пётр Лещенко. Всё, что было...","kp_id":"681879","imdb_id":"tt3571216","world_art_id":null,"type":"serial","add":"2018-05-03 14:39:03","orig_title":"Pyotr Leshchenko. Vsyo, chto bylo...","year":"2013-10-14","translations":["Оригинальная дорожка"],"seasons_count":1,"episodes_count":8,"episodes":8,"update":"2018-05-09 06:13:11","iframe_src":"//8209.svetacdn.in/si4jsFRrtgrT/tv-series/2510"},{"id":2505,"title":"Дождаться любви","kp_id":"820699","imdb_id":"tt3514420","world_art_id":null,"type":"serial","add":"2018-05-03 14:17:11","orig_title":"Dozhdatsya lyubvi","year":"2014-02-01","translations":["Оригинальная дорожка"],"seasons_count":1,"episodes_count":2,"episodes":2,"update":"2018-05-09 06:02:13","iframe_src":"//8209.svetacdn.in/si4jsFRrtgrT/tv-series/2505"},{"id":1377,"title":"Круговорот","kp_id":"986677","imdb_id":null,"world_art_id":null,"type":"serial","add":"2017-07-07 09:27:36","orig_title":"Круговорот","year":"2017-03-13","translations":["Оригинальная дорожка"],"seasons_count":1,"episodes_count":20,"episodes":20,"update":"2018-05-08 14:12:41","iframe_src":"//8209.svetacdn.in/si4jsFRrtgrT/tv-series/1377"}],"current_page":470,"first_page_url":"https://videocdn.tv/api/short?limit=100&api_token=X6EwAUfE5M9xbo7y0Bp0aPf3uXxG2KLL&cache3470=3470&page=1","from":46901,"last_page":655,"last_page_url":"https://videocdn.tv/api/short?limit=100&api_token=X6EwAUfE5M9xbo7y0Bp0aPf3uXxG2KLL&cache3470=3470&page=655","next_page_url":"https://videocdn.tv/api/short?limit=100&api_token=X6EwAUfE5M9xbo7y0Bp0aPf3uXxG2KLL&cache3470=3470&page=471","path":"https://videocdn.tv/api/short","per_page":100,"prev_page_url":"https://videocdn.tv/api/short?limit=100&api_token=X6EwAUfE5M9xbo7y0Bp0aPf3uXxG2KLL&cache3470=3470&page=469","to":46940,"total":65456}