{"result":true,"data":[{"id":55679,"title":"Прогулка по беспутному кварталу","kp_id":"12591","imdb_id":"tt0056671","world_art_id":null,"type":"movie","add":"2022-01-05 06:44:10","orig_title":"Walk on the Wild Side","year":"1962-02-21","translations":["Профессиональный (двухголосый закадровый) (СВ-Дубль)"],"quality":"bd","translation":"Профессиональный (двухголосый закадровый) (СВ-Дубль)","update":"2022-01-05 12:29:04","iframe_src":"//24213.svetacdn.in/IAF0wWTdNYZm/movie/55679"},{"id":55678,"title":"Неделя отпуска","kp_id":"55679","imdb_id":"tt0081686","world_art_id":null,"type":"movie","add":"2022-01-05 06:41:59","orig_title":"Une semaine de vacances","year":"1980-05-13","translations":["Профессиональный (многоголосый закадровый) (РенТВ)"],"quality":"bd","translation":"Профессиональный (многоголосый закадровый) (РенТВ)","update":"2022-01-05 12:31:51","iframe_src":"//24213.svetacdn.in/IAF0wWTdNYZm/movie/55678"},{"id":55675,"title":"Разыскивается живым... но лучше мертвым","kp_id":"22904","imdb_id":"tt0065185","world_art_id":null,"type":"movie","add":"2022-01-05 06:24:44","orig_title":"Vivi o preferibilmente morti","year":"1969-09-17","translations":["Авторский (одноголосый закадровый) (Яковлев Алексей)"],"quality":"bd","translation":"Авторский (одноголосый закадровый) (Яковлев Алексей)","update":"2022-01-05 12:30:36","iframe_src":"//24213.svetacdn.in/IAF0wWTdNYZm/movie/55675"},{"id":55674,"title":"Универмаг","kp_id":"73654","imdb_id":"tt0091148","world_art_id":null,"type":"movie","add":"2022-01-05 06:19:25","orig_title":"Grandi magazzini","year":"1986-10-31","translations":["Профессиональный (многоголосый закадровый) (РТР | Россия)"],"quality":"webdl","translation":"Профессиональный (многоголосый закадровый) (РТР | Россия)","update":"2022-01-05 12:34:56","iframe_src":"//24213.svetacdn.in/IAF0wWTdNYZm/movie/55674"},{"id":55673,"title":"Приключения пса","kp_id":"254162","imdb_id":"tt0493443","world_art_id":null,"type":"movie","add":"2022-01-05 06:09:24","orig_title":"Finding Rin Tin Tin","year":"2007-08-15","translations":["Профессиональный (двухголосый закадровый) (Ульпаней Эльром)"],"quality":"webdl","translation":"Профессиональный (двухголосый закадровый) (Ульпаней Эльром)","update":"2022-01-05 12:38:05","iframe_src":"//24213.svetacdn.in/IAF0wWTdNYZm/movie/55673"},{"id":55672,"title":"Вайзер","kp_id":"66291","imdb_id":"tt0268032","world_art_id":null,"type":"movie","add":"2022-01-05 06:08:12","orig_title":"Weiser","year":"2001-01-18","translations":["Любительский (одноголосый закадровый) (den904)"],"quality":"webdl","translation":"Любительский (одноголосый закадровый) (den904)","update":"2022-01-05 12:33:25","iframe_src":"//24213.svetacdn.in/IAF0wWTdNYZm/movie/55672"},{"id":55661,"title":"Старая дева","kp_id":"64057","imdb_id":"tt0067949","world_art_id":null,"type":"movie","add":"2022-01-04 13:56:57","orig_title":"La vieille fille","year":"1972-01-05","translations":["Полное дублирование (Союзмультфильм)"],"quality":"webdl","translation":"Полное дублирование (Союзмультфильм)","update":"2022-01-05 08:26:20","iframe_src":"//24213.svetacdn.in/IAF0wWTdNYZm/movie/55661"},{"id":55660,"title":"Нежные кузины","kp_id":"208015","imdb_id":"tt0081614","world_art_id":null,"type":"movie","add":"2022-01-04 13:55:41","orig_title":"Tendres cousines","year":"1980-11-19","translations":["Авторский (одноголосый закадровый) (Штейн Владимир)"],"quality":"bd","translation":"Авторский (одноголосый закадровый) (Штейн Владимир)","update":"2022-01-05 08:24:45","iframe_src":"//24213.svetacdn.in/IAF0wWTdNYZm/movie/55660"},{"id":55645,"title":"Аустерлиц","kp_id":"8528","imdb_id":"tt0053638","world_art_id":null,"type":"movie","add":"2022-01-04 05:48:08","orig_title":"Austerlitz","year":"1960-06-17","translations":["Профессиональный (многоголосый закадровый)"],"quality":"webdl","translation":"Профессиональный (многоголосый закадровый)","update":"2022-01-05 12:42:27","iframe_src":"//24213.svetacdn.in/IAF0wWTdNYZm/movie/55645"},{"id":55644,"title":"Не разлей вода","kp_id":"224193","imdb_id":"tt0084467","world_art_id":null,"type":"movie","add":"2022-01-04 05:46:51","orig_title":"Pappa e ciccia","year":"1983-04-14","translations":["Профессиональный (многоголосый закадровый) (Back Board Cinema)"],"quality":"webdl","translation":"Профессиональный (многоголосый закадровый) (Back Board Cinema)","update":"2022-01-05 12:43:18","iframe_src":"//24213.svetacdn.in/IAF0wWTdNYZm/movie/55644"},{"id":55642,"title":"Я должен купить новые туфли","kp_id":"675802","imdb_id":"tt2330723","world_art_id":null,"type":"movie","add":"2022-01-04 05:42:10","orig_title":"Atarashii kutsu wo kawanakucha","year":"2012-10-06","translations":["Любительский (двухголосый закадровый) (Kedra & Hydra)"],"quality":"bd","translation":"Любительский (двухголосый закадровый) (Kedra & Hydra)","update":"2022-01-05 12:39:45","iframe_src":"//24213.svetacdn.in/IAF0wWTdNYZm/movie/55642"},{"id":55641,"title":"Черный корсар","kp_id":"32375","imdb_id":"tt0074349","world_art_id":null,"type":"movie","add":"2022-01-04 05:39:48","orig_title":"Il corsaro nero","year":"1976-12-22","translations":["Профессиональный (многоголосый закадровый)"],"quality":"bd","translation":"Профессиональный (многоголосый закадровый)","update":"2022-01-05 12:36:18","iframe_src":"//24213.svetacdn.in/IAF0wWTdNYZm/movie/55641"},{"id":55639,"title":"Зимнее чудовище","kp_id":"58857","imdb_id":"tt0103270","world_art_id":null,"type":"movie","add":"2022-01-04 05:27:54","orig_title":"Winterbeast","year":"1992-05-08","translations":["Любительский (одноголосый закадровый) (ДиоНиК)"],"quality":"bd","translation":"Любительский (одноголосый закадровый) (ДиоНиК)","update":"2022-01-05 12:42:05","iframe_src":"//24213.svetacdn.in/IAF0wWTdNYZm/movie/55639"},{"id":53984,"title":"Амазонки","kp_id":"59830","imdb_id":"tt0090627","world_art_id":null,"type":"movie","add":"2021-10-19 14:40:08","orig_title":"Amazons","year":"1986-10-29","translations":["Любительский (одноголосый закадровый) (den904)","[EN] Original (English)","Авторский (одноголосый закадровый) (Чадов Михаил)"],"quality":"bd","translation":"Любительский (одноголосый закадровый) (den904)","update":"2022-01-05 08:43:47","iframe_src":"//24213.svetacdn.in/IAF0wWTdNYZm/movie/53984"},{"id":52871,"title":"Огненное кольцо 3: Удар льва","kp_id":"12139","imdb_id":"tt0110358","world_art_id":null,"type":"movie","add":"2021-09-04 17:49:09","orig_title":"Lion Strike","year":"1994-12-27","translations":["Авторский (одноголосый закадровый) (Володарский Леонид)","Профессиональный (многоголосый закадровый) (ТВ3)"],"quality":"dvdrip","translation":"Авторский (одноголосый закадровый) (Володарский Леонид)","update":"2022-01-05 08:22:53","iframe_src":"//24213.svetacdn.in/IAF0wWTdNYZm/movie/52871"},{"id":7316,"title":"Джамтара","kp_id":"1315940","imdb_id":"tt11150912","world_art_id":null,"type":"serial","add":"2020-04-27 04:11:47","orig_title":"Jamtara: Sabka Number Ayega","year":"2020-01-10","translations":["Любительский (многоголосый закадровый) (Octopus)"],"seasons_count":1,"episodes_count":10,"episodes":10,"update":"2020-04-27 10:10:27","iframe_src":"//24213.svetacdn.in/IAF0wWTdNYZm/tv-series/7316"},{"id":7312,"title":"СМЕРШ: Легенда для предателя","kp_id":"640139","imdb_id":"tt6357676","world_art_id":null,"type":"serial","add":"2020-04-26 10:18:15","orig_title":"SMERSH: Legenda dlya predatelya","year":"2011-11-04","translations":["Оригинальная дорожка"],"seasons_count":1,"episodes_count":4,"episodes":4,"update":"2020-04-27 06:11:35","iframe_src":"//24213.svetacdn.in/IAF0wWTdNYZm/tv-series/7312"},{"id":7309,"title":"Чехов и Ко","kp_id":"470343","imdb_id":"tt4054022","world_art_id":null,"type":"serial","add":"2020-04-26 07:51:00","orig_title":"Chekhov i ko","year":"1998-01-01","translations":["Оригинальная дорожка"],"seasons_count":1,"episodes_count":10,"episodes":10,"update":"2020-04-26 08:55:26","iframe_src":"//24213.svetacdn.in/IAF0wWTdNYZm/tv-series/7309"},{"id":7308,"title":"Лучший друг семьи","kp_id":"592367","imdb_id":null,"world_art_id":null,"type":"serial","add":"2020-04-26 06:28:45","orig_title":"Лучший друг семьи","year":"2011-01-01","translations":["Оригинальная дорожка"],"seasons_count":1,"episodes_count":4,"episodes":4,"update":"2020-04-26 08:31:42","iframe_src":"//24213.svetacdn.in/IAF0wWTdNYZm/tv-series/7308"},{"id":7299,"title":"Даша Васильева 2. Любительница частного сыска: Эта горькая сладкая месть","kp_id":"451131","imdb_id":null,"world_art_id":null,"type":"serial","add":"2020-04-25 13:20:40","orig_title":"Даша Васильева 2. Любительница частного сыска: Эта горькая сладкая месть","year":"2004-01-01","translations":["Оригинальная дорожка"],"seasons_count":1,"episodes_count":5,"episodes":5,"update":"2020-04-27 17:23:47","iframe_src":"//24213.svetacdn.in/IAF0wWTdNYZm/tv-series/7299"},{"id":7298,"title":"Даша Васильева 4. Любительница частного сыска: Домик тетушки лжи","kp_id":"475974","imdb_id":null,"world_art_id":null,"type":"serial","add":"2020-04-25 13:17:32","orig_title":"Даша Васильева 4. Любительница частного сыска: Домик тетушки лжи","year":"2005-01-01","translations":["Оригинальная дорожка"],"seasons_count":1,"episodes_count":5,"episodes":5,"update":"2020-04-27 17:19:18","iframe_src":"//24213.svetacdn.in/IAF0wWTdNYZm/tv-series/7298"},{"id":7297,"title":"Даша Васильева 2. Любительница частного сыска: Дама с коготками","kp_id":"441422","imdb_id":null,"world_art_id":null,"type":"serial","add":"2020-04-25 13:13:14","orig_title":"Даша Васильева 2. Любительница частного сыска: Дама с коготками","year":"2004-01-01","translations":["Оригинальная дорожка"],"seasons_count":1,"episodes_count":5,"episodes":5,"update":"2020-04-27 17:16:50","iframe_src":"//24213.svetacdn.in/IAF0wWTdNYZm/tv-series/7297"},{"id":7295,"title":"Даша Васильева. Любительница частного сыска: Дантисты тоже плачут","kp_id":"453147","imdb_id":null,"world_art_id":null,"type":"serial","add":"2020-04-25 13:06:50","orig_title":"Даша Васильева. Любительница частного сыска: Дантисты тоже плачут","year":"2003-09-01","translations":["Оригинальная дорожка"],"seasons_count":1,"episodes_count":5,"episodes":5,"update":"2020-04-27 17:11:57","iframe_src":"//24213.svetacdn.in/IAF0wWTdNYZm/tv-series/7295"},{"id":7294,"title":"Даша Васильева. Любительница частного сыска: Крутые наследнички","kp_id":"453285","imdb_id":null,"world_art_id":null,"type":"serial","add":"2020-04-25 13:04:31","orig_title":"Даша Васильева. Любительница частного сыска: Крутые наследнички","year":"2003-01-01","translations":["Оригинальная дорожка"],"seasons_count":1,"episodes_count":5,"episodes":5,"update":"2020-04-27 17:09:37","iframe_src":"//24213.svetacdn.in/IAF0wWTdNYZm/tv-series/7294"},{"id":7285,"title":"Примадонна","kp_id":"427906","imdb_id":null,"world_art_id":null,"type":"serial","add":"2020-04-24 07:39:53","orig_title":"Примадонна","year":"2005-01-01","translations":["Оригинальная дорожка"],"seasons_count":1,"episodes_count":16,"episodes":16,"update":"2020-04-27 09:49:21","iframe_src":"//24213.svetacdn.in/IAF0wWTdNYZm/tv-series/7285"},{"id":7284,"title":"Все мои бывшие","kp_id":"409364","imdb_id":"tt1196947","world_art_id":null,"type":"serial","add":"2020-04-24 07:27:18","orig_title":"The Ex List","year":"2008-10-03","translations":["Профессиональный (многоголосый закадровый) (ТВ3)"],"seasons_count":1,"episodes_count":13,"episodes":13,"update":"2020-04-27 09:43:29","iframe_src":"//24213.svetacdn.in/IAF0wWTdNYZm/tv-series/7284"},{"id":7275,"title":"Дежурный ангел 2","kp_id":"612922","imdb_id":null,"world_art_id":null,"type":"serial","add":"2020-04-22 12:28:20","orig_title":"Dejurniy angel 2","year":"2012-03-26","translations":["Оригинальная дорожка"],"seasons_count":1,"episodes_count":24,"episodes":24,"update":"2020-04-27 13:35:20","iframe_src":"//24213.svetacdn.in/IAF0wWTdNYZm/tv-series/7275"},{"id":7252,"title":"Мои три сестры","kp_id":"416809","imdb_id":"tt0355107","world_art_id":null,"type":"serial","add":"2020-04-21 07:32:03","orig_title":"Mis 3 hermanas","year":"2000-06-03","translations":["Профессиональный (многоголосый закадровый)"],"seasons_count":1,"episodes_count":148,"episodes":148,"update":"2020-04-27 08:45:46","iframe_src":"//24213.svetacdn.in/IAF0wWTdNYZm/tv-series/7252"},{"id":7167,"title":"Незнакомец","kp_id":"1313231","imdb_id":"tt10681780","world_art_id":null,"type":"serial","add":"2020-04-13 12:29:04","orig_title":"The Stranger","year":"2020-04-13","translations":["Любительский (многоголосый закадровый) (ColdFilm)","Любительский (многоголосый закадровый) (KerobTV)","Любительский (многоголосый закадровый) (Octopus)"],"seasons_count":1,"episodes_count":13,"episodes":13,"update":"2020-04-27 12:26:43","iframe_src":"//24213.svetacdn.in/IAF0wWTdNYZm/tv-series/7167"},{"id":7162,"title":"Женская консультация","kp_id":"938864","imdb_id":null,"world_art_id":null,"type":"serial","add":"2020-04-12 12:11:48","orig_title":"Женская консультация","year":"2015-01-01","translations":["Оригинальная дорожка"],"seasons_count":1,"episodes_count":40,"episodes":40,"update":"2020-04-26 18:45:49","iframe_src":"//24213.svetacdn.in/IAF0wWTdNYZm/tv-series/7162"},{"id":6837,"title":"Человек без пистолета","kp_id":"420831","imdb_id":null,"world_art_id":null,"type":"serial","add":"2020-03-10 16:08:15","orig_title":"Человек без пистолета","year":"2008-01-01","translations":["Оригинальная дорожка"],"seasons_count":1,"episodes_count":12,"episodes":12,"update":"2020-04-27 17:24:53","iframe_src":"//24213.svetacdn.in/IAF0wWTdNYZm/tv-series/6837"},{"id":5568,"title":"Разморозь меня нежно","kp_id":"1259371","imdb_id":"tt10656392","world_art_id":null,"type":"serial","add":"2019-10-29 08:39:22","orig_title":"Nal Nokyeojuo","year":"2019-09-28","translations":["Любительский (многоголосый закадровый) (STEPonee)","Любительский (двухголосый закадровый) (GREEN TEA)","Любительский (двухголосый закадровый) (SoftBox)"],"seasons_count":1,"episodes_count":16,"episodes":16,"update":"2020-04-27 07:29:52","iframe_src":"//24213.svetacdn.in/IAF0wWTdNYZm/tv-series/5568"},{"id":5385,"title":"Незнакомцы из ада","kp_id":"1234855","imdb_id":"tt10613844","world_art_id":null,"type":"serial","add":"2019-10-04 05:33:43","orig_title":"Taineun Jiokida","year":"2019-08-31","translations":["Любительский (двухголосый закадровый) (Колобок)","Любительский (двухголосый закадровый) (Храм Дорам ТВ)","Любительский (двухголосый закадровый) (SoftBox)"],"seasons_count":1,"episodes_count":10,"episodes":10,"update":"2020-04-27 06:33:49","iframe_src":"//24213.svetacdn.in/IAF0wWTdNYZm/tv-series/5385"},{"id":3255,"title":"Ниндзяго: Мастера Кружитцу","kp_id":"592052","imdb_id":"tt1871731","world_art_id":null,"type":"serial","add":"2018-10-02 14:14:13","orig_title":"Ninjago: Masters of Spinjitzu","year":"2011-12-02","translations":["Полное дублирование"],"seasons_count":10,"episodes_count":98,"episodes":4,"update":"2020-04-27 10:36:53","iframe_src":"//24213.svetacdn.in/IAF0wWTdNYZm/tv-series/3255"},{"id":1389,"title":"Емельян Пугачев","kp_id":"41991","imdb_id":"tt0145765","world_art_id":null,"type":"serial","add":"2017-07-12 12:37:35","orig_title":"Emelyan Pugachev","year":"1979-03-19","translations":["Оригинальная дорожка"],"seasons_count":1,"episodes_count":2,"episodes":2,"update":"2020-04-27 07:33:17","iframe_src":"//24213.svetacdn.in/IAF0wWTdNYZm/tv-series/1389"},{"id":12152,"title":"Ночной дозор","kp_id":"79850","imdb_id":"tt0403358","world_art_id":null,"type":"movie","add":"2017-06-26 12:04:25","orig_title":"Nochnoy dozor","year":"2004-07-08","translations":["Оригинальная дорожка","Оригинальная дорожка"],"quality":"bd","translation":"Оригинальная дорожка","update":"2022-01-05 08:42:07","iframe_src":"//24213.svetacdn.in/IAF0wWTdNYZm/movie/12152"},{"id":12148,"title":"Дневной дозор","kp_id":"79925","imdb_id":"tt0409904","world_art_id":null,"type":"movie","add":"2017-06-26 11:59:10","orig_title":"Dnevnoy dozor","year":"2006-01-01","translations":["Оригинальная дорожка","Оригинальная дорожка"],"quality":"bd","translation":"Оригинальная дорожка","update":"2022-01-05 08:39:41","iframe_src":"//24213.svetacdn.in/IAF0wWTdNYZm/movie/12148"},{"id":11981,"title":"Жмот","kp_id":"959705","imdb_id":"tt5253294","world_art_id":null,"type":"movie","add":"2017-06-15 20:45:05","orig_title":"Radin!","year":"2016-09-02","translations":["Любительский (многоголосый закадровый) (@MUZOBOZ@)","Полное дублирование","Полное дублирование (Мосфильм)"],"quality":"bd","translation":"Любительский (многоголосый закадровый) (@MUZOBOZ@)","update":"2022-01-05 08:45:35","iframe_src":"//24213.svetacdn.in/IAF0wWTdNYZm/movie/11981"},{"id":895,"title":"Легенда №17","kp_id":"601564","imdb_id":"tt2182001","world_art_id":null,"type":"movie","add":"2016-04-09 07:46:31","orig_title":"Legenda No. 17","year":"2013-04-18","translations":["Оригинальная дорожка","Оригинальная дорожка"],"quality":"bd","translation":"Оригинальная дорожка","update":"2022-01-05 08:30:23","iframe_src":"//24213.svetacdn.in/IAF0wWTdNYZm/movie/895"},{"id":388,"title":"Пьяный мастер 2","kp_id":"24695","imdb_id":"tt0111512","world_art_id":null,"type":"movie","add":"2016-04-01 13:27:15","orig_title":"Jui kuen II","year":"1994-02-03","translations":["Профессиональный (многоголосый закадровый)","Авторский (одноголосый закадровый) (Живов Юрий)","Профессиональный (многоголосый закадровый) (Первый канал | ОРТ)"],"quality":"bd","translation":"Профессиональный (многоголосый закадровый)","update":"2022-01-05 08:38:28","iframe_src":"//24213.svetacdn.in/IAF0wWTdNYZm/movie/388"}],"current_page":361,"first_page_url":"https://videocdn.tv/api/short?limit=100&api_token=6Onb1W1alEUrBcKJZD3GoKBbWyAl2uG2&cache3361=3361&page=1","from":36001,"last_page":728,"last_page_url":"https://videocdn.tv/api/short?limit=100&api_token=6Onb1W1alEUrBcKJZD3GoKBbWyAl2uG2&cache3361=3361&page=728","next_page_url":"https://videocdn.tv/api/short?limit=100&api_token=6Onb1W1alEUrBcKJZD3GoKBbWyAl2uG2&cache3361=3361&page=362","path":"https://videocdn.tv/api/short","per_page":100,"prev_page_url":"https://videocdn.tv/api/short?limit=100&api_token=6Onb1W1alEUrBcKJZD3GoKBbWyAl2uG2&cache3361=3361&page=360","to":36040,"total":72780}