{"result":true,"data":[{"id":51478,"title":"Красные колокола, фильм второй — Я видел рождение нового мира","kp_id":"44958","imdb_id":"tt0084223","world_art_id":null,"type":"movie","add":"2021-06-30 06:38:10","orig_title":"Krasnye kolokola, film vtoroy - Ya videl rozhdenie novogo mira","year":"1982-10-18","translations":["Профессиональный (одноголосый закадровый)"],"quality":"dvdrip","translation":"Профессиональный (одноголосый закадровый)","update":"2021-06-30 07:20:45","iframe_src":"//8209.svetacdn.in/71tsRs29n5tZ/movie/51478"},{"id":51475,"title":"Колоски","kp_id":"687647","imdb_id":"tt2209300","world_art_id":null,"type":"movie","add":"2021-06-30 05:42:12","orig_title":"Poklosie","year":"2012-10-20","translations":["Любительский (одноголосый закадровый) (Andi)"],"quality":"bd","translation":"Любительский (одноголосый закадровый) (Andi)","update":"2021-06-30 09:44:59","iframe_src":"//8209.svetacdn.in/71tsRs29n5tZ/movie/51475"},{"id":51473,"title":"Красные колокола, фильм первый — Мексика в огне","kp_id":"35311","imdb_id":"tt0084222","world_art_id":null,"type":"movie","add":"2021-06-29 21:33:50","orig_title":"Krasnye kolokola, film pervyy - Meksika v ogne","year":"1982-03-19","translations":["Профессиональный (одноголосый закадровый)"],"quality":"dvdrip","translation":"Профессиональный (одноголосый закадровый)","update":"2021-06-30 06:42:36","iframe_src":"//8209.svetacdn.in/71tsRs29n5tZ/movie/51473"},{"id":51471,"title":"Любовь, которую нужно помнить","kp_id":"4420186","imdb_id":"tt13845504","world_art_id":null,"type":"movie","add":"2021-06-29 20:49:37","orig_title":"A Love to Remember","year":"2021-03-12","translations":["Original (English)"],"quality":"webdl","translation":"Original (English)","update":"2021-06-30 06:51:05","iframe_src":"//8209.svetacdn.in/71tsRs29n5tZ/movie/51471"},{"id":51470,"title":"Я родом из Банараса","kp_id":"63265","imdb_id":"tt0275217","world_art_id":null,"type":"movie","add":"2021-06-29 19:01:42","orig_title":"Banarasi Babu","year":"1973-03-20","translations":["Профессиональный (многоголосый закадровый)"],"quality":"iptv","translation":"Профессиональный (многоголосый закадровый)","update":"2021-06-30 08:58:46","iframe_src":"//8209.svetacdn.in/71tsRs29n5tZ/movie/51470"},{"id":51460,"title":"На Марс: история марсохода Персеверанс","kp_id":"4443470","imdb_id":"tt13932270","world_art_id":null,"type":"movie","add":"2021-06-29 08:46:21","orig_title":"Built for Mars: The Perseverance Rover","year":"2021-05-02","translations":["Профессиональный (одноголосый закадровый)"],"quality":"hdtv","translation":"Профессиональный (одноголосый закадровый)","update":"2021-06-29 16:27:34","iframe_src":"//8209.svetacdn.in/71tsRs29n5tZ/movie/51460"},{"id":51436,"title":"Эдди и «Странники» 2","kp_id":"22495","imdb_id":"tt0097262","world_art_id":null,"type":"movie","add":"2021-06-27 15:23:26","orig_title":"Eddie and the Cruisers II: Eddie Lives!","year":"1989-08-18","translations":["Профессиональный (двухголосый закадровый) (НТВ)","Original (English)"],"quality":"bd","translation":"Профессиональный (двухголосый закадровый) (НТВ)","update":"2021-06-30 06:43:45","iframe_src":"//8209.svetacdn.in/71tsRs29n5tZ/movie/51436"},{"id":51406,"title":"Последняя из нас","kp_id":"1405426","imdb_id":"tt11881160","world_art_id":null,"type":"movie","add":"2021-06-26 06:29:48","orig_title":"Gaia","year":"2021-06-18","translations":["Любительский (многоголосый закадровый) (@MUZOBOZ@)","Профессиональный (двухголосый закадровый) (Pazl Voice)","Original (English)"],"quality":"webdl","translation":"Любительский (многоголосый закадровый) (@MUZOBOZ@)","update":"2021-06-29 15:48:10","iframe_src":"//8209.svetacdn.in/71tsRs29n5tZ/movie/51406"},{"id":51267,"title":"Отцовство","kp_id":"1231013","imdb_id":"tt4733624","world_art_id":null,"type":"movie","add":"2021-06-18 09:32:16","orig_title":"Fatherhood","year":"2021-06-18","translations":["Полное дублирование","Original (English)"],"quality":"webdl","translation":"Полное дублирование","update":"2021-06-30 06:57:51","iframe_src":"//8209.svetacdn.in/71tsRs29n5tZ/movie/51267"},{"id":50673,"title":"Спирит Непокорный","kp_id":"1322683","imdb_id":"tt11084896","world_art_id":null,"type":"movie","add":"2021-05-26 09:27:33","orig_title":"Spirit Untamed","year":"2021-05-27","translations":["Полное дублирование","Original (English)"],"quality":"webdl","translation":"Полное дублирование","update":"2021-06-29 15:44:14","iframe_src":"//8209.svetacdn.in/71tsRs29n5tZ/movie/50673"},{"id":49989,"title":"Тело","kp_id":"14863","imdb_id":"tt0201485","world_art_id":null,"type":"movie","add":"2021-04-29 11:17:28","orig_title":"The Body","year":"2001-01-05","translations":["Профессиональный (многоголосый закадровый)","Авторский (одноголосый закадровый) (Живов Юрий)","Original (English)"],"quality":"webdl","translation":"Профессиональный (многоголосый закадровый)","update":"2021-06-29 14:54:35","iframe_src":"//8209.svetacdn.in/71tsRs29n5tZ/movie/49989"},{"id":9670,"title":"Боец 2: Рождение легенды","kp_id":"428980","imdb_id":null,"world_art_id":null,"type":"serial","add":"2021-01-06 19:30:18","orig_title":"Borts 2: Rogdeniye legendy","year":"2008-03-31","translations":["Оригинальная дорожка"],"seasons_count":1,"episodes_count":14,"episodes":14,"update":"2021-01-08 11:02:27","iframe_src":"//8209.svetacdn.in/71tsRs29n5tZ/tv-series/9670"},{"id":9668,"title":"Мафиоза","kp_id":"493867","imdb_id":"tt0807686","world_art_id":null,"type":"serial","add":"2021-01-06 17:26:59","orig_title":"Mafiosa","year":"2006-12-12","translations":["Профессиональный (многоголосый закадровый) (Первый ТВЧ)"],"seasons_count":3,"episodes_count":24,"episodes":8,"update":"2021-01-07 17:33:49","iframe_src":"//8209.svetacdn.in/71tsRs29n5tZ/tv-series/9668"},{"id":9666,"title":"Крепость Санады","kp_id":"1002546","imdb_id":"tt3811304","world_art_id":null,"type":"serial","add":"2021-01-06 12:08:17","orig_title":"Sanadamaru","year":"2016-01-10","translations":["Любительский (двухголосый закадровый) (RealFake)"],"seasons_count":1,"episodes_count":50,"episodes":50,"update":"2021-01-07 22:05:16","iframe_src":"//8209.svetacdn.in/71tsRs29n5tZ/tv-series/9666"},{"id":9651,"title":"Проделки Карины","kp_id":"594815","imdb_id":"tt1846147","world_art_id":null,"type":"serial","add":"2021-01-04 12:26:15","orig_title":"Kareena Kareena","year":"2004-01-01","translations":["Профессиональный (многоголосый закадровый)"],"seasons_count":1,"episodes_count":98,"episodes":98,"update":"2021-01-08 18:57:09","iframe_src":"//8209.svetacdn.in/71tsRs29n5tZ/tv-series/9651"},{"id":9649,"title":"Ужасный Генри","kp_id":"660410","imdb_id":"tt0985991","world_art_id":null,"type":"serial","add":"2021-01-04 12:17:23","orig_title":"Horrid Henry","year":"2006-11-09","translations":["Профессиональный (одноголосый закадровый)","Профессиональный (одноголосый закадровый) (KidZone)"],"seasons_count":4,"episodes_count":207,"episodes":52,"update":"2021-01-09 10:59:59","iframe_src":"//8209.svetacdn.in/71tsRs29n5tZ/tv-series/9649"},{"id":9647,"title":"Таинственные золотые города","kp_id":"727222","imdb_id":"tt2563792","world_art_id":null,"type":"serial","add":"2021-01-04 11:55:33","orig_title":"Les mystérieuses cités d'or","year":"2012-11-17","translations":["Полное дублирование"],"seasons_count":2,"episodes_count":52,"episodes":26,"update":"2021-01-09 09:41:41","iframe_src":"//8209.svetacdn.in/71tsRs29n5tZ/tv-series/9647"},{"id":9565,"title":"Мой мужчина, моя женщина","kp_id":"2000024","imdb_id":null,"world_art_id":null,"type":"serial","add":"2020-12-21 06:51:04","orig_title":"Мій чоловік, моя жінка","year":"2020-10-19","translations":["Оригинальная дорожка"],"seasons_count":1,"episodes_count":12,"episodes":12,"update":"2021-01-07 15:00:54","iframe_src":"//8209.svetacdn.in/71tsRs29n5tZ/tv-series/9565"},{"id":9487,"title":"Жизнь по-итальянски","kp_id":"583631","imdb_id":null,"world_art_id":null,"type":"serial","add":"2020-12-07 18:54:53","orig_title":"Vivere","year":"1999-03-01","translations":["Профессиональный (многоголосый закадровый) (Твин)"],"seasons_count":2,"episodes_count":288,"episodes":60,"update":"2021-01-09 09:19:20","iframe_src":"//8209.svetacdn.in/71tsRs29n5tZ/tv-series/9487"},{"id":9475,"title":"Школа 2013","kp_id":null,"imdb_id":"tt8737876","world_art_id":null,"type":"serial","add":"2020-12-06 07:29:36","orig_title":"School 2013","year":"2012-12-03","translations":["Любительский (одноголосый закадровый) (GREEN TEA)"],"seasons_count":1,"episodes_count":16,"episodes":16,"update":"2021-01-07 10:03:47","iframe_src":"//8209.svetacdn.in/71tsRs29n5tZ/tv-series/9475"},{"id":9021,"title":"Перед камерой","kp_id":null,"imdb_id":"tt7107810","world_art_id":null,"type":"serial","add":"2020-10-15 19:00:41","orig_title":"Exposed","year":"2017-05-05","translations":["Любительский (многоголосый закадровый) (WestFilm)","Любительский (многоголосый закадровый) (Ultradox)"],"seasons_count":1,"episodes_count":9,"episodes":9,"update":"2021-01-07 13:46:44","iframe_src":"//8209.svetacdn.in/71tsRs29n5tZ/tv-series/9021"},{"id":9014,"title":"Незавершенная любовь","kp_id":"1407221","imdb_id":"tt12466076","world_art_id":null,"type":"serial","add":"2020-10-14 18:47:09","orig_title":"Yarim Kalan Asklar","year":"2020-09-10","translations":["Любительский (многоголосый закадровый) (AimaksaLTV)"],"seasons_count":1,"episodes_count":8,"episodes":8,"update":"2021-01-07 15:16:08","iframe_src":"//8209.svetacdn.in/71tsRs29n5tZ/tv-series/9014"},{"id":42713,"title":"Восемь сотен","kp_id":"1118110","imdb_id":"tt7294150","world_art_id":null,"type":"movie","add":"2020-08-24 04:22:22","orig_title":"Ba bai","year":"2020-08-14","translations":["Любительский (многоголосый закадровый) (@MUZOBOZ@)","Любительский (двухголосый закадровый) (DeadSno & den904)","Любительский (многоголосый закадровый) (STEPonee)","Полное дублирование","Полное дублирование"],"quality":"webdl","translation":"Любительский (многоголосый закадровый) (@MUZOBOZ@)","update":"2021-06-30 06:36:01","iframe_src":"//8209.svetacdn.in/71tsRs29n5tZ/movie/42713"},{"id":7518,"title":"Золотая лихорадка: Бурные воды","kp_id":null,"imdb_id":"tt7749176","world_art_id":null,"type":"serial","add":"2020-05-15 09:52:40","orig_title":"Gold Rush: White Water","year":"2018-01-19","translations":["Профессиональный (двухголосый закадровый)","Профессиональный (многоголосый закадровый)"],"seasons_count":4,"episodes_count":33,"episodes":6,"update":"2021-01-07 22:26:42","iframe_src":"//8209.svetacdn.in/71tsRs29n5tZ/tv-series/7518"},{"id":7040,"title":"Последний министр","kp_id":"1236796","imdb_id":"tt9742812","world_art_id":null,"type":"serial","add":"2020-04-01 10:41:48","orig_title":"Posledniy Ministr","year":"2020-03-26","translations":["Оригинальная дорожка","Профессиональный (многоголосый закадровый)"],"seasons_count":2,"episodes_count":16,"episodes":1,"update":"2021-01-08 22:37:42","iframe_src":"//8209.svetacdn.in/71tsRs29n5tZ/tv-series/7040"},{"id":7038,"title":"Проект «Анна Николаевна»","kp_id":"1322389","imdb_id":"tt11867066","world_art_id":null,"type":"serial","add":"2020-04-01 10:17:30","orig_title":"Proekt 'Anna Nikolaevna'","year":"2020-03-26","translations":["Оригинальная дорожка"],"seasons_count":2,"episodes_count":9,"episodes":1,"update":"2021-01-08 08:10:32","iframe_src":"//8209.svetacdn.in/71tsRs29n5tZ/tv-series/7038"},{"id":5961,"title":"Бэтмен будущего","kp_id":"94679","imdb_id":"tt0147746","world_art_id":null,"type":"serial","add":"2019-12-06 13:00:22","orig_title":"Batman Beyond","year":"1999-01-10","translations":["Полное дублирование","Полное дублирование (СТС)"],"seasons_count":3,"episodes_count":52,"episodes":13,"update":"2021-01-09 10:23:50","iframe_src":"//8209.svetacdn.in/71tsRs29n5tZ/tv-series/5961"},{"id":5074,"title":"Женщина с ароматом кофе","kp_id":"433792","imdb_id":"tt0282289","world_art_id":null,"type":"serial","add":"2019-08-21 11:26:37","orig_title":"Cuando seas mía","year":"2001-01-01","translations":["Профессиональный (многоголосый закадровый)"],"seasons_count":1,"episodes_count":222,"episodes":222,"update":"2021-01-08 20:14:19","iframe_src":"//8209.svetacdn.in/71tsRs29n5tZ/tv-series/5074"},{"id":3409,"title":"Обычная женщина","kp_id":"1108686","imdb_id":"tt8561620","world_art_id":null,"type":"serial","add":"2018-10-29 10:47:56","orig_title":"Obychnaya zhenshchina","year":"2018-10-29","translations":["Оригинальная дорожка"],"seasons_count":2,"episodes_count":17,"episodes":8,"update":"2021-01-07 11:31:49","iframe_src":"//8209.svetacdn.in/71tsRs29n5tZ/tv-series/3409"},{"id":19370,"title":"Летняя школа","kp_id":"22492","imdb_id":"tt0094072","world_art_id":null,"type":"movie","add":"2018-10-05 08:17:50","orig_title":"Summer School","year":"1987-07-22","translations":["Профессиональный (многоголосый закадровый) (СТС)","Профессиональный (многоголосый закадровый) (Paramount Channel)","Original (English)","Профессиональный (многоголосый закадровый) (СТС)"],"quality":"webdl","translation":"Профессиональный (многоголосый закадровый) (СТС)","update":"2021-06-29 14:51:18","iframe_src":"//8209.svetacdn.in/71tsRs29n5tZ/movie/19370"},{"id":2907,"title":"Саманта!","kp_id":"1171660","imdb_id":"tt6626676","world_art_id":null,"type":"serial","add":"2018-07-11 06:53:55","orig_title":"Samantha!","year":"2018-07-06","translations":["Любительский (двухголосый закадровый) (Sunshine Studio)","Профессиональный (многоголосый закадровый) (Kansai)"],"seasons_count":1,"episodes_count":7,"episodes":7,"update":"2021-01-07 17:55:21","iframe_src":"//8209.svetacdn.in/71tsRs29n5tZ/tv-series/2907"},{"id":2565,"title":"Пчелка Майя: Новые приключения","kp_id":"812101","imdb_id":"tt2724814","world_art_id":null,"type":"serial","add":"2018-05-11 15:20:23","orig_title":"Maya the Bee","year":"2012-09-05","translations":["Полное дублирование"],"seasons_count":1,"episodes_count":78,"episodes":78,"update":"2021-01-09 11:44:25","iframe_src":"//8209.svetacdn.in/71tsRs29n5tZ/tv-series/2565"},{"id":7858,"title":"Однажды в апреле","kp_id":"339407","imdb_id":"tt0400063","world_art_id":null,"type":"movie","add":"2016-12-05 13:41:39","orig_title":"Sometimes in April","year":"2005-02-17","translations":["Профессиональный (двухголосый закадровый)","Профессиональный (двухголосый закадровый) (НТВ)","Original (English)","Профессиональный (двухголосый закадровый) (Elrom)"],"quality":"hdtv","translation":"Профессиональный (двухголосый закадровый)","update":"2021-06-29 14:48:47","iframe_src":"//8209.svetacdn.in/71tsRs29n5tZ/movie/7858"},{"id":7168,"title":"Земное ядро","kp_id":"20158","imdb_id":"tt0298814","world_art_id":null,"type":"movie","add":"2016-11-08 08:37:30","orig_title":"The Core","year":"2003-03-25","translations":["Полное дублирование","Авторский (одноголосый закадровый) (Живов Юрий)","Полное дублирование","Original (English)","Профессиональный (многоголосый закадровый)"],"quality":"bd","translation":"Полное дублирование","update":"2021-06-30 07:26:33","iframe_src":"//8209.svetacdn.in/71tsRs29n5tZ/movie/7168"},{"id":4880,"title":"Офицеры","kp_id":"42736","imdb_id":"tt0067517","world_art_id":null,"type":"movie","add":"2016-08-30 11:35:48","orig_title":"Ofitsery","year":"1971-07-26","translations":["Оригинальная дорожка","Оригинальная дорожка"],"quality":"bd","translation":"Оригинальная дорожка","update":"2021-06-30 09:47:21","iframe_src":"//8209.svetacdn.in/71tsRs29n5tZ/movie/4880"},{"id":275,"title":"Друзья","kp_id":"77044","imdb_id":"tt0108778","world_art_id":null,"type":"serial","add":"2016-07-09 07:30:01","orig_title":"Friends","year":"1994-09-01","translations":["Профессиональный (многоголосый закадровый) (Paramount Comedy)","Профессиональный (многоголосый закадровый) (СТС)"],"seasons_count":10,"episodes_count":236,"episodes":18,"update":"2021-01-07 21:37:33","iframe_src":"//8209.svetacdn.in/71tsRs29n5tZ/tv-series/275"},{"id":2299,"title":"Эйс Вентура: Розыск домашних животных","kp_id":"2868","imdb_id":"tt0109040","world_art_id":null,"type":"movie","add":"2016-05-17 19:09:48","orig_title":"Ace Ventura: Pet Detective","year":"1994-02-04","translations":["Полное дублирование","Original (English)","Авторский (одноголосый закадровый) (Кашкин Александр | Первомайский)","Авторский (одноголосый закадровый) (Кузнецов Сергей)","Авторский (одноголосый закадровый) (Латышев Максим | CDV)","Авторский (одноголосый закадровый) (Михалёв Алексей)","Авторский (одноголосый закадровый) (Живов Юрий)","Полное дублирование (Варус-Видео)","Полное дублирование (Мост-Видео)","Original (English)","Профессиональный (двухголосый закадровый) (Екатеринбург Арт)","Профессиональный (двухголосый закадровый) (НТВ)","Профессиональный (двухголосый закадровый) (Universal Channel)","Профессиональный (многоголосый закадровый) (D2Lab)"],"quality":"bd","translation":"Полное дублирование","update":"2021-06-30 08:06:54","iframe_src":"//8209.svetacdn.in/71tsRs29n5tZ/movie/2299"},{"id":1983,"title":"Семь","kp_id":"377","imdb_id":"tt0114369","world_art_id":null,"type":"movie","add":"2016-05-09 04:59:32","orig_title":"Se7en","year":"1995-09-22","translations":["Авторский (одноголосый закадровый) (Гаврилов Андрей)","Авторский (одноголосый закадровый) (Рябов Сергей)","Авторский (одноголосый закадровый) (Сербин Юрий)","Original (English)","Профессиональный (двухголосый закадровый) (Кубик в Кубе)","Профессиональный (многоголосый закадровый) (CP Digital)","Профессиональный (многоголосый закадровый) (FDV)","Профессиональный (многоголосый закадровый) (Позитив)"],"quality":"bd","translation":"Авторский (одноголосый закадровый) (Гаврилов Андрей)","update":"2021-06-30 07:07:15","iframe_src":"//8209.svetacdn.in/71tsRs29n5tZ/movie/1983"},{"id":1896,"title":"Королевство полной луны","kp_id":"571892","imdb_id":"tt1748122","world_art_id":null,"type":"movie","add":"2016-05-05 12:22:37","orig_title":"Moonrise Kingdom","year":"2012-05-16","translations":["Полное дублирование","Авторский (одноголосый закадровый) (Назаров Вадим)","Полное дублирование","Original (English)"],"quality":"bd","translation":"Полное дублирование","update":"2021-06-30 07:33:26","iframe_src":"//8209.svetacdn.in/71tsRs29n5tZ/movie/1896"},{"id":755,"title":"Джерри Магуайер","kp_id":"4561","imdb_id":"tt0116695","world_art_id":null,"type":"movie","add":"2016-04-07 17:38:29","orig_title":"Jerry Maguire","year":"1996-12-06","translations":["Полное дублирование","Original (English)","Полное дублирование","Авторский (одноголосый закадровый) (Живов Юрий)","Профессиональный (многоголосый закадровый)","Профессиональный (многоголосый закадровый) (НТВ)"],"quality":"bd","translation":"Полное дублирование","update":"2021-06-30 06:51:22","iframe_src":"//8209.svetacdn.in/71tsRs29n5tZ/movie/755"}],"current_page":127,"first_page_url":"https://videocdn.tv/api/short?limit=100&api_token=EnbO9h8pv1VyjbCJhg0WM9nG259n7mtz&cache3127=3127&page=1","from":12601,"last_page":656,"last_page_url":"https://videocdn.tv/api/short?limit=100&api_token=EnbO9h8pv1VyjbCJhg0WM9nG259n7mtz&cache3127=3127&page=656","next_page_url":"https://videocdn.tv/api/short?limit=100&api_token=EnbO9h8pv1VyjbCJhg0WM9nG259n7mtz&cache3127=3127&page=128","path":"https://videocdn.tv/api/short","per_page":100,"prev_page_url":"https://videocdn.tv/api/short?limit=100&api_token=EnbO9h8pv1VyjbCJhg0WM9nG259n7mtz&cache3127=3127&page=126","to":12640,"total":65554}