{"result":true,"data":[{"id":23934,"title":"Хочу в тюрьму","kp_id":"41236","imdb_id":"tt0164055","world_art_id":null,"type":"movie","add":"2019-04-05 10:13:23","orig_title":"Khochu v tyurmu","year":"1999-01-22","translations":["Оригинальная дорожка"],"quality":"dvdrip","translation":"Оригинальная дорожка","update":"2019-04-06 07:35:57","iframe_src":"//8332.svetacdn.in/71tsRs29n5tZ/movie/23934"},{"id":23933,"title":"Катала","kp_id":"44732","imdb_id":"tt0097651","world_art_id":null,"type":"movie","add":"2019-04-05 10:10:44","orig_title":"Katala","year":"1989-10-28","translations":["Оригинальная дорожка"],"quality":"dvdrip","translation":"Оригинальная дорожка","update":"2019-04-06 07:37:21","iframe_src":"//8332.svetacdn.in/71tsRs29n5tZ/movie/23933"},{"id":23932,"title":"Любовь","kp_id":"45144","imdb_id":null,"world_art_id":null,"type":"movie","add":"2019-04-05 10:09:04","orig_title":"Любовь","year":"1992-05-09","translations":["Оригинальная дорожка"],"quality":"dvdrip","translation":"Оригинальная дорожка","update":"2019-04-06 07:40:03","iframe_src":"//8332.svetacdn.in/71tsRs29n5tZ/movie/23932"},{"id":23931,"title":"Львиная доля","kp_id":"41304","imdb_id":"tt0362832","world_art_id":null,"type":"movie","add":"2019-04-05 10:06:54","orig_title":"Lvinaya dolya","year":"2001-01-01","translations":["Оригинальная дорожка"],"quality":"dvdrip","translation":"Оригинальная дорожка","update":"2019-04-06 07:42:37","iframe_src":"//8332.svetacdn.in/71tsRs29n5tZ/movie/23931"},{"id":23930,"title":"Мытарь","kp_id":"41647","imdb_id":"tt0165890","world_art_id":null,"type":"movie","add":"2019-04-05 10:05:19","orig_title":"Mytar","year":"1997-01-01","translations":["Оригинальная дорожка"],"quality":"dvdrip","translation":"Оригинальная дорожка","update":"2019-04-06 07:46:45","iframe_src":"//8332.svetacdn.in/71tsRs29n5tZ/movie/23930"},{"id":23929,"title":"Песня","kp_id":"722543","imdb_id":"tt2517044","world_art_id":null,"type":"movie","add":"2019-04-05 10:02:29","orig_title":"The Song","year":"2014-09-26","translations":["Профессиональный (многоголосый закадровый)"],"quality":"webdl","translation":"Профессиональный (многоголосый закадровый)","update":"2019-04-06 07:50:18","iframe_src":"//8332.svetacdn.in/71tsRs29n5tZ/movie/23929"},{"id":23927,"title":"Побег","kp_id":"463866","imdb_id":"tt1410051","world_art_id":null,"type":"movie","add":"2019-04-05 09:57:06","orig_title":"Retreat","year":"2011-07-18","translations":["Профессиональный (двухголосый закадровый)"],"quality":"bd","translation":"Профессиональный (двухголосый закадровый)","update":"2019-04-06 07:56:04","iframe_src":"//8332.svetacdn.in/71tsRs29n5tZ/movie/23927"},{"id":23926,"title":"Потерпевшие претензий не имеют","kp_id":"43173","imdb_id":"tt0274732","world_art_id":null,"type":"movie","add":"2019-04-05 09:54:55","orig_title":"Postradavshie pretenziy ne imeyut","year":"1986-12-29","translations":["Оригинальная дорожка"],"quality":"dvdrip","translation":"Оригинальная дорожка","update":"2019-04-06 07:58:38","iframe_src":"//8332.svetacdn.in/71tsRs29n5tZ/movie/23926"},{"id":23925,"title":"Бабник","kp_id":"45997","imdb_id":"tt0099083","world_art_id":null,"type":"movie","add":"2019-04-05 09:51:49","orig_title":"Babnik","year":"2001-09-28","translations":["Оригинальная дорожка"],"quality":"dvdrip","translation":"Оригинальная дорожка","update":"2019-04-06 08:00:42","iframe_src":"//8332.svetacdn.in/71tsRs29n5tZ/movie/23925"},{"id":23918,"title":"Монро","kp_id":"445047","imdb_id":"tt3220866","world_art_id":null,"type":"movie","add":"2019-04-05 08:32:51","orig_title":"Monro","year":"2010-01-01","translations":["Оригинальная дорожка"],"quality":"dvdrip","translation":"Оригинальная дорожка","update":"2019-04-06 08:01:24","iframe_src":"//8332.svetacdn.in/71tsRs29n5tZ/movie/23918"},{"id":23887,"title":"Плесень","kp_id":"440052","imdb_id":null,"world_art_id":null,"type":"movie","add":"2019-04-04 08:43:11","orig_title":"Плесень","year":"2009-02-01","translations":["Оригинальная дорожка"],"quality":"dvdrip","translation":"Оригинальная дорожка","update":"2019-04-06 07:32:27","iframe_src":"//8332.svetacdn.in/71tsRs29n5tZ/movie/23887"},{"id":23886,"title":"Родина или смерть","kp_id":"397298","imdb_id":"tt4037634","world_art_id":null,"type":"movie","add":"2019-04-04 08:40:56","orig_title":"Rodina ili smert","year":"2007-01-01","translations":["Оригинальная дорожка"],"quality":"dvdrip","translation":"Оригинальная дорожка","update":"2019-04-06 08:00:08","iframe_src":"//8332.svetacdn.in/71tsRs29n5tZ/movie/23886"},{"id":23885,"title":"Нирвана","kp_id":"309394","imdb_id":"tt1227165","world_art_id":null,"type":"movie","add":"2019-04-04 08:38:57","orig_title":"Nirvana","year":"2008-02-12","translations":["Оригинальная дорожка"],"quality":"dvdrip","translation":"Оригинальная дорожка","update":"2019-04-06 07:35:53","iframe_src":"//8332.svetacdn.in/71tsRs29n5tZ/movie/23885"},{"id":23884,"title":"Бэтмэн и Мистер Фриз","kp_id":"94680","imdb_id":"tt0143127","world_art_id":null,"type":"movie","add":"2019-04-04 08:28:10","orig_title":"Batman & Mr. Freeze: SubZero","year":"1998-03-17","translations":["Полное дублирование"],"quality":"dvdrip","translation":"Полное дублирование","update":"2019-04-06 07:38:17","iframe_src":"//8332.svetacdn.in/71tsRs29n5tZ/movie/23884"},{"id":23883,"title":"Эхо","kp_id":"272484","imdb_id":"tt0897347","world_art_id":null,"type":"movie","add":"2019-04-04 08:25:59","orig_title":"The Echo","year":"2008-07-17","translations":["Профессиональный (многоголосый закадровый)"],"quality":"bd","translation":"Профессиональный (многоголосый закадровый)","update":"2019-04-06 07:40:47","iframe_src":"//8332.svetacdn.in/71tsRs29n5tZ/movie/23883"},{"id":23882,"title":"Когда деревья были большими","kp_id":"44838","imdb_id":"tt0055051","world_art_id":null,"type":"movie","add":"2019-04-04 08:20:27","orig_title":"Kogda derevya byli bolshimi","year":"1962-03-26","translations":["Оригинальная дорожка"],"quality":"dvdrip","translation":"Оригинальная дорожка","update":"2019-04-06 07:43:35","iframe_src":"//8332.svetacdn.in/71tsRs29n5tZ/movie/23882"},{"id":23881,"title":"Я","kp_id":"450220","imdb_id":"tt1388924","world_art_id":null,"type":"movie","add":"2019-04-04 08:18:39","orig_title":"Ya","year":"2010-02-13","translations":["Оригинальная дорожка"],"quality":"dvdrip","translation":"Оригинальная дорожка","update":"2019-04-06 07:45:26","iframe_src":"//8332.svetacdn.in/71tsRs29n5tZ/movie/23881"},{"id":23880,"title":"Коммуналка","kp_id":"629253","imdb_id":null,"world_art_id":null,"type":"movie","add":"2019-04-04 08:16:18","orig_title":"Коммуналка","year":"2011-10-07","translations":["Оригинальная дорожка"],"quality":"dvdrip","translation":"Оригинальная дорожка","update":"2019-04-06 07:49:07","iframe_src":"//8332.svetacdn.in/71tsRs29n5tZ/movie/23880"},{"id":23879,"title":"Конец «Сатурна»","kp_id":"44900","imdb_id":"tt0168029","world_art_id":null,"type":"movie","add":"2019-04-04 08:14:37","orig_title":"Konets Saturna","year":"1968-01-15","translations":["Оригинальная дорожка"],"quality":"dvdrip","translation":"Оригинальная дорожка","update":"2019-04-06 07:51:16","iframe_src":"//8332.svetacdn.in/71tsRs29n5tZ/movie/23879"},{"id":23877,"title":"Настоятель","kp_id":"566830","imdb_id":"tt2141861","world_art_id":null,"type":"movie","add":"2019-04-04 08:10:16","orig_title":"Nastoyatel","year":"2011-01-30","translations":["Оригинальная дорожка"],"quality":"dvdrip","translation":"Оригинальная дорожка","update":"2019-04-06 07:55:26","iframe_src":"//8332.svetacdn.in/71tsRs29n5tZ/movie/23877"}],"current_page":1561,"first_page_url":"https://videocdn.tv/api/short?limit=100&api_token=EnbO9h8pv1VyjbCJhg0WM9nG259n7mtz&cache31561=31561&page=1","from":156001,"last_page":635,"last_page_url":"https://videocdn.tv/api/short?limit=100&api_token=EnbO9h8pv1VyjbCJhg0WM9nG259n7mtz&cache31561=31561&page=635","next_page_url":null,"path":"https://videocdn.tv/api/short","per_page":100,"prev_page_url":"https://videocdn.tv/api/short?limit=100&api_token=EnbO9h8pv1VyjbCJhg0WM9nG259n7mtz&cache31561=31561&page=1560","to":156020,"total":63430}