{"result":true,"data":[{"id":56549,"title":"Грязная игра","kp_id":"16752","imdb_id":"tt0077578","world_art_id":null,"type":"movie","add":"2022-02-10 14:07:52","orig_title":"Foul Play","year":"1978-07-14","translations":["Профессиональный (двухголосый закадровый) (НТВ)"],"quality":"bd","translation":"Профессиональный (двухголосый закадровый) (НТВ)","update":"2022-02-11 06:58:16","iframe_src":"//24213.svetacdn.in/si4jsFRrtgrT/movie/56549"},{"id":56548,"title":"Туфелька и роза","kp_id":"60214","imdb_id":"tt0075232","world_art_id":null,"type":"movie","add":"2022-02-10 14:05:07","orig_title":"The Slipper and the Rose: The Story of Cinderella","year":"1976-03-24","translations":["Профессиональный (многоголосый закадровый) (5-й канал СПб)"],"quality":"bd","translation":"Профессиональный (многоголосый закадровый) (5-й канал СПб)","update":"2022-02-11 06:59:18","iframe_src":"//24213.svetacdn.in/si4jsFRrtgrT/movie/56548"},{"id":54221,"title":"Тихая ночь","kp_id":"1345777","imdb_id":"tt11628854","world_art_id":null,"type":"movie","add":"2021-10-30 16:06:09","orig_title":"Silent Night","year":"2021-09-16","translations":["Любительский (многоголосый закадровый) (@MUZOBOZ@)","[EN] Original (English)","Профессиональный (многоголосый закадровый) (Jaskier)","Полное дублирование (Мосфильм)"],"quality":"webdl","translation":"Любительский (многоголосый закадровый) (@MUZOBOZ@)","update":"2022-02-11 07:59:30","iframe_src":"//24213.svetacdn.in/si4jsFRrtgrT/movie/54221"},{"id":8974,"title":"Ла-Линеа Тень Нарко","kp_id":null,"imdb_id":"tt12875794","world_art_id":null,"type":"serial","add":"2020-10-11 11:38:13","orig_title":"La Línea: La Sombra del Narco","year":"2020-09-09","translations":["Любительский (многоголосый закадровый) (WestFilm)"],"seasons_count":1,"episodes_count":4,"episodes":4,"update":"2020-10-11 17:18:11","iframe_src":"//24213.svetacdn.in/si4jsFRrtgrT/tv-series/8974"},{"id":8972,"title":"Таксистка","kp_id":"1330537","imdb_id":null,"world_art_id":null,"type":"serial","add":"2020-10-11 07:19:21","orig_title":"Таксистка","year":"2019-12-07","translations":["Оригинальная дорожка"],"seasons_count":1,"episodes_count":4,"episodes":4,"update":"2020-10-11 14:32:33","iframe_src":"//24213.svetacdn.in/si4jsFRrtgrT/tv-series/8972"},{"id":8959,"title":"Место женщины","kp_id":null,"imdb_id":"tt11215186","world_art_id":null,"type":"serial","add":"2020-10-09 17:46:14","orig_title":"Lugar de Mulher","year":"2019-11-28","translations":["Любительский (многоголосый закадровый) (WestFilm)"],"seasons_count":1,"episodes_count":4,"episodes":4,"update":"2020-10-12 17:25:33","iframe_src":"//24213.svetacdn.in/si4jsFRrtgrT/tv-series/8959"},{"id":8957,"title":"Птичка в клетке","kp_id":"1390635","imdb_id":null,"world_art_id":null,"type":"serial","add":"2020-10-09 17:41:16","orig_title":"Птичка в клетке","year":"2020-01-01","translations":["Оригинальная дорожка"],"seasons_count":1,"episodes_count":2,"episodes":2,"update":"2020-10-10 12:29:18","iframe_src":"//24213.svetacdn.in/si4jsFRrtgrT/tv-series/8957"},{"id":8953,"title":"Любовь и Мави","kp_id":"1008530","imdb_id":"tt6333232","world_art_id":null,"type":"serial","add":"2020-10-09 10:46:31","orig_title":"Ask Ve Mavi","year":"2016-01-01","translations":["Авторский (одноголосый закадровый) (Котова Ирина)"],"seasons_count":3,"episodes_count":78,"episodes":9,"update":"2020-10-12 19:33:42","iframe_src":"//24213.svetacdn.in/si4jsFRrtgrT/tv-series/8953"},{"id":8949,"title":"Максипес Фик","kp_id":"731444","imdb_id":"tt1998775","world_art_id":null,"type":"serial","add":"2020-10-08 19:35:54","orig_title":"Maxipes Fík","year":"1976-12-18","translations":["Профессиональный (многоголосый закадровый)"],"seasons_count":1,"episodes_count":26,"episodes":26,"update":"2020-10-11 13:12:04","iframe_src":"//24213.svetacdn.in/si4jsFRrtgrT/tv-series/8949"},{"id":8941,"title":"Профессия — следователь","kp_id":"386286","imdb_id":"tt0084542","world_art_id":null,"type":"serial","add":"2020-10-08 09:01:20","orig_title":"Professiya - sledovatel","year":"1984-06-05","translations":["Оригинальная дорожка"],"seasons_count":1,"episodes_count":5,"episodes":5,"update":"2020-10-10 10:55:51","iframe_src":"//24213.svetacdn.in/si4jsFRrtgrT/tv-series/8941"},{"id":8904,"title":"Идеальное соревнование","kp_id":"1207240","imdb_id":"tt9882870","world_art_id":null,"type":"serial","add":"2020-10-02 14:03:03","orig_title":"Ji pin jue pei","year":"2017-03-03","translations":["Профессиональный (многоголосый закадровый) (Мобильное телевидение)"],"seasons_count":1,"episodes_count":35,"episodes":35,"update":"2020-10-12 11:21:20","iframe_src":"//24213.svetacdn.in/si4jsFRrtgrT/tv-series/8904"},{"id":8889,"title":"Авто-Шанкар","kp_id":"1290947","imdb_id":"tt10230036","world_art_id":null,"type":"serial","add":"2020-09-30 17:37:27","orig_title":"Auto Shankar","year":"2019-04-23","translations":["Любительский (многоголосый закадровый) (Octopus)"],"seasons_count":1,"episodes_count":10,"episodes":10,"update":"2020-10-10 07:23:33","iframe_src":"//24213.svetacdn.in/si4jsFRrtgrT/tv-series/8889"},{"id":8337,"title":"Беглец","kp_id":"1313313","imdb_id":"tt10623550","world_art_id":null,"type":"serial","add":"2020-08-03 12:54:10","orig_title":"The Fugitive","year":"2020-08-03","translations":["Любительский (многоголосый закадровый) (Octopus)","Любительский (многоголосый закадровый) (ColdFilm)","Любительский (многоголосый закадровый) (KerobTV)","Профессиональный (многоголосый закадровый) (LostFilm)"],"seasons_count":1,"episodes_count":14,"episodes":14,"update":"2020-10-12 00:12:36","iframe_src":"//24213.svetacdn.in/si4jsFRrtgrT/tv-series/8337"},{"id":7424,"title":"Детектив на миллион","kp_id":"1355019","imdb_id":null,"world_art_id":null,"type":"serial","add":"2020-05-07 06:02:29","orig_title":"Детектив на миллион","year":"2020-02-22","translations":["Оригинальная дорожка"],"seasons_count":2,"episodes_count":8,"episodes":4,"update":"2020-10-11 15:09:04","iframe_src":"//24213.svetacdn.in/si4jsFRrtgrT/tv-series/7424"},{"id":6765,"title":"Высотки","kp_id":"1162990","imdb_id":"tt8496508","world_art_id":null,"type":"serial","add":"2020-03-03 10:59:43","orig_title":"The Heights","year":"2019-02-22","translations":["Профессиональный (многоголосый закадровый) (HDrezka Studio)","Любительский (многоголосый закадровый) (WestFilm)"],"seasons_count":2,"episodes_count":60,"episodes":30,"update":"2020-10-11 14:14:03","iframe_src":"//24213.svetacdn.in/si4jsFRrtgrT/tv-series/6765"},{"id":32375,"title":"Император","kp_id":"49541","imdb_id":"tt0249371","world_art_id":null,"type":"movie","add":"2019-10-26 10:53:57","orig_title":"Asoka","year":"2001-09-13","translations":["Профессиональный (многоголосый закадровый) (Red Media)","Профессиональный (многоголосый закадровый) (Екатеринбург Арт)"],"quality":"bd","translation":"Профессиональный (многоголосый закадровый) (Red Media)","update":"2022-02-11 08:17:52","iframe_src":"//24213.svetacdn.in/si4jsFRrtgrT/movie/32375"},{"id":30491,"title":"В компании волков","kp_id":"14105","imdb_id":"tt0087075","world_art_id":null,"type":"movie","add":"2019-09-02 19:42:21","orig_title":"The Company of Wolves","year":"1984-09-15","translations":["Профессиональный (двухголосый закадровый)","Профессиональный (многоголосый закадровый)"],"quality":"bd","translation":"Профессиональный (двухголосый закадровый)","update":"2022-02-11 07:59:25","iframe_src":"//24213.svetacdn.in/si4jsFRrtgrT/movie/30491"},{"id":5006,"title":"Кембрийский период","kp_id":"1111674","imdb_id":"tt9248646","world_art_id":null,"type":"serial","add":"2019-08-07 12:51:21","orig_title":"Han wu ji","year":"2017-05-08","translations":["Любительский (двухголосый закадровый) (STEPonee)"],"seasons_count":1,"episodes_count":24,"episodes":24,"update":"2020-10-12 18:55:33","iframe_src":"//24213.svetacdn.in/si4jsFRrtgrT/tv-series/5006"},{"id":20475,"title":"Лихорадка на белой полосе","kp_id":"29899","imdb_id":"tt0073896","world_art_id":null,"type":"movie","add":"2018-12-03 00:47:37","orig_title":"White Line Fever","year":"1975-07-16","translations":["Авторский (одноголосый закадровый) (Живов Юрий)","Авторский (одноголосый закадровый) (Живов Юрий)"],"quality":"bd","translation":"Авторский (одноголосый закадровый) (Живов Юрий)","update":"2022-02-11 07:47:17","iframe_src":"//24213.svetacdn.in/si4jsFRrtgrT/movie/20475"},{"id":3502,"title":"Сыр в мышеловке","kp_id":"957393","imdb_id":"tt4741110","world_art_id":null,"type":"serial","add":"2018-11-14 09:00:11","orig_title":"Chijeuindeoteuraep","year":"2016-01-04","translations":["Любительский (двухголосый закадровый) (SoftBox)","Профессиональный (многоголосый закадровый) (Мобильное телевидение)"],"seasons_count":1,"episodes_count":16,"episodes":16,"update":"2020-10-10 16:45:44","iframe_src":"//24213.svetacdn.in/si4jsFRrtgrT/tv-series/3502"},{"id":3245,"title":"Тэриус у меня за спиной","kp_id":"1112790","imdb_id":"tt8591092","world_art_id":null,"type":"serial","add":"2018-10-01 09:44:51","orig_title":"Nae Dwie Teriuseu","year":"2018-09-27","translations":["Любительский (двухголосый закадровый) (HighHopes)","Любительский (двухголосый закадровый) (SoftBox)","Профессиональный (многоголосый закадровый) (Мобильное телевидение)"],"seasons_count":1,"episodes_count":16,"episodes":16,"update":"2020-10-11 13:43:22","iframe_src":"//24213.svetacdn.in/si4jsFRrtgrT/tv-series/3245"},{"id":17970,"title":"Сектор 7","kp_id":"586709","imdb_id":"tt1934381","world_art_id":null,"type":"movie","add":"2018-07-29 20:13:22","orig_title":"7 gwanggu","year":"2011-08-04","translations":["Любительский (двухголосый закадровый) (GREEN TEA)"],"quality":"bd","translation":"Любительский (двухголосый закадровый) (GREEN TEA)","update":"2022-02-11 08:23:58","iframe_src":"//24213.svetacdn.in/si4jsFRrtgrT/movie/17970"},{"id":1725,"title":"Человек будущего","kp_id":"958578","imdb_id":"tt4975856","world_art_id":null,"type":"serial","add":"2017-11-12 09:57:32","orig_title":"Future Man","year":"2017-11-14","translations":["Профессиональный (многоголосый закадровый) (NewStudio)","Профессиональный (многоголосый закадровый) (LostFilm)","Профессиональный (двухголосый закадровый) (Кубик в Кубе | Kubik³)","Профессиональный (многоголосый закадровый) (HDrezka Studio)","Профессиональный (многоголосый закадровый) (Good People)","Профессиональный (многоголосый закадровый) (IdeaFilm)","Профессиональный (многоголосый закадровый) (OMSKBIRD records)","Профессиональный (многоголосый закадровый) (Jaskier)","Профессиональный (многоголосый закадровый) (ViruseProject)","Профессиональный (многоголосый закадровый) (BaibaKo)","Профессиональный (многоголосый закадровый) (AMS)","Любительский (многоголосый закадровый) (Octopus)","Любительский (многоголосый закадровый) (ColdFilm)","Профессиональный (многоголосый закадровый) (Zone Vision Studio)"],"seasons_count":3,"episodes_count":34,"episodes":8,"update":"2020-10-10 09:32:58","iframe_src":"//24213.svetacdn.in/si4jsFRrtgrT/tv-series/1725"},{"id":13201,"title":"41-летний девственник, который...","kp_id":"511933","imdb_id":"tt1498870","world_art_id":null,"type":"movie","add":"2017-08-29 05:17:29","orig_title":"The 41-Year-Old Virgin Who Knocked Up Sarah Marshall and Felt Superbad About It","year":"2010-06-08","translations":["Профессиональный (многоголосый закадровый)"],"quality":"bd","translation":"Профессиональный (многоголосый закадровый)","update":"2022-02-11 08:15:16","iframe_src":"//24213.svetacdn.in/si4jsFRrtgrT/movie/13201"},{"id":1434,"title":"Комната 104","kp_id":"1007679","imdb_id":"tt6064882","world_art_id":null,"type":"serial","add":"2017-07-31 07:41:53","orig_title":"Room 104","year":"2017-07-28","translations":["Профессиональный (многоголосый закадровый) (Amedia)","Профессиональный (многоголосый закадровый) (HDrezka Studio)","Профессиональный (многоголосый закадровый) (Good People)","Профессиональный (многоголосый закадровый) (IdeaFilm)","Профессиональный (многоголосый закадровый) (OMSKBIRD records)","Профессиональный (многоголосый закадровый) (Jaskier)","Профессиональный (многоголосый закадровый) (TVShows)","Профессиональный (двухголосый закадровый) (IdeaFilm)","Любительский (многоголосый закадровый) (Octopus)","Любительский (многоголосый закадровый) (ColdFilm)","Любительский (многоголосый закадровый) (RG.Paravozik)"],"seasons_count":4,"episodes_count":48,"episodes":12,"update":"2020-10-12 15:46:15","iframe_src":"//24213.svetacdn.in/si4jsFRrtgrT/tv-series/1434"},{"id":11527,"title":"Война Дронов","kp_id":"949253","imdb_id":"tt5239972","world_art_id":null,"type":"movie","add":"2017-05-14 21:14:35","orig_title":"Drone Wars","year":"2016-03-30","translations":["Профессиональный (многоголосый закадровый) (ТВ3)"],"quality":"bd","translation":"Профессиональный (многоголосый закадровый) (ТВ3)","update":"2022-02-11 08:19:21","iframe_src":"//24213.svetacdn.in/si4jsFRrtgrT/movie/11527"},{"id":10486,"title":"Тревожная кнопка","kp_id":"569017","imdb_id":"tt1727358","world_art_id":null,"type":"movie","add":"2017-03-22 22:59:54","orig_title":"Panic Button","year":"2011-08-27","translations":["Любительский (одноголосый закадровый) (den904)","Любительский (одноголосый закадровый) (den904)"],"quality":"bd","translation":"Любительский (одноголосый закадровый) (den904)","update":"2022-02-11 07:21:36","iframe_src":"//24213.svetacdn.in/si4jsFRrtgrT/movie/10486"},{"id":9833,"title":"Сопротивление воздуха","kp_id":"829516","imdb_id":"tt3525584","world_art_id":null,"type":"movie","add":"2017-02-20 12:13:54","orig_title":"La résistance de l'air","year":"2015-03-25","translations":["Профессиональный (многоголосый закадровый)","Профессиональный (многоголосый закадровый)"],"quality":"bd","translation":"Профессиональный (многоголосый закадровый)","update":"2022-02-11 07:22:41","iframe_src":"//24213.svetacdn.in/si4jsFRrtgrT/movie/9833"},{"id":7423,"title":"Мокасины Маниту","kp_id":"818","imdb_id":"tt0248408","world_art_id":null,"type":"movie","add":"2016-11-14 13:55:00","orig_title":"Der Schuh des Manitu","year":"2001-07-13","translations":["Полное дублирование (Мосфильм)"],"quality":"bd","translation":"Полное дублирование (Мосфильм)","update":"2022-02-11 08:21:08","iframe_src":"//24213.svetacdn.in/si4jsFRrtgrT/movie/7423"},{"id":4772,"title":"Простой план","kp_id":"2212","imdb_id":"tt0120324","world_art_id":null,"type":"movie","add":"2016-08-29 07:59:32","orig_title":"A Simple Plan","year":"1998-09-12","translations":["Профессиональный (двухголосый закадровый)","Профессиональный (двухголосый закадровый) (Videogram)"],"quality":"bd","translation":"Профессиональный (двухголосый закадровый)","update":"2022-02-11 07:43:13","iframe_src":"//24213.svetacdn.in/si4jsFRrtgrT/movie/4772"},{"id":4282,"title":"Звонок","kp_id":"804","imdb_id":"tt0298130","world_art_id":null,"type":"movie","add":"2016-08-02 14:31:16","orig_title":"The Ring","year":"2002-10-02","translations":["Полное дублирование","Авторский (одноголосый закадровый) (Рудой Евгений)","Авторский (одноголосый закадровый) (Живов Юрий)","Полное дублирование","[EN] Original (English)","Профессиональный (двухголосый закадровый) (DDV)","Профессиональный (многоголосый закадровый) (LDV)"],"quality":"bd","translation":"Полное дублирование","update":"2022-02-11 08:09:39","iframe_src":"//24213.svetacdn.in/si4jsFRrtgrT/movie/4282"},{"id":4201,"title":"Мартовские иды","kp_id":"462482","imdb_id":"tt1124035","world_art_id":null,"type":"movie","add":"2016-07-28 05:36:17","orig_title":"The Ides of March","year":"2011-08-31","translations":["Полное дублирование","Полное дублирование (Пифагор)"],"quality":"bd","translation":"Полное дублирование","update":"2022-02-11 07:09:04","iframe_src":"//24213.svetacdn.in/si4jsFRrtgrT/movie/4201"},{"id":4070,"title":"Полиция Майами: Отдел нравов","kp_id":"88010","imdb_id":"tt0430357","world_art_id":null,"type":"movie","add":"2016-07-20 21:28:43","orig_title":"Miami Vice","year":"2006-07-20","translations":["Полное дублирование","Полное дублирование (Пифагор)"],"quality":"bd","translation":"Полное дублирование","update":"2022-02-11 07:07:58","iframe_src":"//24213.svetacdn.in/si4jsFRrtgrT/movie/4070"},{"id":288,"title":"Очень странные дела","kp_id":"915196","imdb_id":"tt4574334","world_art_id":null,"type":"serial","add":"2016-07-18 05:05:32","orig_title":"Stranger Things","year":"2016-07-15","translations":["Профессиональный (многоголосый закадровый) (NewStudio)","Профессиональный (многоголосый закадровый) (LostFilm)","Полное дублирование (Пифагор)","Профессиональный (многоголосый закадровый) (HDrezka Studio)","Профессиональный (многоголосый закадровый) (Jaskier)","Профессиональный (двухголосый закадровый) (Gears Media)","Профессиональный (многоголосый закадровый) (Good People)","Профессиональный (многоголосый закадровый) (TVShows)","Профессиональный (многоголосый закадровый) (OMSKBIRD records)"],"seasons_count":3,"episodes_count":25,"episodes":8,"update":"2020-10-11 20:30:51","iframe_src":"//24213.svetacdn.in/si4jsFRrtgrT/tv-series/288"},{"id":256,"title":"Черные паруса","kp_id":"714095","imdb_id":"tt2375692","world_art_id":null,"type":"serial","add":"2016-07-05 12:22:54","orig_title":"Black Sails","year":"2014-01-25","translations":["Профессиональный (многоголосый закадровый) (AlexFilm)","Профессиональный (многоголосый закадровый) (BaibaKo)","Профессиональный (многоголосый закадровый) (SDI Media | Iyuno-SDI Group Russia)","Профессиональный (многоголосый закадровый) (TVShows)","Профессиональный (многоголосый закадровый) (LostFilm)","Профессиональный (многоголосый закадровый) (FocusStudio)","Профессиональный (многоголосый закадровый) (AMS)"],"seasons_count":4,"episodes_count":38,"episodes":10,"update":"2020-10-11 19:09:41","iframe_src":"//24213.svetacdn.in/si4jsFRrtgrT/tv-series/256"},{"id":3096,"title":"Прирожденные убийцы","kp_id":"1065","imdb_id":"tt0110632","world_art_id":null,"type":"movie","add":"2016-06-13 17:58:49","orig_title":"Natural Born Killers","year":"1994-08-26","translations":["Профессиональный (многоголосый закадровый)","Профессиональный (двухголосый закадровый) (Гланц + Королёва)"],"quality":"bd","translation":"Профессиональный (многоголосый закадровый)","update":"2022-02-11 07:04:44","iframe_src":"//24213.svetacdn.in/si4jsFRrtgrT/movie/3096"},{"id":2372,"title":"Спеши любить","kp_id":"875","imdb_id":"tt0281358","world_art_id":null,"type":"movie","add":"2016-05-19 14:36:09","orig_title":"A Walk to Remember","year":"2002-01-23","translations":["Полное дублирование","Полное дублирование"],"quality":"bd","translation":"Полное дублирование","update":"2022-02-11 07:25:38","iframe_src":"//24213.svetacdn.in/si4jsFRrtgrT/movie/2372"},{"id":1222,"title":"Комната","kp_id":"798068","imdb_id":"tt3170832","world_art_id":null,"type":"movie","add":"2016-04-18 19:46:09","orig_title":"Room","year":"2015-09-04","translations":["Профессиональный (многоголосый закадровый) (HDrezka Studio)","Полное дублирование","Профессиональный (многоголосый закадровый) (FocusX)","Полное дублирование (Прайд Продакшн | Pride Production)"],"quality":"webdl","translation":"Профессиональный (многоголосый закадровый) (HDrezka Studio)","update":"2022-02-11 08:05:09","iframe_src":"//24213.svetacdn.in/si4jsFRrtgrT/movie/1222"},{"id":10,"title":"Сотня","kp_id":"733493","imdb_id":"tt2661044","world_art_id":null,"type":"serial","add":"2016-03-10 20:53:09","orig_title":"The 100","year":"2014-05-19","translations":["Профессиональный (многоголосый закадровый) (LostFilm)","Профессиональный (многоголосый закадровый) (NewStudio)","Профессиональный (многоголосый закадровый) (AlexFilm)","Профессиональный (многоголосый закадровый) (BaibaKo)","Профессиональный (многоголосый закадровый) (TVShows)","Любительский (многоголосый закадровый) (Octopus)","Любительский (многоголосый закадровый) (ColdFilm)","Профессиональный (двухголосый закадровый) (IdeaFilm)","Профессиональный (многоголосый закадровый) (Jaskier)","Любительский (многоголосый закадровый) (KerobTV)","Любительский (многоголосый закадровый) (WestFilm)","Любительский (многоголосый закадровый) (Hamster Studio)","Любительский (многоголосый закадровый) (RG.Paravozik)","Любительский (двухголосый закадровый) (KerobTV)"],"seasons_count":7,"episodes_count":100,"episodes":16,"update":"2020-10-10 18:22:39","iframe_src":"//24213.svetacdn.in/si4jsFRrtgrT/tv-series/10"},{"id":168,"title":"Воздух","kp_id":"645292","imdb_id":"tt2091478","world_art_id":null,"type":"movie","add":"2016-02-23 11:40:01","orig_title":"Air","year":"2015-08-14","translations":["Профессиональный (многоголосый закадровый)","Профессиональный (многоголосый закадровый)"],"quality":"bd","translation":"Профессиональный (многоголосый закадровый)","update":"2022-02-11 07:29:42","iframe_src":"//24213.svetacdn.in/si4jsFRrtgrT/movie/168"}],"current_page":273,"first_page_url":"https://videocdn.tv/api/short?limit=100&api_token=X6EwAUfE5M9xbo7y0Bp0aPf3uXxG2KLL&cache3273=3273&page=1","from":27201,"last_page":728,"last_page_url":"https://videocdn.tv/api/short?limit=100&api_token=X6EwAUfE5M9xbo7y0Bp0aPf3uXxG2KLL&cache3273=3273&page=728","next_page_url":"https://videocdn.tv/api/short?limit=100&api_token=X6EwAUfE5M9xbo7y0Bp0aPf3uXxG2KLL&cache3273=3273&page=274","path":"https://videocdn.tv/api/short","per_page":100,"prev_page_url":"https://videocdn.tv/api/short?limit=100&api_token=X6EwAUfE5M9xbo7y0Bp0aPf3uXxG2KLL&cache3273=3273&page=272","to":27240,"total":72780}