{"result":true,"data":[{"id":48240,"title":"Сакко и Ванцетти","kp_id":"54280","imdb_id":"tt0067698","world_art_id":null,"type":"movie","add":"2021-02-25 06:38:16","orig_title":"Sacco e Vanzetti","year":"1971-03-16","translations":["Любительский (многоголосый закадровый)"],"quality":"bd","translation":"Любительский (многоголосый закадровый)","update":"2021-02-25 12:31:46","iframe_src":"//8332.svetacdn.in/71tsRs29n5tZ/movie/48240"},{"id":48238,"title":"Спешащий человек","kp_id":"57351","imdb_id":"tt0076154","world_art_id":null,"type":"movie","add":"2021-02-25 06:09:25","orig_title":"L'homme pressé","year":"1977-08-10","translations":["Профессиональный (двухголосый закадровый)"],"quality":"bd","translation":"Профессиональный (двухголосый закадровый)","update":"2021-02-25 13:37:39","iframe_src":"//8332.svetacdn.in/71tsRs29n5tZ/movie/48238"},{"id":48232,"title":"Небо нашего детства","kp_id":"46378","imdb_id":"tt0060745","world_art_id":null,"type":"movie","add":"2021-02-24 18:23:09","orig_title":"Nebo nashego detstva","year":"1966-04-16","translations":["Оригинальная дорожка"],"quality":"sat","translation":"Оригинальная дорожка","update":"2021-02-25 12:15:36","iframe_src":"//8332.svetacdn.in/71tsRs29n5tZ/movie/48232"},{"id":48231,"title":"Красное яблоко","kp_id":"44956","imdb_id":"tt0173969","world_art_id":null,"type":"movie","add":"2021-02-24 18:20:27","orig_title":"Krasnoe yabloko","year":"1976-03-09","translations":["Оригинальная дорожка"],"quality":"sat","translation":"Оригинальная дорожка","update":"2021-02-25 12:06:56","iframe_src":"//8332.svetacdn.in/71tsRs29n5tZ/movie/48231"},{"id":48230,"title":"Дверь без замка","kp_id":"224042","imdb_id":"tt0383332","world_art_id":null,"type":"movie","add":"2021-02-24 18:18:15","orig_title":"Dver bez zamka","year":"1973-01-01","translations":["Оригинальная дорожка"],"quality":"sat","translation":"Оригинальная дорожка","update":"2021-02-25 12:01:11","iframe_src":"//8332.svetacdn.in/71tsRs29n5tZ/movie/48230"},{"id":48229,"title":"Девушка Тянь-Шаня","kp_id":"976221","imdb_id":"tt5646212","world_art_id":null,"type":"movie","add":"2021-02-24 18:15:13","orig_title":"Devushka Tyan-Shanya","year":"1960-10-10","translations":["Оригинальная дорожка"],"quality":"sat","translation":"Оригинальная дорожка","update":"2021-02-25 11:55:23","iframe_src":"//8332.svetacdn.in/71tsRs29n5tZ/movie/48229"},{"id":48225,"title":"Гроссмейстер","kp_id":"85183","imdb_id":"tt0382724","world_art_id":null,"type":"movie","add":"2021-02-24 12:38:04","orig_title":"Grossmeyster","year":"1973-08-13","translations":["Оригинальная дорожка"],"quality":"dvb","translation":"Оригинальная дорожка","update":"2021-02-25 11:49:45","iframe_src":"//8332.svetacdn.in/71tsRs29n5tZ/movie/48225"},{"id":48224,"title":"Господин гимназист","kp_id":"44586","imdb_id":"tt0264654","world_art_id":null,"type":"movie","add":"2021-02-24 12:35:49","orig_title":"Gospodin gimnazist","year":"1985-01-01","translations":["Оригинальная дорожка"],"quality":"dvdrip","translation":"Оригинальная дорожка","update":"2021-02-25 11:48:37","iframe_src":"//8332.svetacdn.in/71tsRs29n5tZ/movie/48224"},{"id":48223,"title":"Факт биографии","kp_id":"471149","imdb_id":"tt4854072","world_art_id":null,"type":"movie","add":"2021-02-24 12:25:54","orig_title":"Fakt biografii","year":"1975-01-01","translations":["Оригинальная дорожка"],"quality":"tv","translation":"Оригинальная дорожка","update":"2021-02-25 11:46:53","iframe_src":"//8332.svetacdn.in/71tsRs29n5tZ/movie/48223"},{"id":48222,"title":"Егор Булычов и другие","kp_id":"42433","imdb_id":"tt0068001","world_art_id":null,"type":"movie","add":"2021-02-24 12:23:39","orig_title":"Yegor Bulychyov i drugiye","year":"1972-09-16","translations":["Оригинальная дорожка"],"quality":"dvdrip","translation":"Оригинальная дорожка","update":"2021-02-25 11:43:15","iframe_src":"//8332.svetacdn.in/71tsRs29n5tZ/movie/48222"},{"id":48221,"title":"Эдгар и Кристина","kp_id":"41970","imdb_id":"tt0165278","world_art_id":null,"type":"movie","add":"2021-02-24 12:20:35","orig_title":"Purva bridejs","year":"1967-08-14","translations":["Полное дублирование"],"quality":"tv","translation":"Полное дублирование","update":"2021-02-25 11:18:38","iframe_src":"//8332.svetacdn.in/71tsRs29n5tZ/movie/48221"},{"id":48215,"title":"Пристанище смелых","kp_id":"1096697","imdb_id":"tt7279640","world_art_id":null,"type":"movie","add":"2021-02-24 09:58:14","orig_title":"Home of the Brave","year":"2018-04-25","translations":["Любительский (многоголосый закадровый) (Синема УС)"],"quality":"webdl","translation":"Любительский (многоголосый закадровый) (Синема УС)","update":"2021-02-25 11:22:21","iframe_src":"//8332.svetacdn.in/71tsRs29n5tZ/movie/48215"},{"id":47691,"title":"Последний Парадизо","kp_id":"1332482","imdb_id":"tt11428926","world_art_id":null,"type":"movie","add":"2021-02-05 21:01:17","orig_title":"L'ultimo paradiso","year":"2021-02-05","translations":["Любительский (двухголосый закадровый) (OnisFilms)","Любительский (многоголосый закадровый) (@MUZOBOZ@)","Любительский (многоголосый закадровый) (@MUZOBOZ@)"],"quality":"webdl","translation":"Любительский (двухголосый закадровый) (OnisFilms)","update":"2021-02-25 13:41:36","iframe_src":"//8332.svetacdn.in/71tsRs29n5tZ/movie/47691"},{"id":47220,"title":"32 недели","kp_id":"1447370","imdb_id":"tt13380288","world_art_id":null,"type":"movie","add":"2021-01-18 19:28:16","orig_title":"32 Weeks","year":"2020-11-12","translations":["Original (English)","Любительский (многоголосый закадровый) (Синема УС)","Любительский (многоголосый закадровый) (Синема УС)"],"quality":"webdl","translation":"Original (English)","update":"2021-02-25 12:29:09","iframe_src":"//8332.svetacdn.in/71tsRs29n5tZ/movie/47220"},{"id":46716,"title":"Ударная волна 2","kp_id":"1115076","imdb_id":"tt9597838","world_art_id":null,"type":"movie","add":"2021-01-05 21:10:03","orig_title":"Chai dan zhuan jia 2","year":"2020-12-23","translations":["Любительский (двухголосый закадровый) (Колобок)"],"quality":"webdl","translation":"Любительский (двухголосый закадровый) (Колобок)","update":"2021-02-25 13:42:41","iframe_src":"//8332.svetacdn.in/71tsRs29n5tZ/movie/46716"},{"id":46159,"title":"Семейка Крудс: Новоселье","kp_id":"758178","imdb_id":"tt2850386","world_art_id":null,"type":"movie","add":"2020-12-17 14:35:08","orig_title":"The Croods: A New Age","year":"2020-11-25","translations":["Original (English)","Полное дублирование (iTunes)"],"quality":"webdl","translation":"Original (English)","update":"2021-02-25 11:30:30","iframe_src":"//8332.svetacdn.in/71tsRs29n5tZ/movie/46159"},{"id":45701,"title":"Жалкие истории","kp_id":"1328545","imdb_id":"tt11362866","world_art_id":null,"type":"movie","add":"2020-11-30 05:53:01","orig_title":"Historias lamentables","year":"2020-11-19","translations":["Любительский (многоголосый закадровый) (AlphaProject)"],"quality":"webdl","translation":"Любительский (многоголосый закадровый) (AlphaProject)","update":"2021-02-25 13:40:49","iframe_src":"//8332.svetacdn.in/71tsRs29n5tZ/movie/45701"},{"id":7144,"title":"Боцман Чайка","kp_id":"844023","imdb_id":null,"world_art_id":null,"type":"serial","add":"2020-04-09 08:52:53","orig_title":"Боцман Чайка","year":"2014-11-23","translations":["Оригинальная дорожка"],"seasons_count":1,"episodes_count":4,"episodes":4,"update":"2020-04-09 17:33:58","iframe_src":"//8332.svetacdn.in/71tsRs29n5tZ/tv-series/7144"},{"id":7137,"title":"Инспектор Гаджет","kp_id":"229620","imdb_id":"tt0085033","world_art_id":null,"type":"serial","add":"2020-04-08 17:04:03","orig_title":"Inspector Gadget","year":"1983-09-12","translations":["Профессиональный (многоголосый закадровый)"],"seasons_count":2,"episodes_count":86,"episodes":21,"update":"2020-04-09 12:48:56","iframe_src":"//8332.svetacdn.in/71tsRs29n5tZ/tv-series/7137"},{"id":7135,"title":"Война за мечту","kp_id":"1189867","imdb_id":"tt6489202","world_art_id":null,"type":"serial","add":"2020-04-08 10:56:59","orig_title":"Clash of Futures","year":"2018-09-11","translations":["Любительский (многоголосый закадровый) (GreenРай Studio)"],"seasons_count":1,"episodes_count":8,"episodes":8,"update":"2020-04-08 18:13:40","iframe_src":"//8332.svetacdn.in/71tsRs29n5tZ/tv-series/7135"},{"id":7134,"title":"Гори в аду шоу","kp_id":"499941","imdb_id":"tt1556078","world_art_id":null,"type":"serial","add":"2020-04-08 10:51:46","orig_title":"Funny or Die Presents...","year":"2010-02-19","translations":["Профессиональный (многоголосый закадровый) (Кравец)"],"seasons_count":2,"episodes_count":22,"episodes":10,"update":"2020-04-08 17:37:24","iframe_src":"//8332.svetacdn.in/71tsRs29n5tZ/tv-series/7134"},{"id":7132,"title":"Твой мир","kp_id":"673039","imdb_id":"tt4280990","world_art_id":null,"type":"serial","add":"2020-04-08 07:37:27","orig_title":"Tvoy mir","year":"2012-05-14","translations":["Оригинальная дорожка"],"seasons_count":1,"episodes_count":16,"episodes":16,"update":"2020-04-09 08:42:45","iframe_src":"//8332.svetacdn.in/71tsRs29n5tZ/tv-series/7132"},{"id":7129,"title":"Три сестры","kp_id":"1356111","imdb_id":"tt11981288","world_art_id":null,"type":"serial","add":"2020-04-08 07:20:26","orig_title":"Tri sestry","year":"2020-03-02","translations":["Оригинальная дорожка"],"seasons_count":1,"episodes_count":8,"episodes":8,"update":"2020-04-08 15:48:42","iframe_src":"//8332.svetacdn.in/71tsRs29n5tZ/tv-series/7129"},{"id":7124,"title":"Старая школа","kp_id":"818797","imdb_id":"tt3164100","world_art_id":null,"type":"serial","add":"2020-04-07 19:53:06","orig_title":"Old School","year":"2014-05-23","translations":["Профессиональный (многоголосый закадровый) (BaibaKo)"],"seasons_count":1,"episodes_count":8,"episodes":8,"update":"2020-04-08 20:39:29","iframe_src":"//8332.svetacdn.in/71tsRs29n5tZ/tv-series/7124"},{"id":7121,"title":"Компаньоны","kp_id":"504724","imdb_id":"tt1600199","world_art_id":null,"type":"serial","add":"2020-04-07 12:28:41","orig_title":"Franklin & Bash","year":"2011-06-01","translations":["Профессиональный (многоголосый закадровый) (SET)"],"seasons_count":4,"episodes_count":40,"episodes":10,"update":"2020-04-08 14:34:20","iframe_src":"//8332.svetacdn.in/71tsRs29n5tZ/tv-series/7121"},{"id":7118,"title":"Изящный цветок","kp_id":"297213","imdb_id":"tt0101050","world_art_id":null,"type":"serial","add":"2020-04-07 11:31:37","orig_title":"Blossom","year":"1991-01-03","translations":["Любительский (одноголосый закадровый)"],"seasons_count":1,"episodes_count":14,"episodes":14,"update":"2020-04-08 14:03:44","iframe_src":"//8332.svetacdn.in/71tsRs29n5tZ/tv-series/7118"},{"id":7115,"title":"Величайшие сражения древности","kp_id":"472210","imdb_id":"tt1274788","world_art_id":null,"type":"serial","add":"2020-04-07 08:44:26","orig_title":"Battles BC","year":"2009-03-09","translations":["Профессиональный (многоголосый закадровый)"],"seasons_count":1,"episodes_count":8,"episodes":8,"update":"2020-04-08 15:52:00","iframe_src":"//8332.svetacdn.in/71tsRs29n5tZ/tv-series/7115"},{"id":7114,"title":"Петтсон и Финдус","kp_id":"601836","imdb_id":"tt1122790","world_art_id":null,"type":"serial","add":"2020-04-07 07:43:53","orig_title":"Pettson und Findus","year":"1999-01-01","translations":["Полное дублирование"],"seasons_count":1,"episodes_count":13,"episodes":13,"update":"2020-04-08 15:46:59","iframe_src":"//8332.svetacdn.in/71tsRs29n5tZ/tv-series/7114"},{"id":7113,"title":"Супер весёлый вечер","kp_id":"673145","imdb_id":"tt2298477","world_art_id":null,"type":"serial","add":"2020-04-07 07:35:42","orig_title":"Super Fun Night","year":"2013-10-02","translations":["Профессиональный (многоголосый закадровый) (ТНТ)"],"seasons_count":1,"episodes_count":17,"episodes":17,"update":"2020-04-08 15:09:49","iframe_src":"//8332.svetacdn.in/71tsRs29n5tZ/tv-series/7113"},{"id":7108,"title":"Красные браслеты","kp_id":"929638","imdb_id":"tt4942462","world_art_id":null,"type":"serial","add":"2020-04-06 13:39:43","orig_title":"Club der roten Bänder","year":"2015-11-09","translations":["Профессиональный (двухголосый закадровый) (ViruseProject)","Профессиональный (многоголосый закадровый) (ViruseProject)"],"seasons_count":3,"episodes_count":30,"episodes":10,"update":"2020-04-09 05:52:14","iframe_src":"//8332.svetacdn.in/71tsRs29n5tZ/tv-series/7108"},{"id":7085,"title":"Береговая охрана 2","kp_id":"837754","imdb_id":"tt5034904","world_art_id":null,"type":"serial","add":"2020-04-04 09:28:17","orig_title":"Beregovaya okhrana 2","year":"2014-01-01","translations":["Оригинальная дорожка"],"seasons_count":1,"episodes_count":31,"episodes":31,"update":"2020-04-09 13:23:29","iframe_src":"//8332.svetacdn.in/71tsRs29n5tZ/tv-series/7085"},{"id":7039,"title":"Час Волкова","kp_id":"417852","imdb_id":"tt4055172","world_art_id":null,"type":"serial","add":"2020-04-01 10:32:33","orig_title":"Chas Volkova","year":"2007-10-03","translations":["Оригинальная дорожка"],"seasons_count":5,"episodes_count":138,"episodes":32,"update":"2020-04-09 11:48:51","iframe_src":"//8332.svetacdn.in/71tsRs29n5tZ/tv-series/7039"},{"id":6754,"title":"Корни","kp_id":"1278738","imdb_id":null,"world_art_id":null,"type":"serial","add":"2020-03-02 14:02:15","orig_title":"Корни","year":"2020-03-02","translations":["Оригинальная дорожка"],"seasons_count":1,"episodes_count":21,"episodes":21,"update":"2020-04-08 19:52:08","iframe_src":"//8332.svetacdn.in/71tsRs29n5tZ/tv-series/6754"},{"id":6318,"title":"Ласточкино гнездо","kp_id":"591824","imdb_id":"tt3286686","world_art_id":null,"type":"serial","add":"2020-01-11 16:23:59","orig_title":"Ласточкино гнездо","year":"2012-01-09","translations":["Оригинальная дорожка"],"seasons_count":1,"episodes_count":12,"episodes":12,"update":"2020-04-08 19:34:32","iframe_src":"//8332.svetacdn.in/71tsRs29n5tZ/tv-series/6318"},{"id":6192,"title":"Благотворительный базар","kp_id":"1197908","imdb_id":"tt9050352","world_art_id":null,"type":"serial","add":"2019-12-31 12:02:16","orig_title":"Le Bazar de la Charité","year":"2019-11-11","translations":["Профессиональный (многоголосый закадровый) (BaibaKo)","Любительский (многоголосый закадровый) (WestFilm)","Профессиональный (двухголосый закадровый) (ViruseProject)"],"seasons_count":1,"episodes_count":8,"episodes":8,"update":"2020-04-09 08:51:55","iframe_src":"//8332.svetacdn.in/71tsRs29n5tZ/tv-series/6192"},{"id":34451,"title":"Ходячий призрак","kp_id":"1108970","imdb_id":"tt7612748","world_art_id":null,"type":"movie","add":"2019-12-25 21:01:22","orig_title":"The Ghost Who Walks","year":"2019-07-21","translations":["Любительский (многоголосый закадровый) (Синема УС)","Original (English)","Профессиональный (многоголосый закадровый)"],"quality":"webdl","translation":"Любительский (многоголосый закадровый) (Синема УС)","update":"2021-02-25 13:39:43","iframe_src":"//8332.svetacdn.in/71tsRs29n5tZ/movie/34451"},{"id":4947,"title":"Правосудие","kp_id":"500600","imdb_id":"tt1489428","world_art_id":null,"type":"serial","add":"2019-07-25 20:21:36","orig_title":"Justified","year":"2010-03-16","translations":["Профессиональный (многоголосый закадровый) (Fox Crime)","Профессиональный (многоголосый закадровый) (Jaskier)"],"seasons_count":6,"episodes_count":78,"episodes":13,"update":"2020-04-08 13:56:04","iframe_src":"//8332.svetacdn.in/71tsRs29n5tZ/tv-series/4947"},{"id":2715,"title":"Фауда","kp_id":"893155","imdb_id":"tt4565380","world_art_id":null,"type":"serial","add":"2018-06-03 09:08:04","orig_title":"Fauda","year":"2015-02-15","translations":["Любительский (многоголосый закадровый) (ColdFilm)","Любительский (многоголосый закадровый) (GreenРай Studio)","Любительский (двухголосый закадровый) (RusFilm)","Профессиональный (многоголосый закадровый) (BaibaKo)","Любительский (многоголосый закадровый) (Octopus)","Любительский (многоголосый закадровый) (WestFilm)"],"seasons_count":3,"episodes_count":36,"episodes":12,"update":"2020-04-09 12:59:00","iframe_src":"//8332.svetacdn.in/71tsRs29n5tZ/tv-series/2715"},{"id":6689,"title":"Кладбище домашних животных 2","kp_id":"13882","imdb_id":"tt0105128","world_art_id":null,"type":"movie","add":"2016-10-26 05:11:16","orig_title":"Pet Sematary II","year":"1992-08-28","translations":["Профессиональный (многоголосый закадровый)","Полное дублирование","Авторский (одноголосый закадровый) (Гаврилов Андрей)","Авторский (одноголосый закадровый) (Кузнецов Сергей)","Авторский (одноголосый закадровый) (Сербин Юрий)","Original (English)","Профессиональный (двухголосый закадровый) (НТВ)","Профессиональный (многоголосый закадровый)","Профессиональный (многоголосый закадровый) (СТС)"],"quality":"hdtv","translation":"Профессиональный (многоголосый закадровый)","update":"2021-02-25 14:27:05","iframe_src":"//8332.svetacdn.in/71tsRs29n5tZ/movie/6689"},{"id":695,"title":"Не говори никому","kp_id":"22936","imdb_id":"tt0362225","world_art_id":null,"type":"movie","add":"2016-04-05 21:45:06","orig_title":"Ne le dis à personne","year":"2006-11-01","translations":["Полное дублирование","Авторский (одноголосый закадровый) (Гаврилов Андрей)"],"quality":"bd","translation":"Полное дублирование","update":"2021-02-25 13:49:52","iframe_src":"//8332.svetacdn.in/71tsRs29n5tZ/movie/695"}],"current_page":251,"first_page_url":"https://videocdn.tv/api/short?limit=100&api_token=EnbO9h8pv1VyjbCJhg0WM9nG259n7mtz&cache3251=3251&page=1","from":25001,"last_page":635,"last_page_url":"https://videocdn.tv/api/short?limit=100&api_token=EnbO9h8pv1VyjbCJhg0WM9nG259n7mtz&cache3251=3251&page=635","next_page_url":"https://videocdn.tv/api/short?limit=100&api_token=EnbO9h8pv1VyjbCJhg0WM9nG259n7mtz&cache3251=3251&page=252","path":"https://videocdn.tv/api/short","per_page":100,"prev_page_url":"https://videocdn.tv/api/short?limit=100&api_token=EnbO9h8pv1VyjbCJhg0WM9nG259n7mtz&cache3251=3251&page=250","to":25040,"total":63457}