{"result":true,"data":[{"id":28180,"title":"Дочь моряка","kp_id":"86235","imdb_id":"tt0422104","world_art_id":null,"type":"movie","add":"2019-06-22 19:11:25","orig_title":"Doch moryaka","year":"1941-02-03","translations":["Оригинальная дорожка"],"quality":"dvdrip","translation":"Оригинальная дорожка","update":"2019-06-24 11:38:00","iframe_src":"//7741.svetacdn.in/si4jsFRrtgrT/movie/28180"},{"id":28179,"title":"Федька","kp_id":"44408","imdb_id":"tt0349438","world_art_id":null,"type":"movie","add":"2019-06-22 19:08:02","orig_title":"Fedka","year":"1937-02-23","translations":["Оригинальная дорожка"],"quality":"dvdrip","translation":"Оригинальная дорожка","update":"2019-06-24 11:34:31","iframe_src":"//7741.svetacdn.in/si4jsFRrtgrT/movie/28179"},{"id":28178,"title":"Мечта","kp_id":"46585","imdb_id":"tt0033889","world_art_id":null,"type":"movie","add":"2019-06-22 19:02:41","orig_title":"Mechta","year":"1941-09-13","translations":["Оригинальная дорожка"],"quality":"dvdrip","translation":"Оригинальная дорожка","update":"2019-06-24 11:31:31","iframe_src":"//7741.svetacdn.in/si4jsFRrtgrT/movie/28178"},{"id":28177,"title":"Морской ястреб","kp_id":"46703","imdb_id":"tt0239667","world_art_id":null,"type":"movie","add":"2019-06-22 18:58:36","orig_title":"Morskoy yastreb","year":"1942-01-24","translations":["Оригинальная дорожка"],"quality":"dvdrip","translation":"Оригинальная дорожка","update":"2019-06-24 11:30:40","iframe_src":"//7741.svetacdn.in/si4jsFRrtgrT/movie/28177"},{"id":28175,"title":"Первопечатник Иван Федоров","kp_id":"578908","imdb_id":"tt3882630","world_art_id":null,"type":"movie","add":"2019-06-22 18:48:47","orig_title":"Pervopechatnik Ivan Fedorov","year":"1941-05-12","translations":["Оригинальная дорожка"],"quality":"dvdrip","translation":"Оригинальная дорожка","update":"2019-06-24 11:28:12","iframe_src":"//7741.svetacdn.in/si4jsFRrtgrT/movie/28175"},{"id":28174,"title":"Приключения Корзинкиной","kp_id":"565111","imdb_id":"tt4518318","world_art_id":null,"type":"movie","add":"2019-06-22 18:45:28","orig_title":"Priklyucheniya Korzinkinoi","year":"1941-11-01","translations":["Оригинальная дорожка"],"quality":"sat","translation":"Оригинальная дорожка","update":"2019-06-24 11:20:13","iframe_src":"//7741.svetacdn.in/si4jsFRrtgrT/movie/28174"},{"id":28172,"title":"Сильные духом","kp_id":"43788","imdb_id":"tt0062272","world_art_id":null,"type":"movie","add":"2019-06-22 18:12:31","orig_title":"Silnye dukhom","year":"1967-09-28","translations":["Оригинальная дорожка"],"quality":"dvdrip","translation":"Оригинальная дорожка","update":"2019-06-24 11:16:15","iframe_src":"//7741.svetacdn.in/si4jsFRrtgrT/movie/28172"},{"id":28171,"title":"Случай на шахте восемь","kp_id":"43856","imdb_id":"tt0314683","world_art_id":null,"type":"movie","add":"2019-06-22 18:07:38","orig_title":"Sluchay na shakhte vosem","year":"1958-01-14","translations":["Оригинальная дорожка"],"quality":"sat","translation":"Оригинальная дорожка","update":"2019-06-24 11:15:15","iframe_src":"//7741.svetacdn.in/si4jsFRrtgrT/movie/28171"},{"id":28170,"title":"Закон жизни","kp_id":"45218","imdb_id":"tt0033293","world_art_id":null,"type":"movie","add":"2019-06-22 18:04:08","orig_title":"Zakon zhizni","year":"1940-08-07","translations":["Оригинальная дорожка"],"quality":"sat","translation":"Оригинальная дорожка","update":"2019-06-24 11:14:16","iframe_src":"//7741.svetacdn.in/si4jsFRrtgrT/movie/28170"},{"id":28169,"title":"Оно","kp_id":"42773","imdb_id":"tt0098030","world_art_id":null,"type":"movie","add":"2019-06-22 17:55:25","orig_title":"Ono","year":"1990-02-11","translations":["Оригинальная дорожка"],"quality":"dvb","translation":"Оригинальная дорожка","update":"2019-06-24 11:13:29","iframe_src":"//7741.svetacdn.in/si4jsFRrtgrT/movie/28169"},{"id":28167,"title":"Золотая невеста","kp_id":"783249","imdb_id":"tt3565196","world_art_id":null,"type":"movie","add":"2019-06-22 14:20:27","orig_title":"Zolotaya nevesta","year":"2014-12-31","translations":["Оригинальная дорожка"],"quality":"webdl","translation":"Оригинальная дорожка","update":"2019-06-24 11:02:52","iframe_src":"//7741.svetacdn.in/si4jsFRrtgrT/movie/28167"},{"id":28153,"title":"Адель","kp_id":"450529","imdb_id":"tt1386403","world_art_id":null,"type":"movie","add":"2019-06-22 13:02:06","orig_title":"Adel","year":"2008-10-01","translations":["Оригинальная дорожка"],"quality":"dvdrip","translation":"Оригинальная дорожка","update":"2019-06-24 11:00:32","iframe_src":"//7741.svetacdn.in/si4jsFRrtgrT/movie/28153"},{"id":28152,"title":"Битва в пути","kp_id":"46137","imdb_id":"tt0166101","world_art_id":null,"type":"movie","add":"2019-06-22 12:56:00","orig_title":"Bitva v puti","year":"1961-09-27","translations":["Оригинальная дорожка"],"quality":"dvdrip","translation":"Оригинальная дорожка","update":"2019-06-24 10:57:48","iframe_src":"//7741.svetacdn.in/si4jsFRrtgrT/movie/28152"},{"id":28151,"title":"Будни","kp_id":"567076","imdb_id":"tt3028088","world_art_id":null,"type":"movie","add":"2019-06-22 12:52:56","orig_title":"Budni","year":"1940-07-27","translations":["Оригинальная дорожка"],"quality":"sat","translation":"Оригинальная дорожка","update":"2019-06-24 10:54:50","iframe_src":"//7741.svetacdn.in/si4jsFRrtgrT/movie/28151"},{"id":28150,"title":"Бульварный переплет","kp_id":"263528","imdb_id":"tt0816446","world_art_id":null,"type":"movie","add":"2019-06-22 12:50:12","orig_title":"Bulvarnyy pereplyot","year":"2003-08-12","translations":["Оригинальная дорожка"],"quality":"dvdrip","translation":"Оригинальная дорожка","update":"2019-06-24 07:28:35","iframe_src":"//7741.svetacdn.in/si4jsFRrtgrT/movie/28150"},{"id":28149,"title":"Игра на вылет","kp_id":"450281","imdb_id":"tt1386444","world_art_id":null,"type":"movie","add":"2019-06-22 12:46:52","orig_title":"Igra na vylet","year":"2001-02-01","translations":["Оригинальная дорожка"],"quality":"dvdrip","translation":"Оригинальная дорожка","update":"2019-06-24 07:28:03","iframe_src":"//7741.svetacdn.in/si4jsFRrtgrT/movie/28149"},{"id":28148,"title":"Как бы не так","kp_id":"79679","imdb_id":"tt0392210","world_art_id":null,"type":"movie","add":"2019-06-22 12:43:41","orig_title":"Kak by ne tak","year":"2003-10-22","translations":["Оригинальная дорожка"],"quality":"dvdrip","translation":"Оригинальная дорожка","update":"2019-06-24 07:24:15","iframe_src":"//7741.svetacdn.in/si4jsFRrtgrT/movie/28148"},{"id":28124,"title":"Маньчжурский вариант","kp_id":"46532","imdb_id":"tt0311484","world_art_id":null,"type":"movie","add":"2019-06-22 10:46:09","orig_title":"Manchzhurskiy variant","year":"1989-01-01","translations":["Оригинальная дорожка"],"quality":"dvdrip","translation":"Оригинальная дорожка","update":"2019-06-24 11:04:02","iframe_src":"//7741.svetacdn.in/si4jsFRrtgrT/movie/28124"},{"id":15949,"title":"Золушка.ru","kp_id":"419407","imdb_id":"tt5191334","world_art_id":null,"type":"movie","add":"2018-03-30 23:02:53","orig_title":"Zolushka","year":"2008-10-12","translations":["Оригинальная дорожка"],"quality":"webdl","translation":"Оригинальная дорожка","update":"2019-06-24 11:04:29","iframe_src":"//7741.svetacdn.in/si4jsFRrtgrT/movie/15949"},{"id":12405,"title":"Бедная Liz","kp_id":"771395","imdb_id":"tt3526970","world_art_id":null,"type":"movie","add":"2017-07-10 06:34:03","orig_title":"Bednaya Liz","year":"2013-09-27","translations":["Оригинальная дорожка"],"quality":"webdl","translation":"Оригинальная дорожка","update":"2019-06-24 11:00:19","iframe_src":"//7741.svetacdn.in/si4jsFRrtgrT/movie/12405"}],"current_page":1715,"first_page_url":"https://videocdn.tv/api/short?limit=100&api_token=X6EwAUfE5M9xbo7y0Bp0aPf3uXxG2KLL&cache31715=31715&page=1","from":171401,"last_page":706,"last_page_url":"https://videocdn.tv/api/short?limit=100&api_token=X6EwAUfE5M9xbo7y0Bp0aPf3uXxG2KLL&cache31715=31715&page=706","next_page_url":null,"path":"https://videocdn.tv/api/short","per_page":100,"prev_page_url":"https://videocdn.tv/api/short?limit=100&api_token=X6EwAUfE5M9xbo7y0Bp0aPf3uXxG2KLL&cache31715=31715&page=1714","to":171420,"total":70558}