{"result":true,"data":[{"id":50068,"title":"Богом забытая земля","kp_id":"4297081","imdb_id":"tt13576406","world_art_id":null,"type":"movie","add":"2021-05-03 09:19:57","orig_title":"Autio maa - Forsaken Land","year":"2019-07-20","translations":["Любительский (многоголосый закадровый) (Синема УС)"],"quality":"webdl","translation":"Любительский (многоголосый закадровый) (Синема УС)","update":"2021-05-03 11:18:52","iframe_src":"//7923.svetacdn.in/71tsRs29n5tZ/movie/50068"},{"id":50067,"title":"Склонность","kp_id":"1305104","imdb_id":"tt10902146","world_art_id":null,"type":"movie","add":"2021-05-03 08:51:55","orig_title":"Pulsión","year":"2019-06-11","translations":["Оригинальная дорожка"],"quality":"hdtv","translation":"Оригинальная дорожка","update":"2021-05-03 12:11:49","iframe_src":"//7923.svetacdn.in/71tsRs29n5tZ/movie/50067"},{"id":50066,"title":"Склонность","kp_id":"3504","imdb_id":"tt0118698","world_art_id":null,"type":"movie","add":"2021-05-03 08:29:30","orig_title":"Bent","year":"1997-05-01","translations":["Авторский (одноголосый закадровый) (Кузнецов Сергей)"],"quality":"hdrip","translation":"Авторский (одноголосый закадровый) (Кузнецов Сергей)","update":"2021-05-03 10:45:26","iframe_src":"//7923.svetacdn.in/71tsRs29n5tZ/movie/50066"},{"id":50065,"title":"Снежный гонщик","kp_id":"22126","imdb_id":"tt0251174","world_art_id":null,"type":"movie","add":"2021-05-03 06:28:24","orig_title":"Kevin of the North","year":"2001-12-19","translations":["Профессиональный (многоголосый закадровый)"],"quality":"dvdrip","translation":"Профессиональный (многоголосый закадровый)","update":"2021-05-03 08:16:37","iframe_src":"//7923.svetacdn.in/71tsRs29n5tZ/movie/50065"},{"id":50021,"title":"Мы расстались","kp_id":"1351968","imdb_id":"tt11867884","world_art_id":null,"type":"movie","add":"2021-04-30 14:59:09","orig_title":"We Broke Up","year":"2021-04-16","translations":["Original (English)"],"quality":"webdl","translation":"Original (English)","update":"2021-05-03 07:54:36","iframe_src":"//7923.svetacdn.in/71tsRs29n5tZ/movie/50021"},{"id":50014,"title":"Снежная сказка","kp_id":"1117949","imdb_id":null,"world_art_id":null,"type":"movie","add":"2021-04-30 14:00:23","orig_title":"Снежная сказка","year":"1986-01-01","translations":["Оригинальная дорожка"],"quality":"tc","translation":"Оригинальная дорожка","update":"2021-05-03 11:36:40","iframe_src":"//7923.svetacdn.in/71tsRs29n5tZ/movie/50014"},{"id":49970,"title":"Плохой колдун","kp_id":"1181810","imdb_id":"tt8782956","world_art_id":null,"type":"movie","add":"2021-04-28 09:54:35","orig_title":"Bad Witch","year":"2021-04-27","translations":["Любительский (многоголосый закадровый) (Синема УС)","Original (English)"],"quality":"webdl","translation":"Любительский (многоголосый закадровый) (Синема УС)","update":"2021-05-03 07:51:46","iframe_src":"//7923.svetacdn.in/71tsRs29n5tZ/movie/49970"},{"id":49968,"title":"Жива или?..","kp_id":null,"imdb_id":"tt13619218","world_art_id":null,"type":"movie","add":"2021-04-28 09:45:16","orig_title":"Dead Or?","year":"2021-01-01","translations":["Любительский (многоголосый закадровый) (Синема УС)","Original (English)"],"quality":"webdl","translation":"Любительский (многоголосый закадровый) (Синема УС)","update":"2021-05-03 07:53:07","iframe_src":"//7923.svetacdn.in/71tsRs29n5tZ/movie/49968"},{"id":49964,"title":"Соломон","kp_id":"904471","imdb_id":"tt4511400","world_art_id":null,"type":"movie","add":"2021-04-28 08:55:41","orig_title":"Solomon","year":"2021-04-27","translations":["Любительский (многоголосый закадровый) (AlphaProject)","Original (English)"],"quality":"webdl","translation":"Любительский (многоголосый закадровый) (AlphaProject)","update":"2021-05-03 07:55:23","iframe_src":"//7923.svetacdn.in/71tsRs29n5tZ/movie/49964"},{"id":49962,"title":"Скрытая истина","kp_id":"1268386","imdb_id":"tt10368680","world_art_id":null,"type":"movie","add":"2021-04-28 08:48:02","orig_title":"Below the Fold","year":"2021-04-13","translations":["Любительский (многоголосый закадровый) (@MUZOBOZ@)","Original (English)"],"quality":"webdl","translation":"Любительский (многоголосый закадровый) (@MUZOBOZ@)","update":"2021-05-03 07:49:53","iframe_src":"//7923.svetacdn.in/71tsRs29n5tZ/movie/49962"},{"id":49125,"title":"Нет этим улицам покоя","kp_id":"1248788","imdb_id":"tt9893266","world_art_id":null,"type":"movie","add":"2021-03-26 21:04:25","orig_title":"These Streets We Haunt","year":"2021-03-24","translations":["Любительский (многоголосый закадровый) (Синема УС)","Original (English)"],"quality":"webdl","translation":"Любительский (многоголосый закадровый) (Синема УС)","update":"2021-05-03 07:47:47","iframe_src":"//7923.svetacdn.in/71tsRs29n5tZ/movie/49125"},{"id":47472,"title":"Волшебник Макс","kp_id":"1119213","imdb_id":"tt7335154","world_art_id":null,"type":"movie","add":"2021-01-28 08:54:00","orig_title":"Magic Max","year":"2020-11-05","translations":["Любительский (многоголосый закадровый) (AlphaProject)","Original (English)"],"quality":"webdl","translation":"Любительский (многоголосый закадровый) (AlphaProject)","update":"2021-05-03 07:56:15","iframe_src":"//7923.svetacdn.in/71tsRs29n5tZ/movie/47472"},{"id":8711,"title":"И снова будет день","kp_id":"1379065","imdb_id":null,"world_art_id":null,"type":"serial","add":"2020-09-12 18:47:55","orig_title":"И снова будет день","year":"2020-04-18","translations":["Оригинальная дорожка"],"seasons_count":1,"episodes_count":4,"episodes":4,"update":"2020-09-13 06:31:06","iframe_src":"//7923.svetacdn.in/71tsRs29n5tZ/tv-series/8711"},{"id":8710,"title":"Лучшие детективы","kp_id":"1223573","imdb_id":"tt9332962","world_art_id":null,"type":"serial","add":"2020-09-12 17:00:36","orig_title":"The InBESTigators","year":"2019-06-21","translations":["Любительский (многоголосый закадровый) (WestFilm)"],"seasons_count":2,"episodes_count":20,"episodes":10,"update":"2020-09-13 13:34:03","iframe_src":"//7923.svetacdn.in/71tsRs29n5tZ/tv-series/8710"},{"id":8707,"title":"Закон Ньютон","kp_id":"1044478","imdb_id":"tt5951152","world_art_id":null,"type":"serial","add":"2020-09-12 07:42:56","orig_title":"Newton’s Law","year":"2017-02-09","translations":["Любительский (многоголосый закадровый) (WestFilm)"],"seasons_count":1,"episodes_count":8,"episodes":8,"update":"2020-09-13 06:48:54","iframe_src":"//7923.svetacdn.in/71tsRs29n5tZ/tv-series/8707"},{"id":8704,"title":"Клуб","kp_id":"1294681","imdb_id":"tt10833132","world_art_id":null,"type":"serial","add":"2020-09-11 16:12:26","orig_title":"El Club","year":"2019-11-15","translations":["Любительский (многоголосый закадровый) (WestFilm)"],"seasons_count":1,"episodes_count":25,"episodes":25,"update":"2020-09-12 08:38:12","iframe_src":"//7923.svetacdn.in/71tsRs29n5tZ/tv-series/8704"},{"id":8698,"title":"Кавардак","kp_id":"1158250","imdb_id":"tt8297790","world_art_id":null,"type":"serial","add":"2020-09-11 10:02:04","orig_title":"À la valdrague","year":"2018-04-09","translations":["Любительский (многоголосый закадровый) (WestFilm)"],"seasons_count":1,"episodes_count":8,"episodes":8,"update":"2020-09-13 09:45:01","iframe_src":"//7923.svetacdn.in/71tsRs29n5tZ/tv-series/8698"},{"id":8697,"title":"Поцелуйте невесту","kp_id":"764467","imdb_id":"tt4102312","world_art_id":null,"type":"serial","add":"2020-09-11 07:03:01","orig_title":"Potseluyte nevestu","year":"2013-05-27","translations":["Оригинальная дорожка"],"seasons_count":1,"episodes_count":64,"episodes":64,"update":"2020-09-12 08:09:09","iframe_src":"//7923.svetacdn.in/71tsRs29n5tZ/tv-series/8697"},{"id":8684,"title":"Охотники на драконов","kp_id":"276206","imdb_id":"tt0488444","world_art_id":null,"type":"serial","add":"2020-09-10 08:52:07","orig_title":"Chasseurs de dragons","year":"2006-03-01","translations":["Профессиональный (многоголосый закадровый)"],"seasons_count":2,"episodes_count":52,"episodes":26,"update":"2020-09-12 13:23:44","iframe_src":"//7923.svetacdn.in/71tsRs29n5tZ/tv-series/8684"},{"id":8672,"title":"Товарищи","kp_id":"626871","imdb_id":"tt3945686","world_art_id":null,"type":"serial","add":"2020-09-09 08:56:32","orig_title":"Jeonwoo","year":"2010-06-19","translations":["Любительский (двухголосый закадровый) (GREEN TEA)"],"seasons_count":1,"episodes_count":20,"episodes":20,"update":"2020-09-12 09:11:17","iframe_src":"//7923.svetacdn.in/71tsRs29n5tZ/tv-series/8672"},{"id":8670,"title":"Братья Джонас","kp_id":"402590","imdb_id":"tt1044418","world_art_id":null,"type":"serial","add":"2020-09-09 07:03:19","orig_title":"Jonas","year":"2009-05-21","translations":["Полное дублирование"],"seasons_count":2,"episodes_count":34,"episodes":13,"update":"2020-09-12 09:37:09","iframe_src":"//7923.svetacdn.in/71tsRs29n5tZ/tv-series/8670"},{"id":8669,"title":"Мать-и-мачеха","kp_id":"775238","imdb_id":"tt4060020","world_art_id":null,"type":"serial","add":"2020-09-09 06:50:09","orig_title":"Mat'-i-machekha","year":"2013-09-09","translations":["Оригинальная дорожка"],"seasons_count":1,"episodes_count":12,"episodes":12,"update":"2020-09-12 09:59:07","iframe_src":"//7923.svetacdn.in/71tsRs29n5tZ/tv-series/8669"},{"id":8668,"title":"Спутники","kp_id":"840899","imdb_id":null,"world_art_id":null,"type":"serial","add":"2020-09-09 06:12:04","orig_title":"Спутники","year":"2020-09-08","translations":["Оригинальная дорожка"],"seasons_count":1,"episodes_count":8,"episodes":8,"update":"2020-09-12 16:36:40","iframe_src":"//7923.svetacdn.in/71tsRs29n5tZ/tv-series/8668"},{"id":8659,"title":"Бразильянки","kp_id":"592424","imdb_id":"tt1951552","world_art_id":null,"type":"serial","add":"2020-09-08 17:07:57","orig_title":"As Brasileiras","year":"2012-02-02","translations":["Любительский (двухголосый закадровый) (Alternative Production)"],"seasons_count":1,"episodes_count":22,"episodes":22,"update":"2020-09-12 10:08:30","iframe_src":"//7923.svetacdn.in/71tsRs29n5tZ/tv-series/8659"},{"id":8637,"title":"Гордость и предубеждение","kp_id":"843689","imdb_id":null,"world_art_id":null,"type":"serial","add":"2020-09-06 13:01:57","orig_title":"Omangwa pyeongyeon","year":"2014-10-27","translations":["Любительский (двухголосый закадровый) (GREEN TEA)"],"seasons_count":1,"episodes_count":21,"episodes":21,"update":"2020-09-12 10:23:59","iframe_src":"//7923.svetacdn.in/71tsRs29n5tZ/tv-series/8637"},{"id":8636,"title":"Безнадежная любовь","kp_id":"747666","imdb_id":"tt3364858","world_art_id":null,"type":"serial","add":"2020-09-06 12:38:34","orig_title":"Motdoen sarang","year":"2007-12-03","translations":["Любительский (одноголосый закадровый) (GREEN TEA)"],"seasons_count":1,"episodes_count":20,"episodes":20,"update":"2020-09-12 11:57:26","iframe_src":"//7923.svetacdn.in/71tsRs29n5tZ/tv-series/8636"},{"id":8631,"title":"Сладкая жизнь","kp_id":"736143","imdb_id":"tt2015595","world_art_id":null,"type":"serial","add":"2020-09-05 18:09:29","orig_title":"Dalkomhan insaeng","year":"2008-05-03","translations":["Любительский (двухголосый закадровый) (GREEN TEA)"],"seasons_count":1,"episodes_count":24,"episodes":24,"update":"2020-09-12 10:24:25","iframe_src":"//7923.svetacdn.in/71tsRs29n5tZ/tv-series/8631"},{"id":8630,"title":"Щенок в моем кармане","kp_id":"656698","imdb_id":"tt1842602","world_art_id":null,"type":"serial","add":"2020-09-05 16:54:40","orig_title":"Cuccioli cerca amici nel regno di Pocketville","year":"2010-10-25","translations":["Профессиональный (многоголосый закадровый)"],"seasons_count":1,"episodes_count":52,"episodes":52,"update":"2020-09-12 11:58:18","iframe_src":"//7923.svetacdn.in/71tsRs29n5tZ/tv-series/8630"},{"id":8591,"title":"Давай найдем друг друга","kp_id":"1363088","imdb_id":null,"world_art_id":null,"type":"serial","add":"2020-08-31 18:55:49","orig_title":"Давай найдем друг друга","year":"2020-08-31","translations":["Оригинальная дорожка"],"seasons_count":1,"episodes_count":16,"episodes":16,"update":"2020-09-11 19:31:35","iframe_src":"//7923.svetacdn.in/71tsRs29n5tZ/tv-series/8591"},{"id":8418,"title":"Надежда","kp_id":"1147712","imdb_id":"tt7915124","world_art_id":null,"type":"serial","add":"2020-08-12 20:37:57","orig_title":"Håbet","year":"2018-12-01","translations":["Любительский (многоголосый закадровый) (Octopus)","Любительский (многоголосый закадровый) (WestFilm)"],"seasons_count":1,"episodes_count":4,"episodes":4,"update":"2020-09-13 07:51:25","iframe_src":"//7923.svetacdn.in/71tsRs29n5tZ/tv-series/8418"},{"id":8415,"title":"Кеплер теряет контроль","kp_id":"1174482","imdb_id":"tt8548922","world_art_id":null,"type":"serial","add":"2020-08-12 12:40:31","orig_title":"Kepler(s)","year":"2018-04-30","translations":[],"seasons_count":1,"episodes_count":6,"episodes":6,"update":"2020-09-13 06:54:33","iframe_src":"//7923.svetacdn.in/71tsRs29n5tZ/tv-series/8415"},{"id":31161,"title":"Выход","kp_id":"1118187","imdb_id":"tt10648440","world_art_id":null,"type":"movie","add":"2019-09-25 09:09:10","orig_title":"Eksiteu","year":"2019-07-31","translations":["Любительский (многоголосый закадровый) (Колобок)","Любительский (двухголосый закадровый) (RealFake)","Полное дублирование (iTunes)"],"quality":"webdl","translation":"Любительский (многоголосый закадровый) (Колобок)","update":"2021-05-03 11:15:11","iframe_src":"//7923.svetacdn.in/71tsRs29n5tZ/movie/31161"},{"id":24002,"title":"Хозяин тайги","kp_id":"44795","imdb_id":"tt0063180","world_art_id":null,"type":"movie","add":"2019-04-07 13:46:56","orig_title":"Khozyain taygi","year":"1969-07-08","translations":["Оригинальная дорожка","Оригинальная дорожка"],"quality":"dvdrip","translation":"Оригинальная дорожка","update":"2021-05-03 11:38:18","iframe_src":"//7923.svetacdn.in/71tsRs29n5tZ/movie/24002"},{"id":23319,"title":"Москва-Кассиопея","kp_id":"46711","imdb_id":"tt0070413","world_art_id":null,"type":"movie","add":"2019-03-21 08:13:10","orig_title":"Moskva-Kassiopeya","year":"1974-09-23","translations":["Оригинальная дорожка"],"quality":"webdl","translation":"Оригинальная дорожка","update":"2021-05-03 11:24:01","iframe_src":"//7923.svetacdn.in/71tsRs29n5tZ/movie/23319"},{"id":4212,"title":"Доказанная невиновность","kp_id":"1115573","imdb_id":"tt7958782","world_art_id":null,"type":"serial","add":"2019-03-06 06:08:41","orig_title":"Proven Innocent","year":"2019-02-15","translations":["Профессиональный (многоголосый закадровый) (NewStudio)","Профессиональный (многоголосый закадровый) (OMSKBIRD records)","Профессиональный (многоголосый закадровый) (HDrezka Studio)"],"seasons_count":1,"episodes_count":13,"episodes":13,"update":"2020-09-12 17:40:33","iframe_src":"//7923.svetacdn.in/71tsRs29n5tZ/tv-series/4212"},{"id":15932,"title":"Корабль дураков","kp_id":"16755","imdb_id":"tt0059712","world_art_id":null,"type":"movie","add":"2018-03-30 21:22:27","orig_title":"Ship of Fools","year":"1965-07-29","translations":["Профессиональный (двухголосый закадровый)","Профессиональный (многоголосый закадровый) (Фильм Престиж)"],"quality":"bd","translation":"Профессиональный (двухголосый закадровый)","update":"2021-05-03 11:32:41","iframe_src":"//7923.svetacdn.in/71tsRs29n5tZ/movie/15932"},{"id":15473,"title":"Похищенная","kp_id":"465740","imdb_id":"tt1422136","world_art_id":null,"type":"movie","add":"2018-03-07 21:21:41","orig_title":"A Lonely Place to Die","year":"2011-04-09","translations":["Профессиональный (многоголосый закадровый)","Original (English)","Авторский (одноголосый закадровый) (Сербин Юрий)"],"quality":"bd","translation":"Профессиональный (многоголосый закадровый)","update":"2021-05-03 11:10:24","iframe_src":"//7923.svetacdn.in/71tsRs29n5tZ/movie/15473"},{"id":12737,"title":"Монтаж","kp_id":"764266","imdb_id":"tt2969522","world_art_id":null,"type":"movie","add":"2017-08-01 06:25:28","orig_title":"Mongtaju","year":"2013-05-16","translations":["Любительский (многоголосый закадровый) (STEPonee)","Любительский (многоголосый закадровый) (STEPonee)","Любительский (двухголосый закадровый) (DeadSno & den904)"],"quality":"hdtv","translation":"Любительский (многоголосый закадровый) (STEPonee)","update":"2021-05-03 11:35:55","iframe_src":"//7923.svetacdn.in/71tsRs29n5tZ/movie/12737"},{"id":3165,"title":"Восемь с половиной","kp_id":"535","imdb_id":"tt0056801","world_art_id":null,"type":"movie","add":"2016-06-15 10:25:16","orig_title":"8½","year":"1963-02-14","translations":["Профессиональный (многоголосый закадровый)","Профессиональный (многоголосый закадровый) (Фильм Престиж)"],"quality":"hdtv","translation":"Профессиональный (многоголосый закадровый)","update":"2021-05-03 11:16:54","iframe_src":"//7923.svetacdn.in/71tsRs29n5tZ/movie/3165"},{"id":3059,"title":"Первый рыцарь","kp_id":"17053","imdb_id":"tt0113071","world_art_id":null,"type":"movie","add":"2016-06-09 17:42:23","orig_title":"First Knight","year":"1995-07-07","translations":["Полное дублирование","Авторский (одноголосый закадровый) (Живов Юрий)","Полное дублирование","Original (English)","Профессиональный (двухголосый закадровый) (РенТВ)","Профессиональный (многоголосый закадровый)","Профессиональный (многоголосый закадровый) (СТС)","Профессиональный (многоголосый закадровый) (ТВЦ)"],"quality":"bd","translation":"Полное дублирование","update":"2021-05-03 10:11:02","iframe_src":"//7923.svetacdn.in/71tsRs29n5tZ/movie/3059"}],"current_page":168,"first_page_url":"https://videocdn.tv/api/short?limit=100&api_token=EnbO9h8pv1VyjbCJhg0WM9nG259n7mtz&cache3168=3168&page=1","from":16701,"last_page":644,"last_page_url":"https://videocdn.tv/api/short?limit=100&api_token=EnbO9h8pv1VyjbCJhg0WM9nG259n7mtz&cache3168=3168&page=644","next_page_url":"https://videocdn.tv/api/short?limit=100&api_token=EnbO9h8pv1VyjbCJhg0WM9nG259n7mtz&cache3168=3168&page=169","path":"https://videocdn.tv/api/short","per_page":100,"prev_page_url":"https://videocdn.tv/api/short?limit=100&api_token=EnbO9h8pv1VyjbCJhg0WM9nG259n7mtz&cache3168=3168&page=167","to":16740,"total":64307}