{"result":true,"data":[{"id":33389,"title":"Лысая","kp_id":"1246592","imdb_id":"tt10017956","world_art_id":null,"type":"movie","add":"2019-11-24 05:54:35","orig_title":"Gone Kesh","year":"2019-03-29","translations":["Любительский (многоголосый закадровый) (Синема УС)"],"quality":"webdl","translation":"Любительский (многоголосый закадровый) (Синема УС)","update":"2019-11-24 10:59:51","iframe_src":"//7043.svetacdn.in/IAF0wWTdNYZm/movie/33389"},{"id":33387,"title":"Тайна омелы","kp_id":"1298703","imdb_id":"tt10768348","world_art_id":null,"type":"movie","add":"2019-11-24 05:50:10","orig_title":"The Mistletoe Secret","year":"2019-11-10","translations":["Любительский (многоголосый закадровый) (AlphaProject)"],"quality":"hdtv","translation":"Любительский (многоголосый закадровый) (AlphaProject)","update":"2019-11-24 23:29:02","iframe_src":"//7043.svetacdn.in/IAF0wWTdNYZm/movie/33387"},{"id":33386,"title":"Нет мужчин – нет проблем","kp_id":"523126","imdb_id":"tt1547090","world_art_id":null,"type":"movie","add":"2019-11-23 21:21:35","orig_title":"Without Men","year":"2011-06-29","translations":["Профессиональный (многоголосый закадровый)"],"quality":"bd","translation":"Профессиональный (многоголосый закадровый)","update":"2019-11-24 07:20:01","iframe_src":"//7043.svetacdn.in/IAF0wWTdNYZm/movie/33386"},{"id":33383,"title":"Маска Торна","kp_id":"1039034","imdb_id":"tt6576144","world_art_id":null,"type":"movie","add":"2019-11-23 15:04:21","orig_title":"Mask of Thorn","year":"2018-10-26","translations":["Любительский (многоголосый закадровый) (Синема УС)"],"quality":"webdl","translation":"Любительский (многоголосый закадровый) (Синема УС)","update":"2019-11-23 15:42:55","iframe_src":"//7043.svetacdn.in/IAF0wWTdNYZm/movie/33383"},{"id":33382,"title":"Летучий отряд Скотланд-Ярда","kp_id":"648929","imdb_id":"tt0857190","world_art_id":null,"type":"movie","add":"2019-11-23 09:07:10","orig_title":"The Sweeney","year":"2012-08-01","translations":["Профессиональный (многоголосый закадровый)"],"quality":"bd","translation":"Профессиональный (многоголосый закадровый)","update":"2019-11-23 14:58:51","iframe_src":"//7043.svetacdn.in/IAF0wWTdNYZm/movie/33382"},{"id":33381,"title":"Восстание андроидов","kp_id":"682619","imdb_id":"tt2385001","world_art_id":null,"type":"movie","add":"2019-11-23 09:05:44","orig_title":"Android Insurrection","year":"2012-05-24","translations":["Профессиональный (многоголосый закадровый)"],"quality":"bd","translation":"Профессиональный (многоголосый закадровый)","update":"2019-11-23 14:59:39","iframe_src":"//7043.svetacdn.in/IAF0wWTdNYZm/movie/33381"},{"id":33377,"title":"Франкенштейн встречает Человека-волка","kp_id":"3144","imdb_id":"tt0035899","world_art_id":null,"type":"movie","add":"2019-11-23 05:40:05","orig_title":"Frankenstein Meets the Wolf Man","year":"1943-03-05","translations":["Профессиональный (многоголосый закадровый)"],"quality":"bd","translation":"Профессиональный (многоголосый закадровый)","update":"2019-11-23 10:11:13","iframe_src":"//7043.svetacdn.in/IAF0wWTdNYZm/movie/33377"},{"id":33375,"title":"Радио \"Рождество\"","kp_id":"1282545","imdb_id":"tt10583460","world_art_id":null,"type":"movie","add":"2019-11-23 05:35:26","orig_title":"Radio Christmas","year":"2019-11-09","translations":["Любительский (многоголосый закадровый) (AlphaProject)"],"quality":"webdl","translation":"Любительский (многоголосый закадровый) (AlphaProject)","update":"2019-11-23 11:12:41","iframe_src":"//7043.svetacdn.in/IAF0wWTdNYZm/movie/33375"},{"id":33373,"title":"Коготь тигра 3","kp_id":"40505","imdb_id":"tt0197951","world_art_id":null,"type":"movie","add":"2019-11-22 11:10:05","orig_title":"Tiger Claws III","year":"2000-01-25","translations":["Профессиональный (двухголосый закадровый)"],"quality":"dvdrip","translation":"Профессиональный (двухголосый закадровый)","update":"2019-11-22 14:17:29","iframe_src":"//7043.svetacdn.in/IAF0wWTdNYZm/movie/33373"},{"id":33372,"title":"Я люблю тебя","kp_id":"784358","imdb_id":null,"world_art_id":null,"type":"movie","add":"2019-11-22 09:36:53","orig_title":"I Love You","year":"2014-01-01","translations":["Любительский (многоголосый закадровый) (Синема УС)"],"quality":"webdl","translation":"Любительский (многоголосый закадровый) (Синема УС)","update":"2019-11-22 19:32:26","iframe_src":"//7043.svetacdn.in/IAF0wWTdNYZm/movie/33372"},{"id":33371,"title":"Взрослые игры","kp_id":"1051154","imdb_id":"tt6836462","world_art_id":null,"type":"movie","add":"2019-11-22 09:32:42","orig_title":"Das Ende der Wahrheit","year":"2019-01-14","translations":["Любительский (многоголосый закадровый) (Синема УС)"],"quality":"bd","translation":"Любительский (многоголосый закадровый) (Синема УС)","update":"2019-11-22 19:30:56","iframe_src":"//7043.svetacdn.in/IAF0wWTdNYZm/movie/33371"},{"id":33370,"title":"Морской ангел","kp_id":"1191276","imdb_id":"tt8890058","world_art_id":null,"type":"movie","add":"2019-11-22 09:30:07","orig_title":"Angelfish","year":"2019-11-19","translations":["Любительский (многоголосый закадровый) (Синема УС)"],"quality":"webdl","translation":"Любительский (многоголосый закадровый) (Синема УС)","update":"2019-11-22 19:30:17","iframe_src":"//7043.svetacdn.in/IAF0wWTdNYZm/movie/33370"},{"id":33369,"title":"Адам","kp_id":"1063330","imdb_id":"tt6316466","world_art_id":null,"type":"movie","add":"2019-11-22 09:25:41","orig_title":"Adam","year":"2019-01-25","translations":["Любительский (многоголосый закадровый) (Синема УС)"],"quality":"webdl","translation":"Любительский (многоголосый закадровый) (Синема УС)","update":"2019-11-22 19:28:29","iframe_src":"//7043.svetacdn.in/IAF0wWTdNYZm/movie/33369"},{"id":33356,"title":"7 дней","kp_id":"430765","imdb_id":"tt0445054","world_art_id":null,"type":"movie","add":"2019-11-21 21:35:22","orig_title":"Les 7 jours du talion","year":"2010-01-22","translations":["Любительский (одноголосый закадровый)"],"quality":"bd","translation":"Любительский (одноголосый закадровый)","update":"2019-11-22 14:06:05","iframe_src":"//7043.svetacdn.in/IAF0wWTdNYZm/movie/33356"},{"id":33271,"title":"Синтел","kp_id":"566766","imdb_id":"tt1727587","world_art_id":null,"type":"movie","add":"2019-11-19 12:18:27","orig_title":"Sintel","year":"2010-09-27","translations":["Полное дублирование"],"quality":"bd","translation":"Полное дублирование","update":"2019-11-22 14:49:28","iframe_src":"//7043.svetacdn.in/IAF0wWTdNYZm/movie/33271"},{"id":33119,"title":"Николь","kp_id":"1049510","imdb_id":"tt5097410","world_art_id":null,"type":"movie","add":"2019-11-15 05:06:22","orig_title":"Noelle","year":"2019-11-12","translations":["Любительский (многоголосый закадровый) (Синема УС)","Original (English)"],"quality":"webdl","translation":"Любительский (многоголосый закадровый) (Синема УС)","update":"2019-11-22 14:16:35","iframe_src":"//7043.svetacdn.in/IAF0wWTdNYZm/movie/33119"},{"id":29293,"title":"Та, которой не было","kp_id":"1090027","imdb_id":"tt7552686","world_art_id":null,"type":"movie","add":"2019-07-22 21:54:59","orig_title":"Celle que vous croyez","year":"2019-02-10","translations":["Профессиональный (многоголосый закадровый) (FocusStudio)","Полное дублирование (iTunes)"],"quality":"webdl","translation":"Профессиональный (многоголосый закадровый) (FocusStudio)","update":"2019-11-23 09:23:28","iframe_src":"//7043.svetacdn.in/IAF0wWTdNYZm/movie/29293"},{"id":19593,"title":"Гофманиада","kp_id":"465181","imdb_id":"tt1849772","world_art_id":null,"type":"movie","add":"2018-10-16 23:20:54","orig_title":"Gofmaniada","year":"2018-06-11","translations":["Оригинальная дорожка"],"quality":"webdl","translation":"Оригинальная дорожка","update":"2019-11-23 09:22:05","iframe_src":"//7043.svetacdn.in/IAF0wWTdNYZm/movie/19593"},{"id":18640,"title":"Убежище дьявола","kp_id":"1049478","imdb_id":"tt6830412","world_art_id":null,"type":"movie","add":"2018-08-29 22:54:51","orig_title":"El habitante","year":"2017-10-07","translations":["Полное дублирование"],"quality":"bd","translation":"Полное дублирование","update":"2019-11-22 14:04:26","iframe_src":"//7043.svetacdn.in/IAF0wWTdNYZm/movie/18640"},{"id":4042,"title":"Крокодил Данди в Лос-Анджелесе","kp_id":"6080","imdb_id":"tt0231402","world_art_id":null,"type":"movie","add":"2016-07-20 10:14:34","orig_title":"Crocodile Dundee in Los-Angeles","year":"2001-04-12","translations":["Полное дублирование"],"quality":"webdl","translation":"Полное дублирование","update":"2019-11-23 14:57:10","iframe_src":"//7043.svetacdn.in/IAF0wWTdNYZm/movie/4042"}],"current_page":967,"first_page_url":"https://videocdn.tv/api/short?limit=100&api_token=6Onb1W1alEUrBcKJZD3GoKBbWyAl2uG2&cache3967=3967&page=1","from":96601,"last_page":612,"last_page_url":"https://videocdn.tv/api/short?limit=100&api_token=6Onb1W1alEUrBcKJZD3GoKBbWyAl2uG2&cache3967=3967&page=612","next_page_url":null,"path":"https://videocdn.tv/api/short","per_page":100,"prev_page_url":"https://videocdn.tv/api/short?limit=100&api_token=6Onb1W1alEUrBcKJZD3GoKBbWyAl2uG2&cache3967=3967&page=966","to":96620,"total":61166}