{"result":true,"data":[{"id":45656,"title":"Приключение на даче","kp_id":"695302","imdb_id":null,"world_art_id":null,"type":"movie","add":"2020-11-26 22:48:22","orig_title":"Приключение на даче","year":"1980-01-01","translations":["Оригинальная дорожка"],"quality":"dvdrip","translation":"Оригинальная дорожка","update":"2020-12-04 13:46:16","iframe_src":"//8543.svetacdn.in/IAF0wWTdNYZm/movie/45656"},{"id":45655,"title":"Приговоренный","kp_id":"43246","imdb_id":"tt0311673","world_art_id":null,"type":"movie","add":"2020-11-26 22:44:14","orig_title":"Prigovoryonnyy","year":"1989-01-01","translations":["Оригинальная дорожка"],"quality":"sat","translation":"Оригинальная дорожка","update":"2020-12-04 13:45:18","iframe_src":"//8543.svetacdn.in/IAF0wWTdNYZm/movie/45655"},{"id":45654,"title":"Последняя индульгенция","kp_id":"161055","imdb_id":"tt0265562","world_art_id":null,"type":"movie","add":"2020-11-26 22:42:20","orig_title":"Poslednyaya indulgentsiya","year":"1986-06-09","translations":["Оригинальная дорожка"],"quality":"sat","translation":"Оригинальная дорожка","update":"2020-12-04 13:42:52","iframe_src":"//8543.svetacdn.in/IAF0wWTdNYZm/movie/45654"},{"id":45653,"title":"Отклонение — ноль","kp_id":"42845","imdb_id":"tt0175015","world_art_id":null,"type":"movie","add":"2020-11-26 22:40:10","orig_title":"Otklonenie - nol","year":"1978-02-20","translations":["Оригинальная дорожка"],"quality":"sat","translation":"Оригинальная дорожка","update":"2020-12-04 13:42:00","iframe_src":"//8543.svetacdn.in/IAF0wWTdNYZm/movie/45653"},{"id":45652,"title":"О чём не узнают трибуны","kp_id":"567026","imdb_id":"tt5365188","world_art_id":null,"type":"movie","add":"2020-11-26 22:37:07","orig_title":"O chyom ne uznayut tribuny","year":"1975-01-01","translations":["Оригинальная дорожка"],"quality":"dvdrip","translation":"Оригинальная дорожка","update":"2020-12-04 13:41:21","iframe_src":"//8543.svetacdn.in/IAF0wWTdNYZm/movie/45652"},{"id":45651,"title":"Новенькая","kp_id":"46468","imdb_id":"tt0127706","world_art_id":null,"type":"movie","add":"2020-11-26 22:35:06","orig_title":"Novenkaya","year":"1969-04-07","translations":["Оригинальная дорожка"],"quality":"dvdrip","translation":"Оригинальная дорожка","update":"2020-12-04 13:40:35","iframe_src":"//8543.svetacdn.in/IAF0wWTdNYZm/movie/45651"},{"id":45650,"title":"Ночной мотоциклист","kp_id":"417806","imdb_id":"tt4697338","world_art_id":null,"type":"movie","add":"2020-11-26 22:33:16","orig_title":"Nochnoy mototsiklist","year":"1973-02-19","translations":["Оригинальная дорожка"],"quality":"sat","translation":"Оригинальная дорожка","update":"2020-12-04 13:39:39","iframe_src":"//8543.svetacdn.in/IAF0wWTdNYZm/movie/45650"},{"id":45649,"title":"На исходе лета","kp_id":"421440","imdb_id":"tt2050573","world_art_id":null,"type":"movie","add":"2020-11-26 22:30:54","orig_title":"Na iskhode leta","year":"1980-03-23","translations":["Оригинальная дорожка"],"quality":"dvdrip","translation":"Оригинальная дорожка","update":"2020-12-04 13:38:58","iframe_src":"//8543.svetacdn.in/IAF0wWTdNYZm/movie/45649"},{"id":45648,"title":"На даче","kp_id":"706984","imdb_id":"tt2367112","world_art_id":null,"type":"movie","add":"2020-11-26 22:28:45","orig_title":"Na dache","year":"1954-01-01","translations":["Оригинальная дорожка"],"quality":"webdl","translation":"Оригинальная дорожка","update":"2020-12-04 13:37:39","iframe_src":"//8543.svetacdn.in/IAF0wWTdNYZm/movie/45648"},{"id":45647,"title":"Музыкальные картинки","kp_id":"842133","imdb_id":"tt6369640","world_art_id":null,"type":"movie","add":"2020-11-26 22:26:18","orig_title":"Muzykalnye kartinki","year":"1968-01-01","translations":["Оригинальная дорожка"],"quality":"dvdrip","translation":"Оригинальная дорожка","update":"2020-12-04 13:36:33","iframe_src":"//8543.svetacdn.in/IAF0wWTdNYZm/movie/45647"},{"id":45632,"title":"Мечта маленького ослика","kp_id":"259370","imdb_id":null,"world_art_id":null,"type":"movie","add":"2020-11-25 19:03:18","orig_title":"Мечта маленького ослика","year":"1984-01-01","translations":["Оригинальная дорожка"],"quality":"dvdrip","translation":"Оригинальная дорожка","update":"2020-12-04 13:35:19","iframe_src":"//8543.svetacdn.in/IAF0wWTdNYZm/movie/45632"},{"id":45630,"title":"Лермонтов","kp_id":"45073","imdb_id":"tt0091399","world_art_id":null,"type":"movie","add":"2020-11-25 18:57:19","orig_title":"Lermontov","year":"1987-01-30","translations":["Оригинальная дорожка"],"quality":"dvdrip","translation":"Оригинальная дорожка","update":"2020-12-04 13:34:14","iframe_src":"//8543.svetacdn.in/IAF0wWTdNYZm/movie/45630"},{"id":45629,"title":"Крик дельфина","kp_id":"44980","imdb_id":"tt0091357","world_art_id":null,"type":"movie","add":"2020-11-25 18:54:51","orig_title":"Krik delfina","year":"1987-04-13","translations":["Оригинальная дорожка"],"quality":"sat","translation":"Оригинальная дорожка","update":"2020-12-04 13:33:28","iframe_src":"//8543.svetacdn.in/IAF0wWTdNYZm/movie/45629"},{"id":45628,"title":"Хозяин ветров","kp_id":"259380","imdb_id":"tt7355814","world_art_id":null,"type":"movie","add":"2020-11-25 18:52:42","orig_title":"Khozyain vetrov","year":"1984-01-01","translations":["Оригинальная дорожка"],"quality":"dvdrip","translation":"Оригинальная дорожка","update":"2020-12-04 13:31:52","iframe_src":"//8543.svetacdn.in/IAF0wWTdNYZm/movie/45628"},{"id":45626,"title":"Человек в рамке","kp_id":"314355","imdb_id":"tt0487563","world_art_id":null,"type":"movie","add":"2020-11-25 18:46:09","orig_title":"Chelovek v ramke","year":"1966-01-01","translations":["Оригинальная дорожка"],"quality":"dvdrip","translation":"Оригинальная дорожка","update":"2020-12-04 13:31:10","iframe_src":"//8543.svetacdn.in/IAF0wWTdNYZm/movie/45626"},{"id":45625,"title":"Ты враг или друг?","kp_id":"1412541","imdb_id":null,"world_art_id":null,"type":"movie","add":"2020-11-25 18:44:03","orig_title":"Ты враг или друг?","year":"1972-01-01","translations":["Оригинальная дорожка"],"quality":"webdl","translation":"Оригинальная дорожка","update":"2020-12-04 13:27:18","iframe_src":"//8543.svetacdn.in/IAF0wWTdNYZm/movie/45625"},{"id":45624,"title":"Где-то плачет иволга...","kp_id":"44482","imdb_id":"tt0083994","world_art_id":null,"type":"movie","add":"2020-11-25 18:41:03","orig_title":"Gde-to plachet ivolga...","year":"1982-02-21","translations":["Оригинальная дорожка"],"quality":"tv","translation":"Оригинальная дорожка","update":"2020-12-04 13:26:31","iframe_src":"//8543.svetacdn.in/IAF0wWTdNYZm/movie/45624"},{"id":45623,"title":"Динозавры ХХ века","kp_id":"44213","imdb_id":"tt0099433","world_art_id":null,"type":"movie","add":"2020-11-25 18:38:52","orig_title":"Dinozavry XX veka","year":"1990-01-29","translations":["Оригинальная дорожка"],"quality":"dvdrip","translation":"Оригинальная дорожка","update":"2020-12-04 13:25:27","iframe_src":"//8543.svetacdn.in/IAF0wWTdNYZm/movie/45623"},{"id":45622,"title":"Однажды вечером","kp_id":"1199959","imdb_id":null,"world_art_id":null,"type":"movie","add":"2020-11-25 18:36:44","orig_title":"Однажды вечером","year":"1982-01-01","translations":["Оригинальная дорожка"],"quality":"webdl","translation":"Оригинальная дорожка","update":"2020-12-04 13:24:12","iframe_src":"//8543.svetacdn.in/IAF0wWTdNYZm/movie/45622"},{"id":44347,"title":"Били, бьем и будем бить","kp_id":"818450","imdb_id":null,"world_art_id":null,"type":"movie","add":"2020-10-12 16:43:52","orig_title":"Били, бьем и будем бить","year":"1941-01-01","translations":["Оригинальная дорожка"],"quality":"webdl","translation":"Оригинальная дорожка","update":"2020-12-04 13:23:11","iframe_src":"//8543.svetacdn.in/IAF0wWTdNYZm/movie/44347"},{"id":6427,"title":"Волшебный голос Джельсомино","kp_id":"85214","imdb_id":"tt0403655","world_art_id":null,"type":"serial","add":"2020-01-21 06:52:46","orig_title":"Volshebnyy golos Dzhelsomino","year":"1978-12-31","translations":["Оригинальная дорожка"],"seasons_count":1,"episodes_count":2,"episodes":2,"update":"2020-01-21 19:21:55","iframe_src":"//8543.svetacdn.in/IAF0wWTdNYZm/tv-series/6427"},{"id":6426,"title":"Рюрик. Потерянная быль","kp_id":"723699","imdb_id":null,"world_art_id":null,"type":"serial","add":"2020-01-21 06:47:37","orig_title":"Рюрик. Потерянная быль","year":"2012-12-12","translations":["Оригинальная дорожка"],"seasons_count":1,"episodes_count":2,"episodes":2,"update":"2020-01-21 19:19:55","iframe_src":"//8543.svetacdn.in/IAF0wWTdNYZm/tv-series/6426"},{"id":6424,"title":"Женщины на грани","kp_id":"1264020","imdb_id":"tt9140392","world_art_id":null,"type":"serial","add":"2020-01-21 05:33:23","orig_title":"Clink","year":"2019-04-18","translations":["Профессиональный (многоголосый закадровый) (Zone Vision Studio)"],"seasons_count":1,"episodes_count":10,"episodes":10,"update":"2020-01-21 11:04:13","iframe_src":"//8543.svetacdn.in/IAF0wWTdNYZm/tv-series/6424"},{"id":6419,"title":"Справедливость","kp_id":"1001595","imdb_id":"tt5906126","world_art_id":null,"type":"serial","add":"2020-01-20 18:49:53","orig_title":"Justiça","year":"2016-08-22","translations":["Любительский (двухголосый закадровый) (datynet & Galina Vasyukova)"],"seasons_count":1,"episodes_count":20,"episodes":20,"update":"2020-01-21 19:17:37","iframe_src":"//8543.svetacdn.in/IAF0wWTdNYZm/tv-series/6419"},{"id":6407,"title":"Стервы","kp_id":"585278","imdb_id":"tt3390604","world_art_id":null,"type":"serial","add":"2020-01-20 06:22:54","orig_title":"Stervy","year":"2012-09-03","translations":["Оригинальная дорожка"],"seasons_count":1,"episodes_count":32,"episodes":32,"update":"2020-01-21 18:53:07","iframe_src":"//8543.svetacdn.in/IAF0wWTdNYZm/tv-series/6407"},{"id":6401,"title":"КотоПёс","kp_id":"281893","imdb_id":"tt0154061","world_art_id":null,"type":"serial","add":"2020-01-19 11:46:04","orig_title":"CatDog","year":"1998-04-04","translations":["Полное дублирование"],"seasons_count":3,"episodes_count":59,"episodes":7,"update":"2020-01-21 09:44:18","iframe_src":"//8543.svetacdn.in/IAF0wWTdNYZm/tv-series/6401"},{"id":6391,"title":"ОСА","kp_id":"806511","imdb_id":"tt4455574","world_art_id":null,"type":"serial","add":"2020-01-18 20:34:06","orig_title":"OSA","year":"2014-01-14","translations":["Оригинальная дорожка"],"seasons_count":1,"episodes_count":99,"episodes":99,"update":"2020-01-21 19:25:34","iframe_src":"//8543.svetacdn.in/IAF0wWTdNYZm/tv-series/6391"},{"id":6389,"title":"Трансформеры: Боты-спасатели","kp_id":"778865","imdb_id":"tt2139371","world_art_id":null,"type":"serial","add":"2020-01-18 13:11:38","orig_title":"Transformers: Rescue Bots","year":"2011-12-17","translations":["Полное дублирование","Оригинальная дорожка"],"seasons_count":3,"episodes_count":77,"episodes":27,"update":"2020-01-21 18:06:09","iframe_src":"//8543.svetacdn.in/IAF0wWTdNYZm/tv-series/6389"},{"id":6386,"title":"Кобра","kp_id":"1253001","imdb_id":"tt10062652","world_art_id":null,"type":"serial","add":"2020-01-17 16:58:58","orig_title":"Cobra","year":"2020-01-17","translations":["Любительский (многоголосый закадровый) (Octopus)","Любительский (многоголосый закадровый) (KerobTV)","Профессиональный (многоголосый закадровый) (NewStudio)"],"seasons_count":1,"episodes_count":6,"episodes":6,"update":"2020-01-21 11:39:55","iframe_src":"//8543.svetacdn.in/IAF0wWTdNYZm/tv-series/6386"},{"id":6376,"title":"Лабиринт иллюзий","kp_id":"1263111","imdb_id":null,"world_art_id":null,"type":"serial","add":"2020-01-17 04:18:02","orig_title":"Лабиринт иллюзий","year":"2019-04-18","translations":["Оригинальная дорожка"],"seasons_count":1,"episodes_count":4,"episodes":4,"update":"2020-01-20 22:00:53","iframe_src":"//8543.svetacdn.in/IAF0wWTdNYZm/tv-series/6376"},{"id":6373,"title":"И снова Анискин","kp_id":"178719","imdb_id":"tt0077029","world_art_id":null,"type":"serial","add":"2020-01-16 17:41:04","orig_title":"I snova Aniskin","year":"1978-06-14","translations":["Оригинальная дорожка"],"seasons_count":1,"episodes_count":3,"episodes":3,"update":"2020-01-20 21:29:41","iframe_src":"//8543.svetacdn.in/IAF0wWTdNYZm/tv-series/6373"},{"id":6372,"title":"Дама под вуалью","kp_id":"820594","imdb_id":"tt3254016","world_art_id":null,"type":"serial","add":"2020-01-16 17:38:14","orig_title":"La dama velata","year":"2015-03-17","translations":["Профессиональный (многоголосый закадровый) (Игмар)"],"seasons_count":1,"episodes_count":12,"episodes":12,"update":"2020-01-20 21:53:45","iframe_src":"//8543.svetacdn.in/IAF0wWTdNYZm/tv-series/6372"},{"id":6371,"title":"Естественный отбор","kp_id":"449444","imdb_id":"tt4445864","world_art_id":null,"type":"serial","add":"2020-01-16 17:36:26","orig_title":"Естественный отбор","year":"2011-06-23","translations":["Оригинальная дорожка"],"seasons_count":1,"episodes_count":8,"episodes":8,"update":"2020-01-20 21:27:16","iframe_src":"//8543.svetacdn.in/IAF0wWTdNYZm/tv-series/6371"},{"id":6370,"title":"Охота на асфальте","kp_id":"89678","imdb_id":"tt0417350","world_art_id":null,"type":"serial","add":"2020-01-16 17:33:36","orig_title":"Okhota na asfalte","year":"2005-01-01","translations":["Оригинальная дорожка"],"seasons_count":1,"episodes_count":8,"episodes":8,"update":"2020-01-20 21:47:52","iframe_src":"//8543.svetacdn.in/IAF0wWTdNYZm/tv-series/6370"},{"id":6368,"title":"Борьба за жизнь","kp_id":"1115373","imdb_id":"tt3773240","world_art_id":null,"type":"serial","add":"2020-01-16 17:28:17","orig_title":"Kampen for tilværelsen","year":"2014-09-10","translations":["Профессиональный (многоголосый закадровый) (Eurochannel)"],"seasons_count":1,"episodes_count":7,"episodes":7,"update":"2020-01-20 22:06:15","iframe_src":"//8543.svetacdn.in/IAF0wWTdNYZm/tv-series/6368"},{"id":6366,"title":"Любовь императора","kp_id":"405698","imdb_id":"tt0381781","world_art_id":null,"type":"serial","add":"2020-01-16 16:51:32","orig_title":"Lyubov imperatora","year":"2012-07-19","translations":["Оригинальная дорожка"],"seasons_count":1,"episodes_count":7,"episodes":7,"update":"2020-01-20 21:40:48","iframe_src":"//8543.svetacdn.in/IAF0wWTdNYZm/tv-series/6366"},{"id":6350,"title":"Морские дьяволы. Смерч","kp_id":"672142","imdb_id":"tt3967056","world_art_id":null,"type":"serial","add":"2020-01-15 05:44:21","orig_title":"Morskie dyavoly. Smerch","year":"2013-02-04","translations":["Оригинальная дорожка"],"seasons_count":1,"episodes_count":32,"episodes":32,"update":"2020-01-21 12:00:39","iframe_src":"//8543.svetacdn.in/IAF0wWTdNYZm/tv-series/6350"},{"id":6345,"title":"Дак Доджерс","kp_id":"429006","imdb_id":"tt0376390","world_art_id":null,"type":"serial","add":"2020-01-14 15:23:58","orig_title":"Duck Dodgers","year":"2003-09-06","translations":["Полное дублирование (Пифагор)"],"seasons_count":1,"episodes_count":13,"episodes":13,"update":"2020-01-20 21:36:57","iframe_src":"//8543.svetacdn.in/IAF0wWTdNYZm/tv-series/6345"},{"id":6321,"title":"Все псы попадают в рай","kp_id":"229406","imdb_id":"tt0118252","world_art_id":null,"type":"serial","add":"2020-01-12 08:19:04","orig_title":"All Dogs Go to Heaven: The Series","year":"1996-09-21","translations":["Полное дублирование (СТС)"],"seasons_count":3,"episodes_count":40,"episodes":14,"update":"2020-01-21 08:04:20","iframe_src":"//8543.svetacdn.in/IAF0wWTdNYZm/tv-series/6321"},{"id":6227,"title":"Школа выживания от одинокой женщины с тремя детьми в условиях кризиса","kp_id":"921475","imdb_id":"tt6426178","world_art_id":null,"type":"serial","add":"2020-01-03 20:46:24","orig_title":"Shkola vyzhivaniya","year":"2015-01-01","translations":["Оригинальная дорожка"],"seasons_count":1,"episodes_count":150,"episodes":150,"update":"2020-01-20 22:12:06","iframe_src":"//8543.svetacdn.in/IAF0wWTdNYZm/tv-series/6227"}],"current_page":255,"first_page_url":"https://videocdn.tv/api/short?limit=100&api_token=6Onb1W1alEUrBcKJZD3GoKBbWyAl2uG2&cache3255=3255&page=1","from":25401,"last_page":608,"last_page_url":"https://videocdn.tv/api/short?limit=100&api_token=6Onb1W1alEUrBcKJZD3GoKBbWyAl2uG2&cache3255=3255&page=608","next_page_url":"https://videocdn.tv/api/short?limit=100&api_token=6Onb1W1alEUrBcKJZD3GoKBbWyAl2uG2&cache3255=3255&page=256","path":"https://videocdn.tv/api/short","per_page":100,"prev_page_url":"https://videocdn.tv/api/short?limit=100&api_token=6Onb1W1alEUrBcKJZD3GoKBbWyAl2uG2&cache3255=3255&page=254","to":25440,"total":60756}