{"result":true,"data":[{"id":7458,"title":"Принцесса Лебедь: Пират или принцесса?","kp_id":"995355","imdb_id":"tt5915572","world_art_id":null,"type":"movie","add":"2016-11-15 12:48:45","orig_title":"The Swan Princess: Princess Tomorrow, Pirate Today!","year":"2016-09-06","translations":["Профессиональный (многоголосый закадровый) (iTunes)"],"quality":"webdl","translation":"Профессиональный (многоголосый закадровый) (iTunes)","update":"2016-11-15 15:13:52","iframe_src":"//8543.svetacdn.in/si4jsFRrtgrT/movie/7458"},{"id":7437,"title":"На том свете","kp_id":"3780","imdb_id":"tt0246002","world_art_id":null,"type":"movie","add":"2016-11-15 04:51:55","orig_title":"Kingdom Come","year":"2001-02-08","translations":["Профессиональный (многоголосый закадровый)"],"quality":"hdtv","translation":"Профессиональный (многоголосый закадровый)","update":"2016-11-16 05:31:41","iframe_src":"//8543.svetacdn.in/si4jsFRrtgrT/movie/7437"},{"id":7414,"title":"Али","kp_id":"585","imdb_id":"tt0248667","world_art_id":null,"type":"movie","add":"2016-11-14 13:38:41","orig_title":"Ali","year":"2001-12-11","translations":["Полное дублирование"],"quality":"bd","translation":"Полное дублирование","update":"2016-11-15 08:36:38","iframe_src":"//8543.svetacdn.in/si4jsFRrtgrT/movie/7414"},{"id":7411,"title":"Клуб разбитых сердец: Романтическая комедия","kp_id":"623","imdb_id":"tt0222850","world_art_id":null,"type":"movie","add":"2016-11-14 05:49:26","orig_title":"The Broken Hearts Club: A Romantic Comedy","year":"2000-01-29","translations":["Профессиональный (двухголосый закадровый)"],"quality":"hdtv","translation":"Профессиональный (двухголосый закадровый)","update":"2016-11-16 05:26:44","iframe_src":"//8543.svetacdn.in/si4jsFRrtgrT/movie/7411"},{"id":7410,"title":"Дом двух семей","kp_id":"11028","imdb_id":"tt0202641","world_art_id":null,"type":"movie","add":"2016-11-14 05:46:49","orig_title":"Two Family House","year":"2000-01-21","translations":["Профессиональный (двухголосый закадровый)"],"quality":"webdl","translation":"Профессиональный (двухголосый закадровый)","update":"2016-11-15 07:41:47","iframe_src":"//8543.svetacdn.in/si4jsFRrtgrT/movie/7410"},{"id":7408,"title":"Дамский угодник","kp_id":"4909","imdb_id":"tt0213790","world_art_id":null,"type":"movie","add":"2016-11-14 05:42:26","orig_title":"The Ladies Man","year":"2000-10-10","translations":["Профессиональный (многоголосый закадровый)"],"quality":"webdl","translation":"Профессиональный (многоголосый закадровый)","update":"2016-11-15 08:16:39","iframe_src":"//8543.svetacdn.in/si4jsFRrtgrT/movie/7408"},{"id":7405,"title":"Джордж Вашингтон","kp_id":"103160","imdb_id":"tt0262432","world_art_id":null,"type":"movie","add":"2016-11-13 12:39:53","orig_title":"George Washington","year":"2000-09-09","translations":["Профессиональный (многоголосый закадровый)"],"quality":"bd","translation":"Профессиональный (многоголосый закадровый)","update":"2016-11-15 08:02:45","iframe_src":"//8543.svetacdn.in/si4jsFRrtgrT/movie/7405"},{"id":7403,"title":"Шанхайский полдень","kp_id":"829","imdb_id":"tt0184894","world_art_id":null,"type":"movie","add":"2016-11-13 12:36:22","orig_title":"Shanghai Noon","year":"2000-05-19","translations":["Профессиональный (многоголосый закадровый)"],"quality":"bd","translation":"Профессиональный (многоголосый закадровый)","update":"2016-11-15 08:13:09","iframe_src":"//8543.svetacdn.in/si4jsFRrtgrT/movie/7403"},{"id":7402,"title":"Спасите Грейс!","kp_id":"817","imdb_id":"tt0195234","world_art_id":null,"type":"movie","add":"2016-11-13 12:34:57","orig_title":"Saving Grace","year":"2000-01-24","translations":["Профессиональный (многоголосый закадровый)"],"quality":"bd","translation":"Профессиональный (многоголосый закадровый)","update":"2016-11-15 08:10:56","iframe_src":"//8543.svetacdn.in/si4jsFRrtgrT/movie/7402"},{"id":7401,"title":"Вернись ко мне","kp_id":"802","imdb_id":"tt0122459","world_art_id":null,"type":"movie","add":"2016-11-13 12:33:12","orig_title":"Return to Me","year":"2000-04-07","translations":["Профессиональный (многоголосый закадровый)"],"quality":"bd","translation":"Профессиональный (многоголосый закадровый)","update":"2016-11-15 08:09:21","iframe_src":"//8543.svetacdn.in/si4jsFRrtgrT/movie/7401"},{"id":7400,"title":"Кевин и Перри уделывают всех","kp_id":"17561","imdb_id":"tt0205177","world_art_id":null,"type":"movie","add":"2016-11-13 12:32:05","orig_title":"Kevin & Perry Go Large","year":"2000-04-21","translations":["Профессиональный (многоголосый закадровый)"],"quality":"webdl","translation":"Профессиональный (многоголосый закадровый)","update":"2016-11-15 08:07:22","iframe_src":"//8543.svetacdn.in/si4jsFRrtgrT/movie/7400"},{"id":7397,"title":"Дракула 3: Наследие","kp_id":"14887","imdb_id":"tt0303929","world_art_id":null,"type":"movie","add":"2016-11-13 12:28:13","orig_title":"Dracula III: Legacy","year":"2005-07-12","translations":["Профессиональный (многоголосый закадровый)"],"quality":"bd","translation":"Профессиональный (многоголосый закадровый)","update":"2016-11-15 08:00:47","iframe_src":"//8543.svetacdn.in/si4jsFRrtgrT/movie/7397"},{"id":7396,"title":"Дракула 2: Вознесение","kp_id":"7936","imdb_id":"tt0336325","world_art_id":null,"type":"movie","add":"2016-11-13 12:26:35","orig_title":"Dracula II: Ascension","year":"2003-06-07","translations":["Профессиональный (многоголосый закадровый)"],"quality":"bd","translation":"Профессиональный (многоголосый закадровый)","update":"2016-11-15 07:59:00","iframe_src":"//8543.svetacdn.in/si4jsFRrtgrT/movie/7396"},{"id":7395,"title":"Дракула","kp_id":"581771","imdb_id":"tt1852770","world_art_id":null,"type":"movie","add":"2016-11-13 12:24:42","orig_title":"Dracula 3D","year":"2012-04-12","translations":["Профессиональный (многоголосый закадровый)"],"quality":"bd","translation":"Профессиональный (многоголосый закадровый)","update":"2016-11-15 07:56:29","iframe_src":"//8543.svetacdn.in/si4jsFRrtgrT/movie/7395"},{"id":7373,"title":"Исчезающий","kp_id":"94591","imdb_id":"tt0243220","world_art_id":null,"type":"movie","add":"2016-11-13 11:53:05","orig_title":"Disappearing Acts","year":"2000-12-09","translations":["Профессиональный (многоголосый закадровый)"],"quality":"hdtv","translation":"Профессиональный (многоголосый закадровый)","update":"2016-11-15 07:38:31","iframe_src":"//8543.svetacdn.in/si4jsFRrtgrT/movie/7373"},{"id":7369,"title":"Цена победы","kp_id":"3577","imdb_id":"tt0193854","world_art_id":null,"type":"movie","add":"2016-11-13 11:46:23","orig_title":"A Shot at Glory","year":"2000-09-11","translations":["Профессиональный (двухголосый закадровый)"],"quality":"hdtv","translation":"Профессиональный (двухголосый закадровый)","update":"2016-11-16 05:24:03","iframe_src":"//8543.svetacdn.in/si4jsFRrtgrT/movie/7369"},{"id":6254,"title":"Держи удар, детка","kp_id":"943896","imdb_id":"tt5298180","world_art_id":null,"type":"movie","add":"2016-10-13 13:44:58","orig_title":"Derzhi udar, detka!","year":"2016-10-06","translations":["Оригинальная дорожка"],"quality":"webdl","translation":"Оригинальная дорожка","update":"2016-11-15 15:16:02","iframe_src":"//8543.svetacdn.in/si4jsFRrtgrT/movie/6254"},{"id":5843,"title":"Дизлайк","kp_id":"957762","imdb_id":"tt5775132","world_art_id":null,"type":"movie","add":"2016-10-04 09:45:26","orig_title":"Dizlayk","year":"2016-09-22","translations":["Оригинальная дорожка"],"quality":"webdl","translation":"Оригинальная дорожка","update":"2016-11-16 05:20:40","iframe_src":"//8543.svetacdn.in/si4jsFRrtgrT/movie/5843"},{"id":5410,"title":"Искусственный интеллект. Доступ неограничен","kp_id":"738189","imdb_id":"tt2679552","world_art_id":null,"type":"movie","add":"2016-09-22 05:54:26","orig_title":"I.T.","year":"2016-09-09","translations":["Любительский (многоголосый закадровый) (Синема УС)","Полное дублирование (iTunes)"],"quality":"webdl","translation":"Любительский (многоголосый закадровый) (Синема УС)","update":"2016-11-15 16:19:28","iframe_src":"//8543.svetacdn.in/si4jsFRrtgrT/movie/5410"},{"id":4200,"title":"Механик: Воскрешение","kp_id":"837525","imdb_id":"tt3522806","world_art_id":null,"type":"movie","add":"2016-07-28 05:33:23","orig_title":"Mechanic: Resurrection","year":"2016-08-24","translations":["Полное дублирование"],"quality":"bd","translation":"Полное дублирование","update":"2016-11-15 16:17:44","iframe_src":"//8543.svetacdn.in/si4jsFRrtgrT/movie/4200"}],"current_page":2173,"first_page_url":"https://videocdn.tv/api/short?limit=100&api_token=X6EwAUfE5M9xbo7y0Bp0aPf3uXxG2KLL&cache32173=32173&page=1","from":217201,"last_page":606,"last_page_url":"https://videocdn.tv/api/short?limit=100&api_token=X6EwAUfE5M9xbo7y0Bp0aPf3uXxG2KLL&cache32173=32173&page=606","next_page_url":null,"path":"https://videocdn.tv/api/short","per_page":100,"prev_page_url":"https://videocdn.tv/api/short?limit=100&api_token=X6EwAUfE5M9xbo7y0Bp0aPf3uXxG2KLL&cache32173=32173&page=2172","to":217220,"total":60594}