{"result":true,"data":[{"id":31195,"title":"Я потерял телефон","kp_id":"1172086","imdb_id":"tt8531044","world_art_id":null,"type":"movie","add":"2019-09-26 05:00:04","orig_title":"Sumaho o Otoshita dake nanoni","year":"2018-11-02","translations":["Любительский (многоголосый закадровый) (Синема УС)"],"quality":"bd","translation":"Любительский (многоголосый закадровый) (Синема УС)","update":"2019-09-26 08:21:28","iframe_src":"//2413.svetacdn.in/IAF0wWTdNYZm/movie/31195"},{"id":31193,"title":"Семена","kp_id":"860951","imdb_id":"tt3895908","world_art_id":null,"type":"movie","add":"2019-09-26 04:52:49","orig_title":"Seeds","year":"2018-03-03","translations":["Любительский (многоголосый закадровый) (Синема УС)"],"quality":"webdl","translation":"Любительский (многоголосый закадровый) (Синема УС)","update":"2019-09-26 08:24:10","iframe_src":"//2413.svetacdn.in/IAF0wWTdNYZm/movie/31193"},{"id":31192,"title":"Эхо","kp_id":"1197508","imdb_id":"tt8294444","world_art_id":null,"type":"movie","add":"2019-09-26 04:50:50","orig_title":"Echoes","year":"2018-06-01","translations":["Любительский (многоголосый закадровый) (Синема УС)"],"quality":"webdl","translation":"Любительский (многоголосый закадровый) (Синема УС)","update":"2019-09-26 08:25:22","iframe_src":"//2413.svetacdn.in/IAF0wWTdNYZm/movie/31192"},{"id":31176,"title":"Чирлидерши-эскортницы","kp_id":"1261574","imdb_id":"tt10234048","world_art_id":null,"type":"movie","add":"2019-09-25 12:19:47","orig_title":"The Cheerleader Escort","year":"2019-09-14","translations":["Профессиональный (многоголосый закадровый) (AlphaProject)"],"quality":"webdl","translation":"Профессиональный (многоголосый закадровый) (AlphaProject)","update":"2019-09-26 06:51:09","iframe_src":"//2413.svetacdn.in/IAF0wWTdNYZm/movie/31176"},{"id":29980,"title":"Диана: История ее словами","kp_id":"1047933","imdb_id":"tt7188868","world_art_id":null,"type":"movie","add":"2019-08-14 05:41:44","orig_title":"Diana: In Her Own Words","year":"2017-08-06","translations":["Профессиональный (многоголосый закадровый)","[EN] Original (English)"],"quality":"webdl","translation":"Профессиональный (многоголосый закадровый)","update":"2019-09-26 06:18:13","iframe_src":"//2413.svetacdn.in/IAF0wWTdNYZm/movie/29980"},{"id":29979,"title":"Смертельная измена","kp_id":"297658","imdb_id":"tt0350777","world_art_id":null,"type":"movie","add":"2019-08-14 05:40:33","orig_title":"Deadly Betrayal","year":"2003-03-13","translations":["Профессиональный (многоголосый закадровый) (Red Media)","[EN] Original (English)"],"quality":"webdl","translation":"Профессиональный (многоголосый закадровый) (Red Media)","update":"2019-09-26 05:56:58","iframe_src":"//2413.svetacdn.in/IAF0wWTdNYZm/movie/29979"},{"id":29978,"title":"Всадники из Аризоны","kp_id":"203138","imdb_id":"tt0058917","world_art_id":null,"type":"movie","add":"2019-08-14 05:39:20","orig_title":"Arizona Raiders","year":"1965-08-01","translations":["Профессиональный (многоголосый закадровый) (Sony Turbo)","[EN] Original (English)"],"quality":"webdl","translation":"Профессиональный (многоголосый закадровый) (Sony Turbo)","update":"2019-09-26 05:45:37","iframe_src":"//2413.svetacdn.in/IAF0wWTdNYZm/movie/29978"},{"id":29973,"title":"Весь я","kp_id":"18017","imdb_id":"tt0086873","world_art_id":null,"type":"movie","add":"2019-08-14 05:32:58","orig_title":"All of Me","year":"1984-09-07","translations":["Профессиональный (двухголосый закадровый)","[EN] Original (English)"],"quality":"webdl","translation":"Профессиональный (двухголосый закадровый)","update":"2019-09-26 05:43:00","iframe_src":"//2413.svetacdn.in/IAF0wWTdNYZm/movie/29973"},{"id":29961,"title":"Горячий свинец и холодные ноги","kp_id":"31626","imdb_id":"tt0077698","world_art_id":null,"type":"movie","add":"2019-08-14 05:04:47","orig_title":"Hot Lead and Cold Feet","year":"1978-07-05","translations":["Авторский (одноголосый закадровый) (Живов Юрий)","[EN] Original (English)"],"quality":"webdl","translation":"Авторский (одноголосый закадровый) (Живов Юрий)","update":"2019-09-26 08:34:35","iframe_src":"//2413.svetacdn.in/IAF0wWTdNYZm/movie/29961"},{"id":27753,"title":"Священная земля","kp_id":"1136870","imdb_id":"tt7771454","world_art_id":null,"type":"movie","add":"2019-06-13 19:31:13","orig_title":"Hallowed Ground","year":"2019-06-07","translations":["Профессиональный (многоголосый закадровый) (СВ-Студия)","[EN] Original (English)"],"quality":"webdl","translation":"Профессиональный (многоголосый закадровый) (СВ-Студия)","update":"2019-09-26 08:33:27","iframe_src":"//2413.svetacdn.in/IAF0wWTdNYZm/movie/27753"},{"id":27057,"title":"Младенец в подарок","kp_id":"615582","imdb_id":"tt2040367","world_art_id":null,"type":"movie","add":"2019-05-26 11:52:10","orig_title":"Expecting","year":"2013-03-11","translations":["Профессиональный (многоголосый закадровый)","[EN] Original (English)"],"quality":"webdl","translation":"Профессиональный (многоголосый закадровый)","update":"2019-09-26 06:19:31","iframe_src":"//2413.svetacdn.in/IAF0wWTdNYZm/movie/27057"},{"id":27056,"title":"Крокодил 2: Список жертв","kp_id":"24943","imdb_id":"tt0257510","world_art_id":null,"type":"movie","add":"2019-05-26 11:49:47","orig_title":"Crocodile 2: Death Swamp","year":"2002-05-03","translations":["Профессиональный (многоголосый закадровый)","[EN] Original (English)"],"quality":"webdl","translation":"Профессиональный (многоголосый закадровый)","update":"2019-09-26 05:52:20","iframe_src":"//2413.svetacdn.in/IAF0wWTdNYZm/movie/27056"},{"id":27055,"title":"Чудовища Берингова моря","kp_id":"793979","imdb_id":"tt3139338","world_art_id":null,"type":"movie","add":"2019-05-26 11:48:50","orig_title":"Bering Sea Beast","year":"2013-11-09","translations":["Профессиональный (многоголосый закадровый)","[EN] Original (English)"],"quality":"webdl","translation":"Профессиональный (многоголосый закадровый)","update":"2019-09-26 05:50:40","iframe_src":"//2413.svetacdn.in/IAF0wWTdNYZm/movie/27055"},{"id":27054,"title":"Анна Николь","kp_id":"722906","imdb_id":"tt2515242","world_art_id":null,"type":"movie","add":"2019-05-26 11:46:37","orig_title":"Anna Nicole","year":"2013-06-29","translations":["Профессиональный (многоголосый закадровый)","[EN] Original (English)"],"quality":"webdl","translation":"Профессиональный (многоголосый закадровый)","update":"2019-09-26 05:44:35","iframe_src":"//2413.svetacdn.in/IAF0wWTdNYZm/movie/27054"},{"id":22153,"title":"Огненный шторм","kp_id":"6377","imdb_id":"tt0120670","world_art_id":null,"type":"movie","add":"2019-02-09 08:00:09","orig_title":"Firestorm","year":"1998-01-07","translations":["Профессиональный (многоголосый закадровый) (Первый канал | ОРТ)","[EN] Original (English)"],"quality":"webdl","translation":"Профессиональный (многоголосый закадровый) (Первый канал | ОРТ)","update":"2019-09-26 08:31:34","iframe_src":"//2413.svetacdn.in/IAF0wWTdNYZm/movie/22153"},{"id":14491,"title":"Чужие против Титаника","kp_id":"856205","imdb_id":"tt4247440","world_art_id":null,"type":"movie","add":"2017-11-27 21:36:11","orig_title":"Aliens vs. Titanic","year":"2017-09-18","translations":["Любительский (многоголосый закадровый) (Синема УС)","[EN] Original (English)"],"quality":"webdl","translation":"Любительский (многоголосый закадровый) (Синема УС)","update":"2019-09-26 05:41:56","iframe_src":"//2413.svetacdn.in/IAF0wWTdNYZm/movie/14491"},{"id":14411,"title":"Белый лебедь","kp_id":"472636","imdb_id":"tt1502417","world_art_id":null,"type":"movie","add":"2017-11-21 09:12:28","orig_title":"Assassins Run","year":"2013-04-23","translations":["Любительский (двухголосый закадровый)","[EN] Original (English)"],"quality":"webdl","translation":"Любительский (двухголосый закадровый)","update":"2019-09-26 05:47:19","iframe_src":"//2413.svetacdn.in/IAF0wWTdNYZm/movie/14411"},{"id":9475,"title":"Акульи плотины","kp_id":"984092","imdb_id":"tt5773112","world_art_id":null,"type":"movie","add":"2017-02-07 07:48:30","orig_title":"Dam Sharks","year":"2016-07-25","translations":["Профессиональный (многоголосый закадровый) (ТВ3)","[EN] Original (English)"],"quality":"webdl","translation":"Профессиональный (многоголосый закадровый) (ТВ3)","update":"2019-09-26 05:53:49","iframe_src":"//2413.svetacdn.in/IAF0wWTdNYZm/movie/9475"},{"id":8701,"title":"На протяжении всей ночи","kp_id":"12929","imdb_id":"tt0034449","world_art_id":null,"type":"movie","add":"2017-01-08 10:09:56","orig_title":"All Through the Night","year":"1942-01-10","translations":["Любительский (одноголосый закадровый)","[EN] Original (English)"],"quality":"webdl","translation":"Любительский (одноголосый закадровый)","update":"2019-09-26 05:43:52","iframe_src":"//2413.svetacdn.in/IAF0wWTdNYZm/movie/8701"},{"id":3933,"title":"Убийственное танго","kp_id":"7185","imdb_id":"tt0283897","world_art_id":null,"type":"movie","add":"2016-07-14 12:34:22","orig_title":"Assassination Tango","year":"2002-09-11","translations":["Профессиональный (многоголосый закадровый)","[EN] Original (English)"],"quality":"webdl","translation":"Профессиональный (многоголосый закадровый)","update":"2019-09-26 05:46:19","iframe_src":"//2413.svetacdn.in/IAF0wWTdNYZm/movie/3933"}],"current_page":1645,"first_page_url":"https://videocdn.tv/api/short?limit=100&api_token=6Onb1W1alEUrBcKJZD3GoKBbWyAl2uG2&cache31645=31645&page=1","from":164401,"last_page":719,"last_page_url":"https://videocdn.tv/api/short?limit=100&api_token=6Onb1W1alEUrBcKJZD3GoKBbWyAl2uG2&cache31645=31645&page=719","next_page_url":null,"path":"https://videocdn.tv/api/short","per_page":100,"prev_page_url":"https://videocdn.tv/api/short?limit=100&api_token=6Onb1W1alEUrBcKJZD3GoKBbWyAl2uG2&cache31645=31645&page=1644","to":164420,"total":71805}