{"result":true,"data":[{"id":8091,"title":"Короткометражка Marvel: Консультант","kp_id":"603225","imdb_id":"tt2011118","world_art_id":null,"type":"movie","add":"2016-12-15 17:36:30","orig_title":"Marvel One-Shot: The Consultant","year":"2011-09-13","translations":["Любительский (многоголосый закадровый) (Несмертельное оружие)"],"quality":"bd","translation":"Любительский (многоголосый закадровый) (Несмертельное оружие)","update":"2016-12-16 12:41:31","iframe_src":"//5322.svetacdn.in/71tsRs29n5tZ/movie/8091"},{"id":8090,"title":"Короткометражка Marvel: Образец 47","kp_id":"690594","imdb_id":"tt2247732","world_art_id":null,"type":"movie","add":"2016-12-15 17:35:10","orig_title":"Marvel One-Shot: Item 47","year":"2012-08-28","translations":["Любительский (многоголосый закадровый) (Несмертельное оружие)"],"quality":"bd","translation":"Любительский (многоголосый закадровый) (Несмертельное оружие)","update":"2016-12-16 12:39:51","iframe_src":"//5322.svetacdn.in/71tsRs29n5tZ/movie/8090"},{"id":8088,"title":"Короткометражка Marvel: Агент Картер","kp_id":"781220","imdb_id":"tt3067038","world_art_id":null,"type":"movie","add":"2016-12-15 17:33:00","orig_title":"Marvel One-Shot: Agent Carter","year":"2013-07-19","translations":["Любительский (многоголосый закадровый) (Несмертельное оружие)"],"quality":"bd","translation":"Любительский (многоголосый закадровый) (Несмертельное оружие)","update":"2016-12-16 12:35:48","iframe_src":"//5322.svetacdn.in/71tsRs29n5tZ/movie/8088"},{"id":8087,"title":"Короткометражка Marvel: Забавный случай на пути к молоту Тора","kp_id":"603224","imdb_id":"tt2011109","world_art_id":null,"type":"movie","add":"2016-12-15 17:31:05","orig_title":"Marvel One-Shot: A Funny Thing Happened on the Way to Thor's Hammer","year":"2011-10-25","translations":["Любительский (многоголосый закадровый) (Несмертельное оружие)"],"quality":"bd","translation":"Любительский (многоголосый закадровый) (Несмертельное оружие)","update":"2016-12-16 12:33:35","iframe_src":"//5322.svetacdn.in/71tsRs29n5tZ/movie/8087"},{"id":8077,"title":"Девочки бикини на льду","kp_id":"692787","imdb_id":"tt2235876","world_art_id":null,"type":"movie","add":"2016-12-15 17:13:51","orig_title":"Pinup Dolls on Ice","year":"2013-07-23","translations":["Любительский (одноголосый закадровый)"],"quality":"bd","translation":"Любительский (одноголосый закадровый)","update":"2016-12-16 12:31:25","iframe_src":"//5322.svetacdn.in/71tsRs29n5tZ/movie/8077"},{"id":8076,"title":"Амазония: Инструкция по выживанию","kp_id":"549676","imdb_id":"tt1240899","world_art_id":null,"type":"movie","add":"2016-12-15 17:12:42","orig_title":"Amazonia","year":"2013-09-07","translations":["Полное дублирование"],"quality":"webdl","translation":"Полное дублирование","update":"2016-12-16 07:41:49","iframe_src":"//5322.svetacdn.in/71tsRs29n5tZ/movie/8076"},{"id":8075,"title":"Джунгли зовут! В поисках Марсупилами","kp_id":"566355","imdb_id":"tt1723642","world_art_id":null,"type":"movie","add":"2016-12-15 17:11:08","orig_title":"Sur la piste du Marsupilami","year":"2012-04-04","translations":["Полное дублирование"],"quality":"bd","translation":"Полное дублирование","update":"2016-12-16 07:39:32","iframe_src":"//5322.svetacdn.in/71tsRs29n5tZ/movie/8075"},{"id":8074,"title":"Грим Слипер","kp_id":"575383","imdb_id":"tt1784664","world_art_id":null,"type":"movie","add":"2016-12-15 17:08:50","orig_title":"The Grim Sleeper","year":"2014-03-15","translations":["Любительский (одноголосый закадровый) (Хихикающий доктор)"],"quality":"hdtv","translation":"Любительский (одноголосый закадровый) (Хихикающий доктор)","update":"2016-12-16 07:37:47","iframe_src":"//5322.svetacdn.in/71tsRs29n5tZ/movie/8074"},{"id":8073,"title":"Узницы девятого блока","kp_id":"82078","imdb_id":"tt0123847","world_art_id":null,"type":"movie","add":"2016-12-15 08:49:57","orig_title":"Frauen für Zellenblock 9","year":"1978-03-17","translations":["Авторский (одноголосый закадровый) (Алексеев Антон)"],"quality":"bd","translation":"Авторский (одноголосый закадровый) (Алексеев Антон)","update":"2016-12-16 08:11:24","iframe_src":"//5322.svetacdn.in/71tsRs29n5tZ/movie/8073"},{"id":8066,"title":"Неверующие","kp_id":"741906","imdb_id":"tt2636522","world_art_id":null,"type":"movie","add":"2016-12-14 16:59:28","orig_title":"The Unbelievers","year":"2013-04-29","translations":["Профессиональный (многоголосый закадровый)"],"quality":"webdl","translation":"Профессиональный (многоголосый закадровый)","update":"2016-12-16 07:36:10","iframe_src":"//5322.svetacdn.in/71tsRs29n5tZ/movie/8066"},{"id":8065,"title":"Вот это любовь!","kp_id":"744255","imdb_id":"tt3124236","world_art_id":null,"type":"movie","add":"2016-12-14 16:58:19","orig_title":"Vot eto lyubov!","year":"2013-09-19","translations":["Оригинальная дорожка"],"quality":"webdl","translation":"Оригинальная дорожка","update":"2016-12-16 07:35:02","iframe_src":"//5322.svetacdn.in/71tsRs29n5tZ/movie/8065"},{"id":8064,"title":"Вьюга","kp_id":"944952","imdb_id":null,"world_art_id":null,"type":"movie","add":"2016-12-14 16:55:57","orig_title":"Вьюга","year":"2013-01-01","translations":["Оригинальная дорожка"],"quality":"webdl","translation":"Оригинальная дорожка","update":"2016-12-16 06:09:26","iframe_src":"//5322.svetacdn.in/71tsRs29n5tZ/movie/8064"},{"id":8063,"title":"Третья попытка","kp_id":"929578","imdb_id":null,"world_art_id":null,"type":"movie","add":"2016-12-14 16:53:19","orig_title":"Третья попытка","year":"2015-09-05","translations":["Оригинальная дорожка"],"quality":"webdl","translation":"Оригинальная дорожка","update":"2016-12-16 06:07:34","iframe_src":"//5322.svetacdn.in/71tsRs29n5tZ/movie/8063"},{"id":8062,"title":"Саранча","kp_id":"838049","imdb_id":"tt3893620","world_art_id":null,"type":"movie","add":"2016-12-14 16:51:17","orig_title":"Sarancha","year":"2014-06-25","translations":["Оригинальная дорожка"],"quality":"webdl","translation":"Оригинальная дорожка","update":"2016-12-16 06:06:22","iframe_src":"//5322.svetacdn.in/71tsRs29n5tZ/movie/8062"},{"id":8061,"title":"Разрешите тебя поцеловать… отец невесты","kp_id":"840961","imdb_id":null,"world_art_id":null,"type":"movie","add":"2016-12-14 16:50:03","orig_title":"Разрешите тебя поцеловать… отец невесты","year":"2014-10-11","translations":["Оригинальная дорожка"],"quality":"webdl","translation":"Оригинальная дорожка","update":"2016-12-16 06:03:37","iframe_src":"//5322.svetacdn.in/71tsRs29n5tZ/movie/8061"},{"id":8060,"title":"Разрешите тебя поцеловать... на свадьбе","kp_id":"783247","imdb_id":"tt3547938","world_art_id":null,"type":"movie","add":"2016-12-14 16:48:32","orig_title":"Razreshite tebya potselovat... na svadbe","year":"2014-03-01","translations":["Оригинальная дорожка"],"quality":"webdl","translation":"Оригинальная дорожка","update":"2016-12-16 06:02:13","iframe_src":"//5322.svetacdn.in/71tsRs29n5tZ/movie/8060"},{"id":8059,"title":"Французский шпион","kp_id":"779584","imdb_id":null,"world_art_id":null,"type":"movie","add":"2016-12-14 16:45:40","orig_title":"Французский шпион","year":"2014-03-22","translations":["Оригинальная дорожка"],"quality":"webdl","translation":"Оригинальная дорожка","update":"2016-12-16 06:00:25","iframe_src":"//5322.svetacdn.in/71tsRs29n5tZ/movie/8059"},{"id":8058,"title":"12 месяцев","kp_id":"725105","imdb_id":"tt2585840","world_art_id":null,"type":"movie","add":"2016-12-14 16:43:11","orig_title":"12 mesyatsev","year":"2013-09-05","translations":["Оригинальная дорожка"],"quality":"webdl","translation":"Оригинальная дорожка","update":"2016-12-16 05:58:57","iframe_src":"//5322.svetacdn.in/71tsRs29n5tZ/movie/8058"},{"id":8057,"title":"Диалоги","kp_id":"759993","imdb_id":"tt3150834","world_art_id":null,"type":"movie","add":"2016-12-14 16:41:46","orig_title":"Dialogi","year":"2014-04-24","translations":["Оригинальная дорожка"],"quality":"webdl","translation":"Оригинальная дорожка","update":"2016-12-16 05:57:01","iframe_src":"//5322.svetacdn.in/71tsRs29n5tZ/movie/8057"},{"id":8056,"title":"Бабай","kp_id":"810642","imdb_id":null,"world_art_id":null,"type":"movie","add":"2016-12-14 16:40:21","orig_title":"Бабай","year":"2014-12-18","translations":["Оригинальная дорожка"],"quality":"webdl","translation":"Оригинальная дорожка","update":"2016-12-16 05:53:53","iframe_src":"//5322.svetacdn.in/71tsRs29n5tZ/movie/8056"}],"current_page":2254,"first_page_url":"https://videocdn.tv/api/short?limit=100&api_token=EnbO9h8pv1VyjbCJhg0WM9nG259n7mtz&cache32254=32254&page=1","from":225301,"last_page":632,"last_page_url":"https://videocdn.tv/api/short?limit=100&api_token=EnbO9h8pv1VyjbCJhg0WM9nG259n7mtz&cache32254=32254&page=632","next_page_url":null,"path":"https://videocdn.tv/api/short","per_page":100,"prev_page_url":"https://videocdn.tv/api/short?limit=100&api_token=EnbO9h8pv1VyjbCJhg0WM9nG259n7mtz&cache32254=32254&page=2253","to":225320,"total":63120}