{"result":true,"data":[{"id":16471,"title":"Допустимая ошибка","kp_id":"784333","imdb_id":"tt3086360","world_art_id":null,"type":"movie","add":"2018-04-25 07:35:14","orig_title":"Marge d'erreur","year":"2014-02-22","translations":["Профессиональный (многоголосый закадровый) (GreenРай Studio)"],"quality":"hdtv","translation":"Профессиональный (многоголосый закадровый) (GreenРай Studio)","update":"2018-04-26 04:23:24","iframe_src":"//8332.svetacdn.in/IAF0wWTdNYZm/movie/16471"},{"id":16469,"title":"Я желаю вам любви","kp_id":"847068","imdb_id":"tt3812016","world_art_id":null,"type":"movie","add":"2018-04-25 07:32:22","orig_title":"Je vous souhaite d'être follement aimée","year":"2015-10-02","translations":["Профессиональный (многоголосый закадровый) (GreenРай Studio)"],"quality":"webdl","translation":"Профессиональный (многоголосый закадровый) (GreenРай Studio)","update":"2018-04-26 04:20:45","iframe_src":"//8332.svetacdn.in/IAF0wWTdNYZm/movie/16469"},{"id":16467,"title":"Проклятые сестры","kp_id":null,"imdb_id":"tt6857354","world_art_id":null,"type":"movie","add":"2018-04-25 07:25:56","orig_title":"Haunted Sisters","year":"2017-03-19","translations":["Любительский (многоголосый закадровый) (Колобок)"],"quality":"webdl","translation":"Любительский (многоголосый закадровый) (Колобок)","update":"2018-04-26 04:17:40","iframe_src":"//8332.svetacdn.in/IAF0wWTdNYZm/movie/16467"},{"id":16466,"title":"Жертва, хладнокровно","kp_id":"989578","imdb_id":"tt5806798","world_art_id":null,"type":"movie","add":"2018-04-24 00:22:52","orig_title":"Prey, in Cold Blood","year":"2016-07-15","translations":["Любительский (одноголосый закадровый) (Хихикающий доктор)"],"quality":"webdl","translation":"Любительский (одноголосый закадровый) (Хихикающий доктор)","update":"2018-04-25 06:12:43","iframe_src":"//8332.svetacdn.in/IAF0wWTdNYZm/movie/16466"},{"id":16464,"title":"Бабло","kp_id":"864726","imdb_id":"tt3589408","world_art_id":null,"type":"movie","add":"2018-04-24 00:14:19","orig_title":"Scratch","year":"2016-11-02","translations":["Любительский (одноголосый закадровый) (Хихикающий доктор)"],"quality":"webdl","translation":"Любительский (одноголосый закадровый) (Хихикающий доктор)","update":"2018-04-25 06:08:41","iframe_src":"//8332.svetacdn.in/IAF0wWTdNYZm/movie/16464"},{"id":16463,"title":"Уичито","kp_id":"844687","imdb_id":"tt4043502","world_art_id":null,"type":"movie","add":"2018-04-24 00:09:19","orig_title":"Wichita","year":"2016-12-09","translations":["Любительский (одноголосый закадровый) (Хихикающий доктор)"],"quality":"webdl","translation":"Любительский (одноголосый закадровый) (Хихикающий доктор)","update":"2018-04-25 06:07:17","iframe_src":"//8332.svetacdn.in/IAF0wWTdNYZm/movie/16463"},{"id":16462,"title":"Зеро","kp_id":null,"imdb_id":"tt7344844","world_art_id":null,"type":"movie","add":"2018-04-24 00:05:01","orig_title":"Zero","year":"2016-08-21","translations":["Любительский (одноголосый закадровый) (Хихикающий доктор)"],"quality":"webdl","translation":"Любительский (одноголосый закадровый) (Хихикающий доктор)","update":"2018-04-25 06:04:53","iframe_src":"//8332.svetacdn.in/IAF0wWTdNYZm/movie/16462"},{"id":16461,"title":"Разгадка","kp_id":"868841","imdb_id":"tt4076916","world_art_id":null,"type":"movie","add":"2018-04-24 00:02:23","orig_title":"The Unraveling","year":"2015-04-11","translations":["Любительский (одноголосый закадровый) (Хихикающий доктор)"],"quality":"dvdrip","translation":"Любительский (одноголосый закадровый) (Хихикающий доктор)","update":"2018-04-25 06:03:03","iframe_src":"//8332.svetacdn.in/IAF0wWTdNYZm/movie/16461"},{"id":16459,"title":"Северная звезда","kp_id":"722986","imdb_id":"tt2515134","world_art_id":null,"type":"movie","add":"2018-04-23 23:56:21","orig_title":"The North Star","year":"2016-03-01","translations":["Любительский (многоголосый закадровый) (Синема УС)"],"quality":"dvdrip","translation":"Любительский (многоголосый закадровый) (Синема УС)","update":"2018-04-25 06:01:08","iframe_src":"//8332.svetacdn.in/IAF0wWTdNYZm/movie/16459"},{"id":16457,"title":"Бездна","kp_id":"1047187","imdb_id":"tt7011436","world_art_id":null,"type":"movie","add":"2018-04-23 23:46:48","orig_title":"Plonger","year":"2017-09-09","translations":["Любительский (многоголосый закадровый) (Синема УС)"],"quality":"webdl","translation":"Любительский (многоголосый закадровый) (Синема УС)","update":"2018-04-25 05:58:55","iframe_src":"//8332.svetacdn.in/IAF0wWTdNYZm/movie/16457"},{"id":16456,"title":"Персиполис","kp_id":"257900","imdb_id":"tt0808417","world_art_id":null,"type":"movie","add":"2018-04-23 23:44:35","orig_title":"Persepolis","year":"2007-05-23","translations":["Профессиональный (многоголосый закадровый)"],"quality":"bd","translation":"Профессиональный (многоголосый закадровый)","update":"2018-04-25 05:57:28","iframe_src":"//8332.svetacdn.in/IAF0wWTdNYZm/movie/16456"},{"id":16454,"title":"Не укради!","kp_id":"627301","imdb_id":null,"world_art_id":null,"type":"movie","add":"2018-04-23 23:39:14","orig_title":"Не укради!","year":"2012-03-12","translations":["Оригинальная дорожка"],"quality":"hdtv","translation":"Оригинальная дорожка","update":"2018-04-25 05:56:25","iframe_src":"//8332.svetacdn.in/IAF0wWTdNYZm/movie/16454"},{"id":16453,"title":"Малыш","kp_id":"2127","imdb_id":"tt0012349","world_art_id":null,"type":"movie","add":"2018-04-23 23:35:57","orig_title":"The Kid","year":"1921-01-16","translations":["Любительский (одноголосый закадровый)"],"quality":"bd","translation":"Любительский (одноголосый закадровый)","update":"2018-04-25 05:53:52","iframe_src":"//8332.svetacdn.in/IAF0wWTdNYZm/movie/16453"},{"id":16450,"title":"Фархоп: Здание самоубийц","kp_id":"895373","imdb_id":"tt4440798","world_art_id":null,"type":"movie","add":"2018-04-23 23:24:00","orig_title":"Farhope Tower","year":"2015-08-30","translations":["Любительский (одноголосый закадровый) (Хихикающий доктор)"],"quality":"webdl","translation":"Любительский (одноголосый закадровый) (Хихикающий доктор)","update":"2018-04-25 05:45:12","iframe_src":"//8332.svetacdn.in/IAF0wWTdNYZm/movie/16450"},{"id":16449,"title":"Выход в ад","kp_id":"455074","imdb_id":"tt1409798","world_art_id":null,"type":"movie","add":"2018-04-23 23:22:12","orig_title":"Exit to Hell","year":"2013-10-27","translations":["Любительский (одноголосый закадровый) (Хихикающий доктор)"],"quality":"hdtv","translation":"Любительский (одноголосый закадровый) (Хихикающий доктор)","update":"2018-04-25 05:28:43","iframe_src":"//8332.svetacdn.in/IAF0wWTdNYZm/movie/16449"},{"id":16436,"title":"Приключения Робин Гуда","kp_id":"484","imdb_id":"tt0029843","world_art_id":null,"type":"movie","add":"2018-04-22 21:20:51","orig_title":"The Adventures of Robin Hood","year":"1938-05-12","translations":["Профессиональный (многоголосый закадровый)"],"quality":"bd","translation":"Профессиональный (многоголосый закадровый)","update":"2018-04-25 11:38:29","iframe_src":"//8332.svetacdn.in/IAF0wWTdNYZm/movie/16436"},{"id":15706,"title":"Высшее общество","kp_id":"1000889","imdb_id":"tt5985052","world_art_id":null,"type":"movie","add":"2018-03-16 21:31:11","orig_title":"High Society","year":"2017-09-14","translations":["Любительский (многоголосый закадровый) (Синема УС)","Профессиональный (многоголосый закадровый) (GreenРай Studio)"],"quality":"bd","translation":"Любительский (многоголосый закадровый) (Синема УС)","update":"2018-04-26 04:17:41","iframe_src":"//8332.svetacdn.in/IAF0wWTdNYZm/movie/15706"},{"id":15333,"title":"Наследие Торна","kp_id":"770947","imdb_id":"tt2949614","world_art_id":null,"type":"movie","add":"2018-02-28 22:34:25","orig_title":"Legacy of Thorn","year":"2016-02-29","translations":["Любительский (многоголосый закадровый) (Колобок)","Любительский (одноголосый закадровый) (Хихикающий доктор)"],"quality":"webdl","translation":"Любительский (многоголосый закадровый) (Колобок)","update":"2018-04-25 05:52:28","iframe_src":"//8332.svetacdn.in/IAF0wWTdNYZm/movie/15333"},{"id":12630,"title":"Щепотка любви","kp_id":"1009118","imdb_id":"tt6286216","world_art_id":null,"type":"movie","add":"2017-07-24 18:39:00","orig_title":"A Dash of Love","year":"2017-02-11","translations":["Любительский (многоголосый закадровый) (Синема УС)","Профессиональный (многоголосый закадровый) (GreenРай Studio)"],"quality":"hdtv","translation":"Любительский (многоголосый закадровый) (Синема УС)","update":"2018-04-26 04:17:42","iframe_src":"//8332.svetacdn.in/IAF0wWTdNYZm/movie/12630"},{"id":12481,"title":"Тихая страсть","kp_id":"707622","imdb_id":"tt2392830","world_art_id":null,"type":"movie","add":"2017-07-13 17:01:42","orig_title":"A Quiet Passion","year":"2016-02-14","translations":["Любительский (многоголосый закадровый) (Синема УС)","Профессиональный (многоголосый закадровый) (GreenРай Studio)"],"quality":"bd","translation":"Любительский (многоголосый закадровый) (Синема УС)","update":"2018-04-26 04:17:45","iframe_src":"//8332.svetacdn.in/IAF0wWTdNYZm/movie/12481"}],"current_page":1914,"first_page_url":"https://videocdn.tv/api/short?limit=100&api_token=6Onb1W1alEUrBcKJZD3GoKBbWyAl2uG2&cache31914=31914&page=1","from":191301,"last_page":635,"last_page_url":"https://videocdn.tv/api/short?limit=100&api_token=6Onb1W1alEUrBcKJZD3GoKBbWyAl2uG2&cache31914=31914&page=635","next_page_url":null,"path":"https://videocdn.tv/api/short","per_page":100,"prev_page_url":"https://videocdn.tv/api/short?limit=100&api_token=6Onb1W1alEUrBcKJZD3GoKBbWyAl2uG2&cache31914=31914&page=1913","to":191320,"total":63457}