{"result":true,"data":[{"id":51700,"title":"Оружие","kp_id":"13491","imdb_id":"tt0077176","world_art_id":null,"type":"movie","add":"2021-07-12 08:52:21","orig_title":"L'arma","year":"1978-09-08","translations":["Полное дублирование (Киностудия им. Горького)"],"quality":"dvdrip","translation":"Полное дублирование (Киностудия им. Горького)","update":"2021-07-12 10:14:19","iframe_src":"//24213.svetacdn.in/si4jsFRrtgrT/movie/51700"},{"id":51699,"title":"Пьяный монах из Шаолиня","kp_id":"173760","imdb_id":"tt0200126","world_art_id":null,"type":"movie","add":"2021-07-12 08:49:55","orig_title":"Shao Lin zui ba quan","year":"1981-10-01","translations":["Авторский (одноголосый закадровый) (Кузнецов Сергей)"],"quality":"vhs","translation":"Авторский (одноголосый закадровый) (Кузнецов Сергей)","update":"2021-07-12 10:13:15","iframe_src":"//24213.svetacdn.in/si4jsFRrtgrT/movie/51699"},{"id":51698,"title":"Разведенный Джек","kp_id":"22089","imdb_id":"tt0127516","world_art_id":null,"type":"movie","add":"2021-07-12 07:29:54","orig_title":"Divorcing Jack","year":"1998-08-14","translations":["Авторский (одноголосый закадровый) (Сербин Юрий)"],"quality":"dvdrip","translation":"Авторский (одноголосый закадровый) (Сербин Юрий)","update":"2021-07-12 10:17:08","iframe_src":"//24213.svetacdn.in/si4jsFRrtgrT/movie/51698"},{"id":51697,"title":"Полночный выпуск","kp_id":"35953","imdb_id":"tt0107570","world_art_id":null,"type":"movie","add":"2021-07-12 07:18:18","orig_title":"Midnight Edition","year":"1993-10-01","translations":["Авторский (одноголосый закадровый) (Иванов Михаил)"],"quality":"laserdisc","translation":"Авторский (одноголосый закадровый) (Иванов Михаил)","update":"2021-07-12 10:15:48","iframe_src":"//24213.svetacdn.in/si4jsFRrtgrT/movie/51697"},{"id":51682,"title":"Брат Солнце, сестра Луна","kp_id":"8764","imdb_id":"tt0069824","world_art_id":null,"type":"movie","add":"2021-07-10 14:01:49","orig_title":"Fratello sole, sorella luna","year":"1972-03-03","translations":["Профессиональный (многоголосый закадровый)"],"quality":"webdl","translation":"Профессиональный (многоголосый закадровый)","update":"2021-07-12 07:36:04","iframe_src":"//24213.svetacdn.in/si4jsFRrtgrT/movie/51682"},{"id":51680,"title":"Джентльмен Джим","kp_id":"14244","imdb_id":"tt0034778","world_art_id":null,"type":"movie","add":"2021-07-10 13:56:05","orig_title":"Gentleman Jim","year":"1942-11-14","translations":["Любительский (многоголосый закадровый)","[EN] Original (English)"],"quality":"webdl","translation":"Любительский (многоголосый закадровый)","update":"2021-07-12 07:29:09","iframe_src":"//24213.svetacdn.in/si4jsFRrtgrT/movie/51680"},{"id":51679,"title":"Колдунья","kp_id":"32582","imdb_id":"tt0086340","world_art_id":null,"type":"movie","add":"2021-07-10 13:37:58","orig_title":"Sorceress","year":"1982-10-01","translations":["[EN] Original (English)","Любительский (одноголосый закадровый)"],"quality":"bd","translation":"[EN] Original (English)","update":"2021-07-12 07:32:32","iframe_src":"//24213.svetacdn.in/si4jsFRrtgrT/movie/51679"},{"id":51676,"title":"Грабители поездов","kp_id":"1333","imdb_id":"tt0070825","world_art_id":null,"type":"movie","add":"2021-07-10 13:11:34","orig_title":"The Train Robbers","year":"1973-02-07","translations":["[EN] Original (English)","Полное дублирование (Варус-Видео)"],"quality":"bd","translation":"[EN] Original (English)","update":"2021-07-12 07:25:31","iframe_src":"//24213.svetacdn.in/si4jsFRrtgrT/movie/51676"},{"id":51631,"title":"Пурпурное сердце","kp_id":"15520","imdb_id":"tt0037197","world_art_id":null,"type":"movie","add":"2021-07-08 15:14:51","orig_title":"The Purple Heart","year":"1944-02-23","translations":["Авторский (одноголосый закадровый) (Рябов Сергей)","[EN] Original (English)"],"quality":"bd","translation":"Авторский (одноголосый закадровый) (Рябов Сергей)","update":"2021-07-12 15:06:23","iframe_src":"//24213.svetacdn.in/si4jsFRrtgrT/movie/51631"},{"id":51585,"title":"Друг по переписке","kp_id":"4481641","imdb_id":"tt14605426","world_art_id":null,"type":"movie","add":"2021-07-06 10:28:17","orig_title":"Her Pen Pal","year":"2021-06-19","translations":["Любительский (многоголосый закадровый) (AlphaProject)","[EN] Original (English)","Любительский (многоголосый закадровый) (AlphaProject)"],"quality":"webdl","translation":"Любительский (многоголосый закадровый) (AlphaProject)","update":"2021-07-12 14:59:42","iframe_src":"//24213.svetacdn.in/si4jsFRrtgrT/movie/51585"},{"id":37467,"title":"Джунгли","kp_id":"1052754","imdb_id":"tt7463730","world_art_id":null,"type":"movie","add":"2020-03-05 19:58:48","orig_title":"Junglee","year":"2019-03-28","translations":["Любительский (многоголосый закадровый) (Honey&Haseena)","Любительский (двухголосый закадровый) (OnisFilms)"],"quality":"webdl","translation":"Любительский (многоголосый закадровый) (Honey&Haseena)","update":"2021-07-12 07:09:28","iframe_src":"//24213.svetacdn.in/si4jsFRrtgrT/movie/37467"},{"id":33803,"title":"Хозяин","kp_id":"1184721","imdb_id":"tt8380776","world_art_id":null,"type":"movie","add":"2019-12-07 13:29:33","orig_title":"Grand Isle","year":"2019-11-15","translations":["Любительский (многоголосый закадровый) (AlphaProject)","[EN] Original (English)","Полное дублирование","Полное дублирование (IVI)"],"quality":"webdl","translation":"Любительский (многоголосый закадровый) (AlphaProject)","update":"2021-07-12 08:22:45","iframe_src":"//24213.svetacdn.in/si4jsFRrtgrT/movie/33803"},{"id":25689,"title":"Частные пороки, общественные добродетели","kp_id":"98112","imdb_id":"tt0073869","world_art_id":null,"type":"movie","add":"2019-04-29 21:50:49","orig_title":"Vizi privati, pubbliche virtù","year":"1976-05-06","translations":["Любительский (одноголосый закадровый) (Воротилин Олег)","Любительский (одноголосый закадровый)"],"quality":"bd","translation":"Любительский (одноголосый закадровый) (Воротилин Олег)","update":"2021-07-12 15:01:27","iframe_src":"//24213.svetacdn.in/si4jsFRrtgrT/movie/25689"},{"id":24513,"title":"Большое космическое путешествие","kp_id":"46169","imdb_id":"tt0321492","world_art_id":null,"type":"movie","add":"2019-04-13 08:20:48","orig_title":"Bolshoe kosmicheskoe puteshestvie","year":"1975-11-05","translations":["Оригинальная дорожка","Оригинальная дорожка"],"quality":"dvdrip","translation":"Оригинальная дорожка","update":"2021-07-12 08:32:56","iframe_src":"//24213.svetacdn.in/si4jsFRrtgrT/movie/24513"},{"id":23320,"title":"Отроки во Вселенной","kp_id":"42849","imdb_id":"tt0071957","world_art_id":null,"type":"movie","add":"2019-03-21 08:17:08","orig_title":"Otroki vo vselennoy","year":"1975-03-24","translations":["Оригинальная дорожка","Оригинальная дорожка"],"quality":"dvdrip","translation":"Оригинальная дорожка","update":"2021-07-12 08:38:16","iframe_src":"//24213.svetacdn.in/si4jsFRrtgrT/movie/23320"},{"id":22173,"title":"Кровавое дерево","kp_id":"1022197","imdb_id":"tt6433832","world_art_id":null,"type":"movie","add":"2019-02-10 21:59:11","orig_title":"El árbol de la sangre","year":"2018-10-24","translations":["Любительский (многоголосый закадровый) (Синема УС)","Любительский (одноголосый закадровый) (liosaa)"],"quality":"webdl","translation":"Любительский (многоголосый закадровый) (Синема УС)","update":"2021-07-12 08:49:09","iframe_src":"//24213.svetacdn.in/si4jsFRrtgrT/movie/22173"},{"id":11146,"title":"Игби идет ко дну","kp_id":"709","imdb_id":"tt0280760","world_art_id":null,"type":"movie","add":"2017-04-20 16:32:35","orig_title":"Igby Goes Down","year":"2002-05-23","translations":["Профессиональный (двухголосый закадровый)","Профессиональный (многоголосый закадровый) (Гемини)"],"quality":"hdtv","translation":"Профессиональный (двухголосый закадровый)","update":"2021-07-12 07:08:15","iframe_src":"//24213.svetacdn.in/si4jsFRrtgrT/movie/11146"},{"id":1054,"title":"Агония","kp_id":"43428","imdb_id":"tt0081991","world_art_id":null,"type":"serial","add":"2017-02-27 10:01:34","orig_title":"Agoniya","year":"1981-09-01","translations":["Оригинальная дорожка"],"seasons_count":1,"episodes_count":2,"episodes":2,"update":"2017-02-27 14:28:49","iframe_src":"//24213.svetacdn.in/si4jsFRrtgrT/tv-series/1054"},{"id":1053,"title":"Инкассаторы","kp_id":"602542","imdb_id":null,"world_art_id":null,"type":"serial","add":"2017-02-27 08:19:21","orig_title":"Инкассаторы","year":"2012-01-01","translations":["Оригинальная дорожка"],"seasons_count":1,"episodes_count":8,"episodes":8,"update":"2017-02-27 14:30:51","iframe_src":"//24213.svetacdn.in/si4jsFRrtgrT/tv-series/1053"},{"id":1052,"title":"За полчаса до весны","kp_id":"1009515","imdb_id":null,"world_art_id":null,"type":"serial","add":"2017-02-27 08:07:08","orig_title":"За полчаса до весны","year":"2017-02-25","translations":["Оригинальная дорожка"],"seasons_count":1,"episodes_count":2,"episodes":2,"update":"2017-02-27 12:28:54","iframe_src":"//24213.svetacdn.in/si4jsFRrtgrT/tv-series/1052"},{"id":1051,"title":"Барышня и Хулиган","kp_id":"984281","imdb_id":null,"world_art_id":null,"type":"serial","add":"2017-02-27 08:01:51","orig_title":"Барышня и Хулиган","year":"2017-02-25","translations":["Оригинальная дорожка"],"seasons_count":1,"episodes_count":4,"episodes":4,"update":"2017-02-27 10:26:57","iframe_src":"//24213.svetacdn.in/si4jsFRrtgrT/tv-series/1051"},{"id":1050,"title":"Чужой дед","kp_id":"1009639","imdb_id":null,"world_art_id":null,"type":"serial","add":"2017-02-27 05:32:38","orig_title":"Чужой дед","year":"2017-02-26","translations":["Оригинальная дорожка"],"seasons_count":1,"episodes_count":2,"episodes":2,"update":"2017-02-28 06:25:45","iframe_src":"//24213.svetacdn.in/si4jsFRrtgrT/tv-series/1050"},{"id":1041,"title":"Агент национальной безопасности 4","kp_id":"478601","imdb_id":null,"world_art_id":null,"type":"serial","add":"2017-02-26 06:49:52","orig_title":"Агент национальной безопасности 4","year":"2004-05-15","translations":["Оригинальная дорожка"],"seasons_count":1,"episodes_count":12,"episodes":12,"update":"2017-02-28 08:57:32","iframe_src":"//24213.svetacdn.in/si4jsFRrtgrT/tv-series/1041"},{"id":1040,"title":"Агент национальной безопасности 3","kp_id":"478459","imdb_id":null,"world_art_id":null,"type":"serial","add":"2017-02-26 06:45:25","orig_title":"Агент национальной безопасности 3","year":"2002-02-23","translations":["Оригинальная дорожка"],"seasons_count":1,"episodes_count":12,"episodes":12,"update":"2017-02-28 08:35:47","iframe_src":"//24213.svetacdn.in/si4jsFRrtgrT/tv-series/1040"},{"id":1039,"title":"Агент национальной безопасности 2","kp_id":"477557","imdb_id":null,"world_art_id":null,"type":"serial","add":"2017-02-26 06:41:59","orig_title":"Агент национальной безопасности 2","year":"2000-05-12","translations":["Оригинальная дорожка"],"seasons_count":1,"episodes_count":12,"episodes":12,"update":"2017-02-27 12:58:33","iframe_src":"//24213.svetacdn.in/si4jsFRrtgrT/tv-series/1039"},{"id":1038,"title":"Агент национальной безопасности","kp_id":"252028","imdb_id":"tt1650387","world_art_id":null,"type":"serial","add":"2017-02-26 06:35:07","orig_title":"Agent natsionalnoy bezopasnosti","year":"1999-09-22","translations":["Оригинальная дорожка"],"seasons_count":1,"episodes_count":12,"episodes":12,"update":"2017-02-27 11:42:43","iframe_src":"//24213.svetacdn.in/si4jsFRrtgrT/tv-series/1038"},{"id":1036,"title":"Осиное гнездо","kp_id":"989819","imdb_id":null,"world_art_id":null,"type":"serial","add":"2017-02-21 13:28:31","orig_title":"Осиное гнездо","year":"2017-02-06","translations":["Оригинальная дорожка"],"seasons_count":1,"episodes_count":16,"episodes":16,"update":"2017-02-22 11:32:19","iframe_src":"//24213.svetacdn.in/si4jsFRrtgrT/tv-series/1036"},{"id":1035,"title":"Берега","kp_id":"817907","imdb_id":"tt3866560","world_art_id":null,"type":"serial","add":"2017-02-21 13:25:54","orig_title":"Berega","year":"2013-12-21","translations":["Оригинальная дорожка"],"seasons_count":1,"episodes_count":2,"episodes":2,"update":"2017-02-22 10:23:02","iframe_src":"//24213.svetacdn.in/si4jsFRrtgrT/tv-series/1035"},{"id":1034,"title":"Пуаро","kp_id":"85208","imdb_id":"tt0094525","world_art_id":null,"type":"serial","add":"2017-02-21 13:09:31","orig_title":"Poirot","year":"1989-01-08","translations":["Профессиональный (многоголосый закадровый)"],"seasons_count":13,"episodes_count":70,"episodes":5,"update":"2017-02-24 12:08:45","iframe_src":"//24213.svetacdn.in/si4jsFRrtgrT/tv-series/1034"},{"id":1033,"title":"Пять минут тишины","kp_id":"961720","imdb_id":null,"world_art_id":null,"type":"serial","add":"2017-02-21 06:41:00","orig_title":"Пять минут тишины","year":"2017-02-20","translations":["Оригинальная дорожка"],"seasons_count":1,"episodes_count":10,"episodes":10,"update":"2017-02-26 11:02:33","iframe_src":"//24213.svetacdn.in/si4jsFRrtgrT/tv-series/1033"},{"id":1031,"title":"Тёмные воды","kp_id":"581122","imdb_id":null,"world_art_id":null,"type":"serial","add":"2017-02-20 11:54:54","orig_title":"Тёмные воды","year":"2011-02-19","translations":["Оригинальная дорожка"],"seasons_count":1,"episodes_count":4,"episodes":4,"update":"2017-02-20 15:41:31","iframe_src":"//24213.svetacdn.in/si4jsFRrtgrT/tv-series/1031"},{"id":1029,"title":"Правила угона","kp_id":"461762","imdb_id":"tt3622372","world_art_id":null,"type":"serial","add":"2017-02-17 09:40:22","orig_title":"Pravila ugona","year":"2009-09-20","translations":["Оригинальная дорожка"],"seasons_count":1,"episodes_count":8,"episodes":8,"update":"2017-02-17 13:18:34","iframe_src":"//24213.svetacdn.in/si4jsFRrtgrT/tv-series/1029"},{"id":1027,"title":"Всё по закону","kp_id":"840960","imdb_id":null,"world_art_id":null,"type":"serial","add":"2017-02-17 09:09:12","orig_title":"Всё по закону","year":"2016-04-25","translations":["Оригинальная дорожка"],"seasons_count":1,"episodes_count":14,"episodes":14,"update":"2017-02-17 12:38:51","iframe_src":"//24213.svetacdn.in/si4jsFRrtgrT/tv-series/1027"},{"id":1026,"title":"Партизаны","kp_id":"464959","imdb_id":null,"world_art_id":null,"type":"serial","add":"2017-02-17 09:06:55","orig_title":"Партизаны","year":"2011-02-03","translations":["Оригинальная дорожка"],"seasons_count":1,"episodes_count":16,"episodes":16,"update":"2017-02-17 13:02:10","iframe_src":"//24213.svetacdn.in/si4jsFRrtgrT/tv-series/1026"},{"id":1025,"title":"Сердце Бонивура","kp_id":"427079","imdb_id":"tt5085470","world_art_id":null,"type":"serial","add":"2017-02-17 09:04:28","orig_title":"Serdtse Bonivura","year":"1969-10-21","translations":["Оригинальная дорожка"],"seasons_count":1,"episodes_count":4,"episodes":4,"update":"2017-02-17 12:42:48","iframe_src":"//24213.svetacdn.in/si4jsFRrtgrT/tv-series/1025"},{"id":1014,"title":"Бандитский Петербург 10: Расплата","kp_id":"426310","imdb_id":"tt4786988","world_art_id":null,"type":"serial","add":"2017-02-15 15:32:28","orig_title":"Banditskiy Peterburg: Rasplata","year":"2007-06-05","translations":["Оригинальная дорожка"],"seasons_count":1,"episodes_count":12,"episodes":12,"update":"2017-02-17 12:56:19","iframe_src":"//24213.svetacdn.in/si4jsFRrtgrT/tv-series/1014"},{"id":873,"title":"Василиса","kp_id":"929579","imdb_id":null,"world_art_id":null,"type":"serial","add":"2017-01-13 07:17:32","orig_title":"Василиса","year":"2017-01-09","translations":["Оригинальная дорожка"],"seasons_count":1,"episodes_count":59,"episodes":59,"update":"2017-02-20 11:14:27","iframe_src":"//24213.svetacdn.in/si4jsFRrtgrT/tv-series/873"},{"id":7173,"title":"Балет. Жизнь на пуантах","kp_id":"944234","imdb_id":"tt5176536","world_art_id":null,"type":"movie","add":"2016-11-08 08:42:22","orig_title":"Center Stage: On Pointe","year":"2016-06-25","translations":["[EN] Original (English)","Профессиональный (многоголосый закадровый) (iTunes)"],"quality":"webdl","translation":"[EN] Original (English)","update":"2021-07-12 14:58:00","iframe_src":"//24213.svetacdn.in/si4jsFRrtgrT/movie/7173"},{"id":2682,"title":"Рога","kp_id":"484425","imdb_id":"tt1528071","world_art_id":null,"type":"movie","add":"2016-05-30 04:54:16","orig_title":"Horns","year":"2013-09-06","translations":["Профессиональный (многоголосый закадровый)","Авторский (одноголосый закадровый) (Есарев Дмитрий)","Авторский (одноголосый закадровый) (Матвеев Алексей | Doctor Joker)","[EN] Original (English)","Любительский (двухголосый закадровый) (Пиратская студия)","Любительский (многоголосый закадровый) (Gremlin Creative Studio)","Профессиональный (многоголосый закадровый)"],"quality":"bd","translation":"Профессиональный (многоголосый закадровый)","update":"2021-07-12 15:37:47","iframe_src":"//24213.svetacdn.in/si4jsFRrtgrT/movie/2682"},{"id":2581,"title":"Одинокий парень","kp_id":"4505","imdb_id":"tt0087635","world_art_id":null,"type":"movie","add":"2016-05-25 13:57:28","orig_title":"The Lonely Guy","year":"1984-01-27","translations":["Профессиональный (многоголосый закадровый)","Авторский (одноголосый закадровый) (Михалёв Алексей)","[EN] Original (English)","Профессиональный (многоголосый закадровый)","Профессиональный (многоголосый закадровый) (Первый канал | ОРТ)"],"quality":"webdl","translation":"Профессиональный (многоголосый закадровый)","update":"2021-07-12 15:15:58","iframe_src":"//24213.svetacdn.in/si4jsFRrtgrT/movie/2581"}],"current_page":597,"first_page_url":"https://videocdn.tv/api/short?limit=100&api_token=X6EwAUfE5M9xbo7y0Bp0aPf3uXxG2KLL&cache3597=3597&page=1","from":59601,"last_page":725,"last_page_url":"https://videocdn.tv/api/short?limit=100&api_token=X6EwAUfE5M9xbo7y0Bp0aPf3uXxG2KLL&cache3597=3597&page=725","next_page_url":"https://videocdn.tv/api/short?limit=100&api_token=X6EwAUfE5M9xbo7y0Bp0aPf3uXxG2KLL&cache3597=3597&page=598","path":"https://videocdn.tv/api/short","per_page":100,"prev_page_url":"https://videocdn.tv/api/short?limit=100&api_token=X6EwAUfE5M9xbo7y0Bp0aPf3uXxG2KLL&cache3597=3597&page=596","to":59640,"total":72491}