{"result":true,"data":[{"id":27916,"title":"Москва улыбается","kp_id":"437394","imdb_id":null,"world_art_id":null,"type":"movie","add":"2019-06-17 22:53:45","orig_title":"Москва улыбается","year":"2008-01-01","translations":["Оригинальная дорожка"],"quality":"dvdrip","translation":"Оригинальная дорожка","update":"2019-06-18 07:06:06","iframe_src":"//5091.svetacdn.in/71tsRs29n5tZ/movie/27916"},{"id":27915,"title":"На Гранатовых островах","kp_id":"46266","imdb_id":"tt0237482","world_art_id":null,"type":"movie","add":"2019-06-17 22:48:57","orig_title":"Na Granatovykh ostrovakh","year":"1981-11-16","translations":["Оригинальная дорожка"],"quality":"sat","translation":"Оригинальная дорожка","update":"2019-06-18 07:06:51","iframe_src":"//5091.svetacdn.in/71tsRs29n5tZ/movie/27915"},{"id":27914,"title":"Плачу вперед!","kp_id":"40913","imdb_id":"tt0273960","world_art_id":null,"type":"movie","add":"2019-06-17 22:44:49","orig_title":"Plachu vperyod!","year":"1999-12-14","translations":["Оригинальная дорожка"],"quality":"sat","translation":"Оригинальная дорожка","update":"2019-06-18 07:08:27","iframe_src":"//5091.svetacdn.in/71tsRs29n5tZ/movie/27914"},{"id":27913,"title":"Последняя дорога","kp_id":"43158","imdb_id":"tt0091783","world_art_id":null,"type":"movie","add":"2019-06-17 22:39:01","orig_title":"Poslednyaya doroga","year":"1986-02-07","translations":["Оригинальная дорожка"],"quality":"sat","translation":"Оригинальная дорожка","update":"2019-06-18 07:10:05","iframe_src":"//5091.svetacdn.in/71tsRs29n5tZ/movie/27913"},{"id":27912,"title":"Ребята с Канонерского","kp_id":"479292","imdb_id":"tt1530500","world_art_id":null,"type":"movie","add":"2019-06-17 22:35:04","orig_title":"Rebyata s kanonerskogo","year":"1960-08-25","translations":["Оригинальная дорожка"],"quality":"sat","translation":"Оригинальная дорожка","update":"2019-06-18 07:11:23","iframe_src":"//5091.svetacdn.in/71tsRs29n5tZ/movie/27912"},{"id":27911,"title":"Выстрел в спину","kp_id":"45981","imdb_id":"tt0193615","world_art_id":null,"type":"movie","add":"2019-06-17 22:31:36","orig_title":"Vystrel v spinu","year":"1980-11-10","translations":["Оригинальная дорожка"],"quality":"sat","translation":"Оригинальная дорожка","update":"2019-06-18 07:12:42","iframe_src":"//5091.svetacdn.in/71tsRs29n5tZ/movie/27911"},{"id":27884,"title":"Стрелок","kp_id":"3480","imdb_id":"tt0109959","world_art_id":null,"type":"movie","add":"2019-06-17 08:23:34","orig_title":"Gunmen","year":"1993-05-21","translations":["Профессиональный (многоголосый закадровый)"],"quality":"dvdrip","translation":"Профессиональный (многоголосый закадровый)","update":"2019-06-18 07:30:23","iframe_src":"//5091.svetacdn.in/71tsRs29n5tZ/movie/27884"},{"id":27802,"title":"Фотография на память","kp_id":"467933","imdb_id":"tt3085938","world_art_id":null,"type":"movie","add":"2019-06-14 21:15:42","orig_title":"Fotografiya na pamyat","year":"1985-01-01","translations":["Оригинальная дорожка"],"quality":"dvdrip","translation":"Оригинальная дорожка","update":"2019-06-18 07:30:13","iframe_src":"//5091.svetacdn.in/71tsRs29n5tZ/movie/27802"},{"id":27801,"title":"Анна на шее","kp_id":"43501","imdb_id":"tt0046715","world_art_id":null,"type":"movie","add":"2019-06-14 21:08:09","orig_title":"Anna na shee","year":"1954-05-13","translations":["Оригинальная дорожка"],"quality":"dvdrip","translation":"Оригинальная дорожка","update":"2019-06-18 07:29:21","iframe_src":"//5091.svetacdn.in/71tsRs29n5tZ/movie/27801"},{"id":27800,"title":"Бабушка Ада","kp_id":"453260","imdb_id":null,"world_art_id":null,"type":"movie","add":"2019-06-14 21:04:54","orig_title":"Бабушка Ада","year":"2011-01-01","translations":["Оригинальная дорожка"],"quality":"sat","translation":"Оригинальная дорожка","update":"2019-06-18 07:28:31","iframe_src":"//5091.svetacdn.in/71tsRs29n5tZ/movie/27800"},{"id":27799,"title":"Берег его жизни","kp_id":"331869","imdb_id":"tt0262272","world_art_id":null,"type":"movie","add":"2019-06-14 20:59:10","orig_title":"Bereg ego zhizni","year":"1984-01-01","translations":["Оригинальная дорожка"],"quality":"dvdrip","translation":"Оригинальная дорожка","update":"2019-06-18 07:27:22","iframe_src":"//5091.svetacdn.in/71tsRs29n5tZ/movie/27799"},{"id":27798,"title":"Лесная песня. Мавка","kp_id":"45081","imdb_id":"tt0171474","world_art_id":null,"type":"movie","add":"2019-06-14 20:50:18","orig_title":"Lesnaya pesnya. Mavka","year":"1981-06-23","translations":["Оригинальная дорожка"],"quality":"dvdrip","translation":"Оригинальная дорожка","update":"2019-06-18 07:26:00","iframe_src":"//5091.svetacdn.in/71tsRs29n5tZ/movie/27798"},{"id":27796,"title":"Любочка","kp_id":"471575","imdb_id":"tt1503136","world_art_id":null,"type":"movie","add":"2019-06-14 20:43:56","orig_title":"Lyubochka","year":"1984-04-06","translations":["Оригинальная дорожка"],"quality":"dvdrip","translation":"Оригинальная дорожка","update":"2019-06-18 07:21:30","iframe_src":"//5091.svetacdn.in/71tsRs29n5tZ/movie/27796"},{"id":27794,"title":"СВ. Спальный вагон","kp_id":"44042","imdb_id":"tt0098242","world_art_id":null,"type":"movie","add":"2019-06-14 20:12:39","orig_title":"SV - Spalnyy vagon","year":"1989-01-01","translations":["Оригинальная дорожка"],"quality":"dvdrip","translation":"Оригинальная дорожка","update":"2019-06-18 07:20:41","iframe_src":"//5091.svetacdn.in/71tsRs29n5tZ/movie/27794"},{"id":27793,"title":"Вот такая музыка","kp_id":"45861","imdb_id":"tt0232910","world_art_id":null,"type":"movie","add":"2019-06-14 20:08:07","orig_title":"Vot takaya muzyka","year":"1981-01-01","translations":["Оригинальная дорожка"],"quality":"dvdrip","translation":"Оригинальная дорожка","update":"2019-06-18 07:18:21","iframe_src":"//5091.svetacdn.in/71tsRs29n5tZ/movie/27793"},{"id":27792,"title":"Всем – спасибо!..","kp_id":"230743","imdb_id":"tt0232915","world_art_id":null,"type":"movie","add":"2019-06-14 20:04:54","orig_title":"Vsem spasibo!","year":"1981-09-11","translations":["Оригинальная дорожка"],"quality":"dvdrip","translation":"Оригинальная дорожка","update":"2019-06-18 07:17:28","iframe_src":"//5091.svetacdn.in/71tsRs29n5tZ/movie/27792"},{"id":27791,"title":"Розы для Эльзы","kp_id":"436324","imdb_id":null,"world_art_id":null,"type":"movie","add":"2019-06-14 20:01:50","orig_title":"Розы для Эльзы","year":"2009-01-01","translations":["Оригинальная дорожка"],"quality":"dvdrip","translation":"Оригинальная дорожка","update":"2019-06-18 07:16:41","iframe_src":"//5091.svetacdn.in/71tsRs29n5tZ/movie/27791"},{"id":27790,"title":"Свадьба соек","kp_id":"300943","imdb_id":"tt0491339","world_art_id":null,"type":"movie","add":"2019-06-14 19:55:35","orig_title":"Chkhikvta qortsili","year":"1984-01-01","translations":["Оригинальная дорожка"],"quality":"dvdrip","translation":"Оригинальная дорожка","update":"2019-06-18 07:15:32","iframe_src":"//5091.svetacdn.in/71tsRs29n5tZ/movie/27790"},{"id":5776,"title":"Афера под прикрытием","kp_id":"463464","imdb_id":"tt1355631","world_art_id":null,"type":"movie","add":"2016-10-03 13:58:26","orig_title":"The Infiltrator","year":"2016-07-06","translations":["Полное дублирование"],"quality":"bd","translation":"Полное дублирование","update":"2019-06-18 07:00:51","iframe_src":"//5091.svetacdn.in/71tsRs29n5tZ/movie/5776"},{"id":4747,"title":"Диггеры","kp_id":"899500","imdb_id":"tt5953804","world_art_id":null,"type":"movie","add":"2016-08-26 07:25:33","orig_title":"Diggers","year":"2016-08-26","translations":["Оригинальная дорожка"],"quality":"bd","translation":"Оригинальная дорожка","update":"2019-06-18 06:49:35","iframe_src":"//5091.svetacdn.in/71tsRs29n5tZ/movie/4747"}],"current_page":1542,"first_page_url":"https://videocdn.tv/api/short?limit=100&api_token=EnbO9h8pv1VyjbCJhg0WM9nG259n7mtz&cache31542=31542&page=1","from":154101,"last_page":669,"last_page_url":"https://videocdn.tv/api/short?limit=100&api_token=EnbO9h8pv1VyjbCJhg0WM9nG259n7mtz&cache31542=31542&page=669","next_page_url":null,"path":"https://videocdn.tv/api/short","per_page":100,"prev_page_url":"https://videocdn.tv/api/short?limit=100&api_token=EnbO9h8pv1VyjbCJhg0WM9nG259n7mtz&cache31542=31542&page=1541","to":154120,"total":66897}