{"result":true,"data":[{"id":11536,"title":"Страна улыбок","kp_id":"820353","imdb_id":"tt3421124","world_art_id":null,"type":"movie","add":"2017-05-14 22:10:00","orig_title":"Land of Smiles","year":"2017-03-31","translations":["Любительский (многоголосый закадровый) (Синема УС)"],"quality":"bd","translation":"Любительский (многоголосый закадровый) (Синема УС)","update":"2017-05-15 10:47:48","iframe_src":"//83.svetacdn.in/PfJ50H0ZBPg3/movie/11536"},{"id":11532,"title":"Убийцы из Нибе","kp_id":"960433","imdb_id":"tt5458566","world_art_id":null,"type":"movie","add":"2017-05-14 21:50:13","orig_title":"Dræberne fra Nibe","year":"2017-01-12","translations":["Любительский (двухголосый закадровый) (Колобок)"],"quality":"dvdrip","translation":"Любительский (двухголосый закадровый) (Колобок)","update":"2017-05-15 10:35:31","iframe_src":"//83.svetacdn.in/PfJ50H0ZBPg3/movie/11532"},{"id":11528,"title":"База","kp_id":"977289","imdb_id":"tt5667516","world_art_id":null,"type":"movie","add":"2017-05-14 21:18:52","orig_title":"Black Site Delta","year":"2017-05-05","translations":["Любительский (многоголосый закадровый) (Синема УС)"],"quality":"webdl","translation":"Любительский (многоголосый закадровый) (Синема УС)","update":"2017-05-15 06:43:43","iframe_src":"//83.svetacdn.in/PfJ50H0ZBPg3/movie/11528"},{"id":11525,"title":"Ангелы и демоны существуют","kp_id":null,"imdb_id":"tt6736290","world_art_id":null,"type":"movie","add":"2017-05-14 21:02:45","orig_title":"Angels and Demons Are Real","year":"2017-05-05","translations":["Любительский (многоголосый закадровый) (Синема УС)"],"quality":"webdl","translation":"Любительский (многоголосый закадровый) (Синема УС)","update":"2017-05-15 06:40:09","iframe_src":"//83.svetacdn.in/PfJ50H0ZBPg3/movie/11525"},{"id":11524,"title":"Комната смерти","kp_id":"874599","imdb_id":"tt4177498","world_art_id":null,"type":"movie","add":"2017-05-14 20:58:13","orig_title":"A Room to Die For","year":"2017-01-16","translations":["Любительский (многоголосый закадровый) (Синема УС)"],"quality":"webdl","translation":"Любительский (многоголосый закадровый) (Синема УС)","update":"2017-05-15 06:38:47","iframe_src":"//83.svetacdn.in/PfJ50H0ZBPg3/movie/11524"},{"id":11523,"title":"Специалисты","kp_id":"55674","imdb_id":"tt0088167","world_art_id":null,"type":"movie","add":"2017-05-14 10:16:07","orig_title":"Les spécialistes","year":"1985-03-13","translations":["Профессиональный (многоголосый закадровый)"],"quality":"webdl","translation":"Профессиональный (многоголосый закадровый)","update":"2017-05-15 06:01:13","iframe_src":"//83.svetacdn.in/PfJ50H0ZBPg3/movie/11523"},{"id":11522,"title":"Атакуй заправки!","kp_id":"64382","imdb_id":"tt0262246","world_art_id":null,"type":"movie","add":"2017-05-14 10:15:01","orig_title":"Juyuso seubgyuksageun","year":"1999-10-02","translations":["Профессиональный (многоголосый закадровый)"],"quality":"dvdrip","translation":"Профессиональный (многоголосый закадровый)","update":"2017-05-15 06:02:37","iframe_src":"//83.svetacdn.in/PfJ50H0ZBPg3/movie/11522"},{"id":11521,"title":"Аквариум","kp_id":"179195","imdb_id":"tt0473500","world_art_id":null,"type":"movie","add":"2017-05-14 10:13:42","orig_title":"Kettle of Fish","year":"2006-04-27","translations":["Профессиональный (двухголосый закадровый) (Elrom)"],"quality":"dvdrip","translation":"Профессиональный (двухголосый закадровый) (Elrom)","update":"2017-05-15 06:03:55","iframe_src":"//83.svetacdn.in/PfJ50H0ZBPg3/movie/11521"},{"id":11513,"title":"Мэри Поппинс","kp_id":"8156","imdb_id":"tt0058331","world_art_id":null,"type":"movie","add":"2017-05-14 09:59:29","orig_title":"Mary Poppins","year":"1964-08-27","translations":["Полное дублирование"],"quality":"bd","translation":"Полное дублирование","update":"2017-05-16 06:24:27","iframe_src":"//83.svetacdn.in/PfJ50H0ZBPg3/movie/11513"},{"id":11512,"title":"Украденная невинность","kp_id":"301085","imdb_id":"tt0844344","world_art_id":null,"type":"movie","add":"2017-05-12 06:34:22","orig_title":"My Baby Is Missing","year":"2007-03-04","translations":["Профессиональный (многоголосый закадровый)"],"quality":"hdtv","translation":"Профессиональный (многоголосый закадровый)","update":"2017-05-15 05:58:28","iframe_src":"//83.svetacdn.in/PfJ50H0ZBPg3/movie/11512"},{"id":11502,"title":"Третий лишний","kp_id":"10920","imdb_id":"tt0238137","world_art_id":null,"type":"movie","add":"2017-05-11 12:19:12","orig_title":"Tangled","year":"2001-11-02","translations":["Профессиональный (многоголосый закадровый)"],"quality":"dvdrip","translation":"Профессиональный (многоголосый закадровый)","update":"2017-05-15 05:56:03","iframe_src":"//83.svetacdn.in/PfJ50H0ZBPg3/movie/11502"},{"id":11501,"title":"Мужчина как женщина","kp_id":"57668","imdb_id":"tt0119307","world_art_id":null,"type":"movie","add":"2017-05-11 12:17:50","orig_title":"L'homme est une femme comme les autres","year":"1998-03-11","translations":["Профессиональный (многоголосый закадровый)"],"quality":"dvdrip","translation":"Профессиональный (многоголосый закадровый)","update":"2017-05-15 05:54:31","iframe_src":"//83.svetacdn.in/PfJ50H0ZBPg3/movie/11501"},{"id":11500,"title":"Приговоренные","kp_id":"198147","imdb_id":"tt0443473","world_art_id":null,"type":"movie","add":"2017-05-11 12:14:58","orig_title":"The Condemned","year":"2007-03-30","translations":["Профессиональный (многоголосый закадровый) (CP Digital)"],"quality":"bd","translation":"Профессиональный (многоголосый закадровый) (CP Digital)","update":"2017-05-15 05:52:53","iframe_src":"//83.svetacdn.in/PfJ50H0ZBPg3/movie/11500"},{"id":11499,"title":"Мужчины в большом городе","kp_id":"419201","imdb_id":"tt1255955","world_art_id":null,"type":"movie","add":"2017-05-11 12:13:22","orig_title":"Männerherzen","year":"2009-10-08","translations":["Профессиональный (многоголосый закадровый)"],"quality":"bd","translation":"Профессиональный (многоголосый закадровый)","update":"2017-05-15 05:51:07","iframe_src":"//83.svetacdn.in/PfJ50H0ZBPg3/movie/11499"},{"id":11498,"title":"На древо взгромоздясь","kp_id":"95352","imdb_id":"tt0066423","world_art_id":null,"type":"movie","add":"2017-05-11 12:11:36","orig_title":"Sur un arbre perché","year":"1971-04-14","translations":["Профессиональный (двухголосый закадровый)"],"quality":"hdtv","translation":"Профессиональный (двухголосый закадровый)","update":"2017-05-15 05:48:57","iframe_src":"//83.svetacdn.in/PfJ50H0ZBPg3/movie/11498"},{"id":11437,"title":"Эбби Грейс","kp_id":"872009","imdb_id":"tt4241824","world_art_id":null,"type":"movie","add":"2017-05-09 13:19:26","orig_title":"Abbey Grace","year":"2016-04-01","translations":["Любительский (многоголосый закадровый) (Синема УС)","Профессиональный (многоголосый закадровый) (GreenРай Studio)"],"quality":"webdl","translation":"Любительский (многоголосый закадровый) (Синема УС)","update":"2017-05-15 05:17:05","iframe_src":"//83.svetacdn.in/PfJ50H0ZBPg3/movie/11437"},{"id":10646,"title":"Королева Испании","kp_id":"709487","imdb_id":"tt2411144","world_art_id":null,"type":"movie","add":"2017-03-30 21:54:06","orig_title":"La reina de España","year":"2016-11-16","translations":["Любительский (многоголосый закадровый) (Синема УС)","Полное дублирование (iTunes)"],"quality":"bd","translation":"Любительский (многоголосый закадровый) (Синема УС)","update":"2017-05-15 06:21:58","iframe_src":"//83.svetacdn.in/PfJ50H0ZBPg3/movie/10646"},{"id":10284,"title":"Арес","kp_id":"859654","imdb_id":"tt4216902","world_art_id":null,"type":"movie","add":"2017-03-12 18:39:27","orig_title":"Arès","year":"2016-10-10","translations":["Любительский (одноголосый закадровый) (Хихикающий доктор)","Любительский (многоголосый закадровый) (Колобок)","Профессиональный (многоголосый закадровый)"],"quality":"webdl","translation":"Любительский (одноголосый закадровый) (Хихикающий доктор)","update":"2017-05-15 05:06:53","iframe_src":"//83.svetacdn.in/PfJ50H0ZBPg3/movie/10284"},{"id":5076,"title":"Смертельная тоска","kp_id":"862412","imdb_id":"tt3620762","world_art_id":null,"type":"movie","add":"2016-09-06 09:22:43","orig_title":"Anguish","year":"2015-07-21","translations":["Любительский (одноголосый закадровый)","Профессиональный (многоголосый закадровый) (GreenРай Studio)"],"quality":"webdl","translation":"Любительский (одноголосый закадровый)","update":"2017-05-15 05:14:59","iframe_src":"//83.svetacdn.in/PfJ50H0ZBPg3/movie/5076"},{"id":3244,"title":"Биркебейнеры","kp_id":"915448","imdb_id":"tt4738360","world_art_id":null,"type":"movie","add":"2016-06-19 11:36:42","orig_title":"Birkebeinerne","year":"2016-02-06","translations":["Любительский (двухголосый закадровый) (ColdFilm)","Профессиональный (многоголосый закадровый)"],"quality":"bd","translation":"Любительский (двухголосый закадровый) (ColdFilm)","update":"2017-05-15 06:19:16","iframe_src":"//83.svetacdn.in/PfJ50H0ZBPg3/movie/3244"}],"current_page":2074,"first_page_url":"https://videocdn.tv/api/short?limit=100&api_token=RgFQdUIR2dRmwv8iYa5SnFNgnw3vpjKj&cache32074=32074&page=1","from":207301,"last_page":622,"last_page_url":"https://videocdn.tv/api/short?limit=100&api_token=RgFQdUIR2dRmwv8iYa5SnFNgnw3vpjKj&cache32074=32074&page=622","next_page_url":null,"path":"https://videocdn.tv/api/short","per_page":100,"prev_page_url":"https://videocdn.tv/api/short?limit=100&api_token=RgFQdUIR2dRmwv8iYa5SnFNgnw3vpjKj&cache32074=32074&page=2073","to":207320,"total":62135}