{"result":true,"data":[{"id":27789,"title":"Одной любви недостаточно","kp_id":"895562","imdb_id":"tt3888806","world_art_id":null,"type":"movie","add":"2019-06-14 04:35:56","orig_title":"Love Is Not Enough","year":"2018-11-02","translations":["Любительский (многоголосый закадровый) (Синема УС)"],"quality":"webdl","translation":"Любительский (многоголосый закадровый) (Синема УС)","update":"2019-06-14 06:51:51","iframe_src":"//7043.svetacdn.in/IAF0wWTdNYZm/movie/27789"},{"id":27788,"title":"Роллердром","kp_id":"1013243","imdb_id":"tt6522084","world_art_id":null,"type":"movie","add":"2019-06-14 04:35:04","orig_title":"Rink","year":"2018-01-01","translations":["Любительский (многоголосый закадровый) (Синема УС)"],"quality":"webdl","translation":"Любительский (многоголосый закадровый) (Синема УС)","update":"2019-06-14 06:53:05","iframe_src":"//7043.svetacdn.in/IAF0wWTdNYZm/movie/27788"},{"id":27787,"title":"Грехи презренной жены","kp_id":"1175897","imdb_id":"tt8634326","world_art_id":null,"type":"movie","add":"2019-06-14 04:34:12","orig_title":"Sins of a Scorned Wife","year":"2019-04-30","translations":["Любительский (многоголосый закадровый) (Синема УС)"],"quality":"webdl","translation":"Любительский (многоголосый закадровый) (Синема УС)","update":"2019-06-14 06:54:10","iframe_src":"//7043.svetacdn.in/IAF0wWTdNYZm/movie/27787"},{"id":27786,"title":"Я люблю тебя","kp_id":"1120898","imdb_id":"tt8315092","world_art_id":null,"type":"movie","add":"2019-06-14 04:33:16","orig_title":"Ui rabu","year":"2018-11-09","translations":["Любительский (многоголосый закадровый) (Синема УС)"],"quality":"bd","translation":"Любительский (многоголосый закадровый) (Синема УС)","update":"2019-06-14 06:50:53","iframe_src":"//7043.svetacdn.in/IAF0wWTdNYZm/movie/27786"},{"id":27771,"title":"Роковая ошибка","kp_id":"42123","imdb_id":"tt0096005","world_art_id":null,"type":"movie","add":"2019-06-13 21:54:06","orig_title":"Rokovaya oshibka","year":"1989-06-01","translations":["Оригинальная дорожка"],"quality":"sat","translation":"Оригинальная дорожка","update":"2019-06-14 05:31:21","iframe_src":"//7043.svetacdn.in/IAF0wWTdNYZm/movie/27771"},{"id":27770,"title":"Слепые игры","kp_id":"840167","imdb_id":null,"world_art_id":null,"type":"movie","add":"2019-06-13 21:25:27","orig_title":"Слепые игры","year":"2014-05-31","translations":["Оригинальная дорожка"],"quality":"dvdrip","translation":"Оригинальная дорожка","update":"2019-06-14 05:47:20","iframe_src":"//7043.svetacdn.in/IAF0wWTdNYZm/movie/27770"},{"id":27769,"title":"Среди серых камней","kp_id":"43960","imdb_id":"tt0173240","world_art_id":null,"type":"movie","add":"2019-06-13 21:19:37","orig_title":"Sredi serykh kamney","year":"1983-05-21","translations":["Оригинальная дорожка"],"quality":"dvdrip","translation":"Оригинальная дорожка","update":"2019-06-14 05:51:54","iframe_src":"//7043.svetacdn.in/IAF0wWTdNYZm/movie/27769"},{"id":27768,"title":"Тайна золотой горы","kp_id":"102831","imdb_id":"tt0265841","world_art_id":null,"type":"movie","add":"2019-06-13 21:15:37","orig_title":"Tayna zolotoy gory","year":"1985-07-01","translations":["Оригинальная дорожка"],"quality":"dvdrip","translation":"Оригинальная дорожка","update":"2019-06-14 05:52:45","iframe_src":"//7043.svetacdn.in/IAF0wWTdNYZm/movie/27768"},{"id":27767,"title":"Только в мюзик-холле","kp_id":"260192","imdb_id":"tt0081640","world_art_id":null,"type":"movie","add":"2019-06-13 21:12:19","orig_title":"Tolko v myusik-kholle","year":"1980-05-16","translations":["Оригинальная дорожка"],"quality":"dvdrip","translation":"Оригинальная дорожка","update":"2019-06-14 05:53:43","iframe_src":"//7043.svetacdn.in/IAF0wWTdNYZm/movie/27767"},{"id":27766,"title":"Тройной прыжок «Пантеры»","kp_id":"42322","imdb_id":"tt0275741","world_art_id":null,"type":"movie","add":"2019-06-13 21:08:27","orig_title":"Troynoy pryzhok 'Pantery'","year":"1986-12-04","translations":["Оригинальная дорожка"],"quality":"dvdrip","translation":"Оригинальная дорожка","update":"2019-06-14 05:54:46","iframe_src":"//7043.svetacdn.in/IAF0wWTdNYZm/movie/27766"},{"id":27765,"title":"Цыганка Аза","kp_id":"42362","imdb_id":"tt0301956","world_art_id":null,"type":"movie","add":"2019-06-13 21:02:52","orig_title":"Tsyganka Aza","year":"1987-08-15","translations":["Профессиональный (многоголосый закадровый)"],"quality":"dvdrip","translation":"Профессиональный (многоголосый закадровый)","update":"2019-06-14 05:56:16","iframe_src":"//7043.svetacdn.in/IAF0wWTdNYZm/movie/27765"},{"id":27764,"title":"Удар! Еще удар!","kp_id":"42495","imdb_id":"tt0159802","world_art_id":null,"type":"movie","add":"2019-06-13 20:59:20","orig_title":"Udar! Eshchyo udar!","year":"1968-06-13","translations":["Оригинальная дорожка"],"quality":"dvdrip","translation":"Оригинальная дорожка","update":"2019-06-14 05:58:37","iframe_src":"//7043.svetacdn.in/IAF0wWTdNYZm/movie/27764"},{"id":27763,"title":"Утреннее шоссе","kp_id":"42543","imdb_id":"tt0307624","world_art_id":null,"type":"movie","add":"2019-06-13 20:55:32","orig_title":"Utrenneye shosse","year":"1988-01-01","translations":["Оригинальная дорожка"],"quality":"dvdrip","translation":"Оригинальная дорожка","update":"2019-06-14 06:35:55","iframe_src":"//7043.svetacdn.in/IAF0wWTdNYZm/movie/27763"},{"id":27762,"title":"В старых ритмах","kp_id":"45633","imdb_id":"tt0240159","world_art_id":null,"type":"movie","add":"2019-06-13 20:50:30","orig_title":"V starykh ritmakh","year":"1982-11-22","translations":["Оригинальная дорожка"],"quality":"dvdrip","translation":"Оригинальная дорожка","update":"2019-06-14 06:37:24","iframe_src":"//7043.svetacdn.in/IAF0wWTdNYZm/movie/27762"},{"id":27761,"title":"Вкус халвы","kp_id":"45792","imdb_id":"tt0073872","world_art_id":null,"type":"movie","add":"2019-06-13 20:47:11","orig_title":"Vkus khalvy","year":"1975-01-01","translations":["Оригинальная дорожка"],"quality":"dvdrip","translation":"Оригинальная дорожка","update":"2019-06-14 06:38:27","iframe_src":"//7043.svetacdn.in/IAF0wWTdNYZm/movie/27761"},{"id":27760,"title":"Впереди океан","kp_id":"528222","imdb_id":"tt5593212","world_art_id":null,"type":"movie","add":"2019-06-13 20:44:05","orig_title":"Vperedi okean","year":"1983-01-01","translations":["Оригинальная дорожка"],"quality":"dvdrip","translation":"Оригинальная дорожка","update":"2019-06-14 06:39:21","iframe_src":"//7043.svetacdn.in/IAF0wWTdNYZm/movie/27760"},{"id":27759,"title":"Время для размышлений","kp_id":"279029","imdb_id":"tt0084877","world_art_id":null,"type":"movie","add":"2019-06-13 20:39:53","orig_title":"Vremya dlya razmyshleniy","year":"1983-01-18","translations":["Оригинальная дорожка"],"quality":"dvdrip","translation":"Оригинальная дорожка","update":"2019-06-14 06:42:39","iframe_src":"//7043.svetacdn.in/IAF0wWTdNYZm/movie/27759"},{"id":27758,"title":"Здесь твой фронт","kp_id":"45254","imdb_id":"tt0253975","world_art_id":null,"type":"movie","add":"2019-06-13 20:36:27","orig_title":"Zdes tvoy front","year":"1983-01-01","translations":["Оригинальная дорожка"],"quality":"dvdrip","translation":"Оригинальная дорожка","update":"2019-06-14 06:45:46","iframe_src":"//7043.svetacdn.in/IAF0wWTdNYZm/movie/27758"},{"id":27757,"title":"Полет к тысячам солнц","kp_id":"596531","imdb_id":"tt7717840","world_art_id":null,"type":"movie","add":"2019-06-13 20:32:48","orig_title":"Polyot k tysyacham solnts","year":"1963-01-01","translations":["Оригинальная дорожка"],"quality":"webdl","translation":"Оригинальная дорожка","update":"2019-06-14 06:48:05","iframe_src":"//7043.svetacdn.in/IAF0wWTdNYZm/movie/27757"},{"id":23722,"title":"Пляжный бездельник","kp_id":"1018804","imdb_id":"tt6511932","world_art_id":null,"type":"movie","add":"2019-03-31 22:41:03","orig_title":"The Beach Bum","year":"2019-03-09","translations":["Полное дублирование (iTunes)"],"quality":"bd","translation":"Полное дублирование (iTunes)","update":"2019-06-14 10:36:46","iframe_src":"//7043.svetacdn.in/IAF0wWTdNYZm/movie/23722"}],"current_page":1289,"first_page_url":"https://videocdn.tv/api/short?limit=100&api_token=6Onb1W1alEUrBcKJZD3GoKBbWyAl2uG2&cache31289=31289&page=1","from":128801,"last_page":616,"last_page_url":"https://videocdn.tv/api/short?limit=100&api_token=6Onb1W1alEUrBcKJZD3GoKBbWyAl2uG2&cache31289=31289&page=616","next_page_url":null,"path":"https://videocdn.tv/api/short","per_page":100,"prev_page_url":"https://videocdn.tv/api/short?limit=100&api_token=6Onb1W1alEUrBcKJZD3GoKBbWyAl2uG2&cache31289=31289&page=1288","to":128820,"total":61594}