{"result":true,"data":[{"id":26226,"title":"От зарплаты до зарплаты","kp_id":"42834","imdb_id":"tt0091698","world_art_id":null,"type":"movie","add":"2019-05-09 21:03:28","orig_title":"Ot zarplaty do zarplaty","year":"1986-02-19","translations":["Оригинальная дорожка"],"quality":"sat","translation":"Оригинальная дорожка","update":"2019-05-10 05:52:50","iframe_src":"//83.svetacdn.in/PfJ50H0ZBPg3/movie/26226"},{"id":26225,"title":"Орленок","kp_id":"468761","imdb_id":"tt3493546","world_art_id":null,"type":"movie","add":"2019-05-09 21:01:51","orig_title":"Orlyonok","year":"1958-02-24","translations":["Оригинальная дорожка"],"quality":"dvdrip","translation":"Оригинальная дорожка","update":"2019-05-10 05:52:04","iframe_src":"//83.svetacdn.in/PfJ50H0ZBPg3/movie/26225"},{"id":26224,"title":"Она защищает Родину","kp_id":"42767","imdb_id":"tt0036236","world_art_id":null,"type":"movie","add":"2019-05-09 21:00:26","orig_title":"Ona zashchishchaet rodinu","year":"1943-05-20","translations":["Оригинальная дорожка"],"quality":"dvdrip","translation":"Оригинальная дорожка","update":"2019-05-10 05:50:39","iframe_src":"//83.svetacdn.in/PfJ50H0ZBPg3/movie/26224"},{"id":26223,"title":"Оленья охота","kp_id":"42761","imdb_id":"tt0237516","world_art_id":null,"type":"movie","add":"2019-05-09 21:00:16","orig_title":"Olenya okhota","year":"1982-05-15","translations":["Оригинальная дорожка"],"quality":"dvdrip","translation":"Оригинальная дорожка","update":"2019-05-10 05:47:46","iframe_src":"//83.svetacdn.in/PfJ50H0ZBPg3/movie/26223"},{"id":26222,"title":"Ночной таверны огонек","kp_id":"660708","imdb_id":"tt3562816","world_art_id":null,"type":"movie","add":"2019-05-09 20:58:56","orig_title":"Nochnoy taverny ogonyok","year":"2012-01-09","translations":["Оригинальная дорожка"],"quality":"sat","translation":"Оригинальная дорожка","update":"2019-05-10 05:46:24","iframe_src":"//83.svetacdn.in/PfJ50H0ZBPg3/movie/26222"},{"id":26221,"title":"Неизвестный солдат","kp_id":"231024","imdb_id":"tt0263782","world_art_id":null,"type":"movie","add":"2019-05-09 20:57:31","orig_title":"Neizvestnyy soldat","year":"1984-01-01","translations":["Оригинальная дорожка"],"quality":"dvdrip","translation":"Оригинальная дорожка","update":"2019-05-10 05:39:52","iframe_src":"//83.svetacdn.in/PfJ50H0ZBPg3/movie/26221"},{"id":26219,"title":"Музыкальная история","kp_id":"46749","imdb_id":"tt0032825","world_art_id":null,"type":"movie","add":"2019-05-09 20:54:54","orig_title":"Muzykalnaya istoriya","year":"1940-10-24","translations":["Оригинальная дорожка"],"quality":"dvdrip","translation":"Оригинальная дорожка","update":"2019-05-10 05:36:08","iframe_src":"//83.svetacdn.in/PfJ50H0ZBPg3/movie/26219"},{"id":26218,"title":"Марианна","kp_id":"46540","imdb_id":"tt0291329","world_art_id":null,"type":"movie","add":"2019-05-09 20:53:06","orig_title":"Marianna","year":"1967-11-13","translations":["Оригинальная дорожка"],"quality":"dvdrip","translation":"Оригинальная дорожка","update":"2019-05-10 05:33:54","iframe_src":"//83.svetacdn.in/PfJ50H0ZBPg3/movie/26218"},{"id":26217,"title":"Внимание, ведьмы!","kp_id":"447117","imdb_id":"tt5759450","world_art_id":null,"type":"movie","add":"2019-05-09 20:52:38","orig_title":"Vnimaniye, vedmy!","year":"1991-01-01","translations":["Оригинальная дорожка"],"quality":"dvdrip","translation":"Оригинальная дорожка","update":"2019-05-10 05:34:44","iframe_src":"//83.svetacdn.in/PfJ50H0ZBPg3/movie/26217"},{"id":26216,"title":"Любви целительная сила","kp_id":"671696","imdb_id":null,"world_art_id":null,"type":"movie","add":"2019-05-09 20:51:56","orig_title":"Любви целительная сила","year":"2012-03-18","translations":["Оригинальная дорожка"],"quality":"iptv","translation":"Оригинальная дорожка","update":"2019-05-10 05:32:43","iframe_src":"//83.svetacdn.in/PfJ50H0ZBPg3/movie/26216"},{"id":26215,"title":"Горя бояться – счастья не видать","kp_id":"472235","imdb_id":"tt4718892","world_art_id":null,"type":"movie","add":"2019-05-09 20:50:40","orig_title":"Gorya boyatsya: schastya ne vidat","year":"1974-12-30","translations":["Оригинальная дорожка"],"quality":"dvdrip","translation":"Оригинальная дорожка","update":"2019-05-10 05:31:20","iframe_src":"//83.svetacdn.in/PfJ50H0ZBPg3/movie/26215"},{"id":26214,"title":"Евразиец","kp_id":"521569","imdb_id":"tt1679595","world_art_id":null,"type":"movie","add":"2019-05-09 20:49:19","orig_title":"Indigène d'Eurasie","year":"2010-02-11","translations":["Оригинальная дорожка"],"quality":"dvdrip","translation":"Оригинальная дорожка","update":"2019-05-10 05:10:43","iframe_src":"//83.svetacdn.in/PfJ50H0ZBPg3/movie/26214"},{"id":26213,"title":"Убийство свидетеля","kp_id":"64090","imdb_id":"tt0384631","world_art_id":null,"type":"movie","add":"2019-05-09 20:48:30","orig_title":"Ubiystvo svidetelya","year":"1990-01-01","translations":["Оригинальная дорожка"],"quality":"dvdrip","translation":"Оригинальная дорожка","update":"2019-05-10 04:55:46","iframe_src":"//83.svetacdn.in/PfJ50H0ZBPg3/movie/26213"},{"id":26212,"title":"Эксперимент доктора Абста","kp_id":"41984","imdb_id":"tt0062928","world_art_id":null,"type":"movie","add":"2019-05-09 20:47:54","orig_title":"Eksperiment doktora Absta","year":"1969-06-16","translations":["Оригинальная дорожка"],"quality":"dvdrip","translation":"Оригинальная дорожка","update":"2019-05-10 04:54:18","iframe_src":"//83.svetacdn.in/PfJ50H0ZBPg3/movie/26212"},{"id":26211,"title":"Болотная street, или Средство против секса","kp_id":"46170","imdb_id":"tt0101495","world_art_id":null,"type":"movie","add":"2019-05-09 20:46:21","orig_title":"Bolotnaya strit, ili sredstvo protiv seksa","year":"1991-01-01","translations":["Оригинальная дорожка"],"quality":"tv","translation":"Оригинальная дорожка","update":"2019-05-10 04:53:06","iframe_src":"//83.svetacdn.in/PfJ50H0ZBPg3/movie/26211"},{"id":26210,"title":"Ахиллесова пята","kp_id":"693621","imdb_id":null,"world_art_id":null,"type":"movie","add":"2019-05-09 20:34:38","orig_title":"Ахиллесова пята","year":"2006-01-01","translations":["Оригинальная дорожка"],"quality":"dvdrip","translation":"Оригинальная дорожка","update":"2019-05-10 04:51:25","iframe_src":"//83.svetacdn.in/PfJ50H0ZBPg3/movie/26210"},{"id":26209,"title":"Танцуй, детка, танцуй","kp_id":"852919","imdb_id":"tt3565066","world_art_id":null,"type":"movie","add":"2019-05-09 20:16:41","orig_title":"Dance Baby Dance","year":"2018-01-19","translations":["Любительский (многоголосый закадровый) (Синема УС)"],"quality":"webdl","translation":"Любительский (многоголосый закадровый) (Синема УС)","update":"2019-05-10 04:49:15","iframe_src":"//83.svetacdn.in/PfJ50H0ZBPg3/movie/26209"},{"id":26208,"title":"Апелляционный суд","kp_id":"1061111","imdb_id":"tt7390102","world_art_id":null,"type":"movie","add":"2019-05-09 20:15:00","orig_title":"Court of Appeals","year":"2018-01-01","translations":["Любительский (многоголосый закадровый) (Синема УС)"],"quality":"webdl","translation":"Любительский (многоголосый закадровый) (Синема УС)","update":"2019-05-10 04:48:14","iframe_src":"//83.svetacdn.in/PfJ50H0ZBPg3/movie/26208"},{"id":26207,"title":"Смертельная исповедь","kp_id":"1096048","imdb_id":"tt7278120","world_art_id":null,"type":"movie","add":"2019-05-09 19:59:48","orig_title":"Dr. Jekyll Better Hide","year":"2019-01-01","translations":["Любительский (многоголосый закадровый) (Синема УС)"],"quality":"webdl","translation":"Любительский (многоголосый закадровый) (Синема УС)","update":"2019-05-10 04:46:57","iframe_src":"//83.svetacdn.in/PfJ50H0ZBPg3/movie/26207"},{"id":15822,"title":"Отец солдата","kp_id":"44218","imdb_id":"tt0169828","world_art_id":null,"type":"movie","add":"2018-03-25 12:10:42","orig_title":"Jariskatsis mama","year":"1965-01-11","translations":["Оригинальная дорожка","Оригинальная дорожка"],"quality":"hdtv","translation":"Оригинальная дорожка","update":"2019-05-10 05:54:19","iframe_src":"//83.svetacdn.in/PfJ50H0ZBPg3/movie/15822"}],"current_page":1308,"first_page_url":"https://videocdn.tv/api/short?limit=100&api_token=RgFQdUIR2dRmwv8iYa5SnFNgnw3vpjKj&cache31308=31308&page=1","from":130701,"last_page":605,"last_page_url":"https://videocdn.tv/api/short?limit=100&api_token=RgFQdUIR2dRmwv8iYa5SnFNgnw3vpjKj&cache31308=31308&page=605","next_page_url":null,"path":"https://videocdn.tv/api/short","per_page":100,"prev_page_url":"https://videocdn.tv/api/short?limit=100&api_token=RgFQdUIR2dRmwv8iYa5SnFNgnw3vpjKj&cache31308=31308&page=1307","to":130720,"total":60438}