{"result":true,"data":[{"id":45796,"title":"Случай в Миллз-Крик","kp_id":"1235381","imdb_id":"tt9681250","world_art_id":null,"type":"movie","add":"2020-12-02 21:22:13","orig_title":"Occurrence at Mills Creek","year":"2020-09-12","translations":["Любительский (многоголосый закадровый) (Синема УС)"],"quality":"webdl","translation":"Любительский (многоголосый закадровый) (Синема УС)","update":"2020-12-03 08:01:14","iframe_src":"//2421213.svetacdn.in/71tsRs29n5tZ/movie/45796"},{"id":45795,"title":"Бремя","kp_id":"1358001","imdb_id":"tt11906018","world_art_id":null,"type":"movie","add":"2020-12-02 20:51:57","orig_title":"Onus","year":"2020-12-01","translations":["Любительский (многоголосый закадровый) (Синема УС)"],"quality":"webdl","translation":"Любительский (многоголосый закадровый) (Синема УС)","update":"2020-12-03 08:22:39","iframe_src":"//2421213.svetacdn.in/71tsRs29n5tZ/movie/45795"},{"id":45793,"title":"Элли и Эбби (и мертвая тетя Элли)","kp_id":"1269899","imdb_id":"tt10353866","world_art_id":null,"type":"movie","add":"2020-12-02 20:48:14","orig_title":"Ellie & Abbie (& Ellie's Dead Aunt)","year":"2020-03-24","translations":["Любительский (многоголосый закадровый) (Синема УС)"],"quality":"webdl","translation":"Любительский (многоголосый закадровый) (Синема УС)","update":"2020-12-03 08:20:26","iframe_src":"//2421213.svetacdn.in/71tsRs29n5tZ/movie/45793"},{"id":45792,"title":"Обещание Санты","kp_id":"1400651","imdb_id":"tt12899846","world_art_id":null,"type":"movie","add":"2020-12-02 20:46:21","orig_title":"Santa's Promise","year":"2020-12-01","translations":["Любительский (многоголосый закадровый) (Синема УС)"],"quality":"webdl","translation":"Любительский (многоголосый закадровый) (Синема УС)","update":"2020-12-03 08:19:58","iframe_src":"//2421213.svetacdn.in/71tsRs29n5tZ/movie/45792"},{"id":45790,"title":"Незнакомцы","kp_id":"1150938","imdb_id":"tt8354306","world_art_id":null,"type":"movie","add":"2020-12-02 20:42:29","orig_title":"Complete Strangers","year":"2020-12-01","translations":["Любительский (многоголосый закадровый) (Синема УС)"],"quality":"webdl","translation":"Любительский (многоголосый закадровый) (Синема УС)","update":"2020-12-03 08:19:29","iframe_src":"//2421213.svetacdn.in/71tsRs29n5tZ/movie/45790"},{"id":45777,"title":"Волшебство под омелой","kp_id":"1302259","imdb_id":"tt10920660","world_art_id":null,"type":"movie","add":"2020-12-02 14:46:56","orig_title":"Mistletoe Magic","year":"2020-12-01","translations":["Любительский (многоголосый закадровый) (AlphaProject)"],"quality":"hdtv","translation":"Любительский (многоголосый закадровый) (AlphaProject)","update":"2020-12-02 19:13:51","iframe_src":"//2421213.svetacdn.in/71tsRs29n5tZ/movie/45777"},{"id":45776,"title":"Встретимся на Рождество","kp_id":"1435646","imdb_id":"tt13243610","world_art_id":null,"type":"movie","add":"2020-12-02 14:40:01","orig_title":"Meet Me at Christmas","year":"2020-11-14","translations":["Любительский (многоголосый закадровый) (Синема УС)"],"quality":"hdtv","translation":"Любительский (многоголосый закадровый) (Синема УС)","update":"2020-12-02 18:42:32","iframe_src":"//2421213.svetacdn.in/71tsRs29n5tZ/movie/45776"},{"id":45775,"title":"Члены семьи","kp_id":"1223497","imdb_id":"tt9459610","world_art_id":null,"type":"movie","add":"2020-12-02 11:48:10","orig_title":"Los miembros de la familia","year":"2019-05-02","translations":["Любительский (многоголосый закадровый) (Синема УС)"],"quality":"webdl","translation":"Любительский (многоголосый закадровый) (Синема УС)","update":"2020-12-03 08:55:34","iframe_src":"//2421213.svetacdn.in/71tsRs29n5tZ/movie/45775"},{"id":45772,"title":"Рождественская песнь в стиле кантри","kp_id":"1446669","imdb_id":"tt13341432","world_art_id":null,"type":"movie","add":"2020-12-02 11:38:00","orig_title":"A Nashville Christmas Carol","year":"2020-11-21","translations":["Любительский (многоголосый закадровый) (Синема УС)"],"quality":"hdtv","translation":"Любительский (многоголосый закадровый) (Синема УС)","update":"2020-12-03 07:41:18","iframe_src":"//2421213.svetacdn.in/71tsRs29n5tZ/movie/45772"},{"id":45766,"title":"След из пепла","kp_id":"1205105","imdb_id":"tt9115996","world_art_id":null,"type":"movie","add":"2020-12-01 21:01:12","orig_title":"Trail of Ashes","year":"2020-12-01","translations":["Любительский (многоголосый закадровый) (@MUZOBOZ@)"],"quality":"webdl","translation":"Любительский (многоголосый закадровый) (@MUZOBOZ@)","update":"2020-12-02 16:00:17","iframe_src":"//2421213.svetacdn.in/71tsRs29n5tZ/movie/45766"},{"id":45765,"title":"Король мечей","kp_id":"1151693","imdb_id":"tt8395326","world_art_id":null,"type":"movie","add":"2020-12-01 20:25:14","orig_title":"King of Knives","year":"2020-12-01","translations":["Любительский (многоголосый закадровый) (@MUZOBOZ@)"],"quality":"webdl","translation":"Любительский (многоголосый закадровый) (@MUZOBOZ@)","update":"2020-12-02 16:03:00","iframe_src":"//2421213.svetacdn.in/71tsRs29n5tZ/movie/45765"},{"id":45763,"title":"Взаимосвязь","kp_id":"1322129","imdb_id":"tt9164246","world_art_id":null,"type":"movie","add":"2020-12-01 20:20:21","orig_title":"Intersection","year":"2020-12-01","translations":["Любительский (многоголосый закадровый) (AlphaProject)"],"quality":"webdl","translation":"Любительский (многоголосый закадровый) (AlphaProject)","update":"2020-12-02 16:13:29","iframe_src":"//2421213.svetacdn.in/71tsRs29n5tZ/movie/45763"},{"id":45762,"title":"Режим зверя","kp_id":"722588","imdb_id":"tt2323912","world_art_id":null,"type":"movie","add":"2020-12-01 20:17:55","orig_title":"Beast Mode","year":"2020-12-01","translations":["Любительский (многоголосый закадровый) (@MUZOBOZ@)"],"quality":"webdl","translation":"Любительский (многоголосый закадровый) (@MUZOBOZ@)","update":"2020-12-02 16:06:54","iframe_src":"//2421213.svetacdn.in/71tsRs29n5tZ/movie/45762"},{"id":45760,"title":"Ходящий по дюнам","kp_id":"1349926","imdb_id":"tt11835714","world_art_id":null,"type":"movie","add":"2020-12-01 20:14:40","orig_title":"Dune Drifter","year":"2020-10-24","translations":["Любительский (многоголосый закадровый) (@MUZOBOZ@)"],"quality":"webdl","translation":"Любительский (многоголосый закадровый) (@MUZOBOZ@)","update":"2020-12-02 16:05:38","iframe_src":"//2421213.svetacdn.in/71tsRs29n5tZ/movie/45760"},{"id":45752,"title":"Вкус Рождества","kp_id":"1339487","imdb_id":"tt11637974","world_art_id":null,"type":"movie","add":"2020-12-01 18:44:48","orig_title":"A Taste of Christmas","year":"2020-11-20","translations":["Любительский (многоголосый закадровый) (Синема УС)"],"quality":"webdl","translation":"Любительский (многоголосый закадровый) (Синема УС)","update":"2020-12-02 16:14:23","iframe_src":"//2421213.svetacdn.in/71tsRs29n5tZ/movie/45752"},{"id":45751,"title":"Оценщик ущерба","kp_id":"1230366","imdb_id":"tt6841828","world_art_id":null,"type":"movie","add":"2020-12-01 18:43:03","orig_title":"The Loss Adjuster","year":"2020-11-27","translations":["Любительский (многоголосый закадровый) (@MUZOBOZ@)"],"quality":"webdl","translation":"Любительский (многоголосый закадровый) (@MUZOBOZ@)","update":"2020-12-02 16:14:43","iframe_src":"//2421213.svetacdn.in/71tsRs29n5tZ/movie/45751"},{"id":45747,"title":"Антарктида","kp_id":"1022903","imdb_id":"tt6235644","world_art_id":null,"type":"movie","add":"2020-12-01 18:36:48","orig_title":"Antarctica","year":"2020-10-15","translations":["Любительский (многоголосый закадровый) (@MUZOBOZ@)"],"quality":"webdl","translation":"Любительский (многоголосый закадровый) (@MUZOBOZ@)","update":"2020-12-02 16:15:51","iframe_src":"//2421213.svetacdn.in/71tsRs29n5tZ/movie/45747"},{"id":45744,"title":"Кровавая Мари","kp_id":"1140534","imdb_id":"tt7972468","world_art_id":null,"type":"movie","add":"2020-12-01 18:32:31","orig_title":"Bloody Marie","year":"2019-01-27","translations":["Любительский (многоголосый закадровый) (@MUZOBOZ@)"],"quality":"webdl","translation":"Любительский (многоголосый закадровый) (@MUZOBOZ@)","update":"2020-12-02 16:16:15","iframe_src":"//2421213.svetacdn.in/71tsRs29n5tZ/movie/45744"},{"id":43050,"title":"Удалить историю","kp_id":"1282602","imdb_id":"tt10627352","world_art_id":null,"type":"movie","add":"2020-09-03 18:43:25","orig_title":"Effacer l'historique","year":"2020-02-24","translations":["Профессиональный (многоголосый закадровый) (iTunes)"],"quality":"webdl","translation":"Профессиональный (многоголосый закадровый) (iTunes)","update":"2020-12-02 16:01:32","iframe_src":"//2421213.svetacdn.in/71tsRs29n5tZ/movie/43050"},{"id":37516,"title":"Первая леди","kp_id":"1200302","imdb_id":"tt9068272","world_art_id":null,"type":"movie","add":"2020-03-07 05:13:57","orig_title":"First Lady","year":"2020-02-14","translations":["Профессиональный (многоголосый закадровый)","Любительский (многоголосый закадровый) (Синема УС)"],"quality":"webdl","translation":"Профессиональный (многоголосый закадровый)","update":"2020-12-03 08:23:24","iframe_src":"//2421213.svetacdn.in/71tsRs29n5tZ/movie/37516"}],"current_page":1028,"first_page_url":"https://videocdn.tv/api/short?limit=100&api_token=EnbO9h8pv1VyjbCJhg0WM9nG259n7mtz&cache31028=31028&page=1","from":102701,"last_page":734,"last_page_url":"https://videocdn.tv/api/short?limit=100&api_token=EnbO9h8pv1VyjbCJhg0WM9nG259n7mtz&cache31028=31028&page=734","next_page_url":null,"path":"https://videocdn.tv/api/short","per_page":100,"prev_page_url":"https://videocdn.tv/api/short?limit=100&api_token=EnbO9h8pv1VyjbCJhg0WM9nG259n7mtz&cache31028=31028&page=1027","to":102720,"total":73325}