{"result":true,"data":[{"id":44061,"title":"Книжная неделя","kp_id":"1111509","imdb_id":"tt6144666","world_art_id":null,"type":"movie","add":"2020-10-02 08:15:34","orig_title":"Book Week","year":"2018-10-25","translations":["Любительский (многоголосый закадровый) (Синема УС)"],"quality":"webdl","translation":"Любительский (многоголосый закадровый) (Синема УС)","update":"2020-10-02 15:55:27","iframe_src":"//8332.svetacdn.in/71tsRs29n5tZ/movie/44061"},{"id":44015,"title":"Золотой мальчик","kp_id":"259978","imdb_id":null,"world_art_id":null,"type":"movie","add":"2020-09-30 21:23:38","orig_title":"Золотой мальчик","year":"1969-01-01","translations":["Оригинальная дорожка"],"quality":"dvdrip","translation":"Оригинальная дорожка","update":"2020-10-02 13:41:11","iframe_src":"//8332.svetacdn.in/71tsRs29n5tZ/movie/44015"},{"id":44014,"title":"Поросёнок в колючей шубке","kp_id":"503271","imdb_id":"tt7972678","world_art_id":null,"type":"movie","add":"2020-09-30 21:18:09","orig_title":"Porosyonok v kolyuchey shubke","year":"1981-01-01","translations":["Оригинальная дорожка"],"quality":"dvdrip","translation":"Оригинальная дорожка","update":"2020-10-02 13:38:36","iframe_src":"//8332.svetacdn.in/71tsRs29n5tZ/movie/44014"},{"id":44013,"title":"Приезжайте в гости","kp_id":"260034","imdb_id":"tt6088778","world_art_id":null,"type":"movie","add":"2020-09-30 21:15:06","orig_title":"Priezzhayte v gosti","year":"1979-01-01","translations":["Оригинальная дорожка"],"quality":"dvdrip","translation":"Оригинальная дорожка","update":"2020-10-02 13:37:38","iframe_src":"//8332.svetacdn.in/71tsRs29n5tZ/movie/44013"},{"id":44012,"title":"Девочка в джунглях","kp_id":"818476","imdb_id":"tt9437308","world_art_id":null,"type":"movie","add":"2020-09-30 21:12:09","orig_title":"Devochka v dzhunglyakh","year":"1956-01-01","translations":["Оригинальная дорожка"],"quality":"webdl","translation":"Оригинальная дорожка","update":"2020-10-02 13:36:54","iframe_src":"//8332.svetacdn.in/71tsRs29n5tZ/movie/44012"},{"id":44011,"title":"Зеленая пилюля","kp_id":"817841","imdb_id":"tt6493476","world_art_id":null,"type":"movie","add":"2020-09-30 21:09:42","orig_title":"Zelyonaya pilyulya","year":"1974-01-01","translations":["Оригинальная дорожка"],"quality":"dvdrip","translation":"Оригинальная дорожка","update":"2020-10-02 13:35:29","iframe_src":"//8332.svetacdn.in/71tsRs29n5tZ/movie/44011"},{"id":44010,"title":"Золушка","kp_id":"45399","imdb_id":"tt0222511","world_art_id":null,"type":"movie","add":"2020-09-30 21:05:32","orig_title":"Zolushka","year":"1979-12-06","translations":["Оригинальная дорожка"],"quality":"dvdrip","translation":"Оригинальная дорожка","update":"2020-10-02 13:33:53","iframe_src":"//8332.svetacdn.in/71tsRs29n5tZ/movie/44010"},{"id":44009,"title":"Играй, моя дудочка","kp_id":"581849","imdb_id":null,"world_art_id":null,"type":"movie","add":"2020-09-30 21:03:11","orig_title":"Играй, моя дудочка","year":"1974-01-01","translations":["Оригинальная дорожка"],"quality":"dvdrip","translation":"Оригинальная дорожка","update":"2020-10-02 13:33:06","iframe_src":"//8332.svetacdn.in/71tsRs29n5tZ/movie/44009"},{"id":44008,"title":"Перфил и Фома","kp_id":"636499","imdb_id":null,"world_art_id":null,"type":"movie","add":"2020-09-30 20:59:21","orig_title":"Перфил и Фома","year":"1985-01-01","translations":["Оригинальная дорожка"],"quality":"dvdrip","translation":"Оригинальная дорожка","update":"2020-10-02 13:31:14","iframe_src":"//8332.svetacdn.in/71tsRs29n5tZ/movie/44008"},{"id":44007,"title":"Песни огненных лет","kp_id":"617491","imdb_id":"tt2115375","world_art_id":null,"type":"movie","add":"2020-09-30 20:54:44","orig_title":"Pesni ognennykh let","year":"1971-01-01","translations":["Оригинальная дорожка"],"quality":"webdl","translation":"Оригинальная дорожка","update":"2020-10-02 13:28:14","iframe_src":"//8332.svetacdn.in/71tsRs29n5tZ/movie/44007"},{"id":44006,"title":"Пудель","kp_id":"676206","imdb_id":"tt3615586","world_art_id":null,"type":"movie","add":"2020-09-30 20:47:47","orig_title":"Pudel","year":"1985-01-01","translations":["Оригинальная дорожка"],"quality":"dvdrip","translation":"Оригинальная дорожка","update":"2020-10-02 13:27:14","iframe_src":"//8332.svetacdn.in/71tsRs29n5tZ/movie/44006"},{"id":43985,"title":"Подглядывающие гномы","kp_id":"137800","imdb_id":"tt0459954","world_art_id":null,"type":"movie","add":"2020-09-29 19:15:52","orig_title":"Päkapikud piiluvad","year":"1990-01-01","translations":["Оригинальная дорожка"],"quality":"vhs","translation":"Оригинальная дорожка","update":"2020-10-02 13:26:22","iframe_src":"//8332.svetacdn.in/71tsRs29n5tZ/movie/43985"},{"id":43983,"title":"Ель","kp_id":"573927","imdb_id":"tt6206396","world_art_id":null,"type":"movie","add":"2020-09-29 19:10:54","orig_title":"El","year":"1984-01-01","translations":["Оригинальная дорожка"],"quality":"dvdrip","translation":"Оригинальная дорожка","update":"2020-10-02 13:25:23","iframe_src":"//8332.svetacdn.in/71tsRs29n5tZ/movie/43983"},{"id":43980,"title":"32-е декабря","kp_id":"453292","imdb_id":"tt4255384","world_art_id":null,"type":"movie","add":"2020-09-29 19:07:55","orig_title":"32 Dekabrya","year":"1988-01-01","translations":["Оригинальная дорожка"],"quality":"dvdrip","translation":"Оригинальная дорожка","update":"2020-10-02 13:24:50","iframe_src":"//8332.svetacdn.in/71tsRs29n5tZ/movie/43980"},{"id":43976,"title":"Домовой","kp_id":"137893","imdb_id":"tt0459864","world_art_id":null,"type":"movie","add":"2020-09-29 19:00:12","orig_title":"Kingikratt","year":"1991-12-25","translations":["Оригинальная дорожка"],"quality":"vhs","translation":"Оригинальная дорожка","update":"2020-10-02 13:22:15","iframe_src":"//8332.svetacdn.in/71tsRs29n5tZ/movie/43976"},{"id":43975,"title":"Домовые, или сон в зимнюю ночь","kp_id":"487300","imdb_id":"tt6389252","world_art_id":null,"type":"movie","add":"2020-09-29 18:39:21","orig_title":"Domovye, ili son v zimnyuyu noch","year":"1987-01-01","translations":["Оригинальная дорожка"],"quality":"tv","translation":"Оригинальная дорожка","update":"2020-10-02 13:19:46","iframe_src":"//8332.svetacdn.in/71tsRs29n5tZ/movie/43975"},{"id":43974,"title":"Бабушка Метелица","kp_id":"648081","imdb_id":"tt2333204","world_art_id":null,"type":"movie","add":"2020-09-29 18:35:42","orig_title":"Babushka-Metelitsa","year":"1971-01-01","translations":["Оригинальная дорожка"],"quality":"dvdrip","translation":"Оригинальная дорожка","update":"2020-10-02 13:18:31","iframe_src":"//8332.svetacdn.in/71tsRs29n5tZ/movie/43974"},{"id":43973,"title":"Всё в ажуре","kp_id":"678660","imdb_id":null,"world_art_id":null,"type":"movie","add":"2020-09-29 18:25:52","orig_title":"Всё в ажуре","year":"1991-01-01","translations":["Оригинальная дорожка"],"quality":"sat","translation":"Оригинальная дорожка","update":"2020-10-02 13:16:59","iframe_src":"//8332.svetacdn.in/71tsRs29n5tZ/movie/43973"},{"id":43972,"title":"О, море, море!","kp_id":"934650","imdb_id":"tt6012722","world_art_id":null,"type":"movie","add":"2020-09-29 17:22:36","orig_title":"O, more, more!","year":"1983-01-01","translations":["Оригинальная дорожка"],"quality":"dvdrip","translation":"Оригинальная дорожка","update":"2020-10-02 13:15:37","iframe_src":"//8332.svetacdn.in/71tsRs29n5tZ/movie/43972"},{"id":40480,"title":"Я никогда не был в Нью-Йорке","kp_id":"1146737","imdb_id":"tt8437226","world_art_id":null,"type":"movie","add":"2020-05-18 07:43:55","orig_title":"Ich war noch niemals in New York","year":"2019-10-09","translations":["Любительский (многоголосый закадровый) (Синема УС)"],"quality":"bd","translation":"Любительский (многоголосый закадровый) (Синема УС)","update":"2020-10-02 13:27:42","iframe_src":"//8332.svetacdn.in/71tsRs29n5tZ/movie/40480"},{"id":1163,"title":"Романовы","kp_id":"743975","imdb_id":"tt3560728","world_art_id":null,"type":"serial","add":"2017-04-05 06:08:33","orig_title":"Romanovy","year":"2013-11-04","translations":["Оригинальная дорожка"],"seasons_count":1,"episodes_count":8,"episodes":8,"update":"2017-04-05 13:35:32","iframe_src":"//8332.svetacdn.in/71tsRs29n5tZ/tv-series/1163"},{"id":1155,"title":"Как развести миллионера","kp_id":"817864","imdb_id":null,"world_art_id":null,"type":"serial","add":"2017-04-02 12:00:34","orig_title":"Как развести миллионера","year":"2014-07-18","translations":["Оригинальная дорожка"],"seasons_count":1,"episodes_count":4,"episodes":4,"update":"2017-04-04 09:19:53","iframe_src":"//8332.svetacdn.in/71tsRs29n5tZ/tv-series/1155"},{"id":1154,"title":"Вокруг света за 80 дней","kp_id":"257763","imdb_id":"tt0096535","world_art_id":null,"type":"serial","add":"2017-04-02 11:27:54","orig_title":"Around the World in 80 Days","year":"1989-04-16","translations":["Профессиональный (двухголосый закадровый)"],"seasons_count":1,"episodes_count":3,"episodes":3,"update":"2017-04-03 10:21:44","iframe_src":"//8332.svetacdn.in/71tsRs29n5tZ/tv-series/1154"},{"id":1153,"title":"Анжелика","kp_id":"733436","imdb_id":"tt3517228","world_art_id":null,"type":"serial","add":"2017-03-30 15:24:14","orig_title":"Anzhelika","year":"2014-09-15","translations":["Оригинальная дорожка"],"seasons_count":2,"episodes_count":40,"episodes":20,"update":"2017-04-04 07:50:12","iframe_src":"//8332.svetacdn.in/71tsRs29n5tZ/tv-series/1153"},{"id":1151,"title":"Волчье солнце","kp_id":"806717","imdb_id":"tt3607806","world_art_id":null,"type":"serial","add":"2017-03-30 05:51:17","orig_title":"Volche solntse","year":"2014-11-10","translations":["Оригинальная дорожка"],"seasons_count":1,"episodes_count":12,"episodes":12,"update":"2017-03-30 12:05:58","iframe_src":"//8332.svetacdn.in/71tsRs29n5tZ/tv-series/1151"},{"id":1147,"title":"Скуби-Ду! Динамит","kp_id":"229713","imdb_id":"tt0074053","world_art_id":null,"type":"serial","add":"2017-03-28 14:04:24","orig_title":"The Scooby-Doo/Dynomutt Hour","year":"1976-09-11","translations":["Полное дублирование"],"seasons_count":3,"episodes_count":40,"episodes":16,"update":"2017-03-29 12:31:19","iframe_src":"//8332.svetacdn.in/71tsRs29n5tZ/tv-series/1147"},{"id":1145,"title":"Молодой","kp_id":"1040619","imdb_id":null,"world_art_id":null,"type":"serial","add":"2017-03-28 08:07:18","orig_title":"Молодой","year":"2017-03-26","translations":["Оригинальная дорожка"],"seasons_count":1,"episodes_count":2,"episodes":2,"update":"2017-03-28 09:20:37","iframe_src":"//8332.svetacdn.in/71tsRs29n5tZ/tv-series/1145"},{"id":1143,"title":"Парфюмерша 3","kp_id":"1008636","imdb_id":null,"world_art_id":null,"type":"serial","add":"2017-03-26 15:47:53","orig_title":"Парфюмерша 3","year":"2017-03-25","translations":["Оригинальная дорожка"],"seasons_count":1,"episodes_count":4,"episodes":4,"update":"2017-03-27 09:21:56","iframe_src":"//8332.svetacdn.in/71tsRs29n5tZ/tv-series/1143"},{"id":1142,"title":"Мата Хари","kp_id":"843049","imdb_id":"tt4110246","world_art_id":null,"type":"serial","add":"2017-03-24 05:21:37","orig_title":"Mata Hari","year":"2017-01-21","translations":["Оригинальная дорожка"],"seasons_count":1,"episodes_count":12,"episodes":12,"update":"2017-04-03 10:13:38","iframe_src":"//8332.svetacdn.in/71tsRs29n5tZ/tv-series/1142"},{"id":1141,"title":"Гаро: Сияющий во тьме","kp_id":"796768","imdb_id":"tt4000116","world_art_id":null,"type":"serial","add":"2017-03-23 11:47:11","orig_title":"Garo: Yami o Terasu Mono","year":"2013-04-05","translations":["Любительский (двухголосый закадровый) (DeadSno & den904)"],"seasons_count":1,"episodes_count":24,"episodes":24,"update":"2017-03-28 12:05:37","iframe_src":"//8332.svetacdn.in/71tsRs29n5tZ/tv-series/1141"},{"id":1139,"title":"Сердце пирата","kp_id":"271782","imdb_id":"tt0489564","world_art_id":null,"type":"serial","add":"2017-03-23 09:38:12","orig_title":"Störtebeker","year":"2006-04-15","translations":["Профессиональный (многоголосый закадровый)"],"seasons_count":1,"episodes_count":2,"episodes":2,"update":"2017-03-24 15:09:25","iframe_src":"//8332.svetacdn.in/71tsRs29n5tZ/tv-series/1139"},{"id":1137,"title":"Подстава","kp_id":"684923","imdb_id":null,"world_art_id":null,"type":"serial","add":"2017-03-23 08:29:47","orig_title":"Подстава","year":"2012-06-16","translations":["Оригинальная дорожка"],"seasons_count":1,"episodes_count":2,"episodes":2,"update":"2017-03-24 15:11:59","iframe_src":"//8332.svetacdn.in/71tsRs29n5tZ/tv-series/1137"},{"id":1136,"title":"Печали – радости Надежды","kp_id":"592365","imdb_id":null,"world_art_id":null,"type":"serial","add":"2017-03-23 08:27:51","orig_title":"Печали – радости Надежды","year":"2011-01-01","translations":["Оригинальная дорожка"],"seasons_count":1,"episodes_count":4,"episodes":4,"update":"2017-03-24 15:07:31","iframe_src":"//8332.svetacdn.in/71tsRs29n5tZ/tv-series/1136"},{"id":1134,"title":"Атлантика: Самый необузданный океан на Земле","kp_id":"977727","imdb_id":"tt4903642","world_art_id":null,"type":"serial","add":"2017-03-22 12:13:51","orig_title":"Atlantic: The Wildest Ocean on Earth","year":"2015-08-31","translations":["Профессиональный (многоголосый закадровый) (AlexFilm)"],"seasons_count":1,"episodes_count":3,"episodes":3,"update":"2017-03-27 09:15:22","iframe_src":"//8332.svetacdn.in/71tsRs29n5tZ/tv-series/1134"},{"id":1115,"title":"Не вместе","kp_id":"1039249","imdb_id":null,"world_art_id":null,"type":"serial","add":"2017-03-15 07:17:54","orig_title":"Не вместе","year":"2017-03-13","translations":["Оригинальная дорожка"],"seasons_count":1,"episodes_count":20,"episodes":20,"update":"2017-03-27 11:23:39","iframe_src":"//8332.svetacdn.in/71tsRs29n5tZ/tv-series/1115"},{"id":958,"title":"Майор и магия","kp_id":"958617","imdb_id":null,"world_art_id":null,"type":"serial","add":"2017-01-31 08:22:07","orig_title":"Майор и магия","year":"2017-01-30","translations":["Оригинальная дорожка"],"seasons_count":1,"episodes_count":32,"episodes":32,"update":"2017-03-30 14:35:57","iframe_src":"//8332.svetacdn.in/71tsRs29n5tZ/tv-series/958"},{"id":863,"title":"Сонная Лощина","kp_id":"733888","imdb_id":"tt2647544","world_art_id":null,"type":"serial","add":"2017-01-10 10:15:22","orig_title":"Sleepy Hollow","year":"2013-09-16","translations":["Профессиональный (многоголосый закадровый) (LostFilm)","Профессиональный (многоголосый закадровый) (SDI Media)"],"seasons_count":4,"episodes_count":62,"episodes":13,"update":"2017-04-03 07:31:03","iframe_src":"//8332.svetacdn.in/71tsRs29n5tZ/tv-series/863"},{"id":558,"title":"Гримм","kp_id":"582314","imdb_id":"tt1830617","world_art_id":null,"type":"serial","add":"2016-10-26 09:21:53","orig_title":"Grimm","year":"2011-10-28","translations":["Профессиональный (многоголосый закадровый) (LostFilm)"],"seasons_count":6,"episodes_count":123,"episodes":13,"update":"2017-04-05 13:56:23","iframe_src":"//8332.svetacdn.in/71tsRs29n5tZ/tv-series/558"},{"id":62,"title":"Закон каменных джунглей","kp_id":"694406","imdb_id":"tt4482996","world_art_id":null,"type":"serial","add":"2016-04-25 17:59:46","orig_title":"Zakon kamennykh dzhungley","year":"2015-03-16","translations":["Оригинальная дорожка"],"seasons_count":2,"episodes_count":16,"episodes":8,"update":"2017-03-31 11:43:02","iframe_src":"//8332.svetacdn.in/71tsRs29n5tZ/tv-series/62"},{"id":36,"title":"Крыша мира","kp_id":"923146","imdb_id":null,"world_art_id":null,"type":"serial","add":"2016-03-29 21:30:55","orig_title":"Крыша мира","year":"2015-03-28","translations":["Оригинальная дорожка"],"seasons_count":2,"episodes_count":38,"episodes":20,"update":"2017-03-31 09:00:17","iframe_src":"//8332.svetacdn.in/71tsRs29n5tZ/tv-series/36"}],"current_page":502,"first_page_url":"https://videocdn.tv/api/short?limit=100&api_token=EnbO9h8pv1VyjbCJhg0WM9nG259n7mtz&cache3502=3502&page=1","from":50101,"last_page":636,"last_page_url":"https://videocdn.tv/api/short?limit=100&api_token=EnbO9h8pv1VyjbCJhg0WM9nG259n7mtz&cache3502=3502&page=636","next_page_url":"https://videocdn.tv/api/short?limit=100&api_token=EnbO9h8pv1VyjbCJhg0WM9nG259n7mtz&cache3502=3502&page=503","path":"https://videocdn.tv/api/short","per_page":100,"prev_page_url":"https://videocdn.tv/api/short?limit=100&api_token=EnbO9h8pv1VyjbCJhg0WM9nG259n7mtz&cache3502=3502&page=501","to":50140,"total":63561}