{"result":true,"data":[{"id":51152,"title":"Гараш","kp_id":"947032","imdb_id":"tt5202266","world_art_id":null,"type":"movie","add":"2021-06-13 18:49:51","orig_title":"GaraSh","year":"2015-11-07","translations":["Оригинальная дорожка"],"quality":"webdl","translation":"Оригинальная дорожка","update":"2021-06-14 07:30:48","iframe_src":"//83.svetacdn.in/PfJ50H0ZBPg3/movie/51152"},{"id":51149,"title":"Побег Акиллы","kp_id":"1400669","imdb_id":"tt12779696","world_art_id":null,"type":"movie","add":"2021-06-13 10:01:56","orig_title":"Akilla's Escape","year":"2020-09-12","translations":["Любительский (многоголосый закадровый) (@MUZOBOZ@)"],"quality":"webdl","translation":"Любительский (многоголосый закадровый) (@MUZOBOZ@)","update":"2021-06-13 21:59:29","iframe_src":"//83.svetacdn.in/PfJ50H0ZBPg3/movie/51149"},{"id":51148,"title":"Ярость дракона","kp_id":"2001237","imdb_id":"tt13563520","world_art_id":null,"type":"movie","add":"2021-06-13 10:00:19","orig_title":"Dragon Fury","year":"2021-10-06","translations":["Любительский (многоголосый закадровый) (@MUZOBOZ@)"],"quality":"webdl","translation":"Любительский (многоголосый закадровый) (@MUZOBOZ@)","update":"2021-06-13 21:58:04","iframe_src":"//83.svetacdn.in/PfJ50H0ZBPg3/movie/51148"},{"id":51144,"title":"Женщина из смартфона","kp_id":"1287226","imdb_id":"tt10536144","world_art_id":null,"type":"movie","add":"2021-06-13 09:42:57","orig_title":"La donna dello smartphone","year":"2020-03-05","translations":["Любительский (многоголосый закадровый) (Синема УС)"],"quality":"webdl","translation":"Любительский (многоголосый закадровый) (Синема УС)","update":"2021-06-13 21:56:57","iframe_src":"//83.svetacdn.in/PfJ50H0ZBPg3/movie/51144"},{"id":51142,"title":"Ещё немного плоти","kp_id":"1350436","imdb_id":"tt11710248","world_art_id":null,"type":"movie","add":"2021-06-13 09:41:08","orig_title":"A Little More Flesh","year":"2020-03-14","translations":["Любительский (многоголосый закадровый) (Синема УС)"],"quality":"webdl","translation":"Любительский (многоголосый закадровый) (Синема УС)","update":"2021-06-13 21:55:42","iframe_src":"//83.svetacdn.in/PfJ50H0ZBPg3/movie/51142"},{"id":51141,"title":"Чёрная лиса: Эпоха ниндзя","kp_id":"1252344","imdb_id":"tt10052928","world_art_id":null,"type":"movie","add":"2021-06-13 09:39:39","orig_title":"Black Fox: Age of the Ninja","year":"2019-10-05","translations":["Любительский (многоголосый закадровый) (Синема УС)"],"quality":"webdl","translation":"Любительский (многоголосый закадровый) (Синема УС)","update":"2021-06-13 21:54:40","iframe_src":"//83.svetacdn.in/PfJ50H0ZBPg3/movie/51141"},{"id":51129,"title":"А где был ты, когда погас свет?","kp_id":"24211","imdb_id":"tt0063801","world_art_id":null,"type":"movie","add":"2021-06-12 14:57:46","orig_title":"Where Were You When the Lights Went Out?","year":"1968-06-19","translations":["Любительский (одноголосый закадровый) (lehachuev)"],"quality":"tv","translation":"Любительский (одноголосый закадровый) (lehachuev)","update":"2021-06-14 07:28:53","iframe_src":"//83.svetacdn.in/PfJ50H0ZBPg3/movie/51129"},{"id":50038,"title":"Закоулок убийц","kp_id":"14992","imdb_id":"tt0060728","world_art_id":null,"type":"movie","add":"2021-05-01 17:20:52","orig_title":"Murderers' Row","year":"1966-12-20","translations":["Профессиональный (многоголосый закадровый)","[EN] Original (English)"],"quality":"bd","translation":"Профессиональный (многоголосый закадровый)","update":"2021-06-14 08:06:10","iframe_src":"//83.svetacdn.in/PfJ50H0ZBPg3/movie/50038"},{"id":49737,"title":"Лиловая равнина","kp_id":"11853","imdb_id":"tt0047376","world_art_id":null,"type":"movie","add":"2021-04-20 08:19:36","orig_title":"The Purple Plain","year":"1954-09-14","translations":["Авторский (одноголосый закадровый) (Рябов Сергей)","[EN] Original (English)"],"quality":"bd","translation":"Авторский (одноголосый закадровый) (Рябов Сергей)","update":"2021-06-14 07:56:05","iframe_src":"//83.svetacdn.in/PfJ50H0ZBPg3/movie/49737"},{"id":49698,"title":"Выдра по имени Тарка","kp_id":"17573","imdb_id":"tt0079988","world_art_id":null,"type":"movie","add":"2021-04-18 22:34:00","orig_title":"Tarka the Otter","year":"1979-01-01","translations":["Профессиональный (одноголосый закадровый)","[EN] Original (English)"],"quality":"bd","translation":"Профессиональный (одноголосый закадровый)","update":"2021-06-14 07:58:57","iframe_src":"//83.svetacdn.in/PfJ50H0ZBPg3/movie/49698"},{"id":49350,"title":"Звук ярости","kp_id":"3259","imdb_id":"tt0043075","world_art_id":null,"type":"movie","add":"2021-04-05 05:17:44","orig_title":"The Sound of Fury","year":"1950-12-12","translations":["Любительский (одноголосый закадровый) (Бусов Глеб)","[EN] Original (English)"],"quality":"bd","translation":"Любительский (одноголосый закадровый) (Бусов Глеб)","update":"2021-06-14 07:53:12","iframe_src":"//83.svetacdn.in/PfJ50H0ZBPg3/movie/49350"},{"id":49195,"title":"Остров мертвых","kp_id":"32163","imdb_id":"tt0037820","world_art_id":null,"type":"movie","add":"2021-03-30 05:45:10","orig_title":"Isle of the Dead","year":"1945-09-01","translations":["Любительский (одноголосый закадровый) (liosaa)","[EN] Original (English)"],"quality":"bd","translation":"Любительский (одноголосый закадровый) (liosaa)","update":"2021-06-14 08:18:09","iframe_src":"//83.svetacdn.in/PfJ50H0ZBPg3/movie/49195"},{"id":48664,"title":"Сыщик","kp_id":"30941","imdb_id":"tt0042006","world_art_id":null,"type":"movie","add":"2021-03-12 07:06:59","orig_title":"The Undercover Man","year":"1949-03-20","translations":["Любительский (одноголосый закадровый) (Eugene Greene)","[EN] Original (English)"],"quality":"bd","translation":"Любительский (одноголосый закадровый) (Eugene Greene)","update":"2021-06-14 07:50:21","iframe_src":"//83.svetacdn.in/PfJ50H0ZBPg3/movie/48664"},{"id":48634,"title":"Западня","kp_id":"92709","imdb_id":"tt0040695","world_art_id":null,"type":"movie","add":"2021-03-11 05:10:13","orig_title":"Pitfall","year":"1948-08-11","translations":["Любительский (одноголосый закадровый) (iDimo)","[EN] Original (English)"],"quality":"bd","translation":"Любительский (одноголосый закадровый) (iDimo)","update":"2021-06-14 08:03:31","iframe_src":"//83.svetacdn.in/PfJ50H0ZBPg3/movie/48634"},{"id":48606,"title":"Дамам стоит послушать","kp_id":"1028","imdb_id":"tt0025363","world_art_id":null,"type":"movie","add":"2021-03-10 06:45:27","orig_title":"Ladies Should Listen","year":"1934-08-10","translations":["Авторский (одноголосый закадровый) (Воронцов Владимир | Доцент)","[EN] Original (English)"],"quality":"bd","translation":"Авторский (одноголосый закадровый) (Воронцов Владимир | Доцент)","update":"2021-06-14 08:15:39","iframe_src":"//83.svetacdn.in/PfJ50H0ZBPg3/movie/48606"},{"id":48604,"title":"Не давай молокососу передышки","kp_id":"27381","imdb_id":"tt0033945","world_art_id":null,"type":"movie","add":"2021-03-10 06:38:42","orig_title":"Never Give a Sucker an Even Break","year":"1941-10-10","translations":["Профессиональный (многоголосый закадровый) (РенТВ)","[EN] Original (English)"],"quality":"bd","translation":"Профессиональный (многоголосый закадровый) (РенТВ)","update":"2021-06-14 08:04:23","iframe_src":"//83.svetacdn.in/PfJ50H0ZBPg3/movie/48604"},{"id":48541,"title":"Странники в ночи","kp_id":"204579","imdb_id":"tt0037318","world_art_id":null,"type":"movie","add":"2021-03-08 08:06:42","orig_title":"Strangers in the Night","year":"1944-09-12","translations":["Любительский (одноголосый закадровый) (Andy Green)","[EN] Original (English)"],"quality":"bd","translation":"Любительский (одноголосый закадровый) (Andy Green)","update":"2021-06-14 08:01:45","iframe_src":"//83.svetacdn.in/PfJ50H0ZBPg3/movie/48541"},{"id":14618,"title":"Пираты Сомали","kp_id":"958619","imdb_id":"tt5126922","world_art_id":null,"type":"movie","add":"2017-12-10 21:14:08","orig_title":"The Pirates of Somalia","year":"2017-04-27","translations":["Профессиональный (многоголосый закадровый) (GreenРай Studio)","Любительский (многоголосый закадровый) (Синема УС)","Профессиональный (многоголосый закадровый)","Профессиональный (многоголосый закадровый)","Профессиональный (многоголосый закадровый) (SDI Media | Iyuno-SDI Group Russia)","[EN] Original (English)"],"quality":"bd","translation":"Профессиональный (многоголосый закадровый) (GreenРай Studio)","update":"2021-06-14 07:57:37","iframe_src":"//83.svetacdn.in/PfJ50H0ZBPg3/movie/14618"},{"id":1731,"title":"Ложь во спасение","kp_id":"961718","imdb_id":"tt5564518","world_art_id":null,"type":"serial","add":"2017-11-13 07:37:35","orig_title":"Lozh vo spaseniye","year":"2016-04-09","translations":["Оригинальная дорожка"],"seasons_count":1,"episodes_count":4,"episodes":4,"update":"2017-11-13 11:49:00","iframe_src":"//83.svetacdn.in/PfJ50H0ZBPg3/tv-series/1731"},{"id":1730,"title":"Уроки счастья","kp_id":"1097480","imdb_id":null,"world_art_id":null,"type":"serial","add":"2017-11-13 07:33:29","orig_title":"Уроки счастья","year":"2017-11-12","translations":["Оригинальная дорожка"],"seasons_count":1,"episodes_count":4,"episodes":4,"update":"2017-11-13 11:44:59","iframe_src":"//83.svetacdn.in/PfJ50H0ZBPg3/tv-series/1730"},{"id":1722,"title":"Неzлоб","kp_id":"715215","imdb_id":"tt4741988","world_art_id":null,"type":"serial","add":"2017-11-10 08:26:20","orig_title":"Nezlob","year":"2013-11-05","translations":["Оригинальная дорожка"],"seasons_count":1,"episodes_count":16,"episodes":16,"update":"2017-11-12 12:52:56","iframe_src":"//83.svetacdn.in/PfJ50H0ZBPg3/tv-series/1722"},{"id":1721,"title":"Кротик и Панда","kp_id":"1046564","imdb_id":null,"world_art_id":null,"type":"serial","add":"2017-11-09 05:08:13","orig_title":"Krtek a panda","year":"2016-03-28","translations":["Полное дублирование"],"seasons_count":1,"episodes_count":52,"episodes":52,"update":"2017-11-10 12:52:57","iframe_src":"//83.svetacdn.in/PfJ50H0ZBPg3/tv-series/1721"},{"id":1720,"title":"Демон революции","kp_id":"1043872","imdb_id":"tt7598872","world_art_id":null,"type":"serial","add":"2017-11-07 12:57:07","orig_title":"Demon revolyutsii","year":"2017-11-05","translations":["Оригинальная дорожка"],"seasons_count":1,"episodes_count":3,"episodes":3,"update":"2017-11-08 08:08:05","iframe_src":"//83.svetacdn.in/PfJ50H0ZBPg3/tv-series/1720"},{"id":1719,"title":"Троцкий","kp_id":"1008339","imdb_id":null,"world_art_id":null,"type":"serial","add":"2017-11-07 12:52:05","orig_title":"Троцкий","year":"2017-11-06","translations":["Оригинальная дорожка"],"seasons_count":1,"episodes_count":8,"episodes":8,"update":"2017-11-10 07:53:03","iframe_src":"//83.svetacdn.in/PfJ50H0ZBPg3/tv-series/1719"},{"id":1718,"title":"Нулевая мировая","kp_id":"1036875","imdb_id":null,"world_art_id":null,"type":"serial","add":"2017-11-06 06:02:55","orig_title":"Нулевая мировая","year":"2017-02-23","translations":["Оригинальная дорожка"],"seasons_count":1,"episodes_count":4,"episodes":4,"update":"2017-11-08 11:12:35","iframe_src":"//83.svetacdn.in/PfJ50H0ZBPg3/tv-series/1718"},{"id":1717,"title":"Котовский","kp_id":"466542","imdb_id":"tt3575436","world_art_id":null,"type":"serial","add":"2017-11-06 05:58:39","orig_title":"Kotovskiy","year":"2010-03-01","translations":["Оригинальная дорожка"],"seasons_count":1,"episodes_count":8,"episodes":8,"update":"2017-11-07 11:26:58","iframe_src":"//83.svetacdn.in/PfJ50H0ZBPg3/tv-series/1717"},{"id":1716,"title":"Короткое слово нет","kp_id":"1007584","imdb_id":"tt6687196","world_art_id":null,"type":"serial","add":"2017-11-06 05:55:44","orig_title":"Korotkoe slovo 'net'","year":"2017-10-23","translations":["Оригинальная дорожка"],"seasons_count":1,"episodes_count":12,"episodes":12,"update":"2017-11-07 10:31:09","iframe_src":"//83.svetacdn.in/PfJ50H0ZBPg3/tv-series/1716"},{"id":1715,"title":"Это наши дети!","kp_id":"933401","imdb_id":null,"world_art_id":null,"type":"serial","add":"2017-11-06 05:52:52","orig_title":"Это наши дети!","year":"2015-01-01","translations":["Оригинальная дорожка"],"seasons_count":1,"episodes_count":4,"episodes":4,"update":"2017-11-06 13:28:36","iframe_src":"//83.svetacdn.in/PfJ50H0ZBPg3/tv-series/1715"},{"id":1714,"title":"Анна Герман","kp_id":"600835","imdb_id":"tt2729414","world_art_id":null,"type":"serial","add":"2017-11-06 05:44:43","orig_title":"Anna German","year":"2012-09-03","translations":["Оригинальная дорожка"],"seasons_count":1,"episodes_count":10,"episodes":10,"update":"2017-11-08 11:07:46","iframe_src":"//83.svetacdn.in/PfJ50H0ZBPg3/tv-series/1714"},{"id":1712,"title":"Жизнь и приключения Мишки Япончика","kp_id":"603888","imdb_id":"tt2317835","world_art_id":null,"type":"serial","add":"2017-11-06 05:34:34","orig_title":"Zhizn i priklyucheniya Mishki Yaponchika","year":"2011-11-09","translations":["Оригинальная дорожка"],"seasons_count":1,"episodes_count":12,"episodes":12,"update":"2017-11-08 10:38:11","iframe_src":"//83.svetacdn.in/PfJ50H0ZBPg3/tv-series/1712"},{"id":1711,"title":"Жизнь после жизни","kp_id":"760483","imdb_id":"tt6761836","world_art_id":null,"type":"serial","add":"2017-11-06 05:09:06","orig_title":"Zhizn posle zhizni","year":"2017-02-27","translations":["Оригинальная дорожка"],"seasons_count":1,"episodes_count":16,"episodes":16,"update":"2017-11-07 10:55:49","iframe_src":"//83.svetacdn.in/PfJ50H0ZBPg3/tv-series/1711"},{"id":1710,"title":"Влюбленные женщины","kp_id":"840609","imdb_id":"tt3827892","world_art_id":null,"type":"serial","add":"2017-11-06 05:01:10","orig_title":"Vlyublyonnye zhenshchiny","year":"2015-10-19","translations":["Оригинальная дорожка"],"seasons_count":1,"episodes_count":12,"episodes":12,"update":"2017-11-06 13:10:34","iframe_src":"//83.svetacdn.in/PfJ50H0ZBPg3/tv-series/1710"},{"id":1706,"title":"Мятежный дух","kp_id":"94384","imdb_id":"tt0328789","world_art_id":null,"type":"serial","add":"2017-11-03 21:15:43","orig_title":"Rebelde Way","year":"2002-05-27","translations":["Профессиональный (многоголосый закадровый)"],"seasons_count":2,"episodes_count":318,"episodes":179,"update":"2017-11-08 21:48:46","iframe_src":"//83.svetacdn.in/PfJ50H0ZBPg3/tv-series/1706"},{"id":1689,"title":"Император Карлос","kp_id":"891688","imdb_id":"tt4418020","world_art_id":null,"type":"serial","add":"2017-10-30 09:16:52","orig_title":"Carlos, Rey Emperador","year":"2015-09-07","translations":["Любительский (двухголосый закадровый)"],"seasons_count":1,"episodes_count":17,"episodes":17,"update":"2017-11-08 09:42:09","iframe_src":"//83.svetacdn.in/PfJ50H0ZBPg3/tv-series/1689"},{"id":1686,"title":"Что делает твоя жена?","kp_id":"1007900","imdb_id":null,"world_art_id":null,"type":"serial","add":"2017-10-30 08:50:12","orig_title":"Что делает твоя жена?","year":"2017-10-28","translations":["Оригинальная дорожка"],"seasons_count":1,"episodes_count":20,"episodes":20,"update":"2017-11-07 12:13:52","iframe_src":"//83.svetacdn.in/PfJ50H0ZBPg3/tv-series/1686"},{"id":1680,"title":"Брат за брата 2","kp_id":"679751","imdb_id":"tt4094956","world_art_id":null,"type":"serial","add":"2017-10-27 05:32:20","orig_title":"Brat za brata 2","year":"2013-01-31","translations":["Оригинальная дорожка"],"seasons_count":1,"episodes_count":24,"episodes":24,"update":"2017-11-08 09:35:00","iframe_src":"//83.svetacdn.in/PfJ50H0ZBPg3/tv-series/1680"},{"id":1679,"title":"Брат за брата","kp_id":"491881","imdb_id":"tt4339372","world_art_id":null,"type":"serial","add":"2017-10-27 05:30:08","orig_title":"Brat za brata","year":"2010-10-13","translations":["Оригинальная дорожка"],"seasons_count":1,"episodes_count":24,"episodes":24,"update":"2017-11-07 09:59:25","iframe_src":"//83.svetacdn.in/PfJ50H0ZBPg3/tv-series/1679"},{"id":10434,"title":"Хижина","kp_id":"760904","imdb_id":"tt2872518","world_art_id":null,"type":"movie","add":"2017-03-20 22:25:31","orig_title":"The Shack","year":"2017-03-01","translations":["Любительский (многоголосый закадровый) (Колобок)","Профессиональный (многоголосый закадровый)","Профессиональный (многоголосый закадровый) (iTunes)","[EN] Original (English)"],"quality":"webdl","translation":"Любительский (многоголосый закадровый) (Колобок)","update":"2021-06-14 07:54:38","iframe_src":"//83.svetacdn.in/PfJ50H0ZBPg3/movie/10434"},{"id":8858,"title":"Что-то наподобие ненависти","kp_id":"839981","imdb_id":"tt3698558","world_art_id":null,"type":"movie","add":"2017-01-12 10:57:01","orig_title":"Some Kind of Hate","year":"2015-05-02","translations":["Любительский (одноголосый закадровый) (Хихикающий доктор)","Профессиональный (многоголосый закадровый)"],"quality":"bd","translation":"Любительский (одноголосый закадровый) (Хихикающий доктор)","update":"2021-06-14 07:33:46","iframe_src":"//83.svetacdn.in/PfJ50H0ZBPg3/movie/8858"},{"id":523,"title":"Светофор","kp_id":"581693","imdb_id":"tt2341427","world_art_id":null,"type":"serial","add":"2016-10-13 11:14:26","orig_title":"Svetofor","year":"2011-03-28","translations":["Оригинальная дорожка"],"seasons_count":10,"episodes_count":200,"episodes":20,"update":"2017-11-09 14:12:12","iframe_src":"//83.svetacdn.in/PfJ50H0ZBPg3/tv-series/523"}],"current_page":567,"first_page_url":"https://videocdn.tv/api/short?limit=100&api_token=RgFQdUIR2dRmwv8iYa5SnFNgnw3vpjKj&cache3567=3567&page=1","from":56601,"last_page":717,"last_page_url":"https://videocdn.tv/api/short?limit=100&api_token=RgFQdUIR2dRmwv8iYa5SnFNgnw3vpjKj&cache3567=3567&page=717","next_page_url":"https://videocdn.tv/api/short?limit=100&api_token=RgFQdUIR2dRmwv8iYa5SnFNgnw3vpjKj&cache3567=3567&page=568","path":"https://videocdn.tv/api/short","per_page":100,"prev_page_url":"https://videocdn.tv/api/short?limit=100&api_token=RgFQdUIR2dRmwv8iYa5SnFNgnw3vpjKj&cache3567=3567&page=566","to":56640,"total":71669}