{"result":true,"data":[{"id":46606,"title":"Праздничные перемены","kp_id":"1282227","imdb_id":"tt10545474","world_art_id":null,"type":"movie","add":"2021-01-01 21:20:48","orig_title":"A Holiday Change","year":"2019-01-01","translations":["Любительский (многоголосый закадровый) (Синема УС)"],"quality":"webdl","translation":"Любительский (многоголосый закадровый) (Синема УС)","update":"2021-01-02 07:23:18","iframe_src":"//7720.svetacdn.in/IAF0wWTdNYZm/movie/46606"},{"id":46605,"title":"Кэнди","kp_id":"1049961","imdb_id":"tt7136962","world_art_id":null,"type":"movie","add":"2021-01-01 21:19:00","orig_title":"Candy","year":"2017-03-24","translations":["Любительский (многоголосый закадровый) (Синема УС)"],"quality":"webdl","translation":"Любительский (многоголосый закадровый) (Синема УС)","update":"2021-01-02 07:23:50","iframe_src":"//7720.svetacdn.in/IAF0wWTdNYZm/movie/46605"},{"id":46604,"title":"Для тебя, с любовью","kp_id":"1236385","imdb_id":"tt9760234","world_art_id":null,"type":"movie","add":"2021-01-01 20:41:04","orig_title":"Made for You, with Love","year":"2019-05-25","translations":["Любительский (многоголосый закадровый) (Синема УС)"],"quality":"webdl","translation":"Любительский (многоголосый закадровый) (Синема УС)","update":"2021-01-02 08:03:33","iframe_src":"//7720.svetacdn.in/IAF0wWTdNYZm/movie/46604"},{"id":46603,"title":"Сделан в Британии","kp_id":"1192856","imdb_id":"tt8814348","world_art_id":null,"type":"movie","add":"2021-01-01 20:38:20","orig_title":"British Made","year":"2019-04-30","translations":["Любительский (многоголосый закадровый) (Синема УС)"],"quality":"webdl","translation":"Любительский (многоголосый закадровый) (Синема УС)","update":"2021-01-02 08:03:50","iframe_src":"//7720.svetacdn.in/IAF0wWTdNYZm/movie/46603"},{"id":46602,"title":"Энгель","kp_id":"2002972","imdb_id":"tt12753454","world_art_id":null,"type":"movie","add":"2021-01-01 20:36:10","orig_title":"Engel","year":"2020-08-05","translations":["Любительский (многоголосый закадровый) (Синема УС)"],"quality":"webdl","translation":"Любительский (многоголосый закадровый) (Синема УС)","update":"2021-01-02 07:46:00","iframe_src":"//7720.svetacdn.in/IAF0wWTdNYZm/movie/46602"},{"id":46601,"title":"Ежегодно отбыл","kp_id":null,"imdb_id":"tt13321268","world_art_id":null,"type":"movie","add":"2021-01-01 20:34:22","orig_title":"Yearly Departed","year":"2020-12-30","translations":["Любительский (многоголосый закадровый) (Синема УС)"],"quality":"webdl","translation":"Любительский (многоголосый закадровый) (Синема УС)","update":"2021-01-02 07:46:50","iframe_src":"//7720.svetacdn.in/IAF0wWTdNYZm/movie/46601"},{"id":46600,"title":"Простите, что убил вас","kp_id":"819384","imdb_id":"tt3442126","world_art_id":null,"type":"movie","add":"2021-01-01 20:32:52","orig_title":"Sorry I Killed You","year":"2018-03-05","translations":["Любительский (многоголосый закадровый) (Синема УС)"],"quality":"webdl","translation":"Любительский (многоголосый закадровый) (Синема УС)","update":"2021-01-02 08:04:17","iframe_src":"//7720.svetacdn.in/IAF0wWTdNYZm/movie/46600"},{"id":46599,"title":"Отбросы","kp_id":"1098974","imdb_id":"tt7566944","world_art_id":null,"type":"movie","add":"2021-01-01 20:31:10","orig_title":"Derelicts","year":"2017-10-13","translations":["Любительский (многоголосый закадровый) (Синема УС)"],"quality":"webdl","translation":"Любительский (многоголосый закадровый) (Синема УС)","update":"2021-01-02 08:04:47","iframe_src":"//7720.svetacdn.in/IAF0wWTdNYZm/movie/46599"},{"id":46598,"title":"Рождество по заказу","kp_id":"1404204","imdb_id":"tt12968696","world_art_id":null,"type":"movie","add":"2021-01-01 20:28:26","orig_title":"Christmas on the Menu","year":"2020-12-18","translations":["Любительский (многоголосый закадровый) (AlphaProject)"],"quality":"webdl","translation":"Любительский (многоголосый закадровый) (AlphaProject)","update":"2021-01-02 07:47:33","iframe_src":"//7720.svetacdn.in/IAF0wWTdNYZm/movie/46598"},{"id":46597,"title":"Проклятье сирены","kp_id":"1264373","imdb_id":"tt10278386","world_art_id":null,"type":"movie","add":"2021-01-01 20:26:35","orig_title":"Witches of the Water","year":"2019-12-16","translations":["Любительский (многоголосый закадровый) (Синема УС)"],"quality":"webdl","translation":"Любительский (многоголосый закадровый) (Синема УС)","update":"2021-01-02 08:05:17","iframe_src":"//7720.svetacdn.in/IAF0wWTdNYZm/movie/46597"},{"id":46596,"title":"Странные дела 3","kp_id":"1347664","imdb_id":"tt11738264","world_art_id":null,"type":"movie","add":"2021-01-01 20:24:47","orig_title":"Strange Events 3","year":"2020-05-05","translations":["Любительский (многоголосый закадровый) (Синема УС)"],"quality":"webdl","translation":"Любительский (многоголосый закадровый) (Синема УС)","update":"2021-01-02 08:05:58","iframe_src":"//7720.svetacdn.in/IAF0wWTdNYZm/movie/46596"},{"id":46595,"title":"Примкнувший к счастью","kp_id":"1057363","imdb_id":"tt6902722","world_art_id":null,"type":"movie","add":"2021-01-01 20:23:08","orig_title":"Happiness Adjacent","year":"2018-06-01","translations":["Любительский (многоголосый закадровый) (Синема УС)"],"quality":"webdl","translation":"Любительский (многоголосый закадровый) (Синема УС)","update":"2021-01-02 08:06:23","iframe_src":"//7720.svetacdn.in/IAF0wWTdNYZm/movie/46595"},{"id":46594,"title":"Карта","kp_id":"1268418","imdb_id":"tt9688012","world_art_id":null,"type":"movie","add":"2021-01-01 20:21:09","orig_title":"Carta","year":"2019-02-14","translations":["Любительский (многоголосый закадровый) (Синема УС)"],"quality":"webdl","translation":"Любительский (многоголосый закадровый) (Синема УС)","update":"2021-01-02 08:06:48","iframe_src":"//7720.svetacdn.in/IAF0wWTdNYZm/movie/46594"},{"id":46593,"title":"Монстры","kp_id":"1193539","imdb_id":"tt8986808","world_art_id":null,"type":"movie","add":"2021-01-01 20:19:20","orig_title":"Monstri","year":"2019-02-09","translations":["Любительский (многоголосый закадровый) (Синема УС)"],"quality":"webdl","translation":"Любительский (многоголосый закадровый) (Синема УС)","update":"2021-01-02 08:07:32","iframe_src":"//7720.svetacdn.in/IAF0wWTdNYZm/movie/46593"},{"id":46592,"title":"Под грейпфрутовым деревом: История Си Си Сабатии","kp_id":"4133746","imdb_id":"tt13692182","world_art_id":null,"type":"movie","add":"2021-01-01 20:16:37","orig_title":"Under the Grapefruit Tree: The CC Sabathia Story","year":"2020-12-22","translations":["Любительский (многоголосый закадровый) (AlphaProject)"],"quality":"webdl","translation":"Любительский (многоголосый закадровый) (AlphaProject)","update":"2021-01-02 07:48:25","iframe_src":"//7720.svetacdn.in/IAF0wWTdNYZm/movie/46592"},{"id":46588,"title":"Инфицированая плоть","kp_id":"1416221","imdb_id":"tt13037448","world_art_id":null,"type":"movie","add":"2021-01-01 20:09:34","orig_title":"Flesh Contagium","year":"2020-12-15","translations":["Любительский (двухголосый закадровый) (Колобок)"],"quality":"webdl","translation":"Любительский (двухголосый закадровый) (Колобок)","update":"2021-01-02 07:49:31","iframe_src":"//7720.svetacdn.in/IAF0wWTdNYZm/movie/46588"},{"id":46586,"title":"Планы перед планами","kp_id":"999704","imdb_id":"tt6005118","world_art_id":null,"type":"movie","add":"2021-01-01 20:05:00","orig_title":"The Thing Before the Thing","year":"2020-11-04","translations":["Любительский (многоголосый закадровый) (Синема УС)"],"quality":"webdl","translation":"Любительский (многоголосый закадровый) (Синема УС)","update":"2021-01-02 07:49:57","iframe_src":"//7720.svetacdn.in/IAF0wWTdNYZm/movie/46586"},{"id":46585,"title":"Асфальт в огне","kp_id":"1048550","imdb_id":"tt6527456","world_art_id":null,"type":"movie","add":"2021-01-01 20:00:40","orig_title":"Børning 3","year":"2020-10-09","translations":["Любительский (многоголосый закадровый) (@MUZOBOZ@)"],"quality":"bd","translation":"Любительский (многоголосый закадровый) (@MUZOBOZ@)","update":"2021-01-02 07:50:22","iframe_src":"//7720.svetacdn.in/IAF0wWTdNYZm/movie/46585"},{"id":46408,"title":"Ищущий","kp_id":"1110359","imdb_id":"tt6920798","world_art_id":null,"type":"movie","add":"2020-12-26 22:22:34","orig_title":"The Bloodhound","year":"2020-12-01","translations":["Original (English)","Любительский (многоголосый закадровый) (Синема УС)"],"quality":"webdl","translation":"Original (English)","update":"2021-01-02 07:50:48","iframe_src":"//7720.svetacdn.in/IAF0wWTdNYZm/movie/46408"},{"id":43672,"title":"Перепало?","kp_id":"1391217","imdb_id":"tt12633744","world_art_id":null,"type":"movie","add":"2020-09-19 07:15:46","orig_title":"T'as pécho?","year":"2020-07-29","translations":["Любительский (многоголосый закадровый) (@MUZOBOZ@)"],"quality":"webdl","translation":"Любительский (многоголосый закадровый) (@MUZOBOZ@)","update":"2021-01-02 07:48:02","iframe_src":"//7720.svetacdn.in/IAF0wWTdNYZm/movie/43672"},{"id":3804,"title":"Ради любви я всё смогу","kp_id":"942280","imdb_id":"tt5311566","world_art_id":null,"type":"serial","add":"2018-12-30 16:00:35","orig_title":"Radi lyubvi ya vsyo smogu","year":"2015-11-16","translations":["Оригинальная дорожка"],"seasons_count":1,"episodes_count":60,"episodes":60,"update":"2018-12-31 12:54:18","iframe_src":"//7720.svetacdn.in/IAF0wWTdNYZm/tv-series/3804"},{"id":3803,"title":"Ботаны","kp_id":"841295","imdb_id":null,"world_art_id":null,"type":"serial","add":"2018-12-30 15:48:25","orig_title":"Ботаны","year":"2015-10-17","translations":["Оригинальная дорожка"],"seasons_count":1,"episodes_count":40,"episodes":40,"update":"2018-12-31 00:11:57","iframe_src":"//7720.svetacdn.in/IAF0wWTdNYZm/tv-series/3803"},{"id":3801,"title":"Следователи","kp_id":"929798","imdb_id":null,"world_art_id":null,"type":"serial","add":"2018-12-30 15:29:48","orig_title":"Следователи","year":"2015-01-01","translations":["Оригинальная дорожка"],"seasons_count":1,"episodes_count":56,"episodes":56,"update":"2018-12-31 13:26:04","iframe_src":"//7720.svetacdn.in/IAF0wWTdNYZm/tv-series/3801"},{"id":3799,"title":"Богатые дети, бедные родители","kp_id":"501714","imdb_id":"tt1464446","world_art_id":null,"type":"serial","add":"2018-12-30 14:43:21","orig_title":"Niños ricos, pobres padres","year":"2009-07-07","translations":["Профессиональный (многоголосый закадровый)"],"seasons_count":1,"episodes_count":130,"episodes":130,"update":"2018-12-31 14:30:53","iframe_src":"//7720.svetacdn.in/IAF0wWTdNYZm/tv-series/3799"},{"id":3798,"title":"10 друзей Кролика","kp_id":"840917","imdb_id":"tt3282274","world_art_id":null,"type":"serial","add":"2018-12-30 14:32:33","orig_title":"10 druzey Krolika","year":"2014-01-01","translations":["Оригинальная дорожка"],"seasons_count":1,"episodes_count":43,"episodes":43,"update":"2018-12-31 15:44:18","iframe_src":"//7720.svetacdn.in/IAF0wWTdNYZm/tv-series/3798"},{"id":3786,"title":"Новогодний ангел","kp_id":null,"imdb_id":null,"world_art_id":null,"type":"serial","add":"2018-12-30 00:50:08","orig_title":"Новогодний ангел","year":"2018-12-29","translations":["Оригинальная дорожка"],"seasons_count":1,"episodes_count":2,"episodes":2,"update":"2018-12-30 01:47:51","iframe_src":"//7720.svetacdn.in/IAF0wWTdNYZm/tv-series/3786"},{"id":3785,"title":"Король выпечки Ким Тхак-ку","kp_id":"577297","imdb_id":"tt1821771","world_art_id":null,"type":"serial","add":"2018-12-29 00:30:48","orig_title":"Jeppangwang Kim Tak-goo","year":"2010-06-09","translations":["Любительский (одноголосый закадровый) (GREEN TEA)"],"seasons_count":1,"episodes_count":30,"episodes":30,"update":"2018-12-31 19:00:36","iframe_src":"//7720.svetacdn.in/IAF0wWTdNYZm/tv-series/3785"},{"id":3784,"title":"Призрачный вор Яманеко","kp_id":"969300","imdb_id":"tt5207316","world_art_id":null,"type":"serial","add":"2018-12-29 00:20:04","orig_title":"Kaitô Yamaneko","year":"2016-01-16","translations":["Любительский (одноголосый закадровый) (GREEN TEA)"],"seasons_count":1,"episodes_count":10,"episodes":10,"update":"2018-12-31 19:29:20","iframe_src":"//7720.svetacdn.in/IAF0wWTdNYZm/tv-series/3784"},{"id":3783,"title":"Берегитесь Бэтмена","kp_id":"675660","imdb_id":"tt2329077","world_art_id":null,"type":"serial","add":"2018-12-28 20:29:46","orig_title":"Beware the Batman","year":"2013-07-13","translations":["Профессиональный (многоголосый закадровый)"],"seasons_count":1,"episodes_count":26,"episodes":26,"update":"2018-12-30 12:23:22","iframe_src":"//7720.svetacdn.in/IAF0wWTdNYZm/tv-series/3783"},{"id":3779,"title":"Байки из турне","kp_id":"1111930","imdb_id":"tt7212136","world_art_id":null,"type":"serial","add":"2018-12-27 15:14:42","orig_title":"Mike Judge Presents: Tales from the Tour Bus","year":"2017-09-22","translations":["Профессиональный (двухголосый закадровый) (Greb&Creative)"],"seasons_count":2,"episodes_count":16,"episodes":8,"update":"2018-12-31 09:39:01","iframe_src":"//7720.svetacdn.in/IAF0wWTdNYZm/tv-series/3779"},{"id":3777,"title":"Влюблённые с Хэундэ","kp_id":"820442","imdb_id":"tt3467302","world_art_id":null,"type":"serial","add":"2018-12-26 22:21:05","orig_title":"Haeundae Lovers","year":"2012-08-06","translations":["Любительский (одноголосый закадровый) (GREEN TEA)"],"seasons_count":1,"episodes_count":16,"episodes":16,"update":"2018-12-31 19:34:43","iframe_src":"//7720.svetacdn.in/IAF0wWTdNYZm/tv-series/3777"},{"id":3776,"title":"Божественные капли","kp_id":"455567","imdb_id":"tt1360424","world_art_id":null,"type":"serial","add":"2018-12-26 22:16:13","orig_title":"Kami no shizuku","year":"2009-01-13","translations":["Любительский (двухголосый закадровый) (GREEN TEA)"],"seasons_count":1,"episodes_count":9,"episodes":9,"update":"2018-12-31 19:48:18","iframe_src":"//7720.svetacdn.in/IAF0wWTdNYZm/tv-series/3776"},{"id":3775,"title":"Не сахарные","kp_id":"745258","imdb_id":"tt2501566","world_art_id":null,"type":"serial","add":"2018-12-26 22:10:17","orig_title":"Sugarless","year":"2012-10-03","translations":["Любительский (двухголосый закадровый) (GREEN TEA)"],"seasons_count":1,"episodes_count":12,"episodes":12,"update":"2018-12-31 19:53:16","iframe_src":"//7720.svetacdn.in/IAF0wWTdNYZm/tv-series/3775"},{"id":3774,"title":"Грань","kp_id":"839418","imdb_id":"tt3512088","world_art_id":null,"type":"serial","add":"2018-12-26 22:05:23","orig_title":"Border: Keishichô Sôsa Ikka Satsujinhan Sôsa Dai 4-gakkari","year":"2014-04-10","translations":["Любительский (одноголосый закадровый) (GREEN TEA)"],"seasons_count":1,"episodes_count":9,"episodes":9,"update":"2018-12-31 19:59:39","iframe_src":"//7720.svetacdn.in/IAF0wWTdNYZm/tv-series/3774"},{"id":3773,"title":"Лжесвидетельство Соломона","kp_id":"1007940","imdb_id":"tt6256616","world_art_id":null,"type":"serial","add":"2018-12-26 21:42:41","orig_title":"Solromonui Wijeung","year":"2016-12-16","translations":["Любительский (одноголосый закадровый) (GREEN TEA)"],"seasons_count":1,"episodes_count":12,"episodes":12,"update":"2018-12-31 19:42:43","iframe_src":"//7720.svetacdn.in/IAF0wWTdNYZm/tv-series/3773"},{"id":3763,"title":"Off the Air","kp_id":"687809","imdb_id":"tt2289131","world_art_id":null,"type":"serial","add":"2018-12-26 13:13:41","orig_title":"Off the Air","year":"2011-01-01","translations":["Оригинальная дорожка"],"seasons_count":8,"episodes_count":28,"episodes":2,"update":"2018-12-28 10:26:12","iframe_src":"//7720.svetacdn.in/IAF0wWTdNYZm/tv-series/3763"},{"id":3635,"title":"Лютый 2","kp_id":"1115425","imdb_id":null,"world_art_id":null,"type":"serial","add":"2018-12-06 22:20:31","orig_title":"Лютый 2","year":"2018-12-05","translations":["Оригинальная дорожка"],"seasons_count":1,"episodes_count":4,"episodes":4,"update":"2018-12-28 02:17:36","iframe_src":"//7720.svetacdn.in/IAF0wWTdNYZm/tv-series/3635"},{"id":3619,"title":"Буду рада, если ты умрёшь","kp_id":"1187964","imdb_id":"tt9143894","world_art_id":null,"type":"serial","add":"2018-12-04 20:50:05","orig_title":"Jookeodo Joa","year":"2018-11-07","translations":["Любительский (двухголосый закадровый) (SoftBox)"],"seasons_count":1,"episodes_count":16,"episodes":16,"update":"2018-12-30 15:18:55","iframe_src":"//7720.svetacdn.in/IAF0wWTdNYZm/tv-series/3619"},{"id":3559,"title":"Чужое гнездо","kp_id":"917503","imdb_id":"tt4826772","world_art_id":null,"type":"serial","add":"2018-11-23 14:08:27","orig_title":"Chuzhoe gnezdo","year":"2015-07-06","translations":["Оригинальная дорожка"],"seasons_count":1,"episodes_count":60,"episodes":60,"update":"2018-12-31 00:48:10","iframe_src":"//7720.svetacdn.in/IAF0wWTdNYZm/tv-series/3559"},{"id":3270,"title":"Бар «На грудь»","kp_id":"1182694","imdb_id":null,"world_art_id":null,"type":"serial","add":"2018-10-09 01:10:14","orig_title":"Бар «На грудь»","year":"2018-10-04","translations":["Оригинальная дорожка"],"seasons_count":1,"episodes_count":8,"episodes":8,"update":"2018-12-28 19:48:37","iframe_src":"//7720.svetacdn.in/IAF0wWTdNYZm/tv-series/3270"}],"current_page":414,"first_page_url":"https://videocdn.tv/api/short?limit=100&api_token=6Onb1W1alEUrBcKJZD3GoKBbWyAl2uG2&cache3414=3414&page=1","from":41301,"last_page":646,"last_page_url":"https://videocdn.tv/api/short?limit=100&api_token=6Onb1W1alEUrBcKJZD3GoKBbWyAl2uG2&cache3414=3414&page=646","next_page_url":"https://videocdn.tv/api/short?limit=100&api_token=6Onb1W1alEUrBcKJZD3GoKBbWyAl2uG2&cache3414=3414&page=415","path":"https://videocdn.tv/api/short","per_page":100,"prev_page_url":"https://videocdn.tv/api/short?limit=100&api_token=6Onb1W1alEUrBcKJZD3GoKBbWyAl2uG2&cache3414=3414&page=413","to":41340,"total":64557}