{"result":true,"data":[{"id":47640,"title":"Епископ-монстр","kp_id":null,"imdb_id":"tt13606318","world_art_id":null,"type":"movie","add":"2021-02-03 12:30:14","orig_title":"Monster Preacher","year":"2021-01-16","translations":["Любительский (многоголосый закадровый) (Синема УС)"],"quality":"webdl","translation":"Любительский (многоголосый закадровый) (Синема УС)","update":"2021-02-04 06:42:08","iframe_src":"//7923.svetacdn.in/IAF0wWTdNYZm/movie/47640"},{"id":47639,"title":"Хеллкэт","kp_id":"1249478","imdb_id":"tt8804830","world_art_id":null,"type":"movie","add":"2021-02-03 12:29:04","orig_title":"HellKat","year":"2021-02-01","translations":["Любительский (многоголосый закадровый) (@MUZOBOZ@)"],"quality":"webdl","translation":"Любительский (многоголосый закадровый) (@MUZOBOZ@)","update":"2021-02-03 18:27:01","iframe_src":"//7923.svetacdn.in/IAF0wWTdNYZm/movie/47639"},{"id":47628,"title":"Сделай Рождество голубым","kp_id":"430710","imdb_id":"tt1305714","world_art_id":null,"type":"movie","add":"2021-02-02 19:45:52","orig_title":"Make the Yuletide Gay","year":"2009-05-17","translations":["Original (English)"],"quality":"dvdrip","translation":"Original (English)","update":"2021-02-03 18:30:32","iframe_src":"//7923.svetacdn.in/IAF0wWTdNYZm/movie/47628"},{"id":47627,"title":"Мы - пропавшие","kp_id":"1339092","imdb_id":"tt11537730","world_art_id":null,"type":"movie","add":"2021-02-02 19:35:29","orig_title":"We Are the Missing","year":"2020-06-15","translations":["Любительский (многоголосый закадровый) (Синема УС)"],"quality":"webdl","translation":"Любительский (многоголосый закадровый) (Синема УС)","update":"2021-02-03 19:18:56","iframe_src":"//7923.svetacdn.in/IAF0wWTdNYZm/movie/47627"},{"id":47626,"title":"Милосердие","kp_id":"1391681","imdb_id":"tt12578728","world_art_id":null,"type":"movie","add":"2021-02-02 19:25:16","orig_title":"Mercy","year":"2020-10-30","translations":["Любительский (многоголосый закадровый) (Синема УС)"],"quality":"webdl","translation":"Любительский (многоголосый закадровый) (Синема УС)","update":"2021-02-03 19:19:17","iframe_src":"//7923.svetacdn.in/IAF0wWTdNYZm/movie/47626"},{"id":47624,"title":"Обещание ведьмы","kp_id":"1052793","imdb_id":"tt7557858","world_art_id":null,"type":"movie","add":"2021-02-02 18:44:34","orig_title":"Rokuroku","year":"2017-10-14","translations":["Любительский (двухголосый закадровый) (Колобок)"],"quality":"webdl","translation":"Любительский (двухголосый закадровый) (Колобок)","update":"2021-02-03 19:21:09","iframe_src":"//7923.svetacdn.in/IAF0wWTdNYZm/movie/47624"},{"id":47623,"title":"Погребенные","kp_id":"1206866","imdb_id":"tt8414224","world_art_id":null,"type":"movie","add":"2021-02-02 18:43:06","orig_title":"Entombed","year":"2020-05-29","translations":["Любительский (многоголосый закадровый) (Синема УС)"],"quality":"webdl","translation":"Любительский (многоголосый закадровый) (Синема УС)","update":"2021-02-03 19:21:31","iframe_src":"//7923.svetacdn.in/IAF0wWTdNYZm/movie/47623"},{"id":47563,"title":"Снова мертвецы","kp_id":null,"imdb_id":"tt8077310","world_art_id":null,"type":"movie","add":"2021-01-31 22:27:28","orig_title":"Dead Again","year":"2021-01-05","translations":["Original (English)","Любительский (многоголосый закадровый) (@MUZOBOZ@)"],"quality":"webdl","translation":"Original (English)","update":"2021-02-03 18:26:47","iframe_src":"//7923.svetacdn.in/IAF0wWTdNYZm/movie/47563"},{"id":46156,"title":"Джонни взял ружье","kp_id":"6271","imdb_id":"tt0067277","world_art_id":null,"type":"movie","add":"2020-12-17 07:25:14","orig_title":"Johnny Got His Gun","year":"1971-05-14","translations":["Профессиональный (многоголосый закадровый) (5-й канал СПб)","Original (English)"],"quality":"bd","translation":"Профессиональный (многоголосый закадровый) (5-й канал СПб)","update":"2021-02-04 08:20:58","iframe_src":"//7923.svetacdn.in/IAF0wWTdNYZm/movie/46156"},{"id":46074,"title":"Илиана. Верь мне","kp_id":"1309522","imdb_id":null,"world_art_id":null,"type":"movie","add":"2020-12-14 19:45:34","orig_title":"Илиана. Верь мне","year":"2020-12-03","translations":["Оригинальная дорожка"],"quality":"webdl","translation":"Оригинальная дорожка","update":"2021-02-04 07:16:11","iframe_src":"//7923.svetacdn.in/IAF0wWTdNYZm/movie/46074"},{"id":45993,"title":"Пусть говорят","kp_id":"1293172","imdb_id":"tt10808832","world_art_id":null,"type":"movie","add":"2020-12-10 19:47:35","orig_title":"Let Them All Talk","year":"2020-12-10","translations":["Любительский (многоголосый закадровый) (@MUZOBOZ@)","Профессиональный (многоголосый закадровый) (NewStudio)","Original (English)"],"quality":"webdl","translation":"Любительский (многоголосый закадровый) (@MUZOBOZ@)","update":"2021-02-04 08:15:40","iframe_src":"//7923.svetacdn.in/IAF0wWTdNYZm/movie/45993"},{"id":41230,"title":"Цепной пес","kp_id":"857827","imdb_id":"tt3952864","world_art_id":null,"type":"movie","add":"2020-06-16 21:10:37","orig_title":"Tainted","year":"2020-03-01","translations":["Любительский (многоголосый закадровый) (@MUZOBOZ@)","Профессиональный (многоголосый закадровый) (iTunes)","Original (English)"],"quality":"webdl","translation":"Любительский (многоголосый закадровый) (@MUZOBOZ@)","update":"2021-02-04 08:13:42","iframe_src":"//7923.svetacdn.in/IAF0wWTdNYZm/movie/41230"},{"id":40228,"title":"Как создать девушку","kp_id":"1163761","imdb_id":"tt4193072","world_art_id":null,"type":"movie","add":"2020-05-09 02:55:31","orig_title":"How to Build a Girl","year":"2019-09-07","translations":["Любительский (многоголосый закадровый) (AlphaProject)","Полное дублирование","Original (English)"],"quality":"webdl","translation":"Любительский (многоголосый закадровый) (AlphaProject)","update":"2021-02-04 08:21:52","iframe_src":"//7923.svetacdn.in/IAF0wWTdNYZm/movie/40228"},{"id":40010,"title":"Опасный элемент","kp_id":"1045245","imdb_id":"tt6017756","world_art_id":null,"type":"movie","add":"2020-05-01 04:08:22","orig_title":"Radioactive","year":"2019-09-06","translations":["Любительский (многоголосый закадровый) (AlphaProject)","Профессиональный (многоголосый закадровый) (Pazl Voice)","Полное дублирование (iTunes)","Original (English)"],"quality":"webdl","translation":"Любительский (многоголосый закадровый) (AlphaProject)","update":"2021-02-04 08:17:10","iframe_src":"//7923.svetacdn.in/IAF0wWTdNYZm/movie/40010"},{"id":38005,"title":"Трудности адаптации","kp_id":"1050080","imdb_id":"tt6744360","world_art_id":null,"type":"movie","add":"2020-03-15 04:31:36","orig_title":"Lost Transmissions","year":"2019-04-28","translations":["Полное дублирование (iTunes)","Original (English)"],"quality":"bd","translation":"Полное дублирование (iTunes)","update":"2021-02-04 08:19:30","iframe_src":"//7923.svetacdn.in/IAF0wWTdNYZm/movie/38005"},{"id":5722,"title":"Ее имя Зехра","kp_id":"1112000","imdb_id":"tt7843954","world_art_id":null,"type":"serial","add":"2019-11-11 13:21:05","orig_title":"Adi: Zehra","year":"2018-02-24","translations":["Любительский (одноголосый закадровый)"],"seasons_count":1,"episodes_count":14,"episodes":14,"update":"2019-11-12 08:13:45","iframe_src":"//7923.svetacdn.in/IAF0wWTdNYZm/tv-series/5722"},{"id":5721,"title":"Изо дня в день","kp_id":"1227454","imdb_id":"tt9315990","world_art_id":null,"type":"serial","add":"2019-11-11 13:10:37","orig_title":"7 Days Out","year":"2018-12-21","translations":["Профессиональный (многоголосый закадровый)"],"seasons_count":1,"episodes_count":6,"episodes":6,"update":"2019-11-12 08:41:05","iframe_src":"//7923.svetacdn.in/IAF0wWTdNYZm/tv-series/5721"},{"id":5718,"title":"Цвет липы","kp_id":"1311551","imdb_id":null,"world_art_id":null,"type":"serial","add":"2019-11-11 11:13:30","orig_title":"Цвет липы","year":"2019-10-05","translations":["Оригинальная дорожка"],"seasons_count":1,"episodes_count":4,"episodes":4,"update":"2019-11-12 07:31:13","iframe_src":"//7923.svetacdn.in/IAF0wWTdNYZm/tv-series/5718"},{"id":5715,"title":"Убийство первой степени","kp_id":"818765","imdb_id":"tt2402061","world_art_id":null,"type":"serial","add":"2019-11-11 07:15:44","orig_title":"Murder in the First","year":"2016-06-26","translations":["Любительский (многоголосый закадровый)","Любительский (многоголосый закадровый) (Hamster Studio)"],"seasons_count":3,"episodes_count":32,"episodes":10,"update":"2019-11-11 18:31:09","iframe_src":"//7923.svetacdn.in/IAF0wWTdNYZm/tv-series/5715"},{"id":5710,"title":"Отставник. Один за всех","kp_id":"1252559","imdb_id":null,"world_art_id":null,"type":"serial","add":"2019-11-10 10:10:20","orig_title":"Отставник. Один за всех","year":"2019-02-23","translations":["Оригинальная дорожка"],"seasons_count":1,"episodes_count":2,"episodes":2,"update":"2019-11-11 12:19:46","iframe_src":"//7923.svetacdn.in/IAF0wWTdNYZm/tv-series/5710"},{"id":5708,"title":"Мстители: Всегда вместе","kp_id":"441415","imdb_id":"tt0203247","world_art_id":null,"type":"serial","add":"2019-11-10 08:39:23","orig_title":"Avengers","year":"1999-10-30","translations":["Полное дублирование (РенТВ)"],"seasons_count":1,"episodes_count":13,"episodes":13,"update":"2019-11-11 20:51:02","iframe_src":"//7923.svetacdn.in/IAF0wWTdNYZm/tv-series/5708"},{"id":5707,"title":"Другая мечта","kp_id":"1111036","imdb_id":"tt10055748","world_art_id":null,"type":"serial","add":"2019-11-10 08:35:16","orig_title":"Imong","year":"2019-05-04","translations":["Любительский (двухголосый закадровый) (AveDorama)"],"seasons_count":1,"episodes_count":20,"episodes":20,"update":"2019-11-11 12:16:27","iframe_src":"//7923.svetacdn.in/IAF0wWTdNYZm/tv-series/5707"},{"id":5706,"title":"Отставник. Спасти врага","kp_id":"1252560","imdb_id":null,"world_art_id":null,"type":"serial","add":"2019-11-10 08:29:22","orig_title":"Отставник. Спасти врага","year":"2019-02-23","translations":["Оригинальная дорожка"],"seasons_count":1,"episodes_count":2,"episodes":2,"update":"2019-11-11 12:02:44","iframe_src":"//7923.svetacdn.in/IAF0wWTdNYZm/tv-series/5706"},{"id":5705,"title":"Голос ангела","kp_id":"1254460","imdb_id":"tt10107486","world_art_id":null,"type":"serial","add":"2019-11-10 08:21:11","orig_title":"Golos angela","year":"2019-03-08","translations":["Оригинальная дорожка"],"seasons_count":1,"episodes_count":4,"episodes":4,"update":"2019-11-11 12:01:31","iframe_src":"//7923.svetacdn.in/IAF0wWTdNYZm/tv-series/5705"},{"id":5687,"title":"Муж по принуждению","kp_id":"403417","imdb_id":"tt1059255","world_art_id":null,"type":"serial","add":"2019-11-07 10:37:22","orig_title":"Zoraki koca","year":"2007-07-02","translations":["Любительский (двухголосый закадровый)"],"seasons_count":1,"episodes_count":26,"episodes":26,"update":"2019-11-12 07:39:46","iframe_src":"//7923.svetacdn.in/IAF0wWTdNYZm/tv-series/5687"},{"id":5686,"title":"Где моя дочь?","kp_id":"705784","imdb_id":"tt1825375","world_art_id":null,"type":"serial","add":"2019-11-07 10:10:59","orig_title":"Kizim nerede","year":"2010-12-17","translations":["Профессиональный (двухголосый закадровый)"],"seasons_count":2,"episodes_count":56,"episodes":28,"update":"2019-11-12 07:22:17","iframe_src":"//7923.svetacdn.in/IAF0wWTdNYZm/tv-series/5686"},{"id":5685,"title":"Клерки","kp_id":"229324","imdb_id":"tt0210413","world_art_id":null,"type":"serial","add":"2019-11-07 10:01:28","orig_title":"Clerks","year":"2000-05-31","translations":["Любительский (одноголосый закадровый)"],"seasons_count":1,"episodes_count":6,"episodes":6,"update":"2019-11-11 10:08:48","iframe_src":"//7923.svetacdn.in/IAF0wWTdNYZm/tv-series/5685"},{"id":5679,"title":"Братаны 4","kp_id":"784769","imdb_id":"tt3232550","world_art_id":null,"type":"serial","add":"2019-11-07 08:48:16","orig_title":"Bratany 4","year":"2014-04-14","translations":["Оригинальная дорожка"],"seasons_count":1,"episodes_count":32,"episodes":32,"update":"2019-11-11 10:03:33","iframe_src":"//7923.svetacdn.in/IAF0wWTdNYZm/tv-series/5679"},{"id":5676,"title":"Братаны 3","kp_id":"521671","imdb_id":"tt3485020","world_art_id":null,"type":"serial","add":"2019-11-07 08:37:52","orig_title":"Bratany 3","year":"2012-04-23","translations":["Оригинальная дорожка"],"seasons_count":1,"episodes_count":32,"episodes":32,"update":"2019-11-11 08:05:32","iframe_src":"//7923.svetacdn.in/IAF0wWTdNYZm/tv-series/5676"},{"id":5675,"title":"Братаны 2","kp_id":"474206","imdb_id":"tt3494930","world_art_id":null,"type":"serial","add":"2019-11-07 08:35:07","orig_title":"Bratany 2","year":"2010-10-25","translations":["Оригинальная дорожка"],"seasons_count":1,"episodes_count":32,"episodes":32,"update":"2019-11-11 07:45:12","iframe_src":"//7923.svetacdn.in/IAF0wWTdNYZm/tv-series/5675"},{"id":5670,"title":"Право на защиту","kp_id":"417601","imdb_id":null,"world_art_id":null,"type":"serial","add":"2019-11-06 12:36:11","orig_title":"Право на защиту","year":"2003-01-01","translations":["Оригинальная дорожка"],"seasons_count":1,"episodes_count":12,"episodes":12,"update":"2019-11-11 07:40:10","iframe_src":"//7923.svetacdn.in/IAF0wWTdNYZm/tv-series/5670"},{"id":5637,"title":"Военная разведка: Северный фронт","kp_id":"581286","imdb_id":"tt3547862","world_art_id":null,"type":"serial","add":"2019-11-05 13:33:22","orig_title":"Voennaya razvedka. Severnyy front","year":"2012-05-21","translations":["Оригинальная дорожка"],"seasons_count":1,"episodes_count":8,"episodes":8,"update":"2019-11-12 08:26:43","iframe_src":"//7923.svetacdn.in/IAF0wWTdNYZm/tv-series/5637"},{"id":5593,"title":"Политиканы","kp_id":"678263","imdb_id":"tt2239947","world_art_id":null,"type":"serial","add":"2019-11-01 08:24:18","orig_title":"Political Animals","year":"2012-07-15","translations":["Профессиональный (многоголосый закадровый) (Amedia)"],"seasons_count":1,"episodes_count":6,"episodes":6,"update":"2019-11-11 11:49:20","iframe_src":"//7923.svetacdn.in/IAF0wWTdNYZm/tv-series/5593"},{"id":5589,"title":"Главарь","kp_id":"696820","imdb_id":"tt1830379","world_art_id":null,"type":"serial","add":"2019-10-31 07:26:23","orig_title":"Top Boy","year":"2011-10-31","translations":["Профессиональный (многоголосый закадровый) (ViruseProject)","Профессиональный (многоголосый закадровый) (TVShows)","Полное дублирование (Невафильм | Нева-1)"],"seasons_count":3,"episodes_count":18,"episodes":10,"update":"2019-11-11 10:47:20","iframe_src":"//7923.svetacdn.in/IAF0wWTdNYZm/tv-series/5589"},{"id":28479,"title":"Филин и кошечка","kp_id":"17967","imdb_id":"tt0066195","world_art_id":null,"type":"movie","add":"2019-07-02 12:34:31","orig_title":"The Owl and the Pussycat","year":"1970-11-03","translations":["Профессиональный (многоголосый закадровый)","Авторский (одноголосый закадровый) (Михалёв Алексей)","Original (English)"],"quality":"webdl","translation":"Профессиональный (многоголосый закадровый)","update":"2021-02-04 08:12:52","iframe_src":"//7923.svetacdn.in/IAF0wWTdNYZm/movie/28479"},{"id":4668,"title":"Дикий Билл","kp_id":"1200056","imdb_id":"tt9118930","world_art_id":null,"type":"serial","add":"2019-06-16 09:29:43","orig_title":"Wild Bill","year":"2019-06-12","translations":["Любительский (многоголосый закадровый) (Octopus)","Профессиональный (многоголосый закадровый) (HDrezka Studio)"],"seasons_count":1,"episodes_count":6,"episodes":6,"update":"2019-11-11 10:15:08","iframe_src":"//7923.svetacdn.in/IAF0wWTdNYZm/tv-series/4668"},{"id":24366,"title":"Третья ракета","kp_id":"42291","imdb_id":"tt0140633","world_art_id":null,"type":"movie","add":"2019-04-11 22:25:40","orig_title":"Tretya raketa","year":"1963-09-16","translations":["Оригинальная дорожка"],"quality":"webdl","translation":"Оригинальная дорожка","update":"2021-02-04 11:00:00","iframe_src":"//7923.svetacdn.in/IAF0wWTdNYZm/movie/24366"},{"id":23099,"title":"Связь","kp_id":"760829","imdb_id":"tt2866360","world_art_id":null,"type":"movie","add":"2019-03-15 09:47:15","orig_title":"Coherence","year":"2013-09-19","translations":["Любительский (одноголосый закадровый)","Профессиональный (многоголосый закадровый) (iTunes)","Original (English)"],"quality":"bd","translation":"Любительский (одноголосый закадровый)","update":"2021-02-04 08:23:09","iframe_src":"//7923.svetacdn.in/IAF0wWTdNYZm/movie/23099"},{"id":23098,"title":"Паук","kp_id":"837","imdb_id":"tt0278731","world_art_id":null,"type":"movie","add":"2019-03-15 09:43:07","orig_title":"Spider","year":"2002-11-13","translations":["Профессиональный (многоголосый закадровый) (CP Digital)","Original (English)"],"quality":"webdl","translation":"Профессиональный (многоголосый закадровый) (CP Digital)","update":"2021-02-04 11:01:20","iframe_src":"//7923.svetacdn.in/IAF0wWTdNYZm/movie/23098"},{"id":10375,"title":"Падение Америки","kp_id":"813725","imdb_id":"tt3006588","world_art_id":null,"type":"movie","add":"2017-03-15 22:34:55","orig_title":"Rising Fear","year":"2016-05-30","translations":["Любительский (многоголосый закадровый) (Синема УС)","Профессиональный (многоголосый закадровый) (iTunes)","Original (English)"],"quality":"webdl","translation":"Любительский (многоголосый закадровый) (Синема УС)","update":"2021-02-04 11:02:14","iframe_src":"//7923.svetacdn.in/IAF0wWTdNYZm/movie/10375"}],"current_page":335,"first_page_url":"https://videocdn.tv/api/short?limit=100&api_token=6Onb1W1alEUrBcKJZD3GoKBbWyAl2uG2&cache3335=3335&page=1","from":33401,"last_page":644,"last_page_url":"https://videocdn.tv/api/short?limit=100&api_token=6Onb1W1alEUrBcKJZD3GoKBbWyAl2uG2&cache3335=3335&page=644","next_page_url":"https://videocdn.tv/api/short?limit=100&api_token=6Onb1W1alEUrBcKJZD3GoKBbWyAl2uG2&cache3335=3335&page=336","path":"https://videocdn.tv/api/short","per_page":100,"prev_page_url":"https://videocdn.tv/api/short?limit=100&api_token=6Onb1W1alEUrBcKJZD3GoKBbWyAl2uG2&cache3335=3335&page=334","to":33440,"total":64307}