{"result":true,"data":[{"id":41368,"title":"Инстинкт","kp_id":"1142474","imdb_id":"tt8386898","world_art_id":null,"type":"movie","add":"2020-06-24 12:54:30","orig_title":"Instinct","year":"2019-08-12","translations":["Любительский (многоголосый закадровый) (AlphaProject)"],"quality":"webdl","translation":"Любительский (многоголосый закадровый) (AlphaProject)","update":"2020-06-24 20:23:50","iframe_src":"//8209.svetacdn.in/si4jsFRrtgrT/movie/41368"},{"id":41367,"title":"Найти Время","kp_id":"1173825","imdb_id":"tt8636690","world_art_id":null,"type":"movie","add":"2020-06-24 12:53:05","orig_title":"Найти Время","year":"2020-05-13","translations":["Любительский (многоголосый закадровый) (Синема УС)"],"quality":"webdl","translation":"Любительский (многоголосый закадровый) (Синема УС)","update":"2020-06-24 20:24:26","iframe_src":"//8209.svetacdn.in/si4jsFRrtgrT/movie/41367"},{"id":41362,"title":"Женщина моего мужа","kp_id":"1104142","imdb_id":"tt7524558","world_art_id":null,"type":"movie","add":"2020-06-23 20:19:49","orig_title":"A Mulher do Meu Marido","year":"2019-08-29","translations":["Любительский (многоголосый закадровый) (Синема УС)"],"quality":"webdl","translation":"Любительский (многоголосый закадровый) (Синема УС)","update":"2020-06-24 13:59:36","iframe_src":"//8209.svetacdn.in/si4jsFRrtgrT/movie/41362"},{"id":41361,"title":"Антигона","kp_id":"1265391","imdb_id":"tt10260042","world_art_id":null,"type":"movie","add":"2020-06-23 20:18:29","orig_title":"Antigone","year":"2019-09-09","translations":["Любительский (многоголосый закадровый) (Синема УС)"],"quality":"webdl","translation":"Любительский (многоголосый закадровый) (Синема УС)","update":"2020-06-24 13:58:24","iframe_src":"//8209.svetacdn.in/si4jsFRrtgrT/movie/41361"},{"id":41359,"title":"Да восстанет зло","kp_id":"1034615","imdb_id":"tt6186594","world_art_id":null,"type":"movie","add":"2020-06-23 20:15:29","orig_title":"The Evil Rises","year":"2018-02-24","translations":["Любительский (многоголосый закадровый) (Синема УС)"],"quality":"webdl","translation":"Любительский (многоголосый закадровый) (Синема УС)","update":"2020-06-24 13:58:03","iframe_src":"//8209.svetacdn.in/si4jsFRrtgrT/movie/41359"},{"id":41355,"title":"Папочкины проблемы","kp_id":"1027312","imdb_id":"tt6462482","world_art_id":null,"type":"movie","add":"2020-06-23 20:11:30","orig_title":"Daddy Issues","year":"2020-06-23","translations":["Любительский (многоголосый закадровый) (@MUZOBOZ@)"],"quality":"webdl","translation":"Любительский (многоголосый закадровый) (@MUZOBOZ@)","update":"2020-06-24 20:19:23","iframe_src":"//8209.svetacdn.in/si4jsFRrtgrT/movie/41355"},{"id":41354,"title":"Школа воровства","kp_id":"1190272","imdb_id":"tt9000528","world_art_id":null,"type":"movie","add":"2020-06-23 20:10:23","orig_title":"Stealing School","year":"2019-11-13","translations":["Любительский (многоголосый закадровый) (@MUZOBOZ@)"],"quality":"webdl","translation":"Любительский (многоголосый закадровый) (@MUZOBOZ@)","update":"2020-06-24 13:53:54","iframe_src":"//8209.svetacdn.in/si4jsFRrtgrT/movie/41354"},{"id":41351,"title":"Меланхоличка","kp_id":"1013225","imdb_id":"tt6353076","world_art_id":null,"type":"movie","add":"2020-06-23 20:04:38","orig_title":"Das melancholische Mädchen","year":"2019-01-15","translations":["Любительский (многоголосый закадровый) (Синема УС)"],"quality":"webdl","translation":"Любительский (многоголосый закадровый) (Синема УС)","update":"2020-06-24 13:57:04","iframe_src":"//8209.svetacdn.in/si4jsFRrtgrT/movie/41351"},{"id":41349,"title":"Дай мне упасть","kp_id":"1087293","imdb_id":"tt7358598","world_art_id":null,"type":"movie","add":"2020-06-23 19:59:04","orig_title":"Lof mér að falla","year":"2018-09-06","translations":["Любительский (многоголосый закадровый) (Синема УС)"],"quality":"webdl","translation":"Любительский (многоголосый закадровый) (Синема УС)","update":"2020-06-24 13:55:51","iframe_src":"//8209.svetacdn.in/si4jsFRrtgrT/movie/41349"},{"id":41348,"title":"Завтра мы будем свободны","kp_id":"1274311","imdb_id":"tt6681478","world_art_id":null,"type":"movie","add":"2020-06-23 19:57:33","orig_title":"Morgen sind wir frei","year":"2019-11-14","translations":["Любительский (многоголосый закадровый) (Синема УС)"],"quality":"webdl","translation":"Любительский (многоголосый закадровый) (Синема УС)","update":"2020-06-24 13:54:17","iframe_src":"//8209.svetacdn.in/si4jsFRrtgrT/movie/41348"},{"id":41347,"title":"Водохранилище","kp_id":"1313150","imdb_id":"tt9064020","world_art_id":null,"type":"movie","add":"2020-06-23 19:56:26","orig_title":"Réservoir","year":"2019-12-06","translations":["Любительский (многоголосый закадровый) (Синема УС)"],"quality":"webdl","translation":"Любительский (многоголосый закадровый) (Синема УС)","update":"2020-06-24 13:55:09","iframe_src":"//8209.svetacdn.in/si4jsFRrtgrT/movie/41347"},{"id":41346,"title":"Молодые","kp_id":"994282","imdb_id":"tt5860356","world_art_id":null,"type":"movie","add":"2020-06-23 19:55:34","orig_title":"Yung","year":"2018-07-02","translations":["Любительский (многоголосый закадровый) (Синема УС)"],"quality":"webdl","translation":"Любительский (многоголосый закадровый) (Синема УС)","update":"2020-06-24 13:53:19","iframe_src":"//8209.svetacdn.in/si4jsFRrtgrT/movie/41346"},{"id":41345,"title":"Моей бывшей посвящается","kp_id":"1080085","imdb_id":"tt5869370","world_art_id":null,"type":"movie","add":"2020-06-23 19:54:25","orig_title":"Dedicada a mi Ex","year":"2019-11-01","translations":["Любительский (многоголосый закадровый) (AlphaProject)"],"quality":"webdl","translation":"Любительский (многоголосый закадровый) (AlphaProject)","update":"2020-06-24 13:54:40","iframe_src":"//8209.svetacdn.in/si4jsFRrtgrT/movie/41345"},{"id":41343,"title":"Рева","kp_id":"1126986","imdb_id":"tt8094272","world_art_id":null,"type":"movie","add":"2020-06-23 19:52:33","orig_title":"Reva","year":"2018-04-06","translations":["Любительский (многоголосый закадровый) (Синема УС)"],"quality":"webdl","translation":"Любительский (многоголосый закадровый) (Синема УС)","update":"2020-06-24 13:56:21","iframe_src":"//8209.svetacdn.in/si4jsFRrtgrT/movie/41343"},{"id":41341,"title":"Торговцы сомнениями","kp_id":"846934","imdb_id":"tt3675568","world_art_id":null,"type":"movie","add":"2020-06-23 19:19:50","orig_title":"Merchants of Doubt","year":"2014-12-12","translations":["Любительский (двухголосый закадровый) (GreenРай Studio)"],"quality":"hdrip","translation":"Любительский (двухголосый закадровый) (GreenРай Studio)","update":"2020-06-24 08:00:19","iframe_src":"//8209.svetacdn.in/si4jsFRrtgrT/movie/41341"},{"id":41324,"title":"Мамина девочка","kp_id":"1119145","imdb_id":"tt7861970","world_art_id":null,"type":"movie","add":"2020-06-21 20:10:25","orig_title":"Mama's Girl","year":"2018-01-17","translations":["Любительский (многоголосый закадровый) (AlphaProject)"],"quality":"webdl","translation":"Любительский (многоголосый закадровый) (AlphaProject)","update":"2020-06-24 08:06:14","iframe_src":"//8209.svetacdn.in/si4jsFRrtgrT/movie/41324"},{"id":41323,"title":"Мне, 19-летней","kp_id":"1125091","imdb_id":"tt8734578","world_art_id":null,"type":"movie","add":"2020-06-21 20:02:27","orig_title":"Gei 19 sui de wo zi ji","year":"2018-05-29","translations":["Любительский (двухголосый закадровый) (STEPonee)"],"quality":"webdl","translation":"Любительский (двухголосый закадровый) (STEPonee)","update":"2020-06-24 08:04:11","iframe_src":"//8209.svetacdn.in/si4jsFRrtgrT/movie/41323"},{"id":41301,"title":"Око фортуны","kp_id":"1159645","imdb_id":"tt8484078","world_art_id":null,"type":"movie","add":"2020-06-19 19:42:49","orig_title":"Fortuna's Eye","year":"2019-02-15","translations":["Любительский (двухголосый закадровый) (RealFake)"],"quality":"bd","translation":"Любительский (двухголосый закадровый) (RealFake)","update":"2020-06-24 07:56:59","iframe_src":"//8209.svetacdn.in/si4jsFRrtgrT/movie/41301"},{"id":36328,"title":"С Новым годом!","kp_id":"1315042","imdb_id":null,"world_art_id":null,"type":"movie","add":"2020-02-16 07:47:22","orig_title":"Qin ai de xin nian hao","year":"2019-12-31","translations":["Профессиональный (многоголосый закадровый)","Любительский (двухголосый закадровый) (Колобок)"],"quality":"webdl","translation":"Профессиональный (многоголосый закадровый)","update":"2020-06-24 07:47:57","iframe_src":"//8209.svetacdn.in/si4jsFRrtgrT/movie/36328"},{"id":28759,"title":"Красу: Нечеловеческий поцелуй","kp_id":"1246340","imdb_id":"tt9799992","world_art_id":null,"type":"movie","add":"2019-07-08 11:33:35","orig_title":"Krasue: Inhuman Kiss","year":"2019-03-14","translations":["Любительский (многоголосый закадровый) (Bonsai Studio)","Любительский (многоголосый закадровый) (Синема УС)","Любительский (многоголосый закадровый) (Bonsai Studio)"],"quality":"webdl","translation":"Любительский (многоголосый закадровый) (Bonsai Studio)","update":"2020-06-24 07:45:04","iframe_src":"//8209.svetacdn.in/si4jsFRrtgrT/movie/28759"}],"current_page":753,"first_page_url":"https://videocdn.tv/api/short?limit=100&api_token=X6EwAUfE5M9xbo7y0Bp0aPf3uXxG2KLL&cache3753=3753&page=1","from":75201,"last_page":656,"last_page_url":"https://videocdn.tv/api/short?limit=100&api_token=X6EwAUfE5M9xbo7y0Bp0aPf3uXxG2KLL&cache3753=3753&page=656","next_page_url":null,"path":"https://videocdn.tv/api/short","per_page":100,"prev_page_url":"https://videocdn.tv/api/short?limit=100&api_token=X6EwAUfE5M9xbo7y0Bp0aPf3uXxG2KLL&cache3753=3753&page=752","to":75220,"total":65530}