{"result":true,"data":[{"id":15484,"title":"Ботокс","kp_id":"1083159","imdb_id":"tt7250358","world_art_id":null,"type":"movie","add":"2018-03-07 21:49:05","orig_title":"Botoks","year":"2017-09-29","translations":["Любительский (многоголосый закадровый) (Синема УС)"],"quality":"bd","translation":"Любительский (многоголосый закадровый) (Синема УС)","update":"2018-03-08 09:06:02","iframe_src":"//7741.svetacdn.in/71tsRs29n5tZ/movie/15484"},{"id":15472,"title":"Христос под следствием","kp_id":"1005017","imdb_id":"tt6113488","world_art_id":null,"type":"movie","add":"2018-03-07 21:16:01","orig_title":"The Case for Christ","year":"2017-04-07","translations":["Профессиональный (многоголосый закадровый) (GreenРай Studio)"],"quality":"bd","translation":"Профессиональный (многоголосый закадровый) (GreenРай Studio)","update":"2018-03-08 09:00:29","iframe_src":"//7741.svetacdn.in/71tsRs29n5tZ/movie/15472"},{"id":15471,"title":"Лотус","kp_id":"813170","imdb_id":"tt3310896","world_art_id":null,"type":"movie","add":"2018-03-07 21:13:25","orig_title":"The Lotus","year":"2017-04-24","translations":["Профессиональный (многоголосый закадровый)"],"quality":"webdl","translation":"Профессиональный (многоголосый закадровый)","update":"2018-03-08 09:17:54","iframe_src":"//7741.svetacdn.in/71tsRs29n5tZ/movie/15471"},{"id":15470,"title":"Танго Один","kp_id":"982956","imdb_id":"tt5749570","world_art_id":null,"type":"movie","add":"2018-03-07 21:11:58","orig_title":"Tango One","year":"2018-03-07","translations":["Любительский (многоголосый закадровый) (Синема УС)"],"quality":"webdl","translation":"Любительский (многоголосый закадровый) (Синема УС)","update":"2018-03-08 09:15:56","iframe_src":"//7741.svetacdn.in/71tsRs29n5tZ/movie/15470"},{"id":15469,"title":"Учительница","kp_id":"1008024","imdb_id":"tt6302006","world_art_id":null,"type":"movie","add":"2018-03-07 21:09:28","orig_title":"Yeogyosa","year":"2016-11-06","translations":["Любительский (многоголосый закадровый) (Колобок)"],"quality":"webdl","translation":"Любительский (многоголосый закадровый) (Колобок)","update":"2018-03-08 13:24:07","iframe_src":"//7741.svetacdn.in/71tsRs29n5tZ/movie/15469"},{"id":15468,"title":"Мой брат","kp_id":"924228","imdb_id":"tt4788722","world_art_id":null,"type":"movie","add":"2018-03-07 21:06:33","orig_title":"Kardesim Benim","year":"2016-01-15","translations":["Любительский (многоголосый закадровый) (Синема УС)"],"quality":"dvdrip","translation":"Любительский (многоголосый закадровый) (Синема УС)","update":"2018-03-08 13:21:11","iframe_src":"//7741.svetacdn.in/71tsRs29n5tZ/movie/15468"},{"id":15467,"title":"Бывшие девушки на Рождество","kp_id":"947045","imdb_id":"tt4943236","world_art_id":null,"type":"movie","add":"2018-03-07 21:05:04","orig_title":"Girlfriends of Christmas Past","year":"2016-12-04","translations":["Любительский (многоголосый закадровый) (Синема УС)"],"quality":"webdl","translation":"Любительский (многоголосый закадровый) (Синема УС)","update":"2018-03-08 13:19:39","iframe_src":"//7741.svetacdn.in/71tsRs29n5tZ/movie/15467"},{"id":15464,"title":"Ночные истории","kp_id":"923454","imdb_id":"tt4857878","world_art_id":null,"type":"movie","add":"2018-03-07 10:52:35","orig_title":"Rumbos","year":"2016-04-24","translations":["Профессиональный (многоголосый закадровый) (GreenРай Studio)"],"quality":"bd","translation":"Профессиональный (многоголосый закадровый) (GreenРай Studio)","update":"2018-03-08 13:14:30","iframe_src":"//7741.svetacdn.in/71tsRs29n5tZ/movie/15464"},{"id":15463,"title":"Любовник на день","kp_id":"973198","imdb_id":"tt5642124","world_art_id":null,"type":"movie","add":"2018-03-07 10:51:13","orig_title":"L'amant d'un jour","year":"2017-05-19","translations":["Профессиональный (многоголосый закадровый) (GreenРай Studio)"],"quality":"webdl","translation":"Профессиональный (многоголосый закадровый) (GreenРай Studio)","update":"2018-03-08 08:56:18","iframe_src":"//7741.svetacdn.in/71tsRs29n5tZ/movie/15463"},{"id":15461,"title":"Помесь","kp_id":"1026830","imdb_id":"tt6205996","world_art_id":null,"type":"movie","add":"2018-03-06 22:30:14","orig_title":"The Crossbreed","year":"2018-03-02","translations":["Профессиональный (многоголосый закадровый)"],"quality":"webdl","translation":"Профессиональный (многоголосый закадровый)","update":"2018-03-08 09:09:10","iframe_src":"//7741.svetacdn.in/71tsRs29n5tZ/movie/15461"},{"id":15460,"title":"Разум и машина","kp_id":"924930","imdb_id":"tt4866214","world_art_id":null,"type":"movie","add":"2018-03-06 22:28:01","orig_title":"Mind and Machine","year":"2016-03-10","translations":["Любительский (многоголосый закадровый) (Синема УС)"],"quality":"webdl","translation":"Любительский (многоголосый закадровый) (Синема УС)","update":"2018-03-08 08:36:06","iframe_src":"//7741.svetacdn.in/71tsRs29n5tZ/movie/15460"},{"id":15457,"title":"Проклятие Майя","kp_id":"746233","imdb_id":"tt2783862","world_art_id":null,"type":"movie","add":"2018-03-06 22:18:08","orig_title":"Xibalba","year":"2017-05-02","translations":["Любительский (многоголосый закадровый) (Синема УС)"],"quality":"dvdrip","translation":"Любительский (многоголосый закадровый) (Синема УС)","update":"2018-03-08 08:33:08","iframe_src":"//7741.svetacdn.in/71tsRs29n5tZ/movie/15457"},{"id":15456,"title":"Босс","kp_id":"54347","imdb_id":"tt0062092","world_art_id":null,"type":"movie","add":"2018-03-06 20:20:08","orig_title":"Le pacha","year":"1968-03-14","translations":["Профессиональный (многоголосый закадровый)"],"quality":"bd","translation":"Профессиональный (многоголосый закадровый)","update":"2018-03-08 13:06:27","iframe_src":"//7741.svetacdn.in/71tsRs29n5tZ/movie/15456"},{"id":15455,"title":"Ад первой любви","kp_id":"186760","imdb_id":"tt0061754","world_art_id":null,"type":"movie","add":"2018-03-06 20:17:38","orig_title":"Hatsukoi: Jigoku-hen","year":"1968-05-25","translations":["Любительский (одноголосый закадровый)"],"quality":"bd","translation":"Любительский (одноголосый закадровый)","update":"2018-03-08 13:05:23","iframe_src":"//7741.svetacdn.in/71tsRs29n5tZ/movie/15455"},{"id":14954,"title":"Мешок мрамора","kp_id":"942720","imdb_id":"tt5091612","world_art_id":null,"type":"movie","add":"2018-01-23 00:24:47","orig_title":"Un sac de billes","year":"2017-01-15","translations":["Любительский (многоголосый закадровый) (Синема УС)","Профессиональный (многоголосый закадровый) (GreenРай Studio)"],"quality":"hdrip","translation":"Любительский (многоголосый закадровый) (Синема УС)","update":"2018-03-08 08:58:20","iframe_src":"//7741.svetacdn.in/71tsRs29n5tZ/movie/14954"},{"id":14953,"title":"Счастливчик","kp_id":"824436","imdb_id":"tt3458760","world_art_id":null,"type":"movie","add":"2018-01-23 00:13:00","orig_title":"The Lucky Man","year":"2017-12-25","translations":["Любительский (многоголосый закадровый) (Синема УС)","Профессиональный (многоголосый закадровый) (GreenРай Studio)"],"quality":"webdl","translation":"Любительский (многоголосый закадровый) (Синема УС)","update":"2018-03-08 09:11:37","iframe_src":"//7741.svetacdn.in/71tsRs29n5tZ/movie/14953"},{"id":14763,"title":"Джуманджи: Зов джунглей","kp_id":"695609","imdb_id":"tt2283362","world_art_id":null,"type":"movie","add":"2017-12-26 23:02:30","orig_title":"Jumanji: Welcome to the Jungle","year":"2017-12-05","translations":["Полное дублирование"],"quality":"bd","translation":"Полное дублирование","update":"2018-03-08 08:54:49","iframe_src":"//7741.svetacdn.in/71tsRs29n5tZ/movie/14763"},{"id":12869,"title":"После бури","kp_id":"961350","imdb_id":"tt5294966","world_art_id":null,"type":"movie","add":"2017-08-08 23:41:52","orig_title":"Umi yori mo mada fukaku","year":"2015-05-18","translations":["Любительский (многоголосый закадровый) (Синема УС)","Профессиональный (многоголосый закадровый) (GreenРай Studio)","Любительский (одноголосый закадровый)"],"quality":"bd","translation":"Любительский (многоголосый закадровый) (Синема УС)","update":"2018-03-08 13:17:38","iframe_src":"//7741.svetacdn.in/71tsRs29n5tZ/movie/12869"},{"id":12434,"title":"Ударная волна","kp_id":"991418","imdb_id":"tt5847286","world_art_id":null,"type":"movie","add":"2017-07-10 11:10:39","orig_title":"Chai dan zhuanjia chai dan zhuanjia","year":"2016-04-20","translations":["Любительский (двухголосый закадровый) (Колобок)","Любительский (многоголосый закадровый) (Колобок)","Профессиональный (многоголосый закадровый) (GreenРай Studio)"],"quality":"webdl","translation":"Любительский (двухголосый закадровый) (Колобок)","update":"2018-03-08 08:52:43","iframe_src":"//7741.svetacdn.in/71tsRs29n5tZ/movie/12434"},{"id":12107,"title":"Ужин","kp_id":"799533","imdb_id":"tt3203620","world_art_id":null,"type":"movie","add":"2017-06-22 23:18:29","orig_title":"The Dinner","year":"2017-02-10","translations":["Любительский (многоголосый закадровый) (Синема УС)","Полное дублирование"],"quality":"webdl","translation":"Любительский (многоголосый закадровый) (Синема УС)","update":"2018-03-08 09:04:49","iframe_src":"//7741.svetacdn.in/71tsRs29n5tZ/movie/12107"}],"current_page":2264,"first_page_url":"https://videocdn.tv/api/short?limit=100&api_token=EnbO9h8pv1VyjbCJhg0WM9nG259n7mtz&cache32264=32264&page=1","from":226301,"last_page":701,"last_page_url":"https://videocdn.tv/api/short?limit=100&api_token=EnbO9h8pv1VyjbCJhg0WM9nG259n7mtz&cache32264=32264&page=701","next_page_url":null,"path":"https://videocdn.tv/api/short","per_page":100,"prev_page_url":"https://videocdn.tv/api/short?limit=100&api_token=EnbO9h8pv1VyjbCJhg0WM9nG259n7mtz&cache32264=32264&page=2263","to":226320,"total":70041}