{"result":true,"data":[{"id":37355,"title":"Гудини","kp_id":"254967","imdb_id":"tt0159276","world_art_id":null,"type":"movie","add":"2020-03-04 09:06:37","orig_title":"Houdini","year":"1998-10-07","translations":["Профессиональный (многоголосый закадровый) (Варус-Видео)"],"quality":"vhs","translation":"Профессиональный (многоголосый закадровый) (Варус-Видео)","update":"2020-03-04 15:41:07","iframe_src":"//83.svetacdn.in/PfJ50H0ZBPg3/movie/37355"},{"id":37341,"title":"Очередной план из космоса","kp_id":"1012667","imdb_id":"tt6498220","world_art_id":null,"type":"movie","add":"2020-03-04 06:05:06","orig_title":"Another Plan from Outer Space","year":"2018-09-08","translations":["Любительский (многоголосый закадровый) (Синема УС)"],"quality":"webdl","translation":"Любительский (многоголосый закадровый) (Синема УС)","update":"2020-03-04 15:08:56","iframe_src":"//83.svetacdn.in/PfJ50H0ZBPg3/movie/37341"},{"id":37336,"title":"Железная дорога: Наше начало","kp_id":"1108729","imdb_id":"tt7707988","world_art_id":null,"type":"movie","add":"2020-03-04 05:58:36","orig_title":"Kazokuiro","year":"2018-10-05","translations":["Любительский (многоголосый закадровый) (Синема УС)"],"quality":"bd","translation":"Любительский (многоголосый закадровый) (Синема УС)","update":"2020-03-04 15:06:45","iframe_src":"//83.svetacdn.in/PfJ50H0ZBPg3/movie/37336"},{"id":37316,"title":"Bcе верные ходы","kp_id":"14849","imdb_id":"tt0085154","world_art_id":null,"type":"movie","add":"2020-03-03 17:41:12","orig_title":"All the Right Moves","year":"1983-09-23","translations":["Профессиональный (многоголосый закадровый) (Первый канал | ОРТ)"],"quality":"hdtv","translation":"Профессиональный (многоголосый закадровый) (Первый канал | ОРТ)","update":"2020-03-04 18:25:37","iframe_src":"//83.svetacdn.in/PfJ50H0ZBPg3/movie/37316"},{"id":37314,"title":"Подстава","kp_id":"80765","imdb_id":"tt0285112","world_art_id":null,"type":"movie","add":"2020-03-03 17:39:19","orig_title":"Framed","year":"2002-07-10","translations":["Профессиональный (многоголосый закадровый)"],"quality":"dvdrip","translation":"Профессиональный (многоголосый закадровый)","update":"2020-03-04 18:26:17","iframe_src":"//83.svetacdn.in/PfJ50H0ZBPg3/movie/37314"},{"id":37311,"title":"Любовь моей жизни","kp_id":"668244","imdb_id":"tt2246831","world_art_id":null,"type":"movie","add":"2020-03-03 17:33:15","orig_title":"Love of My Life","year":"2013-11-10","translations":["Любительский (двухголосый закадровый) (Колобок)"],"quality":"dvdrip","translation":"Любительский (двухголосый закадровый) (Колобок)","update":"2020-03-04 18:28:32","iframe_src":"//83.svetacdn.in/PfJ50H0ZBPg3/movie/37311"},{"id":37159,"title":"Все радостные места","kp_id":"894972","imdb_id":"tt3907584","world_art_id":null,"type":"movie","add":"2020-02-29 18:24:00","orig_title":"All the Bright Places","year":"2020-02-28","translations":["Любительский (двухголосый закадровый) (LakeFilms)","Профессиональный (многоголосый закадровый) (Jaskier)"],"quality":"webdl","translation":"Любительский (двухголосый закадровый) (LakeFilms)","update":"2020-03-04 15:01:50","iframe_src":"//83.svetacdn.in/PfJ50H0ZBPg3/movie/37159"},{"id":36954,"title":"Цветок и камень","kp_id":"95703","imdb_id":"tt0139525","world_art_id":null,"type":"movie","add":"2020-02-26 06:41:03","orig_title":"Phool Aur Patthar","year":"1966-08-14","translations":["Полное дублирование"],"quality":"dvdrip","translation":"Полное дублирование","update":"2020-03-04 14:56:40","iframe_src":"//83.svetacdn.in/PfJ50H0ZBPg3/movie/36954"},{"id":36817,"title":"Ложная клятва","kp_id":"310395","imdb_id":"tt0155891","world_art_id":null,"type":"movie","add":"2020-02-23 18:47:44","orig_title":"Munthanai Mudichu","year":"1983-01-01","translations":["Полное дублирование"],"quality":"webdl","translation":"Полное дублирование","update":"2020-03-04 15:03:14","iframe_src":"//83.svetacdn.in/PfJ50H0ZBPg3/movie/36817"},{"id":36509,"title":"Девушка мечты","kp_id":"97300","imdb_id":"tt0157556","world_art_id":null,"type":"movie","add":"2020-02-18 17:29:20","orig_title":"Dream Girl","year":"1977-01-14","translations":["Полное дублирование"],"quality":"dvdrip","translation":"Полное дублирование","update":"2020-03-04 14:57:36","iframe_src":"//83.svetacdn.in/PfJ50H0ZBPg3/movie/36509"},{"id":36503,"title":"Испытание любви","kp_id":"97005","imdb_id":"tt0073569","world_art_id":null,"type":"movie","add":"2020-02-18 17:17:42","orig_title":"Prem Kahani","year":"1975-01-01","translations":["Полное дублирование"],"quality":"dvdrip","translation":"Полное дублирование","update":"2020-03-04 14:59:23","iframe_src":"//83.svetacdn.in/PfJ50H0ZBPg3/movie/36503"},{"id":36260,"title":"Сделано в Китае","kp_id":"1192652","imdb_id":"tt8983180","world_art_id":null,"type":"movie","add":"2020-02-14 20:58:33","orig_title":"Made in China","year":"2019-10-25","translations":["Любительский (многоголосый закадровый) (Синема УС)"],"quality":"webdl","translation":"Любительский (многоголосый закадровый) (Синема УС)","update":"2020-03-04 18:27:57","iframe_src":"//83.svetacdn.in/PfJ50H0ZBPg3/movie/36260"},{"id":36259,"title":"Черный сокол","kp_id":"116586","imdb_id":"tt0445417","world_art_id":null,"type":"movie","add":"2020-02-14 20:56:40","orig_title":"Hei ying","year":"1967-04-11","translations":["Любительский (одноголосый закадровый) (Береговых Виктор | Jet)"],"quality":"dvdrip","translation":"Любительский (одноголосый закадровый) (Береговых Виктор | Jet)","update":"2020-03-04 14:55:51","iframe_src":"//83.svetacdn.in/PfJ50H0ZBPg3/movie/36259"},{"id":36239,"title":"Черная бабочка","kp_id":"233245","imdb_id":"tt0062734","world_art_id":null,"type":"movie","add":"2020-02-13 20:09:56","orig_title":"Nu xia hei hu die","year":"1968-03-05","translations":["Любительский (одноголосый закадровый) (Береговых Виктор | Jet)"],"quality":"dvdrip","translation":"Любительский (одноголосый закадровый) (Береговых Виктор | Jet)","update":"2020-03-04 14:54:47","iframe_src":"//83.svetacdn.in/PfJ50H0ZBPg3/movie/36239"},{"id":36234,"title":"Братья из осажденного города","kp_id":null,"imdb_id":"tt0083695","world_art_id":null,"type":"movie","add":"2020-02-13 18:35:32","orig_title":"Cheng Zhai chu lai zhe","year":"1982-09-01","translations":["Любительский (одноголосый закадровый) (Береговых Виктор | Jet)"],"quality":"dvdrip","translation":"Любительский (одноголосый закадровый) (Береговых Виктор | Jet)","update":"2020-03-04 14:53:47","iframe_src":"//83.svetacdn.in/PfJ50H0ZBPg3/movie/36234"},{"id":36231,"title":"Большой босс","kp_id":"164772","imdb_id":"tt0403190","world_art_id":null,"type":"movie","add":"2020-02-13 18:27:36","orig_title":"Kaoyaku","year":"1971-08-12","translations":["Любительский (одноголосый закадровый) (Береговых Виктор | Jet)"],"quality":"dvdrip","translation":"Любительский (одноголосый закадровый) (Береговых Виктор | Jet)","update":"2020-03-04 14:52:08","iframe_src":"//83.svetacdn.in/PfJ50H0ZBPg3/movie/36231"},{"id":36103,"title":"Любовь и магия чудесного Дэбикуро-куна","kp_id":"819376","imdb_id":"tt3422622","world_art_id":null,"type":"movie","add":"2020-02-11 20:39:36","orig_title":"Miracle: Debikurokun no koi to mahou","year":"2014-11-22","translations":["Любительский (многоголосый закадровый)"],"quality":"hdrip","translation":"Любительский (многоголосый закадровый)","update":"2020-03-04 15:03:50","iframe_src":"//83.svetacdn.in/PfJ50H0ZBPg3/movie/36103"},{"id":36102,"title":"Мелодия любви","kp_id":"396853","imdb_id":"tt1117962","world_art_id":null,"type":"movie","add":"2020-02-11 20:33:30","orig_title":"Bao jian ta","year":"1978-04-20","translations":["Любительский (одноголосый закадровый) (Береговых Виктор | Jet)"],"quality":"dvdrip","translation":"Любительский (одноголосый закадровый) (Береговых Виктор | Jet)","update":"2020-03-04 15:04:37","iframe_src":"//83.svetacdn.in/PfJ50H0ZBPg3/movie/36102"},{"id":35917,"title":"Погружение","kp_id":"419205","imdb_id":"tt1258195","world_art_id":null,"type":"movie","add":"2020-02-07 21:38:32","orig_title":"Dive!!","year":"2008-06-16","translations":["Любительский (одноголосый закадровый)"],"quality":"dvdrip","translation":"Любительский (одноголосый закадровый)","update":"2020-03-04 14:58:30","iframe_src":"//83.svetacdn.in/PfJ50H0ZBPg3/movie/35917"},{"id":18873,"title":"Темная сторона желания 2","kp_id":"690153","imdb_id":"tt2226666","world_art_id":null,"type":"movie","add":"2018-09-09 12:04:46","orig_title":"Jism 2","year":"2012-08-03","translations":["Профессиональный (многоголосый закадровый) (SDI Media)","Любительский (многоголосый закадровый) (ICG)"],"quality":"bd","translation":"Профессиональный (многоголосый закадровый) (SDI Media)","update":"2020-03-04 15:01:17","iframe_src":"//83.svetacdn.in/PfJ50H0ZBPg3/movie/18873"}],"current_page":765,"first_page_url":"https://videocdn.tv/api/short?limit=100&api_token=RgFQdUIR2dRmwv8iYa5SnFNgnw3vpjKj&cache3765=3765&page=1","from":76401,"last_page":614,"last_page_url":"https://videocdn.tv/api/short?limit=100&api_token=RgFQdUIR2dRmwv8iYa5SnFNgnw3vpjKj&cache3765=3765&page=614","next_page_url":null,"path":"https://videocdn.tv/api/short","per_page":100,"prev_page_url":"https://videocdn.tv/api/short?limit=100&api_token=RgFQdUIR2dRmwv8iYa5SnFNgnw3vpjKj&cache3765=3765&page=764","to":76420,"total":61324}