{"result":true,"data":[{"id":56611,"title":"Мир роботов","kp_id":"1035396","imdb_id":"tt4083740","world_art_id":null,"type":"movie","add":"2022-02-13 14:35:24","orig_title":"Robot World","year":"2015-12-04","translations":["Любительский (многоголосый закадровый) (Синема УС)"],"quality":"webdl","translation":"Любительский (многоголосый закадровый) (Синема УС)","update":"2022-02-13 15:03:02","iframe_src":"//24213.svetacdn.in/si4jsFRrtgrT/movie/56611"},{"id":56601,"title":"Самурай — волк 2","kp_id":"181229","imdb_id":"tt0199681","world_art_id":null,"type":"movie","add":"2022-02-13 09:00:21","orig_title":"Kiba Ôkaminosuke: jigoku giri","year":"1967-05-13","translations":["Авторский (одноголосый закадровый) (Кузнецов Сергей)"],"quality":"webdl","translation":"Авторский (одноголосый закадровый) (Кузнецов Сергей)","update":"2022-02-13 14:03:52","iframe_src":"//24213.svetacdn.in/si4jsFRrtgrT/movie/56601"},{"id":56600,"title":"Самурай — волк","kp_id":"362634","imdb_id":"tt0199680","world_art_id":null,"type":"movie","add":"2022-02-13 08:59:26","orig_title":"Kiba Ôkaminosuke","year":"1966-11-19","translations":["Авторский (одноголосый закадровый) (Кузнецов Сергей)"],"quality":"webdl","translation":"Авторский (одноголосый закадровый) (Кузнецов Сергей)","update":"2022-02-13 14:02:18","iframe_src":"//24213.svetacdn.in/si4jsFRrtgrT/movie/56600"},{"id":56599,"title":"Убить босса","kp_id":"1183602","imdb_id":"tt16635942","world_art_id":null,"type":"movie","add":"2022-02-13 08:38:17","orig_title":"Ubit bossa","year":"2022-01-13","translations":["Оригинальная дорожка"],"quality":"webdl","translation":"Оригинальная дорожка","update":"2022-02-13 14:00:27","iframe_src":"//24213.svetacdn.in/si4jsFRrtgrT/movie/56599"},{"id":56581,"title":"База мертвых людей","kp_id":"66181","imdb_id":"tt0052608","world_art_id":null,"type":"movie","add":"2022-02-12 10:06:11","orig_title":"Baza ludzi umarlych","year":"1959-08-10","translations":["Авторский (одноголосый закадровый) (Воротилин Олег)"],"quality":"bd","translation":"Авторский (одноголосый закадровый) (Воротилин Олег)","update":"2022-02-13 14:05:29","iframe_src":"//24213.svetacdn.in/si4jsFRrtgrT/movie/56581"},{"id":56579,"title":"Пожиратели","kp_id":"573700","imdb_id":"tt1753753","world_art_id":null,"type":"movie","add":"2022-02-12 09:36:07","orig_title":"Eaters","year":"2011-04-07","translations":["Профессиональный (многоголосый закадровый) (Киноужас)"],"quality":"bd","translation":"Профессиональный (многоголосый закадровый) (Киноужас)","update":"2022-02-12 15:48:01","iframe_src":"//24213.svetacdn.in/si4jsFRrtgrT/movie/56579"},{"id":56576,"title":"Наемный убийца","kp_id":"12691","imdb_id":"tt0022979","world_art_id":null,"type":"movie","add":"2022-02-11 20:29:30","orig_title":"The Hatchet Man","year":"1932-02-04","translations":["Любительский (одноголосый закадровый) (Клушин Игорь | хромолка)"],"quality":"dvdrip","translation":"Любительский (одноголосый закадровый) (Клушин Игорь | хромолка)","update":"2022-02-12 00:11:38","iframe_src":"//24213.svetacdn.in/si4jsFRrtgrT/movie/56576"},{"id":56572,"title":"Тысячи мирных облаков окружают небо, любовь, ты не можешь остановить любовь…","kp_id":"50539","imdb_id":"tt0358590","world_art_id":null,"type":"movie","add":"2022-02-11 16:56:51","orig_title":"Mil nubes de paz cercan el cielo, amor, jamás acabarás de ser amor","year":"2003-02-11","translations":["Любительский (одноголосый закадровый) (Кошкин Василий)"],"quality":"dvdrip","translation":"Любительский (одноголосый закадровый) (Кошкин Василий)","update":"2022-02-11 18:27:19","iframe_src":"//24213.svetacdn.in/si4jsFRrtgrT/movie/56572"},{"id":56570,"title":"Пловец","kp_id":"1343180","imdb_id":"tt15041866","world_art_id":null,"type":"movie","add":"2022-02-11 15:37:57","orig_title":"The Swimmer","year":"2021-08-30","translations":["Любительский (одноголосый закадровый) (Гейкиногид)"],"quality":"webdl","translation":"Любительский (одноголосый закадровый) (Гейкиногид)","update":"2022-02-11 16:54:35","iframe_src":"//24213.svetacdn.in/si4jsFRrtgrT/movie/56570"},{"id":56569,"title":"Звёздный зять","kp_id":"1355526","imdb_id":"tt11952760","world_art_id":null,"type":"movie","add":"2022-02-11 14:39:17","orig_title":"Alludu Adhurs","year":"2021-01-14","translations":["Любительский (многоголосый закадровый) (Crazy Cat Studio)"],"quality":"webdl","translation":"Любительский (многоголосый закадровый) (Crazy Cat Studio)","update":"2022-02-12 15:50:04","iframe_src":"//24213.svetacdn.in/si4jsFRrtgrT/movie/56569"},{"id":56568,"title":"Портрет Дженни","kp_id":"16589","imdb_id":"tt0040705","world_art_id":null,"type":"movie","add":"2022-02-11 13:19:48","orig_title":"Portrait of Jennie","year":"1948-12-25","translations":["Любительский (одноголосый закадровый) (liosaa)"],"quality":"bd","translation":"Любительский (одноголосый закадровый) (liosaa)","update":"2022-02-12 15:52:47","iframe_src":"//24213.svetacdn.in/si4jsFRrtgrT/movie/56568"},{"id":56563,"title":"Мега Отрыв","kp_id":"1413390","imdb_id":"tt12036922","world_art_id":null,"type":"movie","add":"2022-02-10 22:06:30","orig_title":"Super Turnt","year":"2022-01-01","translations":["Любительский (многоголосый закадровый) (Синема УС)"],"quality":"webdl","translation":"Любительский (многоголосый закадровый) (Синема УС)","update":"2022-02-12 19:57:53","iframe_src":"//24213.svetacdn.in/si4jsFRrtgrT/movie/56563"},{"id":56558,"title":"Подноготная съёмок","kp_id":"4656420","imdb_id":"tt15522438","world_art_id":null,"type":"movie","add":"2022-02-10 18:24:49","orig_title":"Set Secrets","year":"2022-02-08","translations":["Любительский (многоголосый закадровый) (Синема УС)"],"quality":"webdl","translation":"Любительский (многоголосый закадровый) (Синема УС)","update":"2022-02-11 16:47:03","iframe_src":"//24213.svetacdn.in/si4jsFRrtgrT/movie/56558"},{"id":56511,"title":"Революционеры","kp_id":"1313260","imdb_id":"tt11138982","world_art_id":null,"type":"movie","add":"2022-02-08 17:23:42","orig_title":"Waren einmal Revoluzzer","year":"2019-09-29","translations":["Любительский (многоголосый закадровый) (Синема УС)"],"quality":"webdl","translation":"Любительский (многоголосый закадровый) (Синема УС)","update":"2022-02-12 08:32:40","iframe_src":"//24213.svetacdn.in/si4jsFRrtgrT/movie/56511"},{"id":55527,"title":"Мой волк","kp_id":"1304236","imdb_id":"tt10945274","world_art_id":null,"type":"movie","add":"2021-12-28 16:57:40","orig_title":"Mystère","year":"2021-10-23","translations":["Полное дублирование","Полное дублирование (iTunes)"],"quality":"webdl","translation":"Полное дублирование","update":"2022-02-13 13:56:39","iframe_src":"//24213.svetacdn.in/si4jsFRrtgrT/movie/55527"},{"id":51283,"title":"Триумф","kp_id":"909626","imdb_id":"tt3859466","world_art_id":null,"type":"movie","add":"2021-06-19 09:30:25","orig_title":"Triumph","year":"2021-04-30","translations":["Любительский (многоголосый закадровый) (@MUZOBOZ@)","Полное дублирование (Прайд Продакшн | Pride Production)"],"quality":"webdl","translation":"Любительский (многоголосый закадровый) (@MUZOBOZ@)","update":"2022-02-13 15:21:35","iframe_src":"//24213.svetacdn.in/si4jsFRrtgrT/movie/51283"},{"id":8782,"title":"Пропавшие","kp_id":"1191036","imdb_id":"tt3490496","world_art_id":null,"type":"serial","add":"2020-09-18 19:24:47","orig_title":"Disparus","year":"2014-09-13","translations":["Любительский (многоголосый закадровый) (WestFilm)"],"seasons_count":1,"episodes_count":2,"episodes":2,"update":"2020-09-19 06:45:10","iframe_src":"//24213.svetacdn.in/si4jsFRrtgrT/tv-series/8782"},{"id":8771,"title":"Франция - Квебек","kp_id":null,"imdb_id":"tt3495056","world_art_id":null,"type":"serial","add":"2020-09-17 18:44:19","orig_title":"France KBEK","year":"2014-05-01","translations":["Любительский (многоголосый закадровый) (WestFilm)"],"seasons_count":1,"episodes_count":10,"episodes":10,"update":"2020-09-18 06:56:26","iframe_src":"//24213.svetacdn.in/si4jsFRrtgrT/tv-series/8771"},{"id":8766,"title":"Мак Орлан","kp_id":null,"imdb_id":"tt1360437","world_art_id":null,"type":"serial","add":"2020-09-17 14:27:02","orig_title":"Mac Orlan","year":"2009-01-24","translations":["Любительский (многоголосый закадровый) (WestFilm)"],"seasons_count":1,"episodes_count":4,"episodes":4,"update":"2020-09-18 06:32:27","iframe_src":"//24213.svetacdn.in/si4jsFRrtgrT/tv-series/8766"},{"id":8763,"title":"Дневник доктора Зайцевой","kp_id":"601734","imdb_id":"tt3334214","world_art_id":null,"type":"serial","add":"2020-09-16 22:44:14","orig_title":"Dnevnik doktora Zaytsevoy","year":"2012-01-16","translations":["Оригинальная дорожка"],"seasons_count":1,"episodes_count":24,"episodes":24,"update":"2020-09-18 09:57:23","iframe_src":"//24213.svetacdn.in/si4jsFRrtgrT/tv-series/8763"},{"id":8759,"title":"Полицейский участок Роба","kp_id":null,"imdb_id":"tt2428924","world_art_id":null,"type":"serial","add":"2020-09-16 14:13:28","orig_title":"Roba","year":"2012-10-01","translations":["Любительский (многоголосый закадровый) (WestFilm)"],"seasons_count":3,"episodes_count":32,"episodes":10,"update":"2020-09-19 10:11:34","iframe_src":"//24213.svetacdn.in/si4jsFRrtgrT/tv-series/8759"},{"id":8677,"title":"Волчица","kp_id":"260903","imdb_id":"tt3509720","world_art_id":null,"type":"serial","add":"2020-09-09 18:02:43","orig_title":"Volchitsa","year":"2006-01-01","translations":["Оригинальная дорожка"],"seasons_count":1,"episodes_count":233,"episodes":233,"update":"2020-09-17 19:54:43","iframe_src":"//24213.svetacdn.in/si4jsFRrtgrT/tv-series/8677"},{"id":8595,"title":"Всё или ничего: Тоттенхэм Хотспур","kp_id":"1405069","imdb_id":"tt11188556","world_art_id":null,"type":"serial","add":"2020-09-01 05:49:31","orig_title":"All or Nothing: Tottenham Hotspur","year":"2020-08-31","translations":["Любительский (многоголосый закадровый) (Octopus)","Профессиональный (двухголосый закадровый) (IdeaFilm)","Любительский (многоголосый закадровый) (ColdFilm)","Профессиональный (многоголосый закадровый) (HDrezka Studio)"],"seasons_count":1,"episodes_count":9,"episodes":9,"update":"2020-09-18 07:09:22","iframe_src":"//24213.svetacdn.in/si4jsFRrtgrT/tv-series/8595"},{"id":8592,"title":"Игра на выживание","kp_id":"1395366","imdb_id":null,"world_art_id":null,"type":"serial","add":"2020-08-31 19:27:58","orig_title":"Игра на выживание","year":"2020-08-31","translations":["Оригинальная дорожка"],"seasons_count":1,"episodes_count":12,"episodes":12,"update":"2020-09-18 04:10:03","iframe_src":"//24213.svetacdn.in/si4jsFRrtgrT/tv-series/8592"},{"id":8518,"title":"Агентство О.К.О.","kp_id":"1206895","imdb_id":null,"world_art_id":null,"type":"serial","add":"2020-08-24 13:06:02","orig_title":"Агентство О.К.О.","year":"2020-08-24","translations":["Оригинальная дорожка"],"seasons_count":1,"episodes_count":16,"episodes":16,"update":"2020-09-18 04:11:37","iframe_src":"//24213.svetacdn.in/si4jsFRrtgrT/tv-series/8518"},{"id":8205,"title":"Новые приключения Супермена","kp_id":"430435","imdb_id":"tt0060012","world_art_id":null,"type":"serial","add":"2020-07-19 13:12:39","orig_title":"The New Adventures of Superman","year":"1966-09-10","translations":["Профессиональный (многоголосый закадровый) (2x2)"],"seasons_count":1,"episodes_count":20,"episodes":20,"update":"2020-09-18 10:15:22","iframe_src":"//24213.svetacdn.in/si4jsFRrtgrT/tv-series/8205"},{"id":8075,"title":"Двенадцать","kp_id":"1245332","imdb_id":"tt7605396","world_art_id":null,"type":"serial","add":"2020-07-02 21:33:41","orig_title":"De Twaalf","year":"2019-11-03","translations":["Любительский (многоголосый закадровый) (Octopus)","Профессиональный (многоголосый закадровый) (BaibaKo)","Любительский (многоголосый закадровый) (WestFilm)"],"seasons_count":1,"episodes_count":10,"episodes":10,"update":"2020-09-19 10:18:01","iframe_src":"//24213.svetacdn.in/si4jsFRrtgrT/tv-series/8075"},{"id":7476,"title":"Право на помилование","kp_id":"466407","imdb_id":"tt10902878","world_art_id":null,"type":"serial","add":"2020-05-11 12:48:56","orig_title":"Pravo na pomilovaniye","year":"2009-05-23","translations":["Оригинальная дорожка"],"seasons_count":1,"episodes_count":4,"episodes":4,"update":"2020-09-18 16:08:33","iframe_src":"//24213.svetacdn.in/si4jsFRrtgrT/tv-series/7476"},{"id":38334,"title":"Хитмен","kp_id":"1267258","imdb_id":"tt11649614","world_art_id":null,"type":"movie","add":"2020-03-21 14:29:59","orig_title":"Hiteumaen","year":"2020-01-22","translations":["Любительский (многоголосый закадровый) (Синема УС)","Любительский (двухголосый закадровый)","Любительский (многоголосый закадровый) (WestFilm)","Любительский (двухголосый закадровый) (Ворон + SOVA)"],"quality":"webdl","translation":"Любительский (многоголосый закадровый) (Синема УС)","update":"2022-02-13 07:56:11","iframe_src":"//24213.svetacdn.in/si4jsFRrtgrT/movie/38334"},{"id":6559,"title":"Преданность","kp_id":"840104","imdb_id":"tt3581654","world_art_id":null,"type":"serial","add":"2020-02-05 11:06:26","orig_title":"Allegiance","year":"2015-02-05","translations":["Любительский (одноголосый закадровый) (Lord32x)","Любительский (многоголосый закадровый) (WestFilm)"],"seasons_count":1,"episodes_count":13,"episodes":13,"update":"2020-09-18 06:17:09","iframe_src":"//24213.svetacdn.in/si4jsFRrtgrT/tv-series/6559"},{"id":6543,"title":"Тайна Марии","kp_id":"1334840","imdb_id":null,"world_art_id":null,"type":"serial","add":"2020-02-03 11:40:36","orig_title":"Тайна Марии","year":"2019-09-30","translations":["Оригинальная дорожка"],"seasons_count":1,"episodes_count":8,"episodes":8,"update":"2020-09-18 17:29:45","iframe_src":"//24213.svetacdn.in/si4jsFRrtgrT/tv-series/6543"},{"id":5893,"title":"На твоей стороне","kp_id":"1322315","imdb_id":"tt11738448","world_art_id":null,"type":"serial","add":"2019-11-29 20:20:26","orig_title":"На твоей стороне","year":"2019-10-21","translations":["Оригинальная дорожка"],"seasons_count":2,"episodes_count":48,"episodes":24,"update":"2020-09-18 06:53:17","iframe_src":"//24213.svetacdn.in/si4jsFRrtgrT/tv-series/5893"},{"id":32473,"title":"Наемный убийца","kp_id":"532","imdb_id":"tt0097202","world_art_id":null,"type":"movie","add":"2019-10-29 19:28:16","orig_title":"Dip huet seung hung","year":"1989-03-24","translations":["Профессиональный (многоголосый закадровый)","Профессиональный (многоголосый закадровый) (Cinema Prestige)"],"quality":"bd","translation":"Профессиональный (многоголосый закадровый)","update":"2022-02-13 14:27:22","iframe_src":"//24213.svetacdn.in/si4jsFRrtgrT/movie/32473"},{"id":5550,"title":"Мастер побега","kp_id":"771193","imdb_id":"tt2649522","world_art_id":null,"type":"serial","add":"2019-10-28 10:34:12","orig_title":"The Escape Artist","year":"2013-10-29","translations":["Профессиональный (многоголосый закадровый) (Первый канал | ОРТ)","Профессиональный (многоголосый закадровый) (LostFilm)"],"seasons_count":1,"episodes_count":3,"episodes":3,"update":"2020-09-18 17:55:49","iframe_src":"//24213.svetacdn.in/si4jsFRrtgrT/tv-series/5550"},{"id":5206,"title":"Дама треф","kp_id":"1196962","imdb_id":null,"world_art_id":null,"type":"serial","add":"2019-09-16 12:25:58","orig_title":"Дама треф","year":"2019-04-05","translations":["Оригинальная дорожка"],"seasons_count":1,"episodes_count":2,"episodes":2,"update":"2020-09-18 07:52:19","iframe_src":"//24213.svetacdn.in/si4jsFRrtgrT/tv-series/5206"},{"id":3863,"title":"Семья","kp_id":"1115643","imdb_id":"tt7712594","world_art_id":null,"type":"serial","add":"2019-01-12 08:59:07","orig_title":"Fam","year":"2019-01-10","translations":["Любительский (двухголосый закадровый) (GoldTeam)","Профессиональный (многоголосый закадровый) (NewStudio)","Профессиональный (многоголосый закадровый) (HDrezka Studio)"],"seasons_count":1,"episodes_count":13,"episodes":13,"update":"2020-09-18 15:43:11","iframe_src":"//24213.svetacdn.in/si4jsFRrtgrT/tv-series/3863"},{"id":3603,"title":"Истории холмов","kp_id":"1209829","imdb_id":"tt5489038","world_art_id":null,"type":"serial","add":"2018-12-03 08:42:13","orig_title":"Les Pays d'en Haut","year":"2016-01-11","translations":["Любительский (двухголосый закадровый) (Sunshine Studio)","Любительский (многоголосый закадровый) (GreenРай Studio)","Любительский (многоголосый закадровый) (WestFilm)"],"seasons_count":3,"episodes_count":28,"episodes":8,"update":"2020-09-19 10:14:07","iframe_src":"//24213.svetacdn.in/si4jsFRrtgrT/tv-series/3603"},{"id":3529,"title":"Происхождение","kp_id":"1158100","imdb_id":"tt7801780","world_art_id":null,"type":"serial","add":"2018-11-19 08:00:41","orig_title":"Origin","year":"2018-11-14","translations":["Профессиональный (многоголосый закадровый) (IdeaFilm)","Профессиональный (многоголосый закадровый) (LostFilm)","Профессиональный (многоголосый закадровый) (HDrezka Studio)","Профессиональный (многоголосый закадровый) (OMSKBIRD records)","Профессиональный (многоголосый закадровый) (TVShows)"],"seasons_count":1,"episodes_count":10,"episodes":10,"update":"2020-09-17 15:46:10","iframe_src":"//24213.svetacdn.in/si4jsFRrtgrT/tv-series/3529"},{"id":6061,"title":"Амистад","kp_id":"1059","imdb_id":"tt0118607","world_art_id":null,"type":"movie","add":"2016-10-11 04:41:33","orig_title":"Amistad","year":"1997-12-04","translations":["Профессиональный (двухголосый закадровый)","Профессиональный (двухголосый закадровый)"],"quality":"bd","translation":"Профессиональный (двухголосый закадровый)","update":"2022-02-13 14:31:17","iframe_src":"//24213.svetacdn.in/si4jsFRrtgrT/movie/6061"},{"id":2694,"title":"13-й вoин","kp_id":"10273","imdb_id":"tt0120657","world_art_id":null,"type":"movie","add":"2016-05-30 05:13:51","orig_title":"The 13th Warrior","year":"1999-06-25","translations":["Полное дублирование (Невафильм | Нева-1)"],"quality":"bd","translation":"Полное дублирование (Невафильм | Нева-1)","update":"2022-02-11 20:52:37","iframe_src":"//24213.svetacdn.in/si4jsFRrtgrT/movie/2694"}],"current_page":286,"first_page_url":"https://videocdn.tv/api/short?limit=100&api_token=X6EwAUfE5M9xbo7y0Bp0aPf3uXxG2KLL&cache3286=3286&page=1","from":28501,"last_page":730,"last_page_url":"https://videocdn.tv/api/short?limit=100&api_token=X6EwAUfE5M9xbo7y0Bp0aPf3uXxG2KLL&cache3286=3286&page=730","next_page_url":"https://videocdn.tv/api/short?limit=100&api_token=X6EwAUfE5M9xbo7y0Bp0aPf3uXxG2KLL&cache3286=3286&page=287","path":"https://videocdn.tv/api/short","per_page":100,"prev_page_url":"https://videocdn.tv/api/short?limit=100&api_token=X6EwAUfE5M9xbo7y0Bp0aPf3uXxG2KLL&cache3286=3286&page=285","to":28540,"total":72971}