{"result":true,"data":[{"id":46055,"title":"С Новым годом!","kp_id":"1368989","imdb_id":"tt11615912","world_art_id":null,"type":"movie","add":"2020-12-14 09:47:32","orig_title":"Stastny novy rok","year":"2019-12-26","translations":["Полное дублирование"],"quality":"webdl","translation":"Полное дублирование","update":"2020-12-14 22:17:07","iframe_src":"//5091.svetacdn.in/71tsRs29n5tZ/movie/46055"},{"id":46038,"title":"Сэйфти","kp_id":"1304579","imdb_id":"tt10649016","world_art_id":null,"type":"movie","add":"2020-12-12 22:37:49","orig_title":"Safety","year":"2020-12-11","translations":["Любительский (многоголосый закадровый) (@MUZOBOZ@)"],"quality":"webdl","translation":"Любительский (многоголосый закадровый) (@MUZOBOZ@)","update":"2020-12-13 08:26:13","iframe_src":"//5091.svetacdn.in/71tsRs29n5tZ/movie/46038"},{"id":46036,"title":"Помочь всем людям","kp_id":"1147237","imdb_id":"tt8161190","world_art_id":null,"type":"movie","add":"2020-12-12 22:29:49","orig_title":"To Provide All People","year":"2018-06-28","translations":["Любительский (многоголосый закадровый) (@MUZOBOZ@)"],"quality":"webdl","translation":"Любительский (многоголосый закадровый) (@MUZOBOZ@)","update":"2020-12-13 08:21:23","iframe_src":"//5091.svetacdn.in/71tsRs29n5tZ/movie/46036"},{"id":45954,"title":"Там, за горизонтом","kp_id":"42202","imdb_id":"tt0073787","world_art_id":null,"type":"movie","add":"2020-12-09 17:44:51","orig_title":"Tam, za gorizontom","year":"1976-12-13","translations":["Оригинальная дорожка"],"quality":"vhs","translation":"Оригинальная дорожка","update":"2020-12-15 06:52:55","iframe_src":"//5091.svetacdn.in/71tsRs29n5tZ/movie/45954"},{"id":45953,"title":"Субботний вечер","kp_id":"43711","imdb_id":"tt0279442","world_art_id":null,"type":"movie","add":"2020-12-09 17:22:01","orig_title":"Shabat sagamo","year":"1975-06-01","translations":["Оригинальная дорожка"],"quality":"sat","translation":"Оригинальная дорожка","update":"2020-12-15 06:52:11","iframe_src":"//5091.svetacdn.in/71tsRs29n5tZ/movie/45953"},{"id":45952,"title":"Шура и Просвирняк","kp_id":"43775","imdb_id":"tt0093963","world_art_id":null,"type":"movie","add":"2020-12-09 17:18:46","orig_title":"Shura i Prosvirnyak","year":"1987-01-01","translations":["Оригинальная дорожка"],"quality":"webdl","translation":"Оригинальная дорожка","update":"2020-12-15 06:50:50","iframe_src":"//5091.svetacdn.in/71tsRs29n5tZ/movie/45952"},{"id":45951,"title":"Незваный друг","kp_id":"46436","imdb_id":"tt0082807","world_art_id":null,"type":"movie","add":"2020-12-09 17:16:27","orig_title":"Nezvanyy drug","year":"1981-03-04","translations":["Оригинальная дорожка"],"quality":"dvdrip","translation":"Оригинальная дорожка","update":"2020-12-15 06:50:03","iframe_src":"//5091.svetacdn.in/71tsRs29n5tZ/movie/45951"},{"id":45950,"title":"Главный свидетель","kp_id":"44512","imdb_id":"tt0340132","world_art_id":null,"type":"movie","add":"2020-12-09 17:12:39","orig_title":"Glavnyy svidetel","year":"1969-09-22","translations":["Оригинальная дорожка"],"quality":"iptv","translation":"Оригинальная дорожка","update":"2020-12-15 06:48:30","iframe_src":"//5091.svetacdn.in/71tsRs29n5tZ/movie/45950"},{"id":45949,"title":"24-25 не возвращается","kp_id":"46776","imdb_id":"tt0312292","world_art_id":null,"type":"movie","add":"2020-12-09 17:10:28","orig_title":"24-25 ne vozvrashchaetsya","year":"1969-04-28","translations":["Оригинальная дорожка"],"quality":"dvdrip","translation":"Оригинальная дорожка","update":"2020-12-15 06:46:51","iframe_src":"//5091.svetacdn.in/71tsRs29n5tZ/movie/45949"},{"id":45948,"title":"Сказки райского сада","kp_id":"842176","imdb_id":"tt6948270","world_art_id":null,"type":"movie","add":"2020-12-09 17:07:36","orig_title":"Skazki rayskogo sada","year":"1975-01-01","translations":["Оригинальная дорожка"],"quality":"dvdrip","translation":"Оригинальная дорожка","update":"2020-12-15 06:45:56","iframe_src":"//5091.svetacdn.in/71tsRs29n5tZ/movie/45948"},{"id":45905,"title":"Фитнэ","kp_id":"773876","imdb_id":"tt2997056","world_art_id":null,"type":"movie","add":"2020-12-07 21:24:51","orig_title":"Fitna","year":"1971-01-01","translations":["Оригинальная дорожка"],"quality":"webdl","translation":"Оригинальная дорожка","update":"2020-12-15 06:45:02","iframe_src":"//5091.svetacdn.in/71tsRs29n5tZ/movie/45905"},{"id":45904,"title":"Хроника ереванских дней","kp_id":"188711","imdb_id":"tt0410924","world_art_id":null,"type":"movie","add":"2020-12-07 21:18:52","orig_title":"Yerevanyan oreri khronikan","year":"1972-01-01","translations":["Полное дублирование"],"quality":"webdl","translation":"Полное дублирование","update":"2020-12-15 06:42:32","iframe_src":"//5091.svetacdn.in/71tsRs29n5tZ/movie/45904"},{"id":39466,"title":"Папина дочка","kp_id":"1118223","imdb_id":"tt8335482","world_art_id":null,"type":"movie","add":"2020-04-18 03:44:21","orig_title":"Le prince oublié","year":"2020-02-09","translations":["Любительский (многоголосый закадровый) (@MUZOBOZ@)","Полное дублирование","Полное дублирование (iTunes)"],"quality":"webdl","translation":"Любительский (многоголосый закадровый) (@MUZOBOZ@)","update":"2020-12-14 22:03:06","iframe_src":"//5091.svetacdn.in/71tsRs29n5tZ/movie/39466"},{"id":28584,"title":"Общественная библиотека","kp_id":"806961","imdb_id":"tt3294746","world_art_id":null,"type":"movie","add":"2019-07-04 05:41:33","orig_title":"The Public","year":"2018-01-31","translations":["Профессиональный (многоголосый закадровый) (HDrezka Studio)","Профессиональный (многоголосый закадровый) (HDrezka Studio)"],"quality":"bd","translation":"Профессиональный (многоголосый закадровый) (HDrezka Studio)","update":"2020-12-14 19:27:03","iframe_src":"//5091.svetacdn.in/71tsRs29n5tZ/movie/28584"},{"id":28515,"title":"За мечтой","kp_id":"1030353","imdb_id":"tt6483364","world_art_id":null,"type":"movie","add":"2019-07-02 20:55:28","orig_title":"Teen Spirit","year":"2018-09-07","translations":["Профессиональный (многоголосый закадровый) (СВ-Студия)","Полное дублирование","Полное дублирование","Профессиональный (многоголосый закадровый) (HDrezka Studio)"],"quality":"webdl","translation":"Профессиональный (многоголосый закадровый) (СВ-Студия)","update":"2020-12-14 19:26:23","iframe_src":"//5091.svetacdn.in/71tsRs29n5tZ/movie/28515"},{"id":27742,"title":"Операция «Колибри»","kp_id":"1048853","imdb_id":"tt6866224","world_art_id":null,"type":"movie","add":"2019-06-13 06:14:14","orig_title":"The Hummingbird Project","year":"2018-09-08","translations":["Профессиональный (многоголосый закадровый) (СВ-Студия)","Original (English)","Полное дублирование (iTunes)","Профессиональный (многоголосый закадровый) (HDrezka Studio)"],"quality":"bd","translation":"Профессиональный (многоголосый закадровый) (СВ-Студия)","update":"2020-12-14 19:27:18","iframe_src":"//5091.svetacdn.in/71tsRs29n5tZ/movie/27742"},{"id":27378,"title":"Ветка сирени","kp_id":"266536","imdb_id":"tt0804500","world_art_id":null,"type":"movie","add":"2019-06-02 21:33:06","orig_title":"Vetka sireni","year":"2007-12-07","translations":["Оригинальная дорожка","Оригинальная дорожка"],"quality":"hdtv","translation":"Оригинальная дорожка","update":"2020-12-14 16:09:34","iframe_src":"//5091.svetacdn.in/71tsRs29n5tZ/movie/27378"},{"id":27267,"title":"Однажды в Стокгольме","kp_id":"1009498","imdb_id":"tt6474040","world_art_id":null,"type":"movie","add":"2019-05-30 20:55:05","orig_title":"Stockholm","year":"2018-04-19","translations":["Полное дублирование","Original (English)","Профессиональный (многоголосый закадровый) (HDrezka Studio)"],"quality":"bd","translation":"Полное дублирование","update":"2020-12-14 19:26:10","iframe_src":"//5091.svetacdn.in/71tsRs29n5tZ/movie/27267"},{"id":26994,"title":"Совершенство","kp_id":"1129042","imdb_id":"tt7772580","world_art_id":null,"type":"movie","add":"2019-05-24 21:52:11","orig_title":"The Perfection","year":"2018-09-20","translations":["Профессиональный (многоголосый закадровый) (HDrezka Studio)","Original (English)","Авторский (одноголосый закадровый) (Немахов Юрий)"],"quality":"webdl","translation":"Профессиональный (многоголосый закадровый) (HDrezka Studio)","update":"2020-12-14 19:26:38","iframe_src":"//5091.svetacdn.in/71tsRs29n5tZ/movie/26994"},{"id":7662,"title":"Комната","kp_id":"38653","imdb_id":"tt0368226","world_art_id":null,"type":"movie","add":"2016-11-27 12:45:28","orig_title":"The Room","year":"2003-06-27","translations":["Любительский (одноголосый закадровый)","Original (English)","Профессиональный (многоголосый закадровый) (HDrezka Studio)"],"quality":"bd","translation":"Любительский (одноголосый закадровый)","update":"2020-12-14 19:30:28","iframe_src":"//5091.svetacdn.in/71tsRs29n5tZ/movie/7662"},{"id":302,"title":"Долгий путь домой","kp_id":"796705","imdb_id":"tt4522116","world_art_id":null,"type":"serial","add":"2016-07-21 11:05:05","orig_title":"Dolgiy put domoy","year":"2015-03-02","translations":["Оригинальная дорожка"],"seasons_count":1,"episodes_count":16,"episodes":16,"update":"2016-07-21 14:30:40","iframe_src":"//5091.svetacdn.in/71tsRs29n5tZ/tv-series/302"},{"id":301,"title":"От печали до радости","kp_id":"984289","imdb_id":null,"world_art_id":null,"type":"serial","add":"2016-07-20 09:01:22","orig_title":"От печали до радости","year":"2016-06-18","translations":["Оригинальная дорожка"],"seasons_count":1,"episodes_count":2,"episodes":2,"update":"2016-07-20 11:37:28","iframe_src":"//5091.svetacdn.in/71tsRs29n5tZ/tv-series/301"},{"id":300,"title":"Новая жизнь","kp_id":"965830","imdb_id":null,"world_art_id":null,"type":"serial","add":"2016-07-20 08:58:51","orig_title":"Новая жизнь","year":"2015-02-15","translations":["Оригинальная дорожка"],"seasons_count":1,"episodes_count":10,"episodes":10,"update":"2016-07-20 10:54:51","iframe_src":"//5091.svetacdn.in/71tsRs29n5tZ/tv-series/300"},{"id":299,"title":"Миндальный привкус любви","kp_id":"893956","imdb_id":null,"world_art_id":null,"type":"serial","add":"2016-07-20 08:54:44","orig_title":"Миндальный привкус любви","year":"2016-05-16","translations":["Оригинальная дорожка"],"seasons_count":1,"episodes_count":20,"episodes":20,"update":"2016-07-21 05:24:35","iframe_src":"//5091.svetacdn.in/71tsRs29n5tZ/tv-series/299"},{"id":298,"title":"Долги совести","kp_id":"978701","imdb_id":null,"world_art_id":null,"type":"serial","add":"2016-07-20 08:47:58","orig_title":"Долги совести","year":"2016-05-28","translations":["Оригинальная дорожка"],"seasons_count":1,"episodes_count":2,"episodes":2,"update":"2016-07-20 11:32:37","iframe_src":"//5091.svetacdn.in/71tsRs29n5tZ/tv-series/298"},{"id":296,"title":"Случайная вакансия","kp_id":"766485","imdb_id":"tt2554946","world_art_id":null,"type":"serial","add":"2016-07-19 12:00:31","orig_title":"The Casual Vacancy","year":"2015-02-15","translations":["Профессиональный (двухголосый закадровый) (Gears Media)"],"seasons_count":1,"episodes_count":3,"episodes":3,"update":"2016-07-20 05:48:38","iframe_src":"//5091.svetacdn.in/71tsRs29n5tZ/tv-series/296"},{"id":295,"title":"С любовью, Нина","kp_id":"930478","imdb_id":"tt4835514","world_art_id":null,"type":"serial","add":"2016-07-19 11:53:48","orig_title":"Love, Nina","year":"2016-05-20","translations":["Профессиональный (двухголосый закадровый) (Ozz.tv)"],"seasons_count":1,"episodes_count":5,"episodes":5,"update":"2016-07-20 05:52:08","iframe_src":"//5091.svetacdn.in/71tsRs29n5tZ/tv-series/295"},{"id":290,"title":"Простая жизнь","kp_id":"744259","imdb_id":"tt4504902","world_art_id":null,"type":"serial","add":"2016-07-19 04:30:33","orig_title":"Prostaya zhizn","year":"2013-09-02","translations":["Оригинальная дорожка"],"seasons_count":1,"episodes_count":16,"episodes":16,"update":"2016-07-19 07:37:58","iframe_src":"//5091.svetacdn.in/71tsRs29n5tZ/tv-series/290"},{"id":286,"title":"Ой, ма-моч-ки!","kp_id":"893069","imdb_id":"tt4556580","world_art_id":null,"type":"serial","add":"2016-07-15 12:04:25","orig_title":"Oy, ma-moch-ki!","year":"2013-03-03","translations":["Оригинальная дорожка"],"seasons_count":1,"episodes_count":12,"episodes":12,"update":"2016-07-18 05:58:26","iframe_src":"//5091.svetacdn.in/71tsRs29n5tZ/tv-series/286"},{"id":285,"title":"Свежая кровь","kp_id":"980497","imdb_id":"tt4513868","world_art_id":null,"type":"serial","add":"2016-07-14 12:26:19","orig_title":"New Blood","year":"2016-06-02","translations":["Любительский (двухголосый закадровый) (Sunshine Studio)"],"seasons_count":1,"episodes_count":7,"episodes":7,"update":"2016-07-15 11:16:28","iframe_src":"//5091.svetacdn.in/71tsRs29n5tZ/tv-series/285"},{"id":282,"title":"Культ","kp_id":"840611","imdb_id":"tt4764510","world_art_id":null,"type":"serial","add":"2016-07-12 12:50:51","orig_title":"Kult","year":"2015-10-12","translations":["Оригинальная дорожка"],"seasons_count":1,"episodes_count":12,"episodes":12,"update":"2016-07-13 06:14:16","iframe_src":"//5091.svetacdn.in/71tsRs29n5tZ/tv-series/282"},{"id":281,"title":"Сестра моя, Любовь","kp_id":"818852","imdb_id":"tt4152420","world_art_id":null,"type":"serial","add":"2016-07-12 04:38:06","orig_title":"Sestra moya: Lyubov","year":"2014-01-01","translations":["Оригинальная дорожка"],"seasons_count":1,"episodes_count":16,"episodes":16,"update":"2016-07-12 12:39:27","iframe_src":"//5091.svetacdn.in/71tsRs29n5tZ/tv-series/281"},{"id":280,"title":"Хорошие руки","kp_id":"820698","imdb_id":"tt4039412","world_art_id":null,"type":"serial","add":"2016-07-12 04:22:00","orig_title":"Khoroshie ruki","year":"2014-09-08","translations":["Оригинальная дорожка"],"seasons_count":1,"episodes_count":12,"episodes":12,"update":"2016-07-12 12:41:53","iframe_src":"//5091.svetacdn.in/71tsRs29n5tZ/tv-series/280"},{"id":276,"title":"Шанс","kp_id":"935906","imdb_id":null,"world_art_id":null,"type":"serial","add":"2016-07-10 08:09:44","orig_title":"Шанс","year":"2015-10-17","translations":["Оригинальная дорожка"],"seasons_count":1,"episodes_count":2,"episodes":2,"update":"2016-07-11 05:50:41","iframe_src":"//5091.svetacdn.in/71tsRs29n5tZ/tv-series/276"},{"id":270,"title":"Завтра все закончится","kp_id":"984334","imdb_id":"tt4368698","world_art_id":null,"type":"serial","add":"2016-07-07 12:04:00","orig_title":"Morgen hör ich auf","year":"2016-01-02","translations":["Профессиональный (многоголосый закадровый) (ViruseProject)"],"seasons_count":1,"episodes_count":5,"episodes":5,"update":"2016-07-08 10:26:56","iframe_src":"//5091.svetacdn.in/71tsRs29n5tZ/tv-series/270"},{"id":238,"title":"Вижу-знаю","kp_id":"977848","imdb_id":null,"world_art_id":null,"type":"serial","add":"2016-06-28 15:50:12","orig_title":"Вижу-знаю","year":"2016-01-01","translations":["Оригинальная дорожка"],"seasons_count":1,"episodes_count":24,"episodes":24,"update":"2016-07-08 06:51:54","iframe_src":"//5091.svetacdn.in/71tsRs29n5tZ/tv-series/238"},{"id":234,"title":"Отдел","kp_id":"893921","imdb_id":null,"world_art_id":null,"type":"serial","add":"2016-06-27 05:35:05","orig_title":"Отдел","year":"2016-01-01","translations":["Оригинальная дорожка"],"seasons_count":1,"episodes_count":16,"episodes":16,"update":"2016-07-18 08:18:13","iframe_src":"//5091.svetacdn.in/71tsRs29n5tZ/tv-series/234"},{"id":167,"title":"Цари и пророки","kp_id":"891699","imdb_id":"tt4387170","world_art_id":null,"type":"serial","add":"2016-06-09 13:08:16","orig_title":"Of Kings and Prophets","year":"2016-03-08","translations":["Профессиональный (многоголосый закадровый) (BaibaKo)"],"seasons_count":1,"episodes_count":9,"episodes":9,"update":"2016-07-18 06:48:34","iframe_src":"//5091.svetacdn.in/71tsRs29n5tZ/tv-series/167"},{"id":100,"title":"Игра в молчанку","kp_id":"893672","imdb_id":"tt4074374","world_art_id":null,"type":"serial","add":"2016-05-27 05:15:09","orig_title":"Game of Silence","year":"2016-04-12","translations":["Профессиональный (многоголосый закадровый) (BaibaKo)"],"seasons_count":1,"episodes_count":10,"episodes":10,"update":"2016-07-11 06:03:16","iframe_src":"//5091.svetacdn.in/71tsRs29n5tZ/tv-series/100"},{"id":87,"title":"Охотники","kp_id":"970132","imdb_id":"tt4983204","world_art_id":null,"type":"serial","add":"2016-05-24 06:33:18","orig_title":"Hunters","year":"2016-04-11","translations":["Профессиональный (многоголосый закадровый) (Кравец)"],"seasons_count":1,"episodes_count":13,"episodes":13,"update":"2016-07-14 07:59:05","iframe_src":"//5091.svetacdn.in/71tsRs29n5tZ/tv-series/87"}],"current_page":559,"first_page_url":"https://videocdn.tv/api/short?limit=100&api_token=EnbO9h8pv1VyjbCJhg0WM9nG259n7mtz&cache3559=3559&page=1","from":55801,"last_page":666,"last_page_url":"https://videocdn.tv/api/short?limit=100&api_token=EnbO9h8pv1VyjbCJhg0WM9nG259n7mtz&cache3559=3559&page=666","next_page_url":"https://videocdn.tv/api/short?limit=100&api_token=EnbO9h8pv1VyjbCJhg0WM9nG259n7mtz&cache3559=3559&page=560","path":"https://videocdn.tv/api/short","per_page":100,"prev_page_url":"https://videocdn.tv/api/short?limit=100&api_token=EnbO9h8pv1VyjbCJhg0WM9nG259n7mtz&cache3559=3559&page=558","to":55840,"total":66579}