{"result":true,"data":[{"id":28657,"title":"Юбилей","kp_id":"42462","imdb_id":"tt0037477","world_art_id":null,"type":"movie","add":"2019-07-05 22:06:13","orig_title":"Yubiley","year":"1944-07-14","translations":["Оригинальная дорожка"],"quality":"dvdrip","translation":"Оригинальная дорожка","update":"2019-07-08 06:25:31","iframe_src":"//7043.svetacdn.in/si4jsFRrtgrT/movie/28657"},{"id":28656,"title":"Калиновая Роща","kp_id":"44692","imdb_id":"tt0045951","world_art_id":null,"type":"movie","add":"2019-07-05 22:02:30","orig_title":"Kalinovaya roshcha","year":"1953-11-26","translations":["Оригинальная дорожка"],"quality":"dvdrip","translation":"Оригинальная дорожка","update":"2019-07-08 06:24:23","iframe_src":"//7043.svetacdn.in/si4jsFRrtgrT/movie/28656"},{"id":28655,"title":"Кузнечик","kp_id":"45032","imdb_id":"tt0077823","world_art_id":null,"type":"movie","add":"2019-07-05 21:58:41","orig_title":"Kuznechik","year":"1979-05-15","translations":["Оригинальная дорожка"],"quality":"dvdrip","translation":"Оригинальная дорожка","update":"2019-07-08 06:23:45","iframe_src":"//7043.svetacdn.in/si4jsFRrtgrT/movie/28655"},{"id":28654,"title":"Март-апрель","kp_id":"537145","imdb_id":"tt4601014","world_art_id":null,"type":"movie","add":"2019-07-05 21:54:22","orig_title":"Mart-aprel","year":"1944-04-12","translations":["Оригинальная дорожка"],"quality":"dvdrip","translation":"Оригинальная дорожка","update":"2019-07-08 06:22:30","iframe_src":"//7043.svetacdn.in/si4jsFRrtgrT/movie/28654"},{"id":28653,"title":"Однажды ночью","kp_id":"42732","imdb_id":"tt0037143","world_art_id":null,"type":"movie","add":"2019-07-05 21:51:27","orig_title":"Odnazhdy nochyu","year":"1945-05-01","translations":["Оригинальная дорожка"],"quality":"dvdrip","translation":"Оригинальная дорожка","update":"2019-07-08 06:21:21","iframe_src":"//7043.svetacdn.in/si4jsFRrtgrT/movie/28653"},{"id":28652,"title":"Пятьдесят на пятьдесят","kp_id":"43376","imdb_id":"tt0314548","world_art_id":null,"type":"movie","add":"2019-07-05 21:48:26","orig_title":"Pyatdesyat na pyatdesyat","year":"1973-02-05","translations":["Оригинальная дорожка"],"quality":"dvdrip","translation":"Оригинальная дорожка","update":"2019-07-08 06:18:19","iframe_src":"//7043.svetacdn.in/si4jsFRrtgrT/movie/28652"},{"id":28651,"title":"Родные берега","kp_id":"496792","imdb_id":"tt4577886","world_art_id":null,"type":"movie","add":"2019-07-05 21:45:16","orig_title":"Rodnye berega","year":"1943-01-01","translations":["Оригинальная дорожка"],"quality":"dvdrip","translation":"Оригинальная дорожка","update":"2019-07-08 06:17:55","iframe_src":"//7043.svetacdn.in/si4jsFRrtgrT/movie/28651"},{"id":28650,"title":"Русский вопрос","kp_id":"42151","imdb_id":"tt0039790","world_art_id":null,"type":"movie","add":"2019-07-05 21:41:53","orig_title":"Russkiy vopros","year":"1948-03-08","translations":["Оригинальная дорожка"],"quality":"dvdrip","translation":"Оригинальная дорожка","update":"2019-07-08 06:16:36","iframe_src":"//7043.svetacdn.in/si4jsFRrtgrT/movie/28650"},{"id":28648,"title":"Сегодня увольнения не будет","kp_id":"43649","imdb_id":"tt0053258","world_art_id":null,"type":"movie","add":"2019-07-05 21:39:20","orig_title":"Segodnya uvolneniya ne budet","year":"1959-05-09","translations":["Оригинальная дорожка"],"quality":"dvdrip","translation":"Оригинальная дорожка","update":"2019-07-08 06:15:30","iframe_src":"//7043.svetacdn.in/si4jsFRrtgrT/movie/28648"},{"id":28647,"title":"Сердца трёх","kp_id":"254814","imdb_id":"tt0963997","world_art_id":null,"type":"movie","add":"2019-07-05 21:36:40","orig_title":"Serdtsa tryokh","year":"1992-10-01","translations":["Оригинальная дорожка"],"quality":"sat","translation":"Оригинальная дорожка","update":"2019-07-08 05:59:28","iframe_src":"//7043.svetacdn.in/si4jsFRrtgrT/movie/28647"},{"id":28645,"title":"Школа злословия","kp_id":"43756","imdb_id":"tt0194369","world_art_id":null,"type":"movie","add":"2019-07-05 21:33:30","orig_title":"Shkola zlosloviya","year":"1952-07-14","translations":["Оригинальная дорожка"],"quality":"dvdrip","translation":"Оригинальная дорожка","update":"2019-07-08 05:51:45","iframe_src":"//7043.svetacdn.in/si4jsFRrtgrT/movie/28645"},{"id":28643,"title":"Синдром недосказанности","kp_id":"929795","imdb_id":"tt8202446","world_art_id":null,"type":"movie","add":"2019-07-05 21:30:47","orig_title":"Sindrom nedoskazannosti","year":"2015-09-12","translations":["Оригинальная дорожка"],"quality":"hdtv","translation":"Оригинальная дорожка","update":"2019-07-08 05:51:06","iframe_src":"//7043.svetacdn.in/si4jsFRrtgrT/movie/28643"},{"id":28642,"title":"Слуга двух господ","kp_id":"43865","imdb_id":"tt0240001","world_art_id":null,"type":"movie","add":"2019-07-05 21:26:30","orig_title":"Sluga dvukh gospod","year":"1953-11-14","translations":["Оригинальная дорожка"],"quality":"dvdrip","translation":"Оригинальная дорожка","update":"2019-07-08 05:49:36","iframe_src":"//7043.svetacdn.in/si4jsFRrtgrT/movie/28642"},{"id":28641,"title":"Сватанье на Гончаровке","kp_id":"500578","imdb_id":null,"world_art_id":null,"type":"movie","add":"2019-07-05 20:16:15","orig_title":"Сватанье на Гончаровке","year":"1958-01-01","translations":["Оригинальная дорожка"],"quality":"dvdrip","translation":"Оригинальная дорожка","update":"2019-07-08 05:47:43","iframe_src":"//7043.svetacdn.in/si4jsFRrtgrT/movie/28641"},{"id":28640,"title":"Танкер «Дербент»","kp_id":"406162","imdb_id":"tt6680502","world_art_id":null,"type":"movie","add":"2019-07-05 20:10:20","orig_title":"Tanker 'Derbent'","year":"1941-06-09","translations":["Оригинальная дорожка"],"quality":"dvdrip","translation":"Оригинальная дорожка","update":"2019-07-08 05:46:27","iframe_src":"//7043.svetacdn.in/si4jsFRrtgrT/movie/28640"},{"id":28639,"title":"Весна в Москве","kp_id":"45749","imdb_id":"tt0171886","world_art_id":null,"type":"movie","add":"2019-07-05 20:06:18","orig_title":"Vesna v Moskve","year":"1953-03-31","translations":["Оригинальная дорожка"],"quality":"dvdrip","translation":"Оригинальная дорожка","update":"2019-07-08 05:45:14","iframe_src":"//7043.svetacdn.in/si4jsFRrtgrT/movie/28639"},{"id":28638,"title":"Живой труп","kp_id":"45332","imdb_id":"tt0045350","world_art_id":null,"type":"movie","add":"2019-07-05 19:45:11","orig_title":"Zhivoy trup","year":"1952-06-16","translations":["Оригинальная дорожка"],"quality":"dvdrip","translation":"Оригинальная дорожка","update":"2019-07-08 05:42:51","iframe_src":"//7043.svetacdn.in/si4jsFRrtgrT/movie/28638"},{"id":28637,"title":"Бобака Саскервилей","kp_id":"412070","imdb_id":"tt6270288","world_art_id":null,"type":"movie","add":"2019-07-05 19:40:35","orig_title":"Bobaka Saskerviley","year":"1998-01-01","translations":["Оригинальная дорожка"],"quality":"vhs","translation":"Оригинальная дорожка","update":"2019-07-08 05:41:29","iframe_src":"//7043.svetacdn.in/si4jsFRrtgrT/movie/28637"},{"id":28636,"title":"Дыня","kp_id":"693488","imdb_id":"tt3878462","world_art_id":null,"type":"movie","add":"2019-07-05 19:34:04","orig_title":"Dynya","year":"1982-01-01","translations":["Оригинальная дорожка"],"quality":"sat","translation":"Оригинальная дорожка","update":"2019-07-08 05:39:54","iframe_src":"//7043.svetacdn.in/si4jsFRrtgrT/movie/28636"},{"id":28635,"title":"Меня это не касается","kp_id":"804185","imdb_id":"tt3483160","world_art_id":null,"type":"movie","add":"2019-07-05 19:28:13","orig_title":"Menya eto ne kasaetsya","year":"2013-08-01","translations":["Оригинальная дорожка"],"quality":"dvdrip","translation":"Оригинальная дорожка","update":"2019-07-08 05:33:11","iframe_src":"//7043.svetacdn.in/si4jsFRrtgrT/movie/28635"}],"current_page":1222,"first_page_url":"https://videocdn.tv/api/short?limit=100&api_token=X6EwAUfE5M9xbo7y0Bp0aPf3uXxG2KLL&cache31222=31222&page=1","from":122101,"last_page":612,"last_page_url":"https://videocdn.tv/api/short?limit=100&api_token=X6EwAUfE5M9xbo7y0Bp0aPf3uXxG2KLL&cache31222=31222&page=612","next_page_url":null,"path":"https://videocdn.tv/api/short","per_page":100,"prev_page_url":"https://videocdn.tv/api/short?limit=100&api_token=X6EwAUfE5M9xbo7y0Bp0aPf3uXxG2KLL&cache31222=31222&page=1221","to":122120,"total":61166}