{"result":true,"data":[{"id":45901,"title":"Ты и я","kp_id":"1246178","imdb_id":"tt9845110","world_art_id":null,"type":"movie","add":"2020-12-07 19:27:41","orig_title":"Deux","year":"2019-09-07","translations":["Любительский (многоголосый закадровый) (AlphaProject)"],"quality":"webdl","translation":"Любительский (многоголосый закадровый) (AlphaProject)","update":"2020-12-08 07:23:02","iframe_src":"//7043.svetacdn.in/IAF0wWTdNYZm/movie/45901"},{"id":45900,"title":"Останься","kp_id":"876749","imdb_id":"tt3574966","world_art_id":null,"type":"movie","add":"2020-12-07 18:57:16","orig_title":"Stay","year":"2018-06-10","translations":["Любительский (многоголосый закадровый) (Синема УС)"],"quality":"webdl","translation":"Любительский (многоголосый закадровый) (Синема УС)","update":"2020-12-08 07:25:54","iframe_src":"//7043.svetacdn.in/IAF0wWTdNYZm/movie/45900"},{"id":45899,"title":"Куртуазная любовь","kp_id":null,"imdb_id":"tt10841514","world_art_id":null,"type":"movie","add":"2020-12-07 18:53:14","orig_title":"Fin Amor","year":"2019-08-18","translations":["Любительский (многоголосый закадровый) (Синема УС)"],"quality":"webdl","translation":"Любительский (многоголосый закадровый) (Синема УС)","update":"2020-12-08 07:31:57","iframe_src":"//7043.svetacdn.in/IAF0wWTdNYZm/movie/45899"},{"id":45898,"title":"Тащи мою пушку","kp_id":"1057455","imdb_id":"tt5833412","world_art_id":null,"type":"movie","add":"2020-12-07 18:51:05","orig_title":"Get My Gun","year":"2017-10-14","translations":["Любительский (многоголосый закадровый) (Синема УС)"],"quality":"bd","translation":"Любительский (многоголосый закадровый) (Синема УС)","update":"2020-12-08 07:41:51","iframe_src":"//7043.svetacdn.in/IAF0wWTdNYZm/movie/45898"},{"id":45897,"title":"Длиннная ночь в Блэкстоуне","kp_id":"1145214","imdb_id":"tt8392638","world_art_id":null,"type":"movie","add":"2020-12-07 18:49:01","orig_title":"Long Night at Blackstone","year":"2018-04-02","translations":["Любительский (многоголосый закадровый) (Синема УС)"],"quality":"webdl","translation":"Любительский (многоголосый закадровый) (Синема УС)","update":"2020-12-08 07:42:49","iframe_src":"//7043.svetacdn.in/IAF0wWTdNYZm/movie/45897"},{"id":45896,"title":"Моя семья и волк","kp_id":"1151418","imdb_id":"tt5869404","world_art_id":null,"type":"movie","add":"2020-12-07 18:47:14","orig_title":"Ma famille et le loup","year":"2019-08-02","translations":["Любительский (многоголосый закадровый) (Синема УС)"],"quality":"webdl","translation":"Любительский (многоголосый закадровый) (Синема УС)","update":"2020-12-08 07:44:05","iframe_src":"//7043.svetacdn.in/IAF0wWTdNYZm/movie/45896"},{"id":45895,"title":"Князь мира","kp_id":"1110047","imdb_id":"tt7645288","world_art_id":null,"type":"movie","add":"2020-12-07 18:45:29","orig_title":"Príncipe de paz","year":"2019-02-28","translations":["Любительский (многоголосый закадровый) (Синема УС)"],"quality":"webdl","translation":"Любительский (многоголосый закадровый) (Синема УС)","update":"2020-12-08 07:45:29","iframe_src":"//7043.svetacdn.in/IAF0wWTdNYZm/movie/45895"},{"id":45890,"title":"Императорский флот","kp_id":"164808","imdb_id":"tt0085620","world_art_id":null,"type":"movie","add":"2020-12-07 18:33:13","orig_title":"Rengo kantai","year":"1981-08-08","translations":["Любительский (одноголосый закадровый) (Ващенко Семён)"],"quality":"bd","translation":"Любительский (одноголосый закадровый) (Ващенко Семён)","update":"2020-12-08 07:19:32","iframe_src":"//7043.svetacdn.in/IAF0wWTdNYZm/movie/45890"},{"id":45889,"title":"Комендант Лаутербурга","kp_id":"635090","imdb_id":"tt5902720","world_art_id":null,"type":"movie","add":"2020-12-07 16:10:34","orig_title":"Komendant Lauterburga","year":"1969-01-01","translations":["Оригинальная дорожка"],"quality":"webdl","translation":"Оригинальная дорожка","update":"2020-12-07 20:00:50","iframe_src":"//7043.svetacdn.in/IAF0wWTdNYZm/movie/45889"},{"id":45887,"title":"Первая Леди","kp_id":"1313046","imdb_id":"tt11076496","world_art_id":null,"type":"movie","add":"2020-12-07 11:42:36","orig_title":"The Ghost and the House of Truth","year":"2019-11-01","translations":["Любительский (многоголосый закадровый) (Синема УС)"],"quality":"webdl","translation":"Любительский (многоголосый закадровый) (Синема УС)","update":"2020-12-08 06:28:41","iframe_src":"//7043.svetacdn.in/IAF0wWTdNYZm/movie/45887"},{"id":45886,"title":"Рождественское кольцо","kp_id":"1438034","imdb_id":"tt13267034","world_art_id":null,"type":"movie","add":"2020-12-07 11:40:43","orig_title":"The Christmas Ring","year":"2020-11-07","translations":["Любительский (многоголосый закадровый) (Синема УС)"],"quality":"hdtv","translation":"Любительский (многоголосый закадровый) (Синема УС)","update":"2020-12-08 06:28:11","iframe_src":"//7043.svetacdn.in/IAF0wWTdNYZm/movie/45886"},{"id":44609,"title":"Парадоксы","kp_id":"1399299","imdb_id":null,"world_art_id":null,"type":"movie","add":"2020-10-19 20:20:52","orig_title":"Парадоксы","year":"2020-10-15","translations":["Оригинальная дорожка"],"quality":"webdl","translation":"Оригинальная дорожка","update":"2020-12-08 07:17:51","iframe_src":"//7043.svetacdn.in/IAF0wWTdNYZm/movie/44609"},{"id":33549,"title":"Дьявол сказал мне, что делать","kp_id":"1154203","imdb_id":"tt8405634","world_art_id":null,"type":"movie","add":"2019-11-29 12:27:58","orig_title":"El diablo me dijo qué hacer","year":"2019-11-01","translations":["Любительский (многоголосый закадровый) (Колобок)","Любительский (многоголосый закадровый) (Синема УС)"],"quality":"webdl","translation":"Любительский (многоголосый закадровый) (Колобок)","update":"2020-12-08 07:24:17","iframe_src":"//7043.svetacdn.in/IAF0wWTdNYZm/movie/33549"},{"id":5627,"title":"Искушение наследством","kp_id":"1313581","imdb_id":null,"world_art_id":null,"type":"serial","add":"2019-11-03 21:59:07","orig_title":"Искушение наследством","year":"2019-11-02","translations":["Оригинальная дорожка"],"seasons_count":1,"episodes_count":2,"episodes":2,"update":"2019-11-04 05:50:19","iframe_src":"//7043.svetacdn.in/IAF0wWTdNYZm/tv-series/5627"},{"id":5603,"title":"Миллионер из Балашихи","kp_id":"1270744","imdb_id":null,"world_art_id":null,"type":"serial","add":"2019-11-02 10:26:09","orig_title":"Миллионер из Балашихи","year":"2019-02-25","translations":["Оригинальная дорожка"],"seasons_count":1,"episodes_count":6,"episodes":6,"update":"2019-11-02 22:29:22","iframe_src":"//7043.svetacdn.in/IAF0wWTdNYZm/tv-series/5603"},{"id":5602,"title":"Рыцарь нашего времени","kp_id":"1235982","imdb_id":null,"world_art_id":null,"type":"serial","add":"2019-11-02 10:22:15","orig_title":"Рыцарь нашего времени","year":"2019-01-01","translations":["Оригинальная дорожка"],"seasons_count":1,"episodes_count":4,"episodes":4,"update":"2019-11-04 05:54:32","iframe_src":"//7043.svetacdn.in/IAF0wWTdNYZm/tv-series/5602"},{"id":5601,"title":"Сага о Винланде","kp_id":"1274280","imdb_id":"tt10233448","world_art_id":null,"type":"serial","add":"2019-11-02 10:09:43","orig_title":"Vinland Saga","year":"2019-07-08","translations":["Профессиональный (многоголосый закадровый) (HDrezka Studio)"],"seasons_count":1,"episodes_count":15,"episodes":15,"update":"2019-11-03 09:20:48","iframe_src":"//7043.svetacdn.in/IAF0wWTdNYZm/tv-series/5601"},{"id":5600,"title":"Доктор Стоун","kp_id":"1249511","imdb_id":"tt9679542","world_art_id":null,"type":"serial","add":"2019-11-02 10:02:18","orig_title":"Dr. Stone","year":"2019-07-05","translations":["Профессиональный (многоголосый закадровый) (HDrezka Studio)"],"seasons_count":1,"episodes_count":16,"episodes":16,"update":"2019-11-04 07:23:59","iframe_src":"//7043.svetacdn.in/IAF0wWTdNYZm/tv-series/5600"},{"id":5590,"title":"Добро пожаловать в Вэйн","kp_id":"1048676","imdb_id":"tt7050084","world_art_id":null,"type":"serial","add":"2019-10-31 07:33:27","orig_title":"Welcome to the Wayne","year":"2017-07-24","translations":["Полное дублирование (Nickelodeon)"],"seasons_count":1,"episodes_count":20,"episodes":20,"update":"2019-11-05 07:25:34","iframe_src":"//7043.svetacdn.in/IAF0wWTdNYZm/tv-series/5590"},{"id":5588,"title":"Алекс","kp_id":"1201820","imdb_id":"tt6681686","world_art_id":null,"type":"serial","add":"2019-10-31 07:18:08","orig_title":"Alex","year":"2017-11-03","translations":["Профессиональный (двухголосый закадровый) (ViruseProject)"],"seasons_count":2,"episodes_count":12,"episodes":6,"update":"2019-11-05 06:48:35","iframe_src":"//7043.svetacdn.in/IAF0wWTdNYZm/tv-series/5588"},{"id":5586,"title":"Без координат","kp_id":"496833","imdb_id":"tt1587694","world_art_id":null,"type":"serial","add":"2019-10-30 19:52:59","orig_title":"Off the Map","year":"2011-01-12","translations":["Профессиональный (многоголосый закадровый) (Fox Life)"],"seasons_count":1,"episodes_count":13,"episodes":13,"update":"2019-11-02 20:49:37","iframe_src":"//7043.svetacdn.in/IAF0wWTdNYZm/tv-series/5586"},{"id":5585,"title":"Пером и шпагой","kp_id":"410939","imdb_id":"tt1266428","world_art_id":null,"type":"serial","add":"2019-10-30 19:49:34","orig_title":"Perom i shpagoy","year":"2008-05-30","translations":["Оригинальная дорожка"],"seasons_count":1,"episodes_count":12,"episodes":12,"update":"2019-11-02 20:36:16","iframe_src":"//7043.svetacdn.in/IAF0wWTdNYZm/tv-series/5585"},{"id":5583,"title":"Прятки","kp_id":"1236291","imdb_id":"tt9612028","world_art_id":null,"type":"serial","add":"2019-10-30 17:59:49","orig_title":"Pryatki","year":"2019-10-01","translations":["Оригинальная дорожка"],"seasons_count":1,"episodes_count":8,"episodes":8,"update":"2019-11-02 15:15:35","iframe_src":"//7043.svetacdn.in/IAF0wWTdNYZm/tv-series/5583"},{"id":5582,"title":"Самурай и кошка","kp_id":"897908","imdb_id":"tt3303752","world_art_id":null,"type":"serial","add":"2019-10-30 11:59:22","orig_title":"Neko zamurai","year":"2013-10-13","translations":["Любительский (одноголосый закадровый) (Arisu)"],"seasons_count":1,"episodes_count":12,"episodes":12,"update":"2019-11-02 11:46:24","iframe_src":"//7043.svetacdn.in/IAF0wWTdNYZm/tv-series/5582"},{"id":5581,"title":"В июне 1941","kp_id":"395688","imdb_id":"tt1270849","world_art_id":null,"type":"serial","add":"2019-10-30 11:54:31","orig_title":"V iyune 41-go","year":"2008-05-09","translations":["Оригинальная дорожка"],"seasons_count":1,"episodes_count":4,"episodes":4,"update":"2019-11-02 11:44:56","iframe_src":"//7043.svetacdn.in/IAF0wWTdNYZm/tv-series/5581"},{"id":5579,"title":"Тяжёлый понедельник","kp_id":"666942","imdb_id":"tt2217759","world_art_id":null,"type":"serial","add":"2019-10-30 11:43:08","orig_title":"Monday Mornings","year":"2013-02-04","translations":["Профессиональный (многоголосый закадровый) (Fox Life)"],"seasons_count":1,"episodes_count":10,"episodes":10,"update":"2019-11-02 11:42:39","iframe_src":"//7043.svetacdn.in/IAF0wWTdNYZm/tv-series/5579"},{"id":5493,"title":"Екатерина. Самозванцы","kp_id":"1197730","imdb_id":null,"world_art_id":null,"type":"serial","add":"2019-10-19 06:25:03","orig_title":"Екатерина. Самозванцы","year":"2019-10-21","translations":["Оригинальная дорожка"],"seasons_count":1,"episodes_count":16,"episodes":16,"update":"2019-11-02 11:30:27","iframe_src":"//7043.svetacdn.in/IAF0wWTdNYZm/tv-series/5493"},{"id":5135,"title":"Когда зовет надежда","kp_id":"1273206","imdb_id":"tt9145334","world_art_id":null,"type":"serial","add":"2019-09-03 08:15:34","orig_title":"When Hope Calls","year":"2019-08-01","translations":["Любительский (многоголосый закадровый) (Octopus)"],"seasons_count":1,"episodes_count":10,"episodes":10,"update":"2019-11-03 22:33:28","iframe_src":"//7043.svetacdn.in/IAF0wWTdNYZm/tv-series/5135"},{"id":29872,"title":"Медиум","kp_id":"1053164","imdb_id":"tt6878382","world_art_id":null,"type":"movie","add":"2019-08-08 22:20:52","orig_title":"Perception","year":"2018-01-01","translations":["Любительский (многоголосый закадровый) (Синема УС)","Профессиональный (многоголосый закадровый) (iTunes)"],"quality":"webdl","translation":"Любительский (многоголосый закадровый) (Синема УС)","update":"2020-12-08 07:21:25","iframe_src":"//7043.svetacdn.in/IAF0wWTdNYZm/movie/29872"},{"id":3876,"title":"Трое с небес: Истории Аркадии","kp_id":"1113117","imdb_id":"tt7736544","world_art_id":null,"type":"serial","add":"2019-01-14 16:39:37","orig_title":"3Below: Tales of Arcadia","year":"2018-12-21","translations":["Любительский (двухголосый закадровый) (KinoGolos)","Профессиональный (многоголосый закадровый) (HDrezka Studio)","Полное дублирование (Пифагор)"],"seasons_count":2,"episodes_count":26,"episodes":13,"update":"2019-11-04 06:53:21","iframe_src":"//7043.svetacdn.in/IAF0wWTdNYZm/tv-series/3876"},{"id":20190,"title":"Скорость убивает","kp_id":"1093396","imdb_id":"tt6749318","world_art_id":null,"type":"movie","add":"2018-11-18 19:55:19","orig_title":"Speed Kills","year":"2018-08-16","translations":["Любительский (многоголосый закадровый) (@MUZOBOZ@)","Профессиональный (многоголосый закадровый) (HDrezka Studio)","Original (English)","Профессиональный (многоголосый закадровый) (HDrezka Studio)"],"quality":"webdl","translation":"Любительский (многоголосый закадровый) (@MUZOBOZ@)","update":"2020-12-07 14:22:25","iframe_src":"//7043.svetacdn.in/IAF0wWTdNYZm/movie/20190"},{"id":18962,"title":"Сто и одна ночь Симона Синема","kp_id":"2754","imdb_id":"tt0112654","world_art_id":null,"type":"movie","add":"2018-09-13 23:24:46","orig_title":"Les cent et une nuits de Simon Cinéma","year":"1995-01-25","translations":["Профессиональный (двухголосый закадровый) (НТВ)"],"quality":"bd","translation":"Профессиональный (двухголосый закадровый) (НТВ)","update":"2020-12-08 07:40:30","iframe_src":"//7043.svetacdn.in/IAF0wWTdNYZm/movie/18962"},{"id":2600,"title":"Сладкая горечь","kp_id":"1112960","imdb_id":"tt7563270","world_art_id":null,"type":"serial","add":"2018-05-21 03:55:48","orig_title":"Sweetbitter","year":"2018-05-06","translations":["Профессиональный (многоголосый закадровый) (BaibaKo)","Профессиональный (многоголосый закадровый) (HDrezka Studio)","Профессиональный (многоголосый закадровый) (NewStudio)"],"seasons_count":2,"episodes_count":14,"episodes":8,"update":"2019-11-03 18:01:58","iframe_src":"//7043.svetacdn.in/IAF0wWTdNYZm/tv-series/2600"},{"id":690,"title":"Пропавший без вести","kp_id":"843138","imdb_id":"tt3877200","world_art_id":null,"type":"serial","add":"2016-12-15 07:01:32","orig_title":"The Missing","year":"2014-10-28","translations":["Профессиональный (многоголосый закадровый) (Amedia)","Профессиональный (многоголосый закадровый) (ColdFilm)"],"seasons_count":2,"episodes_count":16,"episodes":16,"update":"2019-11-03 16:58:05","iframe_src":"//7043.svetacdn.in/IAF0wWTdNYZm/tv-series/690"},{"id":661,"title":"Развод","kp_id":"883270","imdb_id":"tt4304864","world_art_id":null,"type":"serial","add":"2016-12-05 12:26:54","orig_title":"Divorce","year":"2016-10-09","translations":["Профессиональный (многоголосый закадровый) (NewStudio)","Профессиональный (многоголосый закадровый) (HDrezka Studio)"],"seasons_count":3,"episodes_count":24,"episodes":6,"update":"2019-11-03 08:58:58","iframe_src":"//7043.svetacdn.in/IAF0wWTdNYZm/tv-series/661"},{"id":375,"title":"Кайфоломы","kp_id":"891589","imdb_id":"tt3952222","world_art_id":null,"type":"serial","add":"2016-08-26 11:46:00","orig_title":"Killjoys","year":"2015-06-19","translations":["Профессиональный (многоголосый закадровый)","Профессиональный (многоголосый закадровый) (HDrezka Studio)","Профессиональный (многоголосый закадровый) (LostFilm)"],"seasons_count":5,"episodes_count":50,"episodes":10,"update":"2019-11-04 07:16:34","iframe_src":"//7043.svetacdn.in/IAF0wWTdNYZm/tv-series/375"},{"id":1724,"title":"Специалист","kp_id":"8176","imdb_id":"tt0111255","world_art_id":null,"type":"movie","add":"2016-04-29 10:51:30","orig_title":"The Specialist","year":"1994-10-07","translations":["Полное дублирование","Авторский (одноголосый закадровый) (Гаврилов Андрей)","Авторский (одноголосый закадровый) (Дохалов Вартан)","Авторский (одноголосый закадровый) (Живов Юрий)","Полное дублирование (Варус-Видео)","Профессиональный (двухголосый закадровый) (НТВ)","Профессиональный (двухголосый закадровый) (РТР | Россия)","Авторский (одноголосый закадровый) (Гаевский Евгений)"],"quality":"bd","translation":"Полное дублирование","update":"2020-12-08 07:30:41","iframe_src":"//7043.svetacdn.in/IAF0wWTdNYZm/movie/1724"},{"id":912,"title":"Гран Торино","kp_id":"408410","imdb_id":"tt1205489","world_art_id":null,"type":"movie","add":"2016-04-09 17:44:36","orig_title":"Gran Torino","year":"2008-12-09","translations":["Полное дублирование","Авторский (одноголосый закадровый) (Гаврилов Андрей)","Авторский (одноголосый закадровый) (Гоблин | Пучков Дмитрий)","Авторский (одноголосый закадровый) (Киреев Антон)","Авторский (одноголосый закадровый) (Сербин Юрий)","Полное дублирование","Original (English)","Профессиональный (многоголосый закадровый) (Первый канал | ОРТ)"],"quality":"bd","translation":"Полное дублирование","update":"2020-12-07 14:32:39","iframe_src":"//7043.svetacdn.in/IAF0wWTdNYZm/movie/912"},{"id":837,"title":"Знакомьтесь, Джо Блэк","kp_id":"5059","imdb_id":"tt0119643","world_art_id":null,"type":"movie","add":"2016-04-08 17:20:18","orig_title":"Meet Joe Black","year":"1998-11-02","translations":["Полное дублирование","Original (English)","Авторский (одноголосый закадровый) (Кашкин Александр | Первомайский)","Авторский (одноголосый закадровый) (Латышев Максим | CDV)","Авторский (одноголосый закадровый) (Живов Юрий)","Original (English)","Профессиональный (двухголосый закадровый) (Гланц + Королёва)","Профессиональный (многоголосый закадровый)","Профессиональный (многоголосый закадровый) (Позитив)"],"quality":"bd","translation":"Полное дублирование","update":"2020-12-07 14:42:22","iframe_src":"//7043.svetacdn.in/IAF0wWTdNYZm/movie/837"},{"id":81,"title":"Несносные боссы 2","kp_id":"662337","imdb_id":"tt2170439","world_art_id":null,"type":"movie","add":"2016-02-09 11:31:57","orig_title":"Horrible Bosses 2","year":"2014-11-12","translations":["Полное дублирование","Original (English)","Авторский (одноголосый закадровый) (Гоблин | Пучков Дмитрий)"],"quality":"bd","translation":"Полное дублирование","update":"2020-12-07 14:59:28","iframe_src":"//7043.svetacdn.in/IAF0wWTdNYZm/movie/81"}],"current_page":307,"first_page_url":"https://videocdn.tv/api/short?limit=100&api_token=6Onb1W1alEUrBcKJZD3GoKBbWyAl2uG2&cache3307=3307&page=1","from":30601,"last_page":618,"last_page_url":"https://videocdn.tv/api/short?limit=100&api_token=6Onb1W1alEUrBcKJZD3GoKBbWyAl2uG2&cache3307=3307&page=618","next_page_url":"https://videocdn.tv/api/short?limit=100&api_token=6Onb1W1alEUrBcKJZD3GoKBbWyAl2uG2&cache3307=3307&page=308","path":"https://videocdn.tv/api/short","per_page":100,"prev_page_url":"https://videocdn.tv/api/short?limit=100&api_token=6Onb1W1alEUrBcKJZD3GoKBbWyAl2uG2&cache3307=3307&page=306","to":30640,"total":61734}