{"result":true,"data":[{"id":15222,"title":"Элементы материи","kp_id":"981186","imdb_id":"tt5611404","world_art_id":null,"type":"movie","add":"2018-02-18 20:24:10","orig_title":"Elements of Matter","year":"2018-02-27","translations":["Любительский (многоголосый закадровый) (Синема УС)"],"quality":"hdrip","translation":"Любительский (многоголосый закадровый) (Синема УС)","update":"2018-02-19 08:44:10","iframe_src":"//8209.svetacdn.in/si4jsFRrtgrT/movie/15222"},{"id":15221,"title":"Цвет современности","kp_id":"963958","imdb_id":"tt5258306","world_art_id":null,"type":"movie","add":"2018-02-17 23:31:59","orig_title":"Contemporary Color","year":"2016-04-14","translations":["Любительский (многоголосый закадровый) (Синема УС)"],"quality":"bd","translation":"Любительский (многоголосый закадровый) (Синема УС)","update":"2018-02-19 08:40:22","iframe_src":"//8209.svetacdn.in/si4jsFRrtgrT/movie/15221"},{"id":15220,"title":"Рождественский обмен","kp_id":null,"imdb_id":"tt6243612","world_art_id":null,"type":"movie","add":"2018-02-17 23:29:13","orig_title":"The Christmas Swap","year":"2016-11-26","translations":["Любительский (многоголосый закадровый) (Синема УС)"],"quality":"hdtv","translation":"Любительский (многоголосый закадровый) (Синема УС)","update":"2018-02-19 08:39:00","iframe_src":"//8209.svetacdn.in/si4jsFRrtgrT/movie/15220"},{"id":15218,"title":"Колдовство 16: шабаш на Хэллоуин","kp_id":"916439","imdb_id":"tt4760268","world_art_id":null,"type":"movie","add":"2018-02-17 23:22:16","orig_title":"Witchcraft 16: Hollywood Coven","year":"2017-01-09","translations":["Любительский (многоголосый закадровый) (Синема УС)"],"quality":"webdl","translation":"Любительский (многоголосый закадровый) (Синема УС)","update":"2018-02-19 08:35:00","iframe_src":"//8209.svetacdn.in/si4jsFRrtgrT/movie/15218"},{"id":15217,"title":"Колдовство 15: Кровавая Роза","kp_id":"917475","imdb_id":"tt4790076","world_art_id":null,"type":"movie","add":"2018-02-17 23:20:31","orig_title":"Witchcraft 15: Blood Rose","year":"2017-03-31","translations":["Любительский (многоголосый закадровый) (Синема УС)"],"quality":"webdl","translation":"Любительский (многоголосый закадровый) (Синема УС)","update":"2018-02-19 07:42:33","iframe_src":"//8209.svetacdn.in/si4jsFRrtgrT/movie/15217"},{"id":15215,"title":"Утка на миллион","kp_id":"964260","imdb_id":"tt5372452","world_art_id":null,"type":"movie","add":"2018-02-17 23:16:11","orig_title":"The Million Dollar Duck","year":"2016-01-24","translations":["Любительский (многоголосый закадровый) (Синема УС)"],"quality":"webdl","translation":"Любительский (многоголосый закадровый) (Синема УС)","update":"2018-02-19 07:03:45","iframe_src":"//8209.svetacdn.in/si4jsFRrtgrT/movie/15215"},{"id":15213,"title":"Сила","kp_id":"1008856","imdb_id":"tt6159518","world_art_id":null,"type":"movie","add":"2018-02-17 23:11:10","orig_title":"The Force","year":"2017-01-22","translations":["Любительский (многоголосый закадровый) (Синема УС)"],"quality":"webdl","translation":"Любительский (многоголосый закадровый) (Синема УС)","update":"2018-02-19 07:01:08","iframe_src":"//8209.svetacdn.in/si4jsFRrtgrT/movie/15213"},{"id":15210,"title":"Встречайте Глорию Оллред","kp_id":"1112202","imdb_id":"tt7689924","world_art_id":null,"type":"movie","add":"2018-02-17 23:05:33","orig_title":"Seeing Allred","year":"2018-02-21","translations":["Любительский (многоголосый закадровый) (Синема УС)"],"quality":"webdl","translation":"Любительский (многоголосый закадровый) (Синема УС)","update":"2018-02-19 06:52:01","iframe_src":"//8209.svetacdn.in/si4jsFRrtgrT/movie/15210"},{"id":15209,"title":"Эйнштейн и теория относительности","kp_id":null,"imdb_id":"tt5185892","world_art_id":null,"type":"movie","add":"2018-02-17 23:00:11","orig_title":"Einstein et la relativite generale, une histoire singuliere","year":"2015-11-19","translations":["Профессиональный (двухголосый закадровый)"],"quality":"hdtv","translation":"Профессиональный (двухголосый закадровый)","update":"2018-02-19 06:46:37","iframe_src":"//8209.svetacdn.in/si4jsFRrtgrT/movie/15209"},{"id":15208,"title":"Чавела","kp_id":"1039793","imdb_id":"tt6217664","world_art_id":null,"type":"movie","add":"2018-02-17 22:57:12","orig_title":"Chavela","year":"2017-02-10","translations":["Любительский (многоголосый закадровый) (Синема УС)"],"quality":"dvdrip","translation":"Любительский (многоголосый закадровый) (Синема УС)","update":"2018-02-19 06:45:15","iframe_src":"//8209.svetacdn.in/si4jsFRrtgrT/movie/15208"},{"id":15207,"title":"Бадди Солитэр","kp_id":"903687","imdb_id":"tt3721924","world_art_id":null,"type":"movie","add":"2018-02-17 22:54:01","orig_title":"Buddy Solitaire","year":"2016-03-04","translations":["Любительский (многоголосый закадровый) (Синема УС)"],"quality":"webdl","translation":"Любительский (многоголосый закадровый) (Синема УС)","update":"2018-02-19 06:38:02","iframe_src":"//8209.svetacdn.in/si4jsFRrtgrT/movie/15207"},{"id":15206,"title":"Чёрный ручей","kp_id":"996128","imdb_id":"tt5940448","world_art_id":null,"type":"movie","add":"2018-02-17 22:51:13","orig_title":"Black Creek","year":"2017-02-17","translations":["Профессиональный (многоголосый закадровый)"],"quality":"webdl","translation":"Профессиональный (многоголосый закадровый)","update":"2018-02-19 06:36:56","iframe_src":"//8209.svetacdn.in/si4jsFRrtgrT/movie/15206"},{"id":15205,"title":"История Розы Паркс","kp_id":"1083546","imdb_id":"tt7525942","world_art_id":null,"type":"movie","add":"2018-02-17 22:48:37","orig_title":"Behind the Movement","year":"2018-02-11","translations":["Любительский (многоголосый закадровый) (Синема УС)"],"quality":"hdtv","translation":"Любительский (многоголосый закадровый) (Синема УС)","update":"2018-02-19 06:35:57","iframe_src":"//8209.svetacdn.in/si4jsFRrtgrT/movie/15205"},{"id":15197,"title":"Босиком","kp_id":"986907","imdb_id":"tt5785056","world_art_id":null,"type":"movie","add":"2018-02-17 11:24:44","orig_title":"Po strnisti bos","year":"2017-08-17","translations":["Любительский (многоголосый закадровый) (Синема УС)"],"quality":"webdl","translation":"Любительский (многоголосый закадровый) (Синема УС)","update":"2018-02-19 06:18:55","iframe_src":"//8209.svetacdn.in/si4jsFRrtgrT/movie/15197"},{"id":15195,"title":"Больше, чем кино","kp_id":"1111705","imdb_id":null,"world_art_id":null,"type":"movie","add":"2018-02-17 11:12:06","orig_title":"Больше, чем кино","year":"2017-11-29","translations":["Оригинальная дорожка"],"quality":"webdl","translation":"Оригинальная дорожка","update":"2018-02-19 06:10:54","iframe_src":"//8209.svetacdn.in/si4jsFRrtgrT/movie/15195"},{"id":15194,"title":"Задница","kp_id":"1005015","imdb_id":"tt6098486","world_art_id":null,"type":"movie","add":"2018-02-17 11:08:32","orig_title":"Assholes","year":"2017-03-11","translations":["Профессиональный (многоголосый закадровый)"],"quality":"webdl","translation":"Профессиональный (многоголосый закадровый)","update":"2018-02-19 06:09:18","iframe_src":"//8209.svetacdn.in/si4jsFRrtgrT/movie/15194"},{"id":14547,"title":"Вторжение пришельцев: S.U.M.1","kp_id":"881156","imdb_id":"tt4279116","world_art_id":null,"type":"movie","add":"2017-12-04 20:47:33","orig_title":"Sum1","year":"2017-03-11","translations":["Любительский (многоголосый закадровый) (Синема УС)"],"quality":"bd","translation":"Любительский (многоголосый закадровый) (Синема УС)","update":"2018-02-19 08:41:44","iframe_src":"//8209.svetacdn.in/si4jsFRrtgrT/movie/14547"},{"id":14467,"title":"Тайна Коко","kp_id":"679486","imdb_id":"tt2380307","world_art_id":null,"type":"movie","add":"2017-11-27 17:36:04","orig_title":"Coco","year":"2017-10-20","translations":["Профессиональный (многоголосый закадровый) (GreenРай Studio)","Полное дублирование"],"quality":"webdl","translation":"Профессиональный (многоголосый закадровый) (GreenРай Studio)","update":"2018-02-16 07:13:39","iframe_src":"//8209.svetacdn.in/si4jsFRrtgrT/movie/14467"},{"id":14249,"title":"Убить за лайк","kp_id":"978753","imdb_id":"tt3859272","world_art_id":null,"type":"movie","add":"2017-11-05 23:15:31","orig_title":"Tragedy Girls","year":"2017-03-12","translations":["Полное дублирование","Полное дублирование (iTunes)"],"quality":"webdl","translation":"Полное дублирование","update":"2018-02-19 06:25:57","iframe_src":"//8209.svetacdn.in/si4jsFRrtgrT/movie/14249"},{"id":9831,"title":"И проиграли бой","kp_id":"887816","imdb_id":"tt4411618","world_art_id":null,"type":"movie","add":"2017-02-20 12:09:36","orig_title":"In Dubious Battle","year":"2016-09-03","translations":["Любительский (многоголосый закадровый) (Синема УС)","Полное дублирование"],"quality":"webdl","translation":"Любительский (многоголосый закадровый) (Синема УС)","update":"2018-02-19 06:50:38","iframe_src":"//8209.svetacdn.in/si4jsFRrtgrT/movie/9831"}],"current_page":2071,"first_page_url":"https://videocdn.tv/api/short?limit=100&api_token=X6EwAUfE5M9xbo7y0Bp0aPf3uXxG2KLL&cache32071=32071&page=1","from":207001,"last_page":656,"last_page_url":"https://videocdn.tv/api/short?limit=100&api_token=X6EwAUfE5M9xbo7y0Bp0aPf3uXxG2KLL&cache32071=32071&page=656","next_page_url":null,"path":"https://videocdn.tv/api/short","per_page":100,"prev_page_url":"https://videocdn.tv/api/short?limit=100&api_token=X6EwAUfE5M9xbo7y0Bp0aPf3uXxG2KLL&cache32071=32071&page=2070","to":207020,"total":65600}