{"result":true,"data":[{"id":52933,"title":"Мгновение после гибели","kp_id":"767052","imdb_id":"tt2957618","world_art_id":null,"type":"movie","add":"2021-09-07 11:48:52","orig_title":"Immediately Afterlife","year":"2014-08-19","translations":["Любительский (многоголосый закадровый) (RusFilm)"],"quality":"webdl","translation":"Любительский (многоголосый закадровый) (RusFilm)","update":"2021-09-07 16:50:12","iframe_src":"//24213.svetacdn.in/IAF0wWTdNYZm/movie/52933"},{"id":52907,"title":"Путешествие в никуда","kp_id":"86786","imdb_id":"tt0423313","world_art_id":null,"type":"movie","add":"2021-09-06 16:51:52","orig_title":"Tahalka","year":"1992-06-26","translations":["Профессиональный (двухголосый закадровый) (Bollywood HD)"],"quality":"hdtv","translation":"Профессиональный (двухголосый закадровый) (Bollywood HD)","update":"2021-09-07 16:48:44","iframe_src":"//24213.svetacdn.in/IAF0wWTdNYZm/movie/52907"},{"id":52906,"title":"Джиоти","kp_id":"40425","imdb_id":"tt0157873","world_art_id":null,"type":"movie","add":"2021-09-06 16:49:16","orig_title":"Jyoti","year":"1981-01-01","translations":["Любительский (многоголосый закадровый)"],"quality":"dvdrip","translation":"Любительский (многоголосый закадровый)","update":"2021-09-07 16:54:05","iframe_src":"//24213.svetacdn.in/IAF0wWTdNYZm/movie/52906"},{"id":52905,"title":"Иностранец","kp_id":"1049811","imdb_id":"tt7549484","world_art_id":null,"type":"movie","add":"2021-09-06 16:43:45","orig_title":"Firangi","year":"2017-12-01","translations":["Профессиональный (двухголосый закадровый) (Bollywood HD)"],"quality":"hdtv","translation":"Профессиональный (двухголосый закадровый) (Bollywood HD)","update":"2021-09-07 16:54:07","iframe_src":"//24213.svetacdn.in/IAF0wWTdNYZm/movie/52905"},{"id":52904,"title":"Индийский господин","kp_id":"95507","imdb_id":"tt0348644","world_art_id":null,"type":"movie","add":"2021-09-06 16:40:48","orig_title":"Indian Babu","year":"2003-03-07","translations":["Профессиональный (двухголосый закадровый) (Bollywood HD)"],"quality":"hdtv","translation":"Профессиональный (двухголосый закадровый) (Bollywood HD)","update":"2021-09-07 16:54:08","iframe_src":"//24213.svetacdn.in/IAF0wWTdNYZm/movie/52904"},{"id":52903,"title":"Страх","kp_id":"2777","imdb_id":"tt0110965","world_art_id":null,"type":"movie","add":"2021-09-06 16:16:20","orig_title":"Relative Fear","year":"1994-12-16","translations":["Авторский (одноголосый закадровый) (Дохалов Вартан)"],"quality":"dvdrip","translation":"Авторский (одноголосый закадровый) (Дохалов Вартан)","update":"2021-09-06 17:16:15","iframe_src":"//24213.svetacdn.in/IAF0wWTdNYZm/movie/52903"},{"id":52902,"title":"На последнем дыхании","kp_id":"18511","imdb_id":"tt0053472","world_art_id":null,"type":"movie","add":"2021-09-06 15:50:42","orig_title":"À bout de souffle","year":"1960-03-16","translations":["Профессиональный (многоголосый закадровый) (DVD Магия)","Профессиональный (многоголосый закадровый) (Видеоимпульс)"],"quality":"bd","translation":"Профессиональный (многоголосый закадровый) (DVD Магия)","update":"2021-09-07 06:16:40","iframe_src":"//24213.svetacdn.in/IAF0wWTdNYZm/movie/52902"},{"id":52900,"title":"Не поднимай мост, углуби реку","kp_id":"27590","imdb_id":"tt0061591","world_art_id":null,"type":"movie","add":"2021-09-06 15:36:05","orig_title":"Don't Raise the Bridge, Lower the River","year":"1968-06-19","translations":["[EN] Original (English)","Любительский (двухголосый закадровый) (SNK-TV)"],"quality":"webdl","translation":"[EN] Original (English)","update":"2021-09-07 06:20:27","iframe_src":"//24213.svetacdn.in/IAF0wWTdNYZm/movie/52900"},{"id":52899,"title":"Лабиринт","kp_id":"757214","imdb_id":"tt2825854","world_art_id":null,"type":"movie","add":"2021-09-06 15:32:47","orig_title":"Labyrinthus","year":"2014-07-02","translations":["Профессиональный (многоголосый закадровый) (IVI)"],"quality":"webdl","translation":"Профессиональный (многоголосый закадровый) (IVI)","update":"2021-09-07 06:21:41","iframe_src":"//24213.svetacdn.in/IAF0wWTdNYZm/movie/52899"},{"id":52890,"title":"Рука","kp_id":"17239","imdb_id":"tt0082497","world_art_id":null,"type":"movie","add":"2021-09-06 07:00:03","orig_title":"The Hand","year":"1981-04-24","translations":["[EN] Original (English)","Профессиональный (многоголосый закадровый) (НТВ)","Профессиональный (многоголосый закадровый) (Пифагор)"],"quality":"bd","translation":"[EN] Original (English)","update":"2021-09-07 06:44:21","iframe_src":"//24213.svetacdn.in/IAF0wWTdNYZm/movie/52890"},{"id":52882,"title":"Прощай, любовь","kp_id":"1570","imdb_id":"tt0112606","world_art_id":null,"type":"movie","add":"2021-09-05 19:59:27","orig_title":"Bye Bye Love","year":"1995-03-17","translations":["Профессиональный (многоголосый закадровый) (Первый канал | ОРТ)"],"quality":"webdl","translation":"Профессиональный (многоголосый закадровый) (Первый канал | ОРТ)","update":"2021-09-06 15:27:03","iframe_src":"//24213.svetacdn.in/IAF0wWTdNYZm/movie/52882"},{"id":52852,"title":"План А","kp_id":"1316655","imdb_id":"tt5448338","world_art_id":null,"type":"movie","add":"2021-09-04 06:53:12","orig_title":"Plan A","year":"2021-07-23","translations":["Любительский (многоголосый закадровый) (AlphaProject)","[EN] Original (English)"],"quality":"webdl","translation":"Любительский (многоголосый закадровый) (AlphaProject)","update":"2021-09-07 07:29:11","iframe_src":"//24213.svetacdn.in/IAF0wWTdNYZm/movie/52852"},{"id":50707,"title":"В винном отражении","kp_id":"1392597","imdb_id":"tt12411372","world_art_id":null,"type":"movie","add":"2021-05-28 14:00:31","orig_title":"Wine reflection","year":"2021-05-27","translations":["Оригинальная дорожка","Оригинальная дорожка"],"quality":"ts","translation":"Оригинальная дорожка","update":"2021-09-07 16:54:05","iframe_src":"//24213.svetacdn.in/IAF0wWTdNYZm/movie/50707"},{"id":38315,"title":"Мститель","kp_id":"224858","imdb_id":"tt0157358","world_art_id":null,"type":"movie","add":"2020-03-20 18:41:45","orig_title":"Barood","year":"1976-01-01","translations":["Полное дублирование"],"quality":"webdl","translation":"Полное дублирование","update":"2021-09-07 16:54:03","iframe_src":"//24213.svetacdn.in/IAF0wWTdNYZm/movie/38315"},{"id":35176,"title":"Ловушка разума","kp_id":"881455","imdb_id":"tt4354756","world_art_id":null,"type":"movie","add":"2020-01-18 08:57:06","orig_title":"The Wave","year":"2019-09-21","translations":["Любительский (многоголосый закадровый) (@MUZOBOZ@)","Полное дублирование","Полное дублирование (iTunes)","Авторский (одноголосый закадровый) (Яроцкий Михаил | Kyberpunk)","[EN] Original (English)"],"quality":"webdl","translation":"Любительский (многоголосый закадровый) (@MUZOBOZ@)","update":"2021-09-07 06:29:07","iframe_src":"//24213.svetacdn.in/IAF0wWTdNYZm/movie/35176"},{"id":20290,"title":"Утойя. Выстрелы Брейвика","kp_id":"1112681","imdb_id":"tt7959216","world_art_id":null,"type":"movie","add":"2018-11-25 20:52:23","orig_title":"Utøya 22. juli","year":"2018-02-19","translations":["Любительский (многоголосый закадровый) (GreenРай Studio)","Профессиональный (многоголосый закадровый) (GreenРай Studio)","Профессиональный (многоголосый закадровый) (iTunes)","Профессиональный (многоголосый закадровый) (СВ-Студия)"],"quality":"webdl","translation":"Любительский (многоголосый закадровый) (GreenРай Studio)","update":"2021-09-06 15:31:50","iframe_src":"//24213.svetacdn.in/IAF0wWTdNYZm/movie/20290"},{"id":19620,"title":"Марио","kp_id":"1069383","imdb_id":"tt6999052","world_art_id":null,"type":"movie","add":"2018-10-17 23:03:22","orig_title":"Mario","year":"2018-01-27","translations":["Любительский (многоголосый закадровый) (Синема УС)","Любительский (двухголосый закадровый) (LakeFilms)","Любительский (многоголосый закадровый) (GreenРай Studio)","Любительский (одноголосый закадровый) (RiN)"],"quality":"webdl","translation":"Любительский (многоголосый закадровый) (Синема УС)","update":"2021-09-06 15:30:10","iframe_src":"//24213.svetacdn.in/IAF0wWTdNYZm/movie/19620"},{"id":2495,"title":"Дальнобойщик","kp_id":"1101314","imdb_id":null,"world_art_id":null,"type":"serial","add":"2018-05-02 07:33:05","orig_title":"Дальнобойщик","year":"2018-04-30","translations":["Оригинальная дорожка"],"seasons_count":1,"episodes_count":2,"episodes":2,"update":"2018-05-02 10:02:43","iframe_src":"//24213.svetacdn.in/IAF0wWTdNYZm/tv-series/2495"},{"id":2490,"title":"Росомаха и Люди Икс. Начало","kp_id":"439734","imdb_id":"tt0772145","world_art_id":null,"type":"serial","add":"2018-04-30 15:11:51","orig_title":"Wolverine and the X-Men","year":"2008-09-08","translations":["Полное дублирование"],"seasons_count":1,"episodes_count":26,"episodes":26,"update":"2018-05-02 07:10:54","iframe_src":"//24213.svetacdn.in/IAF0wWTdNYZm/tv-series/2490"},{"id":2487,"title":"Джентльмены и гангстеры","kp_id":"1115290","imdb_id":"tt4600502","world_art_id":null,"type":"serial","add":"2018-04-30 14:10:31","orig_title":"Gentlemen & Gangsters","year":"2016-01-01","translations":["Профессиональный (многоголосый закадровый) (GreenРай Studio)"],"seasons_count":1,"episodes_count":4,"episodes":4,"update":"2018-05-02 12:00:33","iframe_src":"//24213.svetacdn.in/IAF0wWTdNYZm/tv-series/2487"},{"id":2483,"title":"Тима и Тома","kp_id":"988081","imdb_id":null,"world_art_id":null,"type":"serial","add":"2018-04-30 11:17:17","orig_title":"Тима и Тома","year":"2015-09-17","translations":["Оригинальная дорожка"],"seasons_count":1,"episodes_count":52,"episodes":52,"update":"2018-05-01 11:40:56","iframe_src":"//24213.svetacdn.in/IAF0wWTdNYZm/tv-series/2483"},{"id":2475,"title":"Яблочный спас","kp_id":"723406","imdb_id":null,"world_art_id":null,"type":"serial","add":"2018-04-26 12:50:42","orig_title":"Яблочный спас","year":"2012-12-22","translations":["Оригинальная дорожка"],"seasons_count":1,"episodes_count":2,"episodes":2,"update":"2018-04-28 07:53:41","iframe_src":"//24213.svetacdn.in/IAF0wWTdNYZm/tv-series/2475"},{"id":2471,"title":"Грач","kp_id":"586649","imdb_id":"tt4095688","world_art_id":null,"type":"serial","add":"2018-04-26 12:38:43","orig_title":"Grach","year":"2012-12-24","translations":["Оригинальная дорожка"],"seasons_count":1,"episodes_count":12,"episodes":12,"update":"2018-04-27 10:53:51","iframe_src":"//24213.svetacdn.in/IAF0wWTdNYZm/tv-series/2471"},{"id":2466,"title":"Один на всех","kp_id":"701713","imdb_id":"tt3547898","world_art_id":null,"type":"serial","add":"2018-04-26 11:59:00","orig_title":"Odin na vsekh","year":"2013-03-23","translations":["Оригинальная дорожка"],"seasons_count":1,"episodes_count":2,"episodes":2,"update":"2018-04-28 10:49:37","iframe_src":"//24213.svetacdn.in/IAF0wWTdNYZm/tv-series/2466"},{"id":2464,"title":"Лист ожидания","kp_id":"608764","imdb_id":"tt3084276","world_art_id":null,"type":"serial","add":"2018-04-26 11:53:46","orig_title":"List ozhidaniya","year":"2012-06-24","translations":["Оригинальная дорожка"],"seasons_count":1,"episodes_count":12,"episodes":12,"update":"2018-05-02 10:38:58","iframe_src":"//24213.svetacdn.in/IAF0wWTdNYZm/tv-series/2464"},{"id":2463,"title":"Лекарство для бабушки","kp_id":"592251","imdb_id":"tt5280492","world_art_id":null,"type":"serial","add":"2018-04-26 11:51:34","orig_title":"Lekarstvo dlya babushki","year":"2011-06-18","translations":["Оригинальная дорожка"],"seasons_count":1,"episodes_count":4,"episodes":4,"update":"2018-05-02 09:58:38","iframe_src":"//24213.svetacdn.in/IAF0wWTdNYZm/tv-series/2463"},{"id":2462,"title":"Красавчик","kp_id":"603119","imdb_id":"tt3700286","world_art_id":null,"type":"serial","add":"2018-04-26 11:48:52","orig_title":"Krasavchik","year":"2012-10-09","translations":["Оригинальная дорожка"],"seasons_count":1,"episodes_count":2,"episodes":2,"update":"2018-04-27 11:02:41","iframe_src":"//24213.svetacdn.in/IAF0wWTdNYZm/tv-series/2462"},{"id":2461,"title":"Дорогой мой человек","kp_id":"507165","imdb_id":"tt3294824","world_art_id":null,"type":"serial","add":"2018-04-26 11:44:52","orig_title":"Dorogoy moy chelovek","year":"2011-04-04","translations":["Оригинальная дорожка"],"seasons_count":1,"episodes_count":16,"episodes":16,"update":"2018-04-28 10:46:07","iframe_src":"//24213.svetacdn.in/IAF0wWTdNYZm/tv-series/2461"},{"id":2458,"title":"Петрович","kp_id":"586314","imdb_id":"tt2699836","world_art_id":null,"type":"serial","add":"2018-04-25 11:56:31","orig_title":"Petrovich","year":"2013-01-21","translations":["Оригинальная дорожка"],"seasons_count":1,"episodes_count":24,"episodes":24,"update":"2018-04-28 07:49:30","iframe_src":"//24213.svetacdn.in/IAF0wWTdNYZm/tv-series/2458"},{"id":2457,"title":"Отдел С.С.С.Р.","kp_id":"627808","imdb_id":"tt3220928","world_art_id":null,"type":"serial","add":"2018-04-25 11:53:03","orig_title":"Otdel 'S.S.S.R.'","year":"2012-06-18","translations":["Оригинальная дорожка"],"seasons_count":1,"episodes_count":8,"episodes":8,"update":"2018-04-27 11:00:29","iframe_src":"//24213.svetacdn.in/IAF0wWTdNYZm/tv-series/2457"},{"id":2456,"title":"Любовь с оружием","kp_id":"654808","imdb_id":"tt3610322","world_art_id":null,"type":"serial","add":"2018-04-25 11:50:10","orig_title":"Lyubov s oruzhiem","year":"2012-06-17","translations":["Оригинальная дорожка"],"seasons_count":1,"episodes_count":4,"episodes":4,"update":"2018-04-27 10:42:38","iframe_src":"//24213.svetacdn.in/IAF0wWTdNYZm/tv-series/2456"},{"id":2418,"title":"Ищейка 2","kp_id":"1047564","imdb_id":null,"world_art_id":null,"type":"serial","add":"2018-04-17 07:50:08","orig_title":"Ищейка 2","year":"2018-04-16","translations":["Оригинальная дорожка"],"seasons_count":1,"episodes_count":16,"episodes":16,"update":"2018-04-28 20:00:13","iframe_src":"//24213.svetacdn.in/IAF0wWTdNYZm/tv-series/2418"},{"id":2362,"title":"Частица вселенной","kp_id":"982734","imdb_id":null,"world_art_id":null,"type":"serial","add":"2018-04-10 08:52:40","orig_title":"Частица вселенной","year":"2018-04-09","translations":["Оригинальная дорожка"],"seasons_count":1,"episodes_count":7,"episodes":7,"update":"2018-05-01 19:09:12","iframe_src":"//24213.svetacdn.in/IAF0wWTdNYZm/tv-series/2362"},{"id":2361,"title":"Чистый лист","kp_id":"1045334","imdb_id":"tt5197860","world_art_id":null,"type":"serial","add":"2018-04-10 07:46:56","orig_title":"Tabula Rasa","year":"2017-10-29","translations":["Профессиональный (двухголосый закадровый) (ViruseProject)"],"seasons_count":1,"episodes_count":9,"episodes":9,"update":"2018-05-01 20:00:45","iframe_src":"//24213.svetacdn.in/IAF0wWTdNYZm/tv-series/2361"},{"id":1438,"title":"Скандал","kp_id":"582345","imdb_id":"tt1837576","world_art_id":null,"type":"serial","add":"2017-08-01 06:49:03","orig_title":"Scandal","year":"2012-04-05","translations":["Профессиональный (многоголосый закадровый) (Fox Life)","Профессиональный (многоголосый закадровый) (AMS)","Любительский (двухголосый закадровый) (Sunshine Studio)"],"seasons_count":7,"episodes_count":124,"episodes":18,"update":"2018-05-01 19:44:17","iframe_src":"//24213.svetacdn.in/IAF0wWTdNYZm/tv-series/1438"},{"id":9147,"title":"Седьмой","kp_id":"857371","imdb_id":"tt3620418","world_art_id":null,"type":"movie","add":"2017-01-24 12:59:43","orig_title":"Boy 7","year":"2015-02-09","translations":["Любительский (одноголосый закадровый)","Полное дублирование (IVI)"],"quality":"bd","translation":"Любительский (одноголосый закадровый)","update":"2021-09-07 16:54:06","iframe_src":"//24213.svetacdn.in/IAF0wWTdNYZm/movie/9147"},{"id":8601,"title":"Папарацци","kp_id":"6821","imdb_id":"tt0338325","world_art_id":null,"type":"movie","add":"2017-01-05 05:07:01","orig_title":"Paparazzi","year":"2004-09-03","translations":["Полное дублирование","Полное дублирование","[EN] Original (English)","Полное дублирование","Профессиональный (двухголосый закадровый) (Tycoon)","Профессиональный (многоголосый закадровый) (FDV)"],"quality":"hdtv","translation":"Полное дублирование","update":"2021-09-07 16:54:11","iframe_src":"//24213.svetacdn.in/IAF0wWTdNYZm/movie/8601"},{"id":548,"title":"Высшее общество","kp_id":"994602","imdb_id":"tt5923410","world_art_id":null,"type":"serial","add":"2016-10-21 12:22:18","orig_title":"Yüksek Sosyete","year":"2016-06-16","translations":["Любительский (одноголосый закадровый)"],"seasons_count":1,"episodes_count":26,"episodes":26,"update":"2018-05-02 14:48:46","iframe_src":"//24213.svetacdn.in/IAF0wWTdNYZm/tv-series/548"},{"id":5626,"title":"Волшебник Виплала","kp_id":"784682","imdb_id":"tt3066886","world_art_id":null,"type":"movie","add":"2016-09-28 14:42:59","orig_title":"Wiplala","year":"2014-11-19","translations":["Любительский (одноголосый закадровый)","Полное дублирование (IVI)"],"quality":"bd","translation":"Любительский (одноголосый закадровый)","update":"2021-09-07 06:51:38","iframe_src":"//24213.svetacdn.in/IAF0wWTdNYZm/movie/5626"},{"id":171,"title":"Тупицы","kp_id":"976647","imdb_id":"tt5237932","world_art_id":null,"type":"serial","add":"2016-06-10 04:02:57","orig_title":"Witless","year":"2016-04-22","translations":["Любительский (двухголосый закадровый) (Sunshine Studio)","Профессиональный (многоголосый закадровый) (ShowJet)"],"seasons_count":2,"episodes_count":10,"episodes":5,"update":"2018-05-01 06:56:29","iframe_src":"//24213.svetacdn.in/IAF0wWTdNYZm/tv-series/171"}],"current_page":554,"first_page_url":"https://videocdn.tv/api/short?limit=100&api_token=6Onb1W1alEUrBcKJZD3GoKBbWyAl2uG2&cache3554=3554&page=1","from":55301,"last_page":730,"last_page_url":"https://videocdn.tv/api/short?limit=100&api_token=6Onb1W1alEUrBcKJZD3GoKBbWyAl2uG2&cache3554=3554&page=730","next_page_url":"https://videocdn.tv/api/short?limit=100&api_token=6Onb1W1alEUrBcKJZD3GoKBbWyAl2uG2&cache3554=3554&page=555","path":"https://videocdn.tv/api/short","per_page":100,"prev_page_url":"https://videocdn.tv/api/short?limit=100&api_token=6Onb1W1alEUrBcKJZD3GoKBbWyAl2uG2&cache3554=3554&page=553","to":55340,"total":72971}