{"result":true,"data":[{"id":10091,"title":"Время убивать","kp_id":"21425","imdb_id":"tt0100762","world_art_id":null,"type":"movie","add":"2017-02-27 08:07:20","orig_title":"Tempo di uccidere","year":"1989-09-10","translations":["Профессиональный (многоголосый закадровый)"],"quality":"dvdrip","translation":"Профессиональный (многоголосый закадровый)","update":"2017-02-27 10:11:25","iframe_src":"//7720.svetacdn.in/71tsRs29n5tZ/movie/10091"},{"id":10090,"title":"Экватор","kp_id":"277532","imdb_id":"tt1023123","world_art_id":null,"type":"movie","add":"2017-02-27 08:06:01","orig_title":"Ekvator","year":"2007-06-15","translations":["Оригинальная дорожка"],"quality":"dvdrip","translation":"Оригинальная дорожка","update":"2017-02-27 10:12:33","iframe_src":"//7720.svetacdn.in/71tsRs29n5tZ/movie/10090"},{"id":10089,"title":"Ближний круг","kp_id":"14955","imdb_id":"tt0103838","world_art_id":null,"type":"movie","add":"2017-02-27 08:05:09","orig_title":"The Inner Circle","year":"1991-12-25","translations":["Оригинальная дорожка"],"quality":"dvdrip","translation":"Оригинальная дорожка","update":"2017-02-27 10:14:24","iframe_src":"//7720.svetacdn.in/71tsRs29n5tZ/movie/10089"},{"id":10071,"title":"Мальвиль","kp_id":"37714","imdb_id":"tt0082701","world_art_id":null,"type":"movie","add":"2017-02-26 08:03:42","orig_title":"Malevil","year":"1981-05-13","translations":["Любительский (одноголосый закадровый)"],"quality":"dvdrip","translation":"Любительский (одноголосый закадровый)","update":"2017-02-27 10:03:06","iframe_src":"//7720.svetacdn.in/71tsRs29n5tZ/movie/10071"},{"id":10060,"title":"Шпана 3","kp_id":"944180","imdb_id":"tt5193784","world_art_id":null,"type":"movie","add":"2017-02-25 11:59:32","orig_title":"Brotherhood","year":"2016-08-29","translations":["Любительский (многоголосый закадровый) (Синема УС)"],"quality":"bd","translation":"Любительский (многоголосый закадровый) (Синема УС)","update":"2017-02-27 06:48:20","iframe_src":"//7720.svetacdn.in/71tsRs29n5tZ/movie/10060"},{"id":10059,"title":"Чего хотят женщины","kp_id":"522885","imdb_id":"tt1667150","world_art_id":null,"type":"movie","add":"2017-02-25 11:45:32","orig_title":"Wo zhi nv ren xin","year":"2011-02-03","translations":["Любительский (двухголосый закадровый)"],"quality":"bd","translation":"Любительский (двухголосый закадровый)","update":"2017-02-27 06:55:19","iframe_src":"//7720.svetacdn.in/71tsRs29n5tZ/movie/10059"},{"id":10058,"title":"Художник и натурщица","kp_id":"596376","imdb_id":"tt1990217","world_art_id":null,"type":"movie","add":"2017-02-25 11:41:30","orig_title":"El artista y la modelo","year":"2012-09-23","translations":["Любительский (одноголосый закадровый)"],"quality":"bd","translation":"Любительский (одноголосый закадровый)","update":"2017-02-27 06:56:13","iframe_src":"//7720.svetacdn.in/71tsRs29n5tZ/movie/10058"},{"id":10057,"title":"Черные кошки в бамбуковых зарослях","kp_id":"63836","imdb_id":"tt0122136","world_art_id":null,"type":"movie","add":"2017-02-25 11:30:29","orig_title":"Yabu no naka no kuroneko","year":"1968-02-24","translations":["Профессиональный (многоголосый закадровый)"],"quality":"bd","translation":"Профессиональный (многоголосый закадровый)","update":"2017-02-27 07:03:34","iframe_src":"//7720.svetacdn.in/71tsRs29n5tZ/movie/10057"},{"id":10056,"title":"Час рыси","kp_id":"696370","imdb_id":"tt2315558","world_art_id":null,"type":"movie","add":"2017-02-25 11:26:47","orig_title":"I lossens time","year":"2013-05-23","translations":["Любительский (одноголосый закадровый)"],"quality":"bd","translation":"Любительский (одноголосый закадровый)","update":"2017-02-27 06:58:31","iframe_src":"//7720.svetacdn.in/71tsRs29n5tZ/movie/10056"},{"id":10055,"title":"Хостел","kp_id":"102343","imdb_id":"tt0450278","world_art_id":null,"type":"movie","add":"2017-02-25 11:23:48","orig_title":"Hostel","year":"2005-09-17","translations":["Полное дублирование"],"quality":"bd","translation":"Полное дублирование","update":"2017-02-27 07:03:42","iframe_src":"//7720.svetacdn.in/71tsRs29n5tZ/movie/10055"},{"id":10053,"title":"Хэнк и Майк","kp_id":"273307","imdb_id":"tt0814131","world_art_id":null,"type":"movie","add":"2017-02-25 11:02:03","orig_title":"Hank and Mike","year":"2008-02-02","translations":["Профессиональный (двухголосый закадровый)"],"quality":"bd","translation":"Профессиональный (двухголосый закадровый)","update":"2017-02-27 07:07:34","iframe_src":"//7720.svetacdn.in/71tsRs29n5tZ/movie/10053"},{"id":10051,"title":"Хэллоуин: Воскрешение","kp_id":"14490","imdb_id":"tt0220506","world_art_id":null,"type":"movie","add":"2017-02-25 09:04:06","orig_title":"Halloween: Resurrection","year":"2002-07-01","translations":["Полное дублирование"],"quality":"bd","translation":"Полное дублирование","update":"2017-02-27 07:09:18","iframe_src":"//7720.svetacdn.in/71tsRs29n5tZ/movie/10051"},{"id":10048,"title":"Прыжок","kp_id":"803965","imdb_id":"tt3213576","world_art_id":null,"type":"movie","add":"2017-02-25 08:52:36","orig_title":"The Leap","year":"2015-03-27","translations":["Любительский (двухголосый закадровый)"],"quality":"webdl","translation":"Любительский (двухголосый закадровый)","update":"2017-02-27 10:01:29","iframe_src":"//7720.svetacdn.in/71tsRs29n5tZ/movie/10048"},{"id":10045,"title":"Проба","kp_id":"961249","imdb_id":"tt5461456","world_art_id":null,"type":"movie","add":"2017-02-24 22:17:25","orig_title":"Trial","year":"2016-02-24","translations":["Любительский (одноголосый закадровый)"],"quality":"webdl","translation":"Любительский (одноголосый закадровый)","update":"2017-02-27 10:01:49","iframe_src":"//7720.svetacdn.in/71tsRs29n5tZ/movie/10045"},{"id":10029,"title":"Черный","kp_id":"913109","imdb_id":"tt4008758","world_art_id":null,"type":"movie","add":"2017-02-24 21:13:30","orig_title":"Black","year":"2015-09-11","translations":["Любительский (многоголосый закадровый) (Синема УС)"],"quality":"bd","translation":"Любительский (многоголосый закадровый) (Синема УС)","update":"2017-02-27 10:14:20","iframe_src":"//7720.svetacdn.in/71tsRs29n5tZ/movie/10029"},{"id":10027,"title":"Чужой против Хищника: Искупление","kp_id":"1044613","imdb_id":"tt5083930","world_art_id":null,"type":"movie","add":"2017-02-24 21:03:12","orig_title":"AVP Redemption","year":"2015-08-16","translations":["Любительский (одноголосый закадровый)"],"quality":"webdl","translation":"Любительский (одноголосый закадровый)","update":"2017-02-27 10:09:34","iframe_src":"//7720.svetacdn.in/71tsRs29n5tZ/movie/10027"},{"id":10026,"title":"Абулеле","kp_id":"927865","imdb_id":"tt4937208","world_art_id":null,"type":"movie","add":"2017-02-24 21:00:28","orig_title":"Abulele","year":"2015-09-09","translations":["Профессиональный (двухголосый закадровый)"],"quality":"webdl","translation":"Профессиональный (двухголосый закадровый)","update":"2017-02-27 10:04:18","iframe_src":"//7720.svetacdn.in/71tsRs29n5tZ/movie/10026"},{"id":10020,"title":"Хостел 2","kp_id":"232011","imdb_id":"tt0498353","world_art_id":null,"type":"movie","add":"2017-02-24 00:13:44","orig_title":"Hostel: Part II","year":"2007-06-07","translations":["Полное дублирование"],"quality":"bd","translation":"Полное дублирование","update":"2017-02-27 07:04:25","iframe_src":"//7720.svetacdn.in/71tsRs29n5tZ/movie/10020"},{"id":9902,"title":"Мистер Миллиард","kp_id":"15327","imdb_id":"tt0076417","world_art_id":null,"type":"movie","add":"2017-02-22 09:43:48","orig_title":"Mr. Billion","year":"1977-03-03","translations":["Профессиональный (многоголосый закадровый)"],"quality":"bd","translation":"Профессиональный (многоголосый закадровый)","update":"2017-02-27 10:06:49","iframe_src":"//7720.svetacdn.in/71tsRs29n5tZ/movie/9902"},{"id":2422,"title":"Укус","kp_id":"851997","imdb_id":"tt4264426","world_art_id":null,"type":"movie","add":"2016-05-20 18:14:41","orig_title":"Bite","year":"2015-07-29","translations":["Любительский (одноголосый закадровый)","Любительский (многоголосый закадровый) (Синема УС)"],"quality":"webdl","translation":"Любительский (одноголосый закадровый)","update":"2017-02-27 10:13:48","iframe_src":"//7720.svetacdn.in/71tsRs29n5tZ/movie/2422"}],"current_page":2261,"first_page_url":"https://videocdn.tv/api/short?limit=100&api_token=EnbO9h8pv1VyjbCJhg0WM9nG259n7mtz&cache32261=32261&page=1","from":226001,"last_page":651,"last_page_url":"https://videocdn.tv/api/short?limit=100&api_token=EnbO9h8pv1VyjbCJhg0WM9nG259n7mtz&cache32261=32261&page=651","next_page_url":null,"path":"https://videocdn.tv/api/short","per_page":100,"prev_page_url":"https://videocdn.tv/api/short?limit=100&api_token=EnbO9h8pv1VyjbCJhg0WM9nG259n7mtz&cache32261=32261&page=2260","to":226020,"total":65096}