{"result":true,"data":[{"id":29824,"title":"Она испекла убийство: Тайна убийства сливового пудинга","kp_id":"928797","imdb_id":"tt4933782","world_art_id":null,"type":"movie","add":"2019-08-07 09:00:28","orig_title":"Murder, She Baked: A Plum Pudding Mystery","year":"2015-11-23","translations":["Профессиональный (многоголосый закадровый) (ТВ3)"],"quality":"sat","translation":"Профессиональный (многоголосый закадровый) (ТВ3)","update":"2019-08-07 10:06:35","iframe_src":"//83.svetacdn.in/PfJ50H0ZBPg3/movie/29824"},{"id":29823,"title":"Пентаграмма","kp_id":"1148851","imdb_id":"tt7711764","world_art_id":null,"type":"movie","add":"2019-08-07 08:57:12","orig_title":"Pentagram","year":"2019-08-08","translations":["Любительский (многоголосый закадровый) (Синема УС)"],"quality":"webdl","translation":"Любительский (многоголосый закадровый) (Синема УС)","update":"2019-08-07 09:57:56","iframe_src":"//83.svetacdn.in/PfJ50H0ZBPg3/movie/29823"},{"id":29816,"title":"Нежелательный человек в Европе","kp_id":"1148499","imdb_id":"tt7769728","world_art_id":null,"type":"movie","add":"2019-08-07 04:10:31","orig_title":"Les Unwanted de Europa","year":"2018-01-26","translations":["Любительский (многоголосый закадровый) (Синема УС)"],"quality":"webdl","translation":"Любительский (многоголосый закадровый) (Синема УС)","update":"2019-08-07 07:29:38","iframe_src":"//83.svetacdn.in/PfJ50H0ZBPg3/movie/29816"},{"id":29815,"title":"Под таблеткой","kp_id":"1090926","imdb_id":"tt6562598","world_art_id":null,"type":"movie","add":"2019-08-07 04:05:42","orig_title":"Pill Head","year":"2019-05-09","translations":["Любительский (многоголосый закадровый) (Синема УС)"],"quality":"webdl","translation":"Любительский (многоголосый закадровый) (Синема УС)","update":"2019-08-07 07:30:09","iframe_src":"//83.svetacdn.in/PfJ50H0ZBPg3/movie/29815"},{"id":29814,"title":"Время на исходе","kp_id":"1156491","imdb_id":"tt8420952","world_art_id":null,"type":"movie","add":"2019-08-07 04:03:41","orig_title":"Running Out Of Time","year":"2018-01-01","translations":["Любительский (многоголосый закадровый) (Синема УС)"],"quality":"webdl","translation":"Любительский (многоголосый закадровый) (Синема УС)","update":"2019-08-07 07:30:58","iframe_src":"//83.svetacdn.in/PfJ50H0ZBPg3/movie/29814"},{"id":29813,"title":"Убийца с лицом младенца","kp_id":null,"imdb_id":"tt9769770","world_art_id":null,"type":"movie","add":"2019-08-07 03:58:13","orig_title":"Babyface: Mayhem, Murder, Monsters","year":"2019-02-12","translations":["Любительский (многоголосый закадровый) (Синема УС)"],"quality":"webdl","translation":"Любительский (многоголосый закадровый) (Синема УС)","update":"2019-08-07 07:28:58","iframe_src":"//83.svetacdn.in/PfJ50H0ZBPg3/movie/29813"},{"id":29812,"title":"Призраки Города Брюэр","kp_id":"1180054","imdb_id":"tt8848462","world_art_id":null,"type":"movie","add":"2019-08-07 03:53:24","orig_title":"The Ghosts of Brewer Town","year":"2018-01-01","translations":["Любительский (многоголосый закадровый) (Синема УС)"],"quality":"webdl","translation":"Любительский (многоголосый закадровый) (Синема УС)","update":"2019-08-07 07:28:27","iframe_src":"//83.svetacdn.in/PfJ50H0ZBPg3/movie/29812"},{"id":29810,"title":"Ритмы ярости","kp_id":"961192","imdb_id":"tt5428666","world_art_id":null,"type":"movie","add":"2019-08-07 03:43:40","orig_title":"FP2: Beats of Rage","year":"2018-09-22","translations":["Любительский (многоголосый закадровый) (Синема УС)"],"quality":"webdl","translation":"Любительский (многоголосый закадровый) (Синема УС)","update":"2019-08-07 07:26:05","iframe_src":"//83.svetacdn.in/PfJ50H0ZBPg3/movie/29810"},{"id":29809,"title":"Муки голода","kp_id":null,"imdb_id":"tt9689854","world_art_id":null,"type":"movie","add":"2019-08-07 03:41:19","orig_title":"Hunger Pangs","year":"2019-01-01","translations":["Любительский (многоголосый закадровый) (Синема УС)"],"quality":"webdl","translation":"Любительский (многоголосый закадровый) (Синема УС)","update":"2019-08-07 07:25:34","iframe_src":"//83.svetacdn.in/PfJ50H0ZBPg3/movie/29809"},{"id":29808,"title":"Ангелы возмездия","kp_id":"277525","imdb_id":"tt0792948","world_art_id":null,"type":"movie","add":"2019-08-06 21:18:47","orig_title":"Les anges exterminateurs","year":"2006-05-20","translations":["Профессиональный (многоголосый закадровый)"],"quality":"dvdrip","translation":"Профессиональный (многоголосый закадровый)","update":"2019-08-07 05:03:34","iframe_src":"//83.svetacdn.in/PfJ50H0ZBPg3/movie/29808"},{"id":29807,"title":"Черная пятница","kp_id":"38156","imdb_id":"tt0218053","world_art_id":null,"type":"movie","add":"2019-08-06 21:14:35","orig_title":"Black Friday","year":"2001-01-19","translations":["Профессиональный (двухголосый закадровый)"],"quality":"dvdrip","translation":"Профессиональный (двухголосый закадровый)","update":"2019-08-07 05:01:49","iframe_src":"//83.svetacdn.in/PfJ50H0ZBPg3/movie/29807"},{"id":29806,"title":"Падший ангел","kp_id":"296456","imdb_id":"tt0099405","world_art_id":null,"type":"movie","add":"2019-08-06 20:55:16","orig_title":"Descending Angel","year":"1990-11-25","translations":["Авторский (одноголосый закадровый) (Гаврилов Андрей)"],"quality":"dvdrip","translation":"Авторский (одноголосый закадровый) (Гаврилов Андрей)","update":"2019-08-07 04:58:49","iframe_src":"//83.svetacdn.in/PfJ50H0ZBPg3/movie/29806"},{"id":29805,"title":"Дороро: Легенда о воине","kp_id":"267704","imdb_id":"tt0780503","world_art_id":null,"type":"movie","add":"2019-08-06 20:46:26","orig_title":"Dororo","year":"2007-01-06","translations":["Профессиональный (многоголосый закадровый) (ТВ3)"],"quality":"dvdrip","translation":"Профессиональный (многоголосый закадровый) (ТВ3)","update":"2019-08-07 04:55:42","iframe_src":"//83.svetacdn.in/PfJ50H0ZBPg3/movie/29805"},{"id":29804,"title":"История Одри Хепберн","kp_id":"279553","imdb_id":"tt0163887","world_art_id":null,"type":"movie","add":"2019-08-06 20:40:06","orig_title":"The Audrey Hepburn Story","year":"2000-03-27","translations":["Профессиональный (многоголосый закадровый)"],"quality":"dvdrip","translation":"Профессиональный (многоголосый закадровый)","update":"2019-08-07 04:53:50","iframe_src":"//83.svetacdn.in/PfJ50H0ZBPg3/movie/29804"},{"id":29803,"title":"Сестры Бронте","kp_id":"34690","imdb_id":"tt0079920","world_art_id":null,"type":"movie","add":"2019-08-06 20:35:00","orig_title":"Les soeurs Brontë","year":"1979-05-09","translations":["Профессиональный (многоголосый закадровый) (Культура | Россия К)"],"quality":"bd","translation":"Профессиональный (многоголосый закадровый) (Культура | Россия К)","update":"2019-08-07 04:53:22","iframe_src":"//83.svetacdn.in/PfJ50H0ZBPg3/movie/29803"},{"id":29802,"title":"Лови момент","kp_id":"180998","imdb_id":"tt0483631","world_art_id":null,"type":"movie","add":"2019-08-06 20:30:57","orig_title":"Gettin' It","year":"2006-08-07","translations":["Профессиональный (многоголосый закадровый)"],"quality":"dvdrip","translation":"Профессиональный (многоголосый закадровый)","update":"2019-08-07 04:50:55","iframe_src":"//83.svetacdn.in/PfJ50H0ZBPg3/movie/29802"},{"id":29791,"title":"Страх вратаря перед пенальти","kp_id":"31490","imdb_id":"tt0066773","world_art_id":null,"type":"movie","add":"2019-08-06 09:50:50","orig_title":"Die Angst des Tormanns beim Elfmeter","year":"1972-02-19","translations":["Профессиональный (двухголосый закадровый)"],"quality":"bd","translation":"Профессиональный (двухголосый закадровый)","update":"2019-08-07 08:03:02","iframe_src":"//83.svetacdn.in/PfJ50H0ZBPg3/movie/29791"},{"id":25786,"title":"Синонимы","kp_id":"1089726","imdb_id":"tt7016254","world_art_id":null,"type":"movie","add":"2019-05-01 00:30:06","orig_title":"Synonymes","year":"2019-02-13","translations":["Профессиональный (многоголосый закадровый)"],"quality":"webdl","translation":"Профессиональный (многоголосый закадровый)","update":"2019-08-07 07:27:21","iframe_src":"//83.svetacdn.in/PfJ50H0ZBPg3/movie/25786"},{"id":24337,"title":"Дом там, где сердце","kp_id":"6590","imdb_id":"tt0100924","world_art_id":null,"type":"movie","add":"2019-04-11 20:58:29","orig_title":"Where the Heart Is","year":"1990-02-23","translations":["Профессиональный (многоголосый закадровый) (Первый канал | ОРТ)","Авторский (одноголосый закадровый) (Санаев Павел)"],"quality":"tv","translation":"Профессиональный (многоголосый закадровый) (Первый канал | ОРТ)","update":"2019-08-07 04:57:32","iframe_src":"//83.svetacdn.in/PfJ50H0ZBPg3/movie/24337"},{"id":14707,"title":"Герасим","kp_id":"1009752","imdb_id":null,"world_art_id":null,"type":"movie","add":"2017-12-19 23:11:42","orig_title":"Герасим","year":"2017-12-19","translations":["Оригинальная дорожка","Оригинальная дорожка"],"quality":"webdl","translation":"Оригинальная дорожка","update":"2019-08-07 04:55:14","iframe_src":"//83.svetacdn.in/PfJ50H0ZBPg3/movie/14707"}],"current_page":1727,"first_page_url":"https://videocdn.tv/api/short?limit=100&api_token=RgFQdUIR2dRmwv8iYa5SnFNgnw3vpjKj&cache31727=31727&page=1","from":172601,"last_page":720,"last_page_url":"https://videocdn.tv/api/short?limit=100&api_token=RgFQdUIR2dRmwv8iYa5SnFNgnw3vpjKj&cache31727=31727&page=720","next_page_url":null,"path":"https://videocdn.tv/api/short","per_page":100,"prev_page_url":"https://videocdn.tv/api/short?limit=100&api_token=RgFQdUIR2dRmwv8iYa5SnFNgnw3vpjKj&cache31727=31727&page=1726","to":172620,"total":71992}