{"result":true,"data":[{"id":29286,"title":"Операция Лазер","kp_id":"16238","imdb_id":"tt0099978","world_art_id":null,"type":"movie","add":"2019-07-22 12:38:37","orig_title":"Laser Mission","year":"1990-08-22","translations":["Авторский (одноголосый закадровый) (Гаврилов Андрей)"],"quality":"dvdrip","translation":"Авторский (одноголосый закадровый) (Гаврилов Андрей)","update":"2019-07-22 13:02:34","iframe_src":"//2413.svetacdn.in/71tsRs29n5tZ/movie/29286"},{"id":29266,"title":"Кроткая","kp_id":"44987","imdb_id":"tt0054003","world_art_id":null,"type":"movie","add":"2019-07-21 21:57:58","orig_title":"Krotkaya","year":"1960-10-12","translations":["Оригинальная дорожка"],"quality":"dvdrip","translation":"Оригинальная дорожка","update":"2019-07-22 13:15:37","iframe_src":"//2413.svetacdn.in/71tsRs29n5tZ/movie/29266"},{"id":29265,"title":"Мальчик с коньками","kp_id":"507507","imdb_id":"tt1619850","world_art_id":null,"type":"movie","add":"2019-07-21 21:54:29","orig_title":"Malchik s konkami","year":"1962-01-01","translations":["Оригинальная дорожка"],"quality":"sat","translation":"Оригинальная дорожка","update":"2019-07-22 13:14:49","iframe_src":"//2413.svetacdn.in/71tsRs29n5tZ/movie/29265"},{"id":29264,"title":"Меченый атом","kp_id":"46584","imdb_id":"tt0314365","world_art_id":null,"type":"movie","add":"2019-07-21 21:50:56","orig_title":"Mechenyy atom","year":"1973-01-22","translations":["Оригинальная дорожка"],"quality":"dvdrip","translation":"Оригинальная дорожка","update":"2019-07-22 13:12:21","iframe_src":"//2413.svetacdn.in/71tsRs29n5tZ/movie/29264"},{"id":29263,"title":"Майонез","kp_id":"464136","imdb_id":null,"world_art_id":null,"type":"movie","add":"2019-07-21 21:47:12","orig_title":"Майонез","year":"2013-01-01","translations":["Оригинальная дорожка"],"quality":"webdl","translation":"Оригинальная дорожка","update":"2019-07-22 13:11:39","iframe_src":"//2413.svetacdn.in/71tsRs29n5tZ/movie/29263"},{"id":29262,"title":"Накануне","kp_id":"46307","imdb_id":"tt0053096","world_art_id":null,"type":"movie","add":"2019-07-21 21:40:31","orig_title":"Nakanune","year":"1959-12-21","translations":["Оригинальная дорожка"],"quality":"dvdrip","translation":"Оригинальная дорожка","update":"2019-07-22 13:11:02","iframe_src":"//2413.svetacdn.in/71tsRs29n5tZ/movie/29262"},{"id":29261,"title":"Олекса Довбуш","kp_id":"42760","imdb_id":"tt0314458","world_art_id":null,"type":"movie","add":"2019-07-21 21:28:38","orig_title":"Oleksa Dovbush","year":"1959-11-14","translations":["Оригинальная дорожка"],"quality":"sat","translation":"Оригинальная дорожка","update":"2019-07-22 13:01:32","iframe_src":"//2413.svetacdn.in/71tsRs29n5tZ/movie/29261"},{"id":29260,"title":"Остров Безымянный","kp_id":"42823","imdb_id":"tt0236558","world_art_id":null,"type":"movie","add":"2019-07-21 21:25:29","orig_title":"Ostrov Bezymyannyy","year":"1946-07-25","translations":["Оригинальная дорожка"],"quality":"dvdrip","translation":"Оригинальная дорожка","update":"2019-07-22 12:59:30","iframe_src":"//2413.svetacdn.in/71tsRs29n5tZ/movie/29260"},{"id":29259,"title":"Ваши документы","kp_id":"1047906","imdb_id":"tt7297578","world_art_id":null,"type":"movie","add":"2019-07-21 21:22:14","orig_title":"Papers, Please: The Short Film","year":"2018-02-24","translations":["Оригинальная дорожка"],"quality":"webdl","translation":"Оригинальная дорожка","update":"2019-07-22 12:59:38","iframe_src":"//2413.svetacdn.in/71tsRs29n5tZ/movie/29259"},{"id":29258,"title":"Первый день мира","kp_id":"42945","imdb_id":"tt0055288","world_art_id":null,"type":"movie","add":"2019-07-21 21:17:52","orig_title":"Pervyy den mira","year":"1959-08-01","translations":["Оригинальная дорожка"],"quality":"sat","translation":"Оригинальная дорожка","update":"2019-07-22 12:58:05","iframe_src":"//2413.svetacdn.in/71tsRs29n5tZ/movie/29258"},{"id":29257,"title":"Пространство для маневра","kp_id":"426288","imdb_id":"tt5587782","world_art_id":null,"type":"movie","add":"2019-07-21 21:13:02","orig_title":"Prostranstvo dlya manyovra","year":"1982-01-01","translations":["Оригинальная дорожка"],"quality":"sat","translation":"Оригинальная дорожка","update":"2019-07-22 12:45:46","iframe_src":"//2413.svetacdn.in/71tsRs29n5tZ/movie/29257"},{"id":29256,"title":"Рассказы о юности","kp_id":"910070","imdb_id":null,"world_art_id":null,"type":"movie","add":"2019-07-21 20:51:44","orig_title":"Рассказы о юности","year":"1961-01-01","translations":["Оригинальная дорожка"],"quality":"dvdscr","translation":"Оригинальная дорожка","update":"2019-07-22 12:45:10","iframe_src":"//2413.svetacdn.in/71tsRs29n5tZ/movie/29256"},{"id":29255,"title":"Русский сувенир","kp_id":"42150","imdb_id":"tt0170525","world_art_id":null,"type":"movie","add":"2019-07-21 20:47:08","orig_title":"Russkiy suvenir","year":"1960-06-27","translations":["Оригинальная дорожка"],"quality":"sat","translation":"Оригинальная дорожка","update":"2019-07-22 12:44:07","iframe_src":"//2413.svetacdn.in/71tsRs29n5tZ/movie/29255"},{"id":29254,"title":"Танцуй...","kp_id":"421343","imdb_id":"tt1272047","world_art_id":null,"type":"movie","add":"2019-07-21 20:44:19","orig_title":"Tantsuy...","year":"2007-04-22","translations":["Оригинальная дорожка"],"quality":"dvdrip","translation":"Оригинальная дорожка","update":"2019-07-22 12:42:40","iframe_src":"//2413.svetacdn.in/71tsRs29n5tZ/movie/29254"},{"id":29253,"title":"Заре навстречу","kp_id":"43620","imdb_id":"tt0323891","world_art_id":null,"type":"movie","add":"2019-07-21 20:39:20","orig_title":"Zare navstrechu","year":"1960-04-19","translations":["Оригинальная дорожка"],"quality":"vhs","translation":"Оригинальная дорожка","update":"2019-07-22 12:28:04","iframe_src":"//2413.svetacdn.in/71tsRs29n5tZ/movie/29253"},{"id":29252,"title":"Живет на свете женщина","kp_id":"990264","imdb_id":"tt5849988","world_art_id":null,"type":"movie","add":"2019-07-21 20:36:36","orig_title":"Zhivyot na svete zhenshchina","year":"1959-01-01","translations":["Оригинальная дорожка"],"quality":"vhs","translation":"Оригинальная дорожка","update":"2019-07-22 12:27:32","iframe_src":"//2413.svetacdn.in/71tsRs29n5tZ/movie/29252"},{"id":29251,"title":"Звероловы","kp_id":"45408","imdb_id":"tt0146363","world_art_id":null,"type":"movie","add":"2019-07-21 20:34:03","orig_title":"Zverolovy","year":"1959-06-09","translations":["Оригинальная дорожка"],"quality":"dvdrip","translation":"Оригинальная дорожка","update":"2019-07-22 12:20:42","iframe_src":"//2413.svetacdn.in/71tsRs29n5tZ/movie/29251"},{"id":24919,"title":"Никто не хотел умирать","kp_id":"46439","imdb_id":"tt0151750","world_art_id":null,"type":"movie","add":"2019-04-20 11:33:57","orig_title":"Niekas nenorejo mirti","year":"1966-04-18","translations":["Оригинальная дорожка","Оригинальная дорожка"],"quality":"vhs","translation":"Оригинальная дорожка","update":"2019-07-22 13:09:10","iframe_src":"//2413.svetacdn.in/71tsRs29n5tZ/movie/24919"},{"id":15578,"title":"Праздник разбитых сердец","kp_id":"1112865","imdb_id":null,"world_art_id":null,"type":"movie","add":"2018-03-11 18:05:26","orig_title":"Праздник разбитых сердец","year":"2018-03-11","translations":["Оригинальная дорожка","Оригинальная дорожка"],"quality":"webdl","translation":"Оригинальная дорожка","update":"2019-07-22 12:46:53","iframe_src":"//2413.svetacdn.in/71tsRs29n5tZ/movie/15578"},{"id":15465,"title":"Норвег","kp_id":"841936","imdb_id":"tt5090908","world_art_id":null,"type":"movie","add":"2018-03-07 11:13:47","orig_title":"Norveg","year":"2015-11-05","translations":["Оригинальная дорожка","Оригинальная дорожка"],"quality":"hdtv","translation":"Оригинальная дорожка","update":"2019-07-22 13:08:39","iframe_src":"//2413.svetacdn.in/71tsRs29n5tZ/movie/15465"}],"current_page":1722,"first_page_url":"https://videocdn.tv/api/short?limit=100&api_token=EnbO9h8pv1VyjbCJhg0WM9nG259n7mtz&cache31722=31722&page=1","from":172101,"last_page":716,"last_page_url":"https://videocdn.tv/api/short?limit=100&api_token=EnbO9h8pv1VyjbCJhg0WM9nG259n7mtz&cache31722=31722&page=716","next_page_url":null,"path":"https://videocdn.tv/api/short","per_page":100,"prev_page_url":"https://videocdn.tv/api/short?limit=100&api_token=EnbO9h8pv1VyjbCJhg0WM9nG259n7mtz&cache31722=31722&page=1721","to":172120,"total":71587}