{"result":true,"data":[{"id":51135,"title":"Зомби одним планом!: В Голливуде","kp_id":"1260291","imdb_id":"tt10188260","world_art_id":null,"type":"movie","add":"2021-06-13 09:29:27","orig_title":"Kamera o tomeru na! supin-ofu: Hariuddo daisakusen!","year":"2019-03-02","translations":["Любительский (многоголосый закадровый) (Синема УС)"],"quality":"bd","translation":"Любительский (многоголосый закадровый) (Синема УС)","update":"2021-06-13 12:30:01","iframe_src":"//7720.svetacdn.in/71tsRs29n5tZ/movie/51135"},{"id":51128,"title":"Я здесь","kp_id":"1263421","imdb_id":null,"world_art_id":null,"type":"movie","add":"2021-06-12 12:08:43","orig_title":"Я здесь","year":"2019-01-01","translations":["Оригинальная дорожка"],"quality":"webdl","translation":"Оригинальная дорожка","update":"2021-06-12 15:09:19","iframe_src":"//7720.svetacdn.in/71tsRs29n5tZ/movie/51128"},{"id":51126,"title":"Горные слёзы","kp_id":null,"imdb_id":"tt8495520","world_art_id":null,"type":"movie","add":"2021-06-12 12:06:52","orig_title":"Ta dakrya tou vounou","year":"2018-11-10","translations":["Любительский (многоголосый закадровый) (Синема УС)"],"quality":"webdl","translation":"Любительский (многоголосый закадровый) (Синема УС)","update":"2021-06-12 21:52:04","iframe_src":"//7720.svetacdn.in/71tsRs29n5tZ/movie/51126"},{"id":51125,"title":"София-Антиполис","kp_id":"1174204","imdb_id":"tt8694588","world_art_id":null,"type":"movie","add":"2021-06-12 12:05:07","orig_title":"Sophia Antipolis","year":"2018-10-31","translations":["Любительский (многоголосый закадровый) (Синема УС)"],"quality":"webdl","translation":"Любительский (многоголосый закадровый) (Синема УС)","update":"2021-06-12 21:53:14","iframe_src":"//7720.svetacdn.in/71tsRs29n5tZ/movie/51125"},{"id":51124,"title":"Я вернулся","kp_id":"1088354","imdb_id":"tt6892340","world_art_id":null,"type":"movie","add":"2021-06-12 11:46:52","orig_title":"Sono tornato","year":"2018-02-01","translations":["Любительский (многоголосый закадровый) (Синема УС)"],"quality":"webdl","translation":"Любительский (многоголосый закадровый) (Синема УС)","update":"2021-06-12 21:54:50","iframe_src":"//7720.svetacdn.in/71tsRs29n5tZ/movie/51124"},{"id":51123,"title":"Сатпал Чаухан","kp_id":"1143871","imdb_id":"tt8406866","world_art_id":null,"type":"movie","add":"2021-06-12 11:44:53","orig_title":"S.P. Chauhan","year":"2019-02-07","translations":["Любительский (многоголосый закадровый) (Синема УС)"],"quality":"webdl","translation":"Любительский (многоголосый закадровый) (Синема УС)","update":"2021-06-12 21:53:47","iframe_src":"//7720.svetacdn.in/71tsRs29n5tZ/movie/51123"},{"id":51122,"title":"Дороги прошлого","kp_id":"1014082","imdb_id":"tt6410720","world_art_id":null,"type":"movie","add":"2021-06-12 11:43:21","orig_title":"Road of Bygones","year":"2019-10-26","translations":["Любительский (многоголосый закадровый) (Синема УС)"],"quality":"webdl","translation":"Любительский (многоголосый закадровый) (Синема УС)","update":"2021-06-12 21:52:49","iframe_src":"//7720.svetacdn.in/71tsRs29n5tZ/movie/51122"},{"id":51121,"title":"Мандао: возвращение","kp_id":"1349779","imdb_id":"tt8764084","world_art_id":null,"type":"movie","add":"2021-06-12 11:41:52","orig_title":"Mandao Returns","year":"2020-12-15","translations":["Любительский (многоголосый закадровый) (Синема УС)"],"quality":"webdl","translation":"Любительский (многоголосый закадровый) (Синема УС)","update":"2021-06-12 21:52:13","iframe_src":"//7720.svetacdn.in/71tsRs29n5tZ/movie/51121"},{"id":51120,"title":"M.V.B антология фильмов часть III: Паранормальное","kp_id":"1342294","imdb_id":"tt11662146","world_art_id":null,"type":"movie","add":"2021-06-12 11:39:41","orig_title":"M.V.B Films Anthology Vol III Paranormal","year":"2020-03-18","translations":["Любительский (многоголосый закадровый) (Синема УС)"],"quality":"webdl","translation":"Любительский (многоголосый закадровый) (Синема УС)","update":"2021-06-12 21:50:43","iframe_src":"//7720.svetacdn.in/71tsRs29n5tZ/movie/51120"},{"id":51119,"title":"Жизнь и смерть за 96 часов","kp_id":null,"imdb_id":"tt6447704","world_art_id":null,"type":"movie","add":"2021-06-12 11:37:58","orig_title":"Life and Death in 96 Hours","year":"2016-11-13","translations":["Любительский (двухголосый закадровый) (Колобок)"],"quality":"webdl","translation":"Любительский (двухголосый закадровый) (Колобок)","update":"2021-06-12 21:50:06","iframe_src":"//7720.svetacdn.in/71tsRs29n5tZ/movie/51119"},{"id":51118,"title":"В ад и обратно","kp_id":"1273906","imdb_id":"tt10417498","world_art_id":null,"type":"movie","add":"2021-06-12 11:35:14","orig_title":"Infierno grande","year":"2019-05-23","translations":["Любительский (многоголосый закадровый) (Синема УС)"],"quality":"webdl","translation":"Любительский (многоголосый закадровый) (Синема УС)","update":"2021-06-12 21:49:33","iframe_src":"//7720.svetacdn.in/71tsRs29n5tZ/movie/51118"},{"id":51116,"title":"Инопланетянин в чужом теле","kp_id":"31673","imdb_id":"tt0101502","world_art_id":null,"type":"movie","add":"2021-06-11 21:17:20","orig_title":"The Borrower","year":"1991-05-25","translations":["Профессиональный (двухголосый закадровый)"],"quality":"dvdrip","translation":"Профессиональный (двухголосый закадровый)","update":"2021-06-12 11:54:12","iframe_src":"//7720.svetacdn.in/71tsRs29n5tZ/movie/51116"},{"id":51115,"title":"Чудовище","kp_id":"50154","imdb_id":"tt0088961","world_art_id":null,"type":"movie","add":"2021-06-11 21:11:28","orig_title":"Creature","year":"1985-03-01","translations":["Профессиональный (двухголосый закадровый)"],"quality":"dvdrip","translation":"Профессиональный (двухголосый закадровый)","update":"2021-06-12 11:51:36","iframe_src":"//7720.svetacdn.in/71tsRs29n5tZ/movie/51115"},{"id":51113,"title":"Бандит-заложник","kp_id":"1411676","imdb_id":"tt13067292","world_art_id":null,"type":"movie","add":"2021-06-11 20:51:53","orig_title":"Rogue Hostage","year":"2021-06-11","translations":["Любительский (многоголосый закадровый) (AlphaProject)"],"quality":"webdl","translation":"Любительский (многоголосый закадровый) (AlphaProject)","update":"2021-06-12 21:48:08","iframe_src":"//7720.svetacdn.in/71tsRs29n5tZ/movie/51113"},{"id":51112,"title":"Карго","kp_id":"4366851","imdb_id":"tt13705098","world_art_id":null,"type":"movie","add":"2021-06-11 20:50:13","orig_title":"Cargo","year":"2021-03-20","translations":["Любительский (многоголосый закадровый) (Синема УС)"],"quality":"webdl","translation":"Любительский (многоголосый закадровый) (Синема УС)","update":"2021-06-12 21:46:57","iframe_src":"//7720.svetacdn.in/71tsRs29n5tZ/movie/51112"},{"id":51111,"title":"Дом, милый дом","kp_id":"1209714","imdb_id":"tt10097384","world_art_id":null,"type":"movie","add":"2021-06-11 20:47:59","orig_title":"Mi mi fang ke","year":"2021-05-01","translations":["Любительский (двухголосый закадровый) (Колобок)"],"quality":"webdl","translation":"Любительский (двухголосый закадровый) (Колобок)","update":"2021-06-12 21:46:05","iframe_src":"//7720.svetacdn.in/71tsRs29n5tZ/movie/51111"},{"id":51109,"title":"Сёстры Макалузо","kp_id":"1395385","imdb_id":"tt12789110","world_art_id":null,"type":"movie","add":"2021-06-11 20:42:53","orig_title":"Le sorelle Macaluso","year":"2020-09-09","translations":["Любительский (многоголосый закадровый) (Синема УС)"],"quality":"bd","translation":"Любительский (многоголосый закадровый) (Синема УС)","update":"2021-06-12 21:45:28","iframe_src":"//7720.svetacdn.in/71tsRs29n5tZ/movie/51109"},{"id":50974,"title":"Соблазн","kp_id":"1222771","imdb_id":"tt9440738","world_art_id":null,"type":"movie","add":"2021-06-06 10:00:07","orig_title":"Lured","year":"2019-10-17","translations":["Любительский (многоголосый закадровый) (Синема УС)"],"quality":"webdl","translation":"Любительский (многоголосый закадровый) (Синема УС)","update":"2021-06-13 08:52:16","iframe_src":"//7720.svetacdn.in/71tsRs29n5tZ/movie/50974"},{"id":9601,"title":"Могучие рейнджеры: Патруль времени","kp_id":"229168","imdb_id":"tt0256278","world_art_id":null,"type":"serial","add":"2020-12-25 17:23:09","orig_title":"Power Rangers Time Force","year":"2001-02-03","translations":["Полное дублирование (РенТВ)"],"seasons_count":1,"episodes_count":40,"episodes":40,"update":"2020-12-26 11:01:42","iframe_src":"//7720.svetacdn.in/71tsRs29n5tZ/tv-series/9601"},{"id":9591,"title":"Безумная королева","kp_id":"1402877","imdb_id":null,"world_art_id":null,"type":"serial","add":"2020-12-25 16:18:42","orig_title":"Feng kuang tian hou","year":"2016-09-19","translations":["Любительский (двухголосый закадровый) (HighHopes)"],"seasons_count":1,"episodes_count":20,"episodes":20,"update":"2020-12-26 23:54:43","iframe_src":"//7720.svetacdn.in/71tsRs29n5tZ/tv-series/9591"},{"id":9589,"title":"Самый маленький гном","kp_id":"427909","imdb_id":"tt2322091","world_art_id":null,"type":"serial","add":"2020-12-25 15:05:42","orig_title":"Samyy malenkiy gnom","year":"1977-01-01","translations":["Оригинальная дорожка"],"seasons_count":1,"episodes_count":4,"episodes":4,"update":"2020-12-26 06:06:33","iframe_src":"//7720.svetacdn.in/71tsRs29n5tZ/tv-series/9589"},{"id":9588,"title":"Монстр","kp_id":"983991","imdb_id":"tt5569480","world_art_id":null,"type":"serial","add":"2020-12-24 20:47:20","orig_title":"Monseuteo","year":"2016-03-28","translations":["Любительский (одноголосый закадровый)"],"seasons_count":1,"episodes_count":50,"episodes":50,"update":"2020-12-26 19:45:24","iframe_src":"//7720.svetacdn.in/71tsRs29n5tZ/tv-series/9588"},{"id":9587,"title":"Грезы любви","kp_id":"229979","imdb_id":"tt0172027","world_art_id":null,"type":"serial","add":"2020-12-24 19:54:25","orig_title":"Le miracle de l'amour","year":"1995-02-20","translations":["Профессиональный (многоголосый закадровый)"],"seasons_count":1,"episodes_count":158,"episodes":158,"update":"2020-12-26 19:21:35","iframe_src":"//7720.svetacdn.in/71tsRs29n5tZ/tv-series/9587"},{"id":9586,"title":"С новым счастьем!..","kp_id":"94822","imdb_id":"tt0350451","world_art_id":null,"type":"serial","add":"2020-12-24 18:44:12","orig_title":"S novym schastem!","year":"1999-01-01","translations":["Оригинальная дорожка"],"seasons_count":1,"episodes_count":7,"episodes":7,"update":"2020-12-25 20:07:51","iframe_src":"//7720.svetacdn.in/71tsRs29n5tZ/tv-series/9586"},{"id":9584,"title":"Паб на Гоа","kp_id":null,"imdb_id":"tt13397462","world_art_id":null,"type":"serial","add":"2020-12-24 16:10:52","orig_title":"Pubgoa","year":"2020-11-27","translations":["Любительский (многоголосый закадровый) (ColdFilm)"],"seasons_count":1,"episodes_count":8,"episodes":8,"update":"2020-12-25 11:06:00","iframe_src":"//7720.svetacdn.in/71tsRs29n5tZ/tv-series/9584"},{"id":9573,"title":"Комната 13","kp_id":"839296","imdb_id":"tt2369684","world_art_id":null,"type":"serial","add":"2020-12-22 13:42:33","orig_title":"Hotel 13","year":"2012-10-03","translations":["Профессиональный (многоголосый закадровый)"],"seasons_count":2,"episodes_count":176,"episodes":56,"update":"2020-12-26 17:29:14","iframe_src":"//7720.svetacdn.in/71tsRs29n5tZ/tv-series/9573"},{"id":9571,"title":"Повелитель зверей","kp_id":"229581","imdb_id":"tt0215392","world_art_id":null,"type":"serial","add":"2020-12-22 11:35:04","orig_title":"BeastMaster","year":"1999-10-09","translations":["Профессиональный (многоголосый закадровый)"],"seasons_count":3,"episodes_count":66,"episodes":22,"update":"2020-12-26 08:57:12","iframe_src":"//7720.svetacdn.in/71tsRs29n5tZ/tv-series/9571"},{"id":9569,"title":"Монтекристо","kp_id":"417832","imdb_id":"tt4356080","world_art_id":null,"type":"serial","add":"2020-12-21 21:38:39","orig_title":"Montekristo","year":"2008-07-14","translations":["Оригинальная дорожка"],"seasons_count":1,"episodes_count":117,"episodes":117,"update":"2020-12-26 20:04:56","iframe_src":"//7720.svetacdn.in/71tsRs29n5tZ/tv-series/9569"},{"id":9568,"title":"Завтра — это навсегда","kp_id":"455476","imdb_id":"tt1316004","world_art_id":null,"type":"serial","add":"2020-12-21 20:47:52","orig_title":"Mañana es para siempre","year":"2008-10-20","translations":["Любительский (одноголосый закадровый)"],"seasons_count":1,"episodes_count":160,"episodes":160,"update":"2020-12-25 21:12:52","iframe_src":"//7720.svetacdn.in/71tsRs29n5tZ/tv-series/9568"},{"id":9536,"title":"Сестры по крови","kp_id":"452774","imdb_id":"tt3504148","world_art_id":null,"type":"serial","add":"2020-12-15 11:09:30","orig_title":"Sestry po krovi","year":"2006-01-01","translations":["Оригинальная дорожка"],"seasons_count":1,"episodes_count":105,"episodes":105,"update":"2020-12-25 14:04:11","iframe_src":"//7720.svetacdn.in/71tsRs29n5tZ/tv-series/9536"},{"id":9514,"title":"Угости меня шоколадом","kp_id":"528259","imdb_id":"tt1058596","world_art_id":null,"type":"serial","add":"2020-12-10 12:47:52","orig_title":"Dame Chocolate","year":"2007-03-05","translations":["Профессиональный (многоголосый закадровый)"],"seasons_count":1,"episodes_count":150,"episodes":150,"update":"2020-12-25 13:22:57","iframe_src":"//7720.svetacdn.in/71tsRs29n5tZ/tv-series/9514"},{"id":45733,"title":"Территория","kp_id":"224046","imdb_id":"tt0407250","world_art_id":null,"type":"movie","add":"2020-12-01 17:46:57","orig_title":"Territoriya","year":"1980-06-13","translations":["Оригинальная дорожка"],"quality":"webdl","translation":"Оригинальная дорожка","update":"2021-06-12 15:13:32","iframe_src":"//7720.svetacdn.in/71tsRs29n5tZ/movie/45733"},{"id":9417,"title":"Сто дней свободы","kp_id":"1043842","imdb_id":null,"world_art_id":null,"type":"serial","add":"2020-11-28 23:05:26","orig_title":"Сто дней свободы","year":"2017-01-01","translations":["Оригинальная дорожка"],"seasons_count":1,"episodes_count":4,"episodes":4,"update":"2020-12-25 20:10:10","iframe_src":"//7720.svetacdn.in/71tsRs29n5tZ/tv-series/9417"},{"id":9358,"title":"Волк","kp_id":"1184077","imdb_id":"tt8871128","world_art_id":null,"type":"serial","add":"2020-11-22 09:27:52","orig_title":"Lang dian xia","year":"2020-11-19","translations":["Любительский (одноголосый закадровый) (Seoul Bay)"],"seasons_count":1,"episodes_count":49,"episodes":49,"update":"2020-12-26 13:05:12","iframe_src":"//7720.svetacdn.in/71tsRs29n5tZ/tv-series/9358"},{"id":9304,"title":"Студия 60 на Сансет Стрип","kp_id":"277549","imdb_id":"tt0485842","world_art_id":null,"type":"serial","add":"2020-11-17 16:59:09","orig_title":"Studio 60 on the Sunset Strip","year":"2006-09-17","translations":["Профессиональный (многоголосый закадровый) (FocusX)"],"seasons_count":1,"episodes_count":22,"episodes":22,"update":"2020-12-27 00:29:27","iframe_src":"//7720.svetacdn.in/71tsRs29n5tZ/tv-series/9304"},{"id":9228,"title":"Король","kp_id":"1254894","imdb_id":"tt10132320","world_art_id":null,"type":"serial","add":"2020-11-08 01:18:53","orig_title":"Król","year":"2020-11-06","translations":["Любительский (многоголосый закадровый) (Ultradox)","Любительский (многоголосый закадровый) (ColdFilm)"],"seasons_count":1,"episodes_count":8,"episodes":8,"update":"2020-12-27 07:49:56","iframe_src":"//7720.svetacdn.in/71tsRs29n5tZ/tv-series/9228"},{"id":9215,"title":"Их было десять","kp_id":"1254869","imdb_id":"tt10063310","world_art_id":null,"type":"serial","add":"2020-11-06 12:56:07","orig_title":"Ils étaient dix","year":"2020-07-16","translations":["Любительский (многоголосый закадровый) (Ultradox)","Любительский (многоголосый закадровый) (ColdFilm)","Профессиональный (многоголосый закадровый) (Русский репортаж)"],"seasons_count":1,"episodes_count":6,"episodes":6,"update":"2020-12-25 21:22:41","iframe_src":"//7720.svetacdn.in/71tsRs29n5tZ/tv-series/9215"},{"id":20201,"title":"Месть Джипси","kp_id":null,"imdb_id":"tt9239778","world_art_id":null,"type":"movie","add":"2018-11-19 21:00:00","orig_title":"Gypsy's Revenge","year":"2018-11-06","translations":["Любительский (многоголосый закадровый) (Синема УС)","Профессиональный (многоголосый закадровый) (OMSKBIRD records)"],"quality":"webdl","translation":"Любительский (многоголосый закадровый) (Синема УС)","update":"2021-06-12 11:44:41","iframe_src":"//7720.svetacdn.in/71tsRs29n5tZ/movie/20201"},{"id":2697,"title":"Осаждённые","kp_id":"909688","imdb_id":"tt4198192","world_art_id":null,"type":"serial","add":"2018-05-30 14:30:32","orig_title":"Sitiados","year":"2015-05-10","translations":["Любительский (многоголосый закадровый)","Любительский (многоголосый закадровый) (ColdFilm)","Профессиональный (двухголосый закадровый) (ViruseProject)","Любительский (одноголосый закадровый)"],"seasons_count":2,"episodes_count":16,"episodes":8,"update":"2020-12-25 13:58:44","iframe_src":"//7720.svetacdn.in/71tsRs29n5tZ/tv-series/2697"},{"id":996,"title":"Атлантида","kp_id":"402943","imdb_id":"tt1379761","world_art_id":null,"type":"serial","add":"2017-02-12 07:16:49","orig_title":"Atlantida","year":"2007-12-03","translations":["Оригинальная дорожка"],"seasons_count":1,"episodes_count":40,"episodes":40,"update":"2020-12-26 10:26:52","iframe_src":"//7720.svetacdn.in/71tsRs29n5tZ/tv-series/996"}],"current_page":125,"first_page_url":"https://videocdn.tv/api/short?limit=100&api_token=EnbO9h8pv1VyjbCJhg0WM9nG259n7mtz&cache3125=3125&page=1","from":12401,"last_page":650,"last_page_url":"https://videocdn.tv/api/short?limit=100&api_token=EnbO9h8pv1VyjbCJhg0WM9nG259n7mtz&cache3125=3125&page=650","next_page_url":"https://videocdn.tv/api/short?limit=100&api_token=EnbO9h8pv1VyjbCJhg0WM9nG259n7mtz&cache3125=3125&page=126","path":"https://videocdn.tv/api/short","per_page":100,"prev_page_url":"https://videocdn.tv/api/short?limit=100&api_token=EnbO9h8pv1VyjbCJhg0WM9nG259n7mtz&cache3125=3125&page=124","to":12440,"total":64957}