{"result":true,"data":[{"id":20805,"title":"Зачем прятаться?","kp_id":"1085512","imdb_id":"tt6998650","world_art_id":null,"type":"movie","add":"2018-12-16 22:45:57","orig_title":"Why Hide?","year":"2018-03-30","translations":["Любительский (многоголосый закадровый) (Синема УС)"],"quality":"webdl","translation":"Любительский (многоголосый закадровый) (Синема УС)","update":"2018-12-17 08:19:37","iframe_src":"//8209.svetacdn.in/71tsRs29n5tZ/movie/20805"},{"id":20804,"title":"Вирус мертвецов","kp_id":"849874","imdb_id":"tt4225092","world_art_id":null,"type":"movie","add":"2018-12-16 22:44:10","orig_title":"Virus of the Dead","year":"2018-11-14","translations":["Любительский (многоголосый закадровый) (Синема УС)"],"quality":"webdl","translation":"Любительский (многоголосый закадровый) (Синема УС)","update":"2018-12-17 08:05:53","iframe_src":"//8209.svetacdn.in/71tsRs29n5tZ/movie/20804"},{"id":20801,"title":"Правда о Рождестве","kp_id":"1181906","imdb_id":"tt8805246","world_art_id":null,"type":"movie","add":"2018-12-16 22:36:55","orig_title":"The Truth About Christmas","year":"2018-11-25","translations":["Профессиональный (многоголосый закадровый) (AlphaProject)"],"quality":"hdtv","translation":"Профессиональный (многоголосый закадровый) (AlphaProject)","update":"2018-12-17 07:53:23","iframe_src":"//8209.svetacdn.in/71tsRs29n5tZ/movie/20801"},{"id":20799,"title":"Потерянная земля","kp_id":"1120960","imdb_id":"tt8291232","world_art_id":null,"type":"movie","add":"2018-12-16 22:32:15","orig_title":"Huang cheng ji","year":"2017-12-18","translations":["Любительский (многоголосый закадровый) (Колобок)"],"quality":"webdl","translation":"Любительский (многоголосый закадровый) (Колобок)","update":"2018-12-17 08:01:20","iframe_src":"//8209.svetacdn.in/71tsRs29n5tZ/movie/20799"},{"id":20796,"title":"Уличные огни","kp_id":"1058855","imdb_id":"tt6680730","world_art_id":null,"type":"movie","add":"2018-12-16 22:24:11","orig_title":"Street Lights","year":"2018-01-25","translations":["Любительский (многоголосый закадровый) (Синема УС)"],"quality":"webdl","translation":"Любительский (многоголосый закадровый) (Синема УС)","update":"2018-12-17 08:18:07","iframe_src":"//8209.svetacdn.in/71tsRs29n5tZ/movie/20796"},{"id":20795,"title":"Катись или сдохни","kp_id":"693786","imdb_id":"tt2278050","world_art_id":null,"type":"movie","add":"2018-12-16 22:22:36","orig_title":"The Hunters' Club","year":"2018-06-01","translations":["Любительский (многоголосый закадровый) (Синема УС)"],"quality":"webdl","translation":"Любительский (многоголосый закадровый) (Синема УС)","update":"2018-12-17 08:07:22","iframe_src":"//8209.svetacdn.in/71tsRs29n5tZ/movie/20795"},{"id":20789,"title":"Вечеринка в ударе","kp_id":null,"imdb_id":"tt9153044","world_art_id":null,"type":"movie","add":"2018-12-16 21:53:16","orig_title":"Party Hype","year":"2018-09-26","translations":["Любительский (многоголосый закадровый) (Синема УС)"],"quality":"webdl","translation":"Любительский (многоголосый закадровый) (Синема УС)","update":"2018-12-17 07:58:19","iframe_src":"//8209.svetacdn.in/71tsRs29n5tZ/movie/20789"},{"id":20787,"title":"Моя большая итальянская гей-свадьба","kp_id":"1092888","imdb_id":"tt6917290","world_art_id":null,"type":"movie","add":"2018-12-16 21:49:03","orig_title":"Puoi baciare lo sposo","year":"2018-03-01","translations":["Любительский (многоголосый закадровый) (Синема УС)"],"quality":"webdl","translation":"Любительский (многоголосый закадровый) (Синема УС)","update":"2018-12-17 07:57:10","iframe_src":"//8209.svetacdn.in/71tsRs29n5tZ/movie/20787"},{"id":20701,"title":"Наследницы","kp_id":"1112685","imdb_id":"tt7875464","world_art_id":null,"type":"movie","add":"2018-12-12 22:52:44","orig_title":"Las herederas","year":"2018-02-16","translations":["Любительский (двухголосый закадровый) (LakeFilms)","Любительский (многоголосый закадровый) (Синема УС)"],"quality":"webdl","translation":"Любительский (двухголосый закадровый) (LakeFilms)","update":"2018-12-17 08:12:20","iframe_src":"//8209.svetacdn.in/71tsRs29n5tZ/movie/20701"},{"id":20566,"title":"Пока бьётся сердце","kp_id":"1209897","imdb_id":null,"world_art_id":null,"type":"movie","add":"2018-12-09 00:10:52","orig_title":"Пока бьётся сердце","year":"2018-12-08","translations":["Оригинальная дорожка"],"quality":"hdtv","translation":"Оригинальная дорожка","update":"2018-12-15 12:20:49","iframe_src":"//8209.svetacdn.in/71tsRs29n5tZ/movie/20566"},{"id":20315,"title":"Три лица","kp_id":"1118041","imdb_id":"tt8269552","world_art_id":null,"type":"movie","add":"2018-11-25 23:11:00","orig_title":"Se rokh","year":"2018-05-12","translations":["Профессиональный (многоголосый закадровый)"],"quality":"webdl","translation":"Профессиональный (многоголосый закадровый)","update":"2018-12-17 08:15:45","iframe_src":"//8209.svetacdn.in/71tsRs29n5tZ/movie/20315"},{"id":20194,"title":"Ферма","kp_id":"1114621","imdb_id":"tt7959500","world_art_id":null,"type":"movie","add":"2018-11-18 20:05:58","orig_title":"The Farm","year":"2018-04-20","translations":["Любительский (многоголосый закадровый) (Синема УС)","Любительский (двухголосый закадровый) (HiWayGrope)","Любительский (одноголосый закадровый) (Хихикающий доктор)","Original (English)"],"quality":"webdl","translation":"Любительский (многоголосый закадровый) (Синема УС)","update":"2018-12-16 07:00:01","iframe_src":"//8209.svetacdn.in/71tsRs29n5tZ/movie/20194"},{"id":20111,"title":"Железный рыцарь","kp_id":"415112","imdb_id":"tt1233301","world_art_id":null,"type":"movie","add":"2018-11-13 09:47:03","orig_title":"Ironclad","year":"2011-03-04","translations":["Полное дублирование","Original (English)"],"quality":"bd","translation":"Полное дублирование","update":"2018-12-16 07:05:57","iframe_src":"//8209.svetacdn.in/71tsRs29n5tZ/movie/20111"},{"id":20096,"title":"Конан-варвар","kp_id":"261271","imdb_id":"tt0816462","world_art_id":null,"type":"movie","add":"2018-11-12 07:56:28","orig_title":"Conan the Barbarian","year":"2011-08-11","translations":["Полное дублирование","Original (English)"],"quality":"bd","translation":"Полное дублирование","update":"2018-12-16 07:02:48","iframe_src":"//8209.svetacdn.in/71tsRs29n5tZ/movie/20096"},{"id":19773,"title":"Идеальный мужчина","kp_id":"50596","imdb_id":"tt0380623","world_art_id":null,"type":"movie","add":"2018-10-24 18:19:06","orig_title":"The Perfect Man","year":"2005-06-17","translations":["Полное дублирование","Original (English)"],"quality":"hdtv","translation":"Полное дублирование","update":"2018-12-14 12:43:59","iframe_src":"//8209.svetacdn.in/71tsRs29n5tZ/movie/19773"},{"id":18508,"title":"Последний акулий торнадо: Как раз во время","kp_id":"1115207","imdb_id":"tt8031422","world_art_id":null,"type":"movie","add":"2018-08-24 00:37:30","orig_title":"The Last Sharknado: It's About Time","year":"2018-08-19","translations":["Любительский (многоголосый закадровый) (Синема УС)","Любительский (двухголосый закадровый) (LakeFilms)","Профессиональный (многоголосый закадровый) (Jaskier)","Original (English)"],"quality":"hdtv","translation":"Любительский (многоголосый закадровый) (Синема УС)","update":"2018-12-16 06:58:58","iframe_src":"//8209.svetacdn.in/71tsRs29n5tZ/movie/18508"},{"id":16924,"title":"Букшоп","kp_id":"794309","imdb_id":"tt3127022","world_art_id":null,"type":"movie","add":"2018-05-27 00:20:23","orig_title":"The Bookshop","year":"2017-10-21","translations":["Любительский (многоголосый закадровый) (Синема УС)","Профессиональный (многоголосый закадровый) (GreenРай Studio)","Полное дублирование","Полное дублирование (iTunes)","Original (English)"],"quality":"bd","translation":"Любительский (многоголосый закадровый) (Синема УС)","update":"2018-12-16 06:57:11","iframe_src":"//8209.svetacdn.in/71tsRs29n5tZ/movie/16924"},{"id":14592,"title":"9/11","kp_id":"927311","imdb_id":"tt4917224","world_art_id":null,"type":"movie","add":"2017-12-10 19:11:07","orig_title":"9/11","year":"2017-09-07","translations":["Любительский (многоголосый закадровый) (Синема УС)","Профессиональный (многоголосый закадровый) (GreenРай Studio)","Профессиональный (многоголосый закадровый)","Полное дублирование (iTunes)","Original (English)"],"quality":"webdl","translation":"Любительский (многоголосый закадровый) (Синема УС)","update":"2018-12-14 12:45:06","iframe_src":"//8209.svetacdn.in/71tsRs29n5tZ/movie/14592"},{"id":14403,"title":"Принц на Рождество","kp_id":"1100745","imdb_id":"tt7608418","world_art_id":null,"type":"movie","add":"2017-11-20 22:18:17","orig_title":"A Christmas Prince","year":"2017-11-17","translations":["Любительский (многоголосый закадровый) (Синема УС)","Полное дублирование","Original (English)"],"quality":"webdl","translation":"Любительский (многоголосый закадровый) (Синема УС)","update":"2018-12-16 07:01:17","iframe_src":"//8209.svetacdn.in/71tsRs29n5tZ/movie/14403"},{"id":7878,"title":"Рождество Мэйерсов","kp_id":"944276","imdb_id":"tt4649416","world_art_id":null,"type":"movie","add":"2016-12-06 12:43:34","orig_title":"Almost Christmas","year":"2016-11-11","translations":["Любительский (двухголосый закадровый) (RecentFilms)","Полное дублирование"],"quality":"webdl","translation":"Любительский (двухголосый закадровый) (RecentFilms)","update":"2018-12-17 07:52:13","iframe_src":"//8209.svetacdn.in/71tsRs29n5tZ/movie/7878"}],"current_page":1807,"first_page_url":"https://videocdn.tv/api/short?limit=100&api_token=EnbO9h8pv1VyjbCJhg0WM9nG259n7mtz&cache31807=31807&page=1","from":180601,"last_page":656,"last_page_url":"https://videocdn.tv/api/short?limit=100&api_token=EnbO9h8pv1VyjbCJhg0WM9nG259n7mtz&cache31807=31807&page=656","next_page_url":null,"path":"https://videocdn.tv/api/short","per_page":100,"prev_page_url":"https://videocdn.tv/api/short?limit=100&api_token=EnbO9h8pv1VyjbCJhg0WM9nG259n7mtz&cache31807=31807&page=1806","to":180620,"total":65600}