{"result":true,"data":[{"id":47007,"title":"Идти/Не идти","kp_id":"1191292","imdb_id":"tt8997082","world_art_id":null,"type":"movie","add":"2021-01-12 20:49:36","orig_title":"Go/Don't Go","year":"2020-02-01","translations":["Любительский (многоголосый закадровый) (@MUZOBOZ@)"],"quality":"webdl","translation":"Любительский (многоголосый закадровый) (@MUZOBOZ@)","update":"2021-01-13 10:41:52","iframe_src":"//83.svetacdn.in/PfJ50H0ZBPg3/movie/47007"},{"id":47004,"title":"Девять ночей","kp_id":"1119551","imdb_id":"tt7974866","world_art_id":null,"type":"movie","add":"2021-01-12 20:36:14","orig_title":"Nine Nights","year":"2019-08-31","translations":["Любительский (многоголосый закадровый) (AlphaProject)"],"quality":"webdl","translation":"Любительский (многоголосый закадровый) (AlphaProject)","update":"2021-01-13 10:40:26","iframe_src":"//83.svetacdn.in/PfJ50H0ZBPg3/movie/47004"},{"id":47003,"title":"Однажды на реке","kp_id":"1074525","imdb_id":"tt3917094","world_art_id":null,"type":"movie","add":"2021-01-12 20:34:22","orig_title":"Once Upon a River","year":"2019-05-10","translations":["Любительский (многоголосый закадровый) (@MUZOBOZ@)"],"quality":"webdl","translation":"Любительский (многоголосый закадровый) (@MUZOBOZ@)","update":"2021-01-13 10:35:21","iframe_src":"//83.svetacdn.in/PfJ50H0ZBPg3/movie/47003"},{"id":46967,"title":"The Bid","kp_id":null,"imdb_id":"tt12272978","world_art_id":null,"type":"movie","add":"2021-01-12 13:26:21","orig_title":"The Bid","year":"2021-01-12","translations":["Original (English)"],"quality":"webdl","translation":"Original (English)","update":"2021-01-13 12:29:06","iframe_src":"//83.svetacdn.in/PfJ50H0ZBPg3/movie/46967"},{"id":46957,"title":"Улитки под дождём","kp_id":"764273","imdb_id":"tt2924590","world_art_id":null,"type":"movie","add":"2021-01-12 12:16:25","orig_title":"Shablulim BaGeshem","year":"2013-06-08","translations":["Любительский (одноголосый закадровый)"],"quality":"dvdrip","translation":"Любительский (одноголосый закадровый)","update":"2021-01-13 10:54:10","iframe_src":"//83.svetacdn.in/PfJ50H0ZBPg3/movie/46957"},{"id":46956,"title":"Буферизация","kp_id":"591894","imdb_id":"tt1715322","world_art_id":null,"type":"movie","add":"2021-01-12 11:52:01","orig_title":"Buffering","year":"2011-01-14","translations":["Авторский (одноголосый закадровый) (Кашкин Александр | Первомайский)"],"quality":"dvdrip","translation":"Авторский (одноголосый закадровый) (Кашкин Александр | Первомайский)","update":"2021-01-13 10:29:01","iframe_src":"//83.svetacdn.in/PfJ50H0ZBPg3/movie/46956"},{"id":46955,"title":"Инсценированный разрыв","kp_id":"420921","imdb_id":"tt1266542","world_art_id":null,"type":"movie","add":"2021-01-12 11:16:10","orig_title":"The Break-Up Artist","year":"2009-11-10","translations":["Любительский (одноголосый закадровый)"],"quality":"webdl","translation":"Любительский (одноголосый закадровый)","update":"2021-01-13 10:27:49","iframe_src":"//83.svetacdn.in/PfJ50H0ZBPg3/movie/46955"},{"id":46740,"title":"Пожарные","kp_id":"73655","imdb_id":"tt0126618","world_art_id":null,"type":"movie","add":"2021-01-06 08:37:11","orig_title":"I pompieri","year":"1985-10-25","translations":["Авторский (одноголосый закадровый) (Мудров Андрей)"],"quality":"webdl","translation":"Авторский (одноголосый закадровый) (Мудров Андрей)","update":"2021-01-13 11:09:27","iframe_src":"//83.svetacdn.in/PfJ50H0ZBPg3/movie/46740"},{"id":46739,"title":"Киборг-полицейский","kp_id":"5599","imdb_id":"tt0109517","world_art_id":null,"type":"movie","add":"2021-01-06 08:35:28","orig_title":"Cyborg Cop","year":"1993-08-06","translations":["Авторский (одноголосый закадровый) (Дохалов Вартан)"],"quality":"hdtv","translation":"Авторский (одноголосый закадровый) (Дохалов Вартан)","update":"2021-01-13 11:08:15","iframe_src":"//83.svetacdn.in/PfJ50H0ZBPg3/movie/46739"},{"id":46738,"title":"Приключения на берегах Онтарио","kp_id":"94233","imdb_id":null,"world_art_id":null,"type":"movie","add":"2021-01-06 08:33:19","orig_title":"Die Lederstrumpferzählungen","year":"1969-12-25","translations":["Полное дублирование (Киностудия им. Горького)"],"quality":"bd","translation":"Полное дублирование (Киностудия им. Горького)","update":"2021-01-13 11:10:21","iframe_src":"//83.svetacdn.in/PfJ50H0ZBPg3/movie/46738"},{"id":46734,"title":"Дьен Бьен Фу","kp_id":"14495","imdb_id":"tt0104105","world_art_id":null,"type":"movie","add":"2021-01-06 07:04:33","orig_title":"Diên Biên Phú","year":"1992-03-04","translations":["Авторский (одноголосый закадровый) (Живов Юрий)"],"quality":"bd","translation":"Авторский (одноголосый закадровый) (Живов Юрий)","update":"2021-01-13 11:04:27","iframe_src":"//83.svetacdn.in/PfJ50H0ZBPg3/movie/46734"},{"id":46733,"title":"Лунные убийцы","kp_id":"175684","imdb_id":"tt0077801","world_art_id":null,"type":"movie","add":"2021-01-06 06:58:24","orig_title":"Killer's Moon","year":"1978-01-01","translations":["Авторский (одноголосый закадровый) (Алексеев Антон)"],"quality":"bd","translation":"Авторский (одноголосый закадровый) (Алексеев Антон)","update":"2021-01-13 11:05:39","iframe_src":"//83.svetacdn.in/PfJ50H0ZBPg3/movie/46733"},{"id":46732,"title":"Некромант","kp_id":"221317","imdb_id":"tt0095716","world_art_id":null,"type":"movie","add":"2021-01-06 06:37:42","orig_title":"Necromancer","year":"1988-02-24","translations":["Авторский (одноголосый закадровый) (Марченко Александр)"],"quality":"bd","translation":"Авторский (одноголосый закадровый) (Марченко Александр)","update":"2021-01-13 11:06:51","iframe_src":"//83.svetacdn.in/PfJ50H0ZBPg3/movie/46732"},{"id":46176,"title":"Вор с родео","kp_id":"1385488","imdb_id":"tt12364630","world_art_id":null,"type":"movie","add":"2020-12-18 06:25:31","orig_title":"The Rodeo Thief","year":"2020-12-25","translations":["Любительский (многоголосый закадровый) (@MUZOBOZ@)","Original (English)"],"quality":"webdl","translation":"Любительский (многоголосый закадровый) (@MUZOBOZ@)","update":"2021-01-13 12:23:16","iframe_src":"//83.svetacdn.in/PfJ50H0ZBPg3/movie/46176"},{"id":45719,"title":"Турборейнджеры","kp_id":"8212","imdb_id":"tt0120389","world_art_id":null,"type":"movie","add":"2020-11-30 16:17:59","orig_title":"Turbo: A Power Rangers Movie","year":"1997-03-28","translations":["Профессиональный (многоголосый закадровый) (Первый канал | ОРТ)","Авторский (одноголосый закадровый) (Живов Юрий)","Профессиональный (двухголосый закадровый)","Профессиональный (двухголосый закадровый) (РенТВ)","Профессиональный (двухголосый закадровый) (Премьер Видео Фильм)"],"quality":"bd","translation":"Профессиональный (многоголосый закадровый) (Первый канал | ОРТ)","update":"2021-01-13 11:03:40","iframe_src":"//83.svetacdn.in/PfJ50H0ZBPg3/movie/45719"},{"id":45707,"title":"10","kp_id":"5050","imdb_id":"tt0078721","world_art_id":null,"type":"movie","add":"2020-11-30 14:58:24","orig_title":"10","year":"1979-10-05","translations":["Профессиональный (двухголосый закадровый)","Original (English)","Авторский (одноголосый закадровый) (Гаврилов Андрей)","Авторский (одноголосый закадровый) (Иванов Михаил)","Авторский (одноголосый закадровый) (Визгунов Сергей)"],"quality":"bd","translation":"Профессиональный (двухголосый закадровый)","update":"2021-01-13 10:57:23","iframe_src":"//83.svetacdn.in/PfJ50H0ZBPg3/movie/45707"},{"id":5509,"title":"Луи","kp_id":"505736","imdb_id":"tt1492966","world_art_id":null,"type":"serial","add":"2019-10-23 09:36:40","orig_title":"Louie","year":"2010-06-29","translations":["Любительский (двухголосый закадровый)","Профессиональный (двухголосый закадровый) (Ozz.tv)"],"seasons_count":5,"episodes_count":61,"episodes":8,"update":"2019-10-24 13:00:08","iframe_src":"//83.svetacdn.in/PfJ50H0ZBPg3/tv-series/5509"},{"id":5505,"title":"Пороги времени","kp_id":"89594","imdb_id":"tt0106154","world_art_id":null,"type":"serial","add":"2019-10-23 08:48:59","orig_title":"Time Trax","year":"1993-01-20","translations":["Полное дублирование (СВ-Дубль)"],"seasons_count":2,"episodes_count":43,"episodes":22,"update":"2019-10-24 12:06:21","iframe_src":"//83.svetacdn.in/PfJ50H0ZBPg3/tv-series/5505"},{"id":5503,"title":"Школа вампиров","kp_id":"510091","imdb_id":"tt1073449","world_art_id":null,"type":"serial","add":"2019-10-23 07:10:53","orig_title":"Die Schule der kleinen Vampire","year":"2006-01-01","translations":["Полное дублирование"],"seasons_count":3,"episodes_count":78,"episodes":26,"update":"2019-10-24 11:14:03","iframe_src":"//83.svetacdn.in/PfJ50H0ZBPg3/tv-series/5503"},{"id":5496,"title":"Вавилонская башня","kp_id":"422965","imdb_id":"tt0161203","world_art_id":null,"type":"serial","add":"2019-10-21 05:52:09","orig_title":"Torre de Babel","year":"1998-01-01","translations":["Профессиональный (многоголосый закадровый)"],"seasons_count":1,"episodes_count":134,"episodes":134,"update":"2019-10-23 12:29:48","iframe_src":"//83.svetacdn.in/PfJ50H0ZBPg3/tv-series/5496"},{"id":5495,"title":"Завтра будет новый день","kp_id":"1311062","imdb_id":null,"world_art_id":null,"type":"serial","add":"2019-10-20 10:01:50","orig_title":"Завтра будет новый день","year":"2019-10-19","translations":["Оригинальная дорожка"],"seasons_count":1,"episodes_count":2,"episodes":2,"update":"2019-10-22 19:23:47","iframe_src":"//83.svetacdn.in/PfJ50H0ZBPg3/tv-series/5495"},{"id":5494,"title":"Я знаю твои секреты 2","kp_id":"1283478","imdb_id":null,"world_art_id":null,"type":"serial","add":"2019-10-19 12:40:15","orig_title":"Я знаю твои секреты 2","year":"2019-10-19","translations":["Оригинальная дорожка"],"seasons_count":1,"episodes_count":4,"episodes":4,"update":"2019-10-21 11:28:03","iframe_src":"//83.svetacdn.in/PfJ50H0ZBPg3/tv-series/5494"},{"id":5490,"title":"Воздушные замки","kp_id":"422962","imdb_id":"tt0202716","world_art_id":null,"type":"serial","add":"2019-10-18 09:01:41","orig_title":"Andando Nas Nuvens","year":"1999-01-01","translations":["Профессиональный (многоголосый закадровый)"],"seasons_count":1,"episodes_count":131,"episodes":131,"update":"2019-10-18 11:52:10","iframe_src":"//83.svetacdn.in/PfJ50H0ZBPg3/tv-series/5490"},{"id":5488,"title":"Человек-невидимка","kp_id":"251610","imdb_id":"tt0220238","world_art_id":null,"type":"serial","add":"2019-10-17 20:11:23","orig_title":"The Invisible Man","year":"2000-06-09","translations":["Профессиональный (многоголосый закадровый) (ТВ3)","Профессиональный (многоголосый закадровый) (СТС)"],"seasons_count":2,"episodes_count":45,"episodes":22,"update":"2019-10-22 21:32:06","iframe_src":"//83.svetacdn.in/PfJ50H0ZBPg3/tv-series/5488"},{"id":5485,"title":"Гранд отель","kp_id":"601854","imdb_id":"tt2006421","world_art_id":null,"type":"serial","add":"2019-10-17 10:29:21","orig_title":"Gran Hotel","year":"2011-10-04","translations":["Полное дублирование (Домашний)","Профессиональный (двухголосый закадровый)"],"seasons_count":3,"episodes_count":39,"episodes":22,"update":"2019-10-18 09:52:51","iframe_src":"//83.svetacdn.in/PfJ50H0ZBPg3/tv-series/5485"},{"id":5484,"title":"Сплит: Тайна крови","kp_id":"503033","imdb_id":"tt1885795","world_art_id":null,"type":"serial","add":"2019-10-17 08:42:25","orig_title":"Hatsuya","year":"2009-05-28","translations":["Любительский (многоголосый закадровый)","Любительский (многоголосый закадровый) (Alternative Production)","Профессиональный (многоголосый закадровый)"],"seasons_count":2,"episodes_count":90,"episodes":45,"update":"2019-10-18 07:04:04","iframe_src":"//83.svetacdn.in/PfJ50H0ZBPg3/tv-series/5484"},{"id":5480,"title":"Голос сердца","kp_id":"278891","imdb_id":"tt0476078","world_art_id":null,"type":"serial","add":"2019-10-16 11:03:30","orig_title":"Alma Gêmea","year":"2005-06-20","translations":["Профессиональный (многоголосый закадровый)"],"seasons_count":1,"episodes_count":150,"episodes":150,"update":"2019-10-17 20:55:16","iframe_src":"//83.svetacdn.in/PfJ50H0ZBPg3/tv-series/5480"},{"id":5475,"title":"Чаггингтон: Веселые паровозики","kp_id":"565228","imdb_id":"tt1307510","world_art_id":null,"type":"serial","add":"2019-10-15 12:21:49","orig_title":"Chuggington","year":"2009-01-01","translations":["Полное дублирование"],"seasons_count":4,"episodes_count":118,"episodes":26,"update":"2019-10-23 20:44:33","iframe_src":"//83.svetacdn.in/PfJ50H0ZBPg3/tv-series/5475"},{"id":5464,"title":"Холодные берега","kp_id":"1236244","imdb_id":"tt10592612","world_art_id":null,"type":"serial","add":"2019-10-14 15:12:43","orig_title":"Kholodnye berega","year":"2019-10-14","translations":["Оригинальная дорожка"],"seasons_count":1,"episodes_count":8,"episodes":8,"update":"2019-10-18 08:34:51","iframe_src":"//83.svetacdn.in/PfJ50H0ZBPg3/tv-series/5464"},{"id":5439,"title":"Космос: Далекие уголки","kp_id":"277637","imdb_id":"tt0112173","world_art_id":null,"type":"serial","add":"2019-10-10 16:30:04","orig_title":"Space: Above and Beyond","year":"1995-09-24","translations":["Профессиональный (многоголосый закадровый)"],"seasons_count":1,"episodes_count":23,"episodes":23,"update":"2019-10-17 07:02:23","iframe_src":"//83.svetacdn.in/PfJ50H0ZBPg3/tv-series/5439"},{"id":5438,"title":"Мемуары Шерлока Холмса","kp_id":"402508","imdb_id":"tt0108855","world_art_id":null,"type":"serial","add":"2019-10-10 16:25:37","orig_title":"The Memoirs of Sherlock Holmes","year":"1994-03-07","translations":["Профессиональный (многоголосый закадровый) (Русский репортаж)"],"seasons_count":1,"episodes_count":6,"episodes":6,"update":"2019-10-17 06:29:58","iframe_src":"//83.svetacdn.in/PfJ50H0ZBPg3/tv-series/5438"},{"id":5437,"title":"Архив Шерлока Холмса","kp_id":"402509","imdb_id":"tt0098765","world_art_id":null,"type":"serial","add":"2019-10-10 16:17:06","orig_title":"The Case-Book of Sherlock Holmes","year":"1991-02-21","translations":["Профессиональный (многоголосый закадровый) (Русский репортаж)"],"seasons_count":3,"episodes_count":9,"episodes":2,"update":"2019-10-17 05:41:59","iframe_src":"//83.svetacdn.in/PfJ50H0ZBPg3/tv-series/5437"},{"id":5153,"title":"Форс-мажор","kp_id":"988790","imdb_id":"tt10027956","world_art_id":null,"type":"serial","add":"2019-09-06 15:06:46","orig_title":"Fors-mazhor","year":"2016-01-01","translations":["Оригинальная дорожка"],"seasons_count":1,"episodes_count":10,"episodes":10,"update":"2019-10-23 12:19:43","iframe_src":"//83.svetacdn.in/PfJ50H0ZBPg3/tv-series/5153"},{"id":5144,"title":"Шторм","kp_id":"1040562","imdb_id":null,"world_art_id":null,"type":"serial","add":"2019-09-05 09:28:34","orig_title":"Шторм","year":"2019-09-05","translations":["Оригинальная дорожка"],"seasons_count":1,"episodes_count":8,"episodes":8,"update":"2019-10-17 06:17:30","iframe_src":"//83.svetacdn.in/PfJ50H0ZBPg3/tv-series/5144"},{"id":4467,"title":"Ворон","kp_id":"1227460","imdb_id":"tt9529500","world_art_id":null,"type":"serial","add":"2019-05-07 19:12:49","orig_title":"Kuzgun","year":"2019-02-13","translations":["Любительский (двухголосый закадровый)"],"seasons_count":2,"episodes_count":21,"episodes":5,"update":"2019-10-22 17:10:05","iframe_src":"//83.svetacdn.in/PfJ50H0ZBPg3/tv-series/4467"},{"id":4054,"title":"Я знаю твои секреты","kp_id":"961716","imdb_id":"tt5564484","world_art_id":null,"type":"serial","add":"2019-02-11 04:16:47","orig_title":"Ya znayu tvoi sekrety","year":"2016-04-02","translations":["Оригинальная дорожка"],"seasons_count":1,"episodes_count":4,"episodes":4,"update":"2019-10-18 06:54:17","iframe_src":"//83.svetacdn.in/PfJ50H0ZBPg3/tv-series/4054"},{"id":21993,"title":"Агата и правда об убийстве","kp_id":"1219476","imdb_id":"tt9381998","world_art_id":null,"type":"movie","add":"2019-02-02 13:56:53","orig_title":"Agatha and the Truth of Murder","year":"2018-12-23","translations":["Любительский (многоголосый закадровый) (@MUZOBOZ@)","Профессиональный (многоголосый закадровый) (HDrezka Studio)","Профессиональный (многоголосый закадровый) (HDrezka Studio)","Полное дублирование (Лексикон)","Original (English)","Профессиональный (многоголосый закадровый) (SDI Media)"],"quality":"webdl","translation":"Любительский (многоголосый закадровый) (@MUZOBOZ@)","update":"2021-01-13 11:16:06","iframe_src":"//83.svetacdn.in/PfJ50H0ZBPg3/movie/21993"},{"id":13047,"title":"Прерия","kp_id":"95623","imdb_id":"tt0139538","world_art_id":null,"type":"movie","add":"2017-08-20 07:35:35","orig_title":"La prairie","year":"1971-09-16","translations":["Полное дублирование (Киностудия им. Горького)"],"quality":"bd","translation":"Полное дублирование (Киностудия им. Горького)","update":"2021-01-13 11:11:30","iframe_src":"//83.svetacdn.in/PfJ50H0ZBPg3/movie/13047"},{"id":4082,"title":"Пляж","kp_id":"6871","imdb_id":"tt0163978","world_art_id":null,"type":"movie","add":"2016-07-20 21:40:37","orig_title":"The Beach","year":"2000-02-02","translations":["Полное дублирование","Original (English)","Авторский (одноголосый закадровый) (Кузнецов Сергей)","Авторский (одноголосый закадровый) (Живов Юрий)","Полное дублирование","Профессиональный (двухголосый закадровый) (FDV)","Профессиональный (многоголосый закадровый)"],"quality":"webdl","translation":"Полное дублирование","update":"2021-01-13 10:52:48","iframe_src":"//83.svetacdn.in/PfJ50H0ZBPg3/movie/4082"},{"id":3518,"title":"Провал во времени","kp_id":"2769","imdb_id":"tt0117468","world_art_id":null,"type":"movie","add":"2016-06-30 05:05:00","orig_title":"Retroactive","year":"1997-01-01","translations":["Профессиональный (многоголосый закадровый)","Авторский (одноголосый закадровый) (Сербин Юрий)","Авторский (одноголосый закадровый) (Визгунов Сергей)","Профессиональный (двухголосый закадровый) (НТВ)","Профессиональный (многоголосый закадровый) (СТС)","Профессиональный (многоголосый закадровый) (ТВ6)","Профессиональный (многоголосый закадровый)","Original (English)"],"quality":"bd","translation":"Профессиональный (многоголосый закадровый)","update":"2021-01-13 11:40:31","iframe_src":"//83.svetacdn.in/PfJ50H0ZBPg3/movie/3518"}],"current_page":334,"first_page_url":"https://videocdn.tv/api/short?limit=100&api_token=RgFQdUIR2dRmwv8iYa5SnFNgnw3vpjKj&cache3334=3334&page=1","from":33301,"last_page":635,"last_page_url":"https://videocdn.tv/api/short?limit=100&api_token=RgFQdUIR2dRmwv8iYa5SnFNgnw3vpjKj&cache3334=3334&page=635","next_page_url":"https://videocdn.tv/api/short?limit=100&api_token=RgFQdUIR2dRmwv8iYa5SnFNgnw3vpjKj&cache3334=3334&page=335","path":"https://videocdn.tv/api/short","per_page":100,"prev_page_url":"https://videocdn.tv/api/short?limit=100&api_token=RgFQdUIR2dRmwv8iYa5SnFNgnw3vpjKj&cache3334=3334&page=333","to":33340,"total":63490}