{"result":true,"data":[{"id":48241,"title":"Любовь на локдауне","kp_id":"4368807","imdb_id":"tt13937648","world_art_id":null,"type":"movie","add":"2021-02-25 08:03:13","orig_title":"Lock Down Love","year":"2021-01-29","translations":["Любительский (многоголосый закадровый) (Синема УС)"],"quality":"webdl","translation":"Любительский (многоголосый закадровый) (Синема УС)","update":"2021-02-25 09:13:48","iframe_src":"//5322.svetacdn.in/si4jsFRrtgrT/movie/48241"},{"id":48240,"title":"Сакко и Ванцетти","kp_id":"54280","imdb_id":"tt0067698","world_art_id":null,"type":"movie","add":"2021-02-25 06:38:16","orig_title":"Sacco e Vanzetti","year":"1971-03-16","translations":["Любительский (многоголосый закадровый)"],"quality":"bd","translation":"Любительский (многоголосый закадровый)","update":"2021-02-25 12:31:46","iframe_src":"//5322.svetacdn.in/si4jsFRrtgrT/movie/48240"},{"id":48238,"title":"Спешащий человек","kp_id":"57351","imdb_id":"tt0076154","world_art_id":null,"type":"movie","add":"2021-02-25 06:09:25","orig_title":"L'homme pressé","year":"1977-08-10","translations":["Профессиональный (двухголосый закадровый)"],"quality":"bd","translation":"Профессиональный (двухголосый закадровый)","update":"2021-02-25 13:37:39","iframe_src":"//5322.svetacdn.in/si4jsFRrtgrT/movie/48238"},{"id":48232,"title":"Небо нашего детства","kp_id":"46378","imdb_id":"tt0060745","world_art_id":null,"type":"movie","add":"2021-02-24 18:23:09","orig_title":"Nebo nashego detstva","year":"1966-04-16","translations":["Оригинальная дорожка"],"quality":"sat","translation":"Оригинальная дорожка","update":"2021-02-25 12:15:36","iframe_src":"//5322.svetacdn.in/si4jsFRrtgrT/movie/48232"},{"id":48231,"title":"Красное яблоко","kp_id":"44956","imdb_id":"tt0173969","world_art_id":null,"type":"movie","add":"2021-02-24 18:20:27","orig_title":"Krasnoe yabloko","year":"1976-03-09","translations":["Оригинальная дорожка"],"quality":"sat","translation":"Оригинальная дорожка","update":"2021-02-25 12:06:56","iframe_src":"//5322.svetacdn.in/si4jsFRrtgrT/movie/48231"},{"id":48230,"title":"Дверь без замка","kp_id":"224042","imdb_id":"tt0383332","world_art_id":null,"type":"movie","add":"2021-02-24 18:18:15","orig_title":"Dver bez zamka","year":"1973-01-01","translations":["Оригинальная дорожка"],"quality":"sat","translation":"Оригинальная дорожка","update":"2021-02-25 12:01:11","iframe_src":"//5322.svetacdn.in/si4jsFRrtgrT/movie/48230"},{"id":48229,"title":"Девушка Тянь-Шаня","kp_id":"976221","imdb_id":"tt5646212","world_art_id":null,"type":"movie","add":"2021-02-24 18:15:13","orig_title":"Devushka Tyan-Shanya","year":"1960-10-10","translations":["Оригинальная дорожка"],"quality":"sat","translation":"Оригинальная дорожка","update":"2021-02-25 11:55:23","iframe_src":"//5322.svetacdn.in/si4jsFRrtgrT/movie/48229"},{"id":48225,"title":"Гроссмейстер","kp_id":"85183","imdb_id":"tt0382724","world_art_id":null,"type":"movie","add":"2021-02-24 12:38:04","orig_title":"Grossmeyster","year":"1973-08-13","translations":["Оригинальная дорожка"],"quality":"dvb","translation":"Оригинальная дорожка","update":"2021-02-25 11:49:45","iframe_src":"//5322.svetacdn.in/si4jsFRrtgrT/movie/48225"},{"id":48224,"title":"Господин гимназист","kp_id":"44586","imdb_id":"tt0264654","world_art_id":null,"type":"movie","add":"2021-02-24 12:35:49","orig_title":"Gospodin gimnazist","year":"1985-01-01","translations":["Оригинальная дорожка"],"quality":"dvdrip","translation":"Оригинальная дорожка","update":"2021-02-25 11:48:37","iframe_src":"//5322.svetacdn.in/si4jsFRrtgrT/movie/48224"},{"id":48223,"title":"Факт биографии","kp_id":"471149","imdb_id":"tt4854072","world_art_id":null,"type":"movie","add":"2021-02-24 12:25:54","orig_title":"Fakt biografii","year":"1975-01-01","translations":["Оригинальная дорожка"],"quality":"tv","translation":"Оригинальная дорожка","update":"2021-02-25 11:46:53","iframe_src":"//5322.svetacdn.in/si4jsFRrtgrT/movie/48223"},{"id":48222,"title":"Егор Булычов и другие","kp_id":"42433","imdb_id":"tt0068001","world_art_id":null,"type":"movie","add":"2021-02-24 12:23:39","orig_title":"Yegor Bulychyov i drugiye","year":"1972-09-16","translations":["Оригинальная дорожка"],"quality":"dvdrip","translation":"Оригинальная дорожка","update":"2021-02-25 11:43:15","iframe_src":"//5322.svetacdn.in/si4jsFRrtgrT/movie/48222"},{"id":48221,"title":"Эдгар и Кристина","kp_id":"41970","imdb_id":"tt0165278","world_art_id":null,"type":"movie","add":"2021-02-24 12:20:35","orig_title":"Purva bridejs","year":"1967-08-14","translations":["Полное дублирование"],"quality":"tv","translation":"Полное дублирование","update":"2021-02-25 11:18:38","iframe_src":"//5322.svetacdn.in/si4jsFRrtgrT/movie/48221"},{"id":48219,"title":"Байка","kp_id":"46010","imdb_id":"tt0286479","world_art_id":null,"type":"movie","add":"2021-02-24 12:13:46","orig_title":"Bayka","year":"1987-01-04","translations":["Оригинальная дорожка"],"quality":"iptv","translation":"Оригинальная дорожка","update":"2021-02-25 11:17:04","iframe_src":"//5322.svetacdn.in/si4jsFRrtgrT/movie/48219"},{"id":48215,"title":"Пристанище смелых","kp_id":"1096697","imdb_id":"tt7279640","world_art_id":null,"type":"movie","add":"2021-02-24 09:58:14","orig_title":"Home of the Brave","year":"2018-04-25","translations":["Любительский (многоголосый закадровый) (Синема УС)"],"quality":"webdl","translation":"Любительский (многоголосый закадровый) (Синема УС)","update":"2021-02-25 11:22:21","iframe_src":"//5322.svetacdn.in/si4jsFRrtgrT/movie/48215"},{"id":47691,"title":"Последний Парадизо","kp_id":"1332482","imdb_id":"tt11428926","world_art_id":null,"type":"movie","add":"2021-02-05 21:01:17","orig_title":"L'ultimo paradiso","year":"2021-02-05","translations":["Любительский (двухголосый закадровый) (OnisFilms)","Любительский (многоголосый закадровый) (@MUZOBOZ@)","Любительский (многоголосый закадровый) (@MUZOBOZ@)"],"quality":"webdl","translation":"Любительский (двухголосый закадровый) (OnisFilms)","update":"2021-02-25 13:41:36","iframe_src":"//5322.svetacdn.in/si4jsFRrtgrT/movie/47691"},{"id":47220,"title":"32 недели","kp_id":"1447370","imdb_id":"tt13380288","world_art_id":null,"type":"movie","add":"2021-01-18 19:28:16","orig_title":"32 Weeks","year":"2020-11-12","translations":["Original (English)","Любительский (многоголосый закадровый) (Синема УС)","Любительский (многоголосый закадровый) (Синема УС)"],"quality":"webdl","translation":"Original (English)","update":"2021-02-25 12:29:09","iframe_src":"//5322.svetacdn.in/si4jsFRrtgrT/movie/47220"},{"id":46159,"title":"Семейка Крудс: Новоселье","kp_id":"758178","imdb_id":"tt2850386","world_art_id":null,"type":"movie","add":"2020-12-17 14:35:08","orig_title":"The Croods: A New Age","year":"2020-11-25","translations":["Original (English)","Полное дублирование (iTunes)"],"quality":"webdl","translation":"Original (English)","update":"2021-02-25 11:30:30","iframe_src":"//5322.svetacdn.in/si4jsFRrtgrT/movie/46159"},{"id":45701,"title":"Жалкие истории","kp_id":"1328545","imdb_id":"tt11362866","world_art_id":null,"type":"movie","add":"2020-11-30 05:53:01","orig_title":"Historias lamentables","year":"2020-11-19","translations":["Любительский (многоголосый закадровый) (AlphaProject)"],"quality":"webdl","translation":"Любительский (многоголосый закадровый) (AlphaProject)","update":"2021-02-25 13:40:49","iframe_src":"//5322.svetacdn.in/si4jsFRrtgrT/movie/45701"},{"id":7699,"title":"Развод по-голливудски","kp_id":"401482","imdb_id":"tt0810726","world_art_id":null,"type":"serial","add":"2020-06-01 17:05:07","orig_title":"The Starter Wife","year":"2007-05-31","translations":["Профессиональный (многоголосый закадровый) (Fox Life)"],"seasons_count":1,"episodes_count":5,"episodes":5,"update":"2020-06-02 16:24:12","iframe_src":"//5322.svetacdn.in/si4jsFRrtgrT/tv-series/7699"},{"id":7697,"title":"Великая кавказская ссылка","kp_id":"957744","imdb_id":"tt5291200","world_art_id":null,"type":"serial","add":"2020-06-01 13:57:09","orig_title":"Büyük Sürgün Kafkasya","year":"2015-12-15","translations":["Любительский (одноголосый закадровый) (Реальный перевод)"],"seasons_count":1,"episodes_count":4,"episodes":4,"update":"2020-06-02 13:10:45","iframe_src":"//5322.svetacdn.in/si4jsFRrtgrT/tv-series/7697"},{"id":7695,"title":"Ответственность","kp_id":"843628","imdb_id":"tt4075332","world_art_id":null,"type":"serial","add":"2020-06-01 12:52:13","orig_title":"Emanet","year":"2014-09-01","translations":["Авторский (одноголосый закадровый) (Котова Ирина)"],"seasons_count":1,"episodes_count":13,"episodes":13,"update":"2020-06-02 16:10:16","iframe_src":"//5322.svetacdn.in/si4jsFRrtgrT/tv-series/7695"},{"id":7693,"title":"Любка","kp_id":"453237","imdb_id":"tt1431722","world_art_id":null,"type":"serial","add":"2020-06-01 12:42:48","orig_title":"Lyubka","year":"2009-03-28","translations":["Оригинальная дорожка"],"seasons_count":1,"episodes_count":2,"episodes":2,"update":"2020-06-02 12:15:45","iframe_src":"//5322.svetacdn.in/si4jsFRrtgrT/tv-series/7693"},{"id":7692,"title":"Боль в моем сердце","kp_id":null,"imdb_id":"tt3181004","world_art_id":null,"type":"serial","add":"2020-06-01 12:38:41","orig_title":"Mazi Kalbimde Yaradir","year":"2011-01-01","translations":["Любительский (одноголосый закадровый)"],"seasons_count":1,"episodes_count":26,"episodes":26,"update":"2020-06-02 12:14:34","iframe_src":"//5322.svetacdn.in/si4jsFRrtgrT/tv-series/7692"},{"id":7691,"title":"Дело чести","kp_id":"880716","imdb_id":"tt4312318","world_art_id":null,"type":"serial","add":"2020-06-01 12:38:07","orig_title":"Seref Meselesi","year":"2014-11-23","translations":["Авторский (одноголосый закадровый) (Котова Ирина)","Оригинальная дорожка"],"seasons_count":1,"episodes_count":26,"episodes":26,"update":"2020-06-02 15:59:33","iframe_src":"//5322.svetacdn.in/si4jsFRrtgrT/tv-series/7691"},{"id":7690,"title":"Любовь моей жизни","kp_id":"981226","imdb_id":"tt5692738","world_art_id":null,"type":"serial","add":"2020-06-01 12:27:01","orig_title":"Hayatimin Aski","year":"2016-05-15","translations":["Профессиональный (двухголосый закадровый)"],"seasons_count":1,"episodes_count":13,"episodes":13,"update":"2020-06-01 18:58:51","iframe_src":"//5322.svetacdn.in/si4jsFRrtgrT/tv-series/7690"},{"id":7689,"title":"Королёк — птичка певчая","kp_id":"800353","imdb_id":"tt3142876","world_art_id":null,"type":"serial","add":"2020-06-01 11:27:03","orig_title":"Çalikusu","year":"2013-09-24","translations":["Полное дублирование (Домашний)"],"seasons_count":1,"episodes_count":30,"episodes":30,"update":"2020-06-01 18:54:06","iframe_src":"//5322.svetacdn.in/si4jsFRrtgrT/tv-series/7689"},{"id":7688,"title":"Главнокомандующий","kp_id":"277561","imdb_id":"tt0429455","world_art_id":null,"type":"serial","add":"2020-06-01 10:42:58","orig_title":"Commander in Chief","year":"2005-09-27","translations":["Профессиональный (многоголосый закадровый) (Fox Life)"],"seasons_count":1,"episodes_count":18,"episodes":18,"update":"2020-06-01 18:42:25","iframe_src":"//5322.svetacdn.in/si4jsFRrtgrT/tv-series/7688"},{"id":7687,"title":"Кубикл","kp_id":"1331861","imdb_id":"tt11379698","world_art_id":null,"type":"serial","add":"2020-06-01 09:20:23","orig_title":"Cubicles","year":"2019-12-10","translations":["Любительский (многоголосый закадровый) (ColdFilm)"],"seasons_count":1,"episodes_count":5,"episodes":5,"update":"2020-06-01 12:14:38","iframe_src":"//5322.svetacdn.in/si4jsFRrtgrT/tv-series/7687"},{"id":7684,"title":"Редл","kp_id":"1179876","imdb_id":"tt8747598","world_art_id":null,"type":"serial","add":"2020-06-01 04:44:00","orig_title":"Rédl","year":"2018-11-11","translations":["Профессиональный (двухголосый закадровый) (ViruseProject)"],"seasons_count":1,"episodes_count":4,"episodes":4,"update":"2020-06-02 14:39:37","iframe_src":"//5322.svetacdn.in/si4jsFRrtgrT/tv-series/7684"},{"id":7645,"title":"Фаворский","kp_id":"406155","imdb_id":"tt4361786","world_art_id":null,"type":"serial","add":"2020-05-27 05:39:35","orig_title":"Favorskiy","year":"2005-03-28","translations":["Оригинальная дорожка"],"seasons_count":1,"episodes_count":10,"episodes":10,"update":"2020-06-01 11:03:08","iframe_src":"//5322.svetacdn.in/si4jsFRrtgrT/tv-series/7645"},{"id":7555,"title":"35 дней","kp_id":"1301847","imdb_id":"tt3919200","world_art_id":null,"type":"serial","add":"2020-05-18 11:00:51","orig_title":"35 Diwrnod","year":"2014-03-23","translations":["Любительский (многоголосый закадровый) (Octopus)"],"seasons_count":4,"episodes_count":30,"episodes":6,"update":"2020-06-01 13:10:51","iframe_src":"//5322.svetacdn.in/si4jsFRrtgrT/tv-series/7555"},{"id":6997,"title":"Таисия","kp_id":"1216653","imdb_id":"tt10337522","world_art_id":null,"type":"serial","add":"2020-03-26 15:07:23","orig_title":"Taisiya","year":"2018-09-15","translations":["Оригинальная дорожка"],"seasons_count":1,"episodes_count":4,"episodes":4,"update":"2020-06-02 11:59:03","iframe_src":"//5322.svetacdn.in/si4jsFRrtgrT/tv-series/6997"},{"id":34451,"title":"Ходячий призрак","kp_id":"1108970","imdb_id":"tt7612748","world_art_id":null,"type":"movie","add":"2019-12-25 21:01:22","orig_title":"The Ghost Who Walks","year":"2019-07-21","translations":["Любительский (многоголосый закадровый) (Синема УС)","Original (English)","Профессиональный (многоголосый закадровый)"],"quality":"webdl","translation":"Любительский (многоголосый закадровый) (Синема УС)","update":"2021-02-25 13:39:43","iframe_src":"//5322.svetacdn.in/si4jsFRrtgrT/movie/34451"},{"id":5949,"title":"Пианино","kp_id":"1178701","imdb_id":"tt8765446","world_art_id":null,"type":"serial","add":"2019-12-05 07:45:50","orig_title":"Upright","year":"2019-11-28","translations":["Любительский (многоголосый закадровый) (ColdFilm)","Профессиональный (многоголосый закадровый) (BaibaKo)","Профессиональный (многоголосый закадровый) (FOX)","Профессиональный (многоголосый закадровый) (Good People)"],"seasons_count":1,"episodes_count":8,"episodes":8,"update":"2020-06-02 12:10:21","iframe_src":"//5322.svetacdn.in/si4jsFRrtgrT/tv-series/5949"},{"id":5502,"title":"Последний бык","kp_id":"584220","imdb_id":"tt1540108","world_art_id":null,"type":"serial","add":"2019-10-22 20:26:08","orig_title":"Der letzte Bulle","year":"2010-04-12","translations":["Профессиональный (двухголосый закадровый) (ViruseProject)","Профессиональный (многоголосый закадровый) (ViruseProject)"],"seasons_count":5,"episodes_count":60,"episodes":8,"update":"2020-06-01 14:27:58","iframe_src":"//5322.svetacdn.in/si4jsFRrtgrT/tv-series/5502"},{"id":4814,"title":"Вспыш и чудо-машинки","kp_id":"869535","imdb_id":"tt4458594","world_art_id":null,"type":"serial","add":"2019-07-07 09:54:30","orig_title":"Blaze and the Monster Machines","year":"2013-10-13","translations":["Полное дублирование (Nickelodeon)"],"seasons_count":5,"episodes_count":89,"episodes":9,"update":"2020-06-02 12:59:19","iframe_src":"//5322.svetacdn.in/si4jsFRrtgrT/tv-series/4814"},{"id":4515,"title":"Свежие яйца","kp_id":"1217824","imdb_id":"tt9319608","world_art_id":null,"type":"serial","add":"2019-05-17 22:52:11","orig_title":"Fresh Eggs","year":"2019-02-19","translations":["Профессиональный (одноголосый закадровый)","Профессиональный (многоголосый закадровый) (Ozz.tv)"],"seasons_count":1,"episodes_count":6,"episodes":6,"update":"2020-06-02 14:29:25","iframe_src":"//5322.svetacdn.in/si4jsFRrtgrT/tv-series/4515"},{"id":2115,"title":"Радуга в поднебесье","kp_id":"1112399","imdb_id":null,"world_art_id":null,"type":"serial","add":"2018-02-19 15:01:42","orig_title":"Радуга в поднебесье","year":"2018-02-17","translations":["Оригинальная дорожка"],"seasons_count":1,"episodes_count":2,"episodes":2,"update":"2020-06-02 15:36:18","iframe_src":"//5322.svetacdn.in/si4jsFRrtgrT/tv-series/2115"},{"id":576,"title":"Как избежать наказания за убийство","kp_id":"804876","imdb_id":"tt3205802","world_art_id":null,"type":"serial","add":"2016-11-14 07:19:49","orig_title":"How to Get Away with Murder","year":"2014-09-25","translations":["Профессиональный (многоголосый закадровый) (Кравец)","Полное дублирование (Кириллица)","Полное дублирование","Профессиональный (многоголосый закадровый) (IdeaFilm)","Профессиональный (многоголосый закадровый) (ColdFilm)","Профессиональный (многоголосый закадровый) (TUMBLER Studio)","Профессиональный (многоголосый закадровый) (TVShows)","Любительский (многоголосый закадровый) (Octopus)","Любительский (многоголосый закадровый) (ColdFilm)"],"seasons_count":6,"episodes_count":90,"episodes":15,"update":"2020-06-02 15:54:11","iframe_src":"//5322.svetacdn.in/si4jsFRrtgrT/tv-series/576"},{"id":2883,"title":"Горькая луна","kp_id":"6155","imdb_id":"tt0104779","world_art_id":null,"type":"movie","add":"2016-06-04 09:37:01","orig_title":"Bitter Moon","year":"1992-07-12","translations":["Полное дублирование","Полное дублирование (Хлопушка)","Original (English)","Любительский (одноголосый закадровый)","Профессиональный (двухголосый закадровый) (Союз Видео)","Профессиональный (многоголосый закадровый)"],"quality":"bd","translation":"Полное дублирование","update":"2021-02-25 07:45:33","iframe_src":"//5322.svetacdn.in/si4jsFRrtgrT/movie/2883"}],"current_page":209,"first_page_url":"https://videocdn.tv/api/short?limit=100&api_token=X6EwAUfE5M9xbo7y0Bp0aPf3uXxG2KLL&cache3209=3209&page=1","from":20801,"last_page":628,"last_page_url":"https://videocdn.tv/api/short?limit=100&api_token=X6EwAUfE5M9xbo7y0Bp0aPf3uXxG2KLL&cache3209=3209&page=628","next_page_url":"https://videocdn.tv/api/short?limit=100&api_token=X6EwAUfE5M9xbo7y0Bp0aPf3uXxG2KLL&cache3209=3209&page=210","path":"https://videocdn.tv/api/short","per_page":100,"prev_page_url":"https://videocdn.tv/api/short?limit=100&api_token=X6EwAUfE5M9xbo7y0Bp0aPf3uXxG2KLL&cache3209=3209&page=208","to":20840,"total":62702}