{"result":true,"data":[{"id":52121,"title":"Руководство для женатых","kp_id":"6532","imdb_id":"tt0061736","world_art_id":null,"type":"movie","add":"2021-07-30 15:54:33","orig_title":"A Guide for the Married Man","year":"1967-05-25","translations":["Профессиональный (многоголосый закадровый) (Первый канал | ОРТ)"],"quality":"dvdrip","translation":"Профессиональный (многоголосый закадровый) (Первый канал | ОРТ)","update":"2021-07-30 17:46:05","iframe_src":"//2413.svetacdn.in/si4jsFRrtgrT/movie/52121"},{"id":52113,"title":"Неуязвимый: Расплата","kp_id":"1185508","imdb_id":"tt8896918","world_art_id":null,"type":"movie","add":"2021-07-30 12:28:18","orig_title":"Indestructible: Reckoning","year":"2018-07-23","translations":["Любительский (многоголосый закадровый) (Синема УС)"],"quality":"webdl","translation":"Любительский (многоголосый закадровый) (Синема УС)","update":"2021-07-30 17:59:48","iframe_src":"//2413.svetacdn.in/si4jsFRrtgrT/movie/52113"},{"id":52112,"title":"Мескитовое сердце","kp_id":"1331581","imdb_id":"tt11448286","world_art_id":null,"type":"movie","add":"2021-07-30 12:26:13","orig_title":"Corazón de Mezquite","year":"2019-01-01","translations":["Любительский (многоголосый закадровый) (Синема УС)"],"quality":"webdl","translation":"Любительский (многоголосый закадровый) (Синема УС)","update":"2021-07-30 17:58:16","iframe_src":"//2413.svetacdn.in/si4jsFRrtgrT/movie/52112"},{"id":52111,"title":"Август","kp_id":"1297217","imdb_id":"tt10818486","world_art_id":null,"type":"movie","add":"2021-07-30 12:23:55","orig_title":"Agosto","year":"2019-01-01","translations":["Любительский (многоголосый закадровый) (Синема УС)"],"quality":"webdl","translation":"Любительский (многоголосый закадровый) (Синема УС)","update":"2021-07-30 17:57:47","iframe_src":"//2413.svetacdn.in/si4jsFRrtgrT/movie/52111"},{"id":52108,"title":"Маленький воин","kp_id":"1320548","imdb_id":"tt11467694","world_art_id":null,"type":"movie","add":"2021-07-30 05:53:12","orig_title":"Malenkiy voin","year":"2021-06-10","translations":["Оригинальная дорожка"],"quality":"webdl","translation":"Оригинальная дорожка","update":"2021-07-30 11:30:04","iframe_src":"//2413.svetacdn.in/si4jsFRrtgrT/movie/52108"},{"id":52078,"title":"Публикация","kp_id":"43346","imdb_id":"tt0307356","world_art_id":null,"type":"movie","add":"2021-07-28 18:02:41","orig_title":"Publikatsiya","year":"1988-01-01","translations":["Оригинальная дорожка"],"quality":"dvdrip","translation":"Оригинальная дорожка","update":"2021-07-30 08:21:48","iframe_src":"//2413.svetacdn.in/si4jsFRrtgrT/movie/52078"},{"id":52077,"title":"Возьми меня с собой","kp_id":"331858","imdb_id":"tt0153606","world_art_id":null,"type":"movie","add":"2021-07-28 17:57:46","orig_title":"Vozmi menya s soboy","year":"1990-09-01","translations":["Оригинальная дорожка"],"quality":"dvdrip","translation":"Оригинальная дорожка","update":"2021-07-30 08:19:06","iframe_src":"//2413.svetacdn.in/si4jsFRrtgrT/movie/52077"},{"id":52064,"title":"Выше гор","kp_id":"45970","imdb_id":"tt0306211","world_art_id":null,"type":"movie","add":"2021-07-27 18:25:56","orig_title":"Vyshe gor","year":"1988-01-01","translations":["Оригинальная дорожка"],"quality":"sat","translation":"Оригинальная дорожка","update":"2021-07-30 08:17:44","iframe_src":"//2413.svetacdn.in/si4jsFRrtgrT/movie/52064"},{"id":52063,"title":"Год Дракона","kp_id":"44522","imdb_id":"tt0237275","world_art_id":null,"type":"movie","add":"2021-07-27 18:15:18","orig_title":"God drakona","year":"1982-12-02","translations":["Оригинальная дорожка"],"quality":"vhs","translation":"Оригинальная дорожка","update":"2021-07-30 08:15:34","iframe_src":"//2413.svetacdn.in/si4jsFRrtgrT/movie/52063"},{"id":52062,"title":"Мерзавец","kp_id":"46613","imdb_id":"tt0307152","world_art_id":null,"type":"movie","add":"2021-07-27 18:10:16","orig_title":"Yaramaz","year":"1988-05-31","translations":["Профессиональный (одноголосый закадровый)"],"quality":"sat","translation":"Профессиональный (одноголосый закадровый)","update":"2021-07-30 08:14:14","iframe_src":"//2413.svetacdn.in/si4jsFRrtgrT/movie/52062"},{"id":52061,"title":"Мужчина для молодой женщины","kp_id":"46740","imdb_id":"tt0307204","world_art_id":null,"type":"movie","add":"2021-07-27 17:57:51","orig_title":"Ganc qadinin kisisi","year":"1988-05-29","translations":["Профессиональный (одноголосый закадровый)"],"quality":"webdl","translation":"Профессиональный (одноголосый закадровый)","update":"2021-07-30 08:12:40","iframe_src":"//2413.svetacdn.in/si4jsFRrtgrT/movie/52061"},{"id":52032,"title":"Сказка старого дуба","kp_id":"581369","imdb_id":"tt1726757","world_art_id":null,"type":"movie","add":"2021-07-26 21:36:52","orig_title":"Skazka starogo duba","year":"1984-01-01","translations":["Оригинальная дорожка"],"quality":"webdl","translation":"Оригинальная дорожка","update":"2021-07-30 08:06:39","iframe_src":"//2413.svetacdn.in/si4jsFRrtgrT/movie/52032"},{"id":52031,"title":"Листопад в пору лета","kp_id":"425034","imdb_id":"tt0378258","world_art_id":null,"type":"movie","add":"2021-07-26 21:34:27","orig_title":"Listopad v poru leta","year":"1986-01-01","translations":["Оригинальная дорожка"],"quality":"vhs","translation":"Оригинальная дорожка","update":"2021-07-30 08:03:44","iframe_src":"//2413.svetacdn.in/si4jsFRrtgrT/movie/52031"},{"id":52030,"title":"Суд","kp_id":"824959","imdb_id":"tt7147592","world_art_id":null,"type":"movie","add":"2021-07-26 21:31:53","orig_title":"Sud","year":"1967-01-01","translations":["Оригинальная дорожка"],"quality":"webdl","translation":"Оригинальная дорожка","update":"2021-07-30 08:02:16","iframe_src":"//2413.svetacdn.in/si4jsFRrtgrT/movie/52030"},{"id":51268,"title":"Все внимание на рождество","kp_id":"1433422","imdb_id":"tt13189798","world_art_id":null,"type":"movie","add":"2021-06-18 09:34:06","orig_title":"Spotlight on Christmas","year":"2020-12-04","translations":["Любительский (многоголосый закадровый) (Синема УС)"],"quality":"webdl","translation":"Любительский (многоголосый закадровый) (Синема УС)","update":"2021-07-30 18:58:44","iframe_src":"//2413.svetacdn.in/si4jsFRrtgrT/movie/51268"},{"id":51079,"title":"Главное — любить","kp_id":"57157","imdb_id":"tt0073155","world_art_id":null,"type":"movie","add":"2021-06-10 12:26:57","orig_title":"L'important c'est d'aimer","year":"1975-02-12","translations":["Профессиональный (многоголосый закадровый)","Любительский (одноголосый закадровый) (Гирон Виталий | kinoman88)","Любительский (одноголосый закадровый) (Машинский Леонид)","Профессиональный (двухголосый закадровый) (НТВ)"],"quality":"bd","translation":"Профессиональный (многоголосый закадровый)","update":"2021-07-30 09:43:12","iframe_src":"//2413.svetacdn.in/si4jsFRrtgrT/movie/51079"},{"id":51029,"title":"Повелитель кукол 3: Месть Тулона","kp_id":"15548","imdb_id":"tt0102728","world_art_id":null,"type":"movie","add":"2021-06-08 22:16:33","orig_title":"Puppet Master III: Toulon's Revenge","year":"1991-10-17","translations":["Профессиональный (двухголосый закадровый)","Авторский (одноголосый закадровый) (Гаврилов Андрей)","Авторский (одноголосый закадровый) (Визгунов Сергей)","[EN] Original (English)"],"quality":"bd","translation":"Профессиональный (двухголосый закадровый)","update":"2021-07-30 11:28:32","iframe_src":"//2413.svetacdn.in/si4jsFRrtgrT/movie/51029"},{"id":24966,"title":"Аршин Мал Алан","kp_id":"43540","imdb_id":"tt0037520","world_art_id":null,"type":"movie","add":"2019-04-21 00:58:15","orig_title":"Arshin Mal Alan","year":"1945-10-13","translations":["Оригинальная дорожка","Полное дублирование"],"quality":"dvdrip","translation":"Оригинальная дорожка","update":"2021-07-30 08:20:41","iframe_src":"//2413.svetacdn.in/si4jsFRrtgrT/movie/24966"},{"id":3478,"title":"Великолепные Медичи","kp_id":"1115149","imdb_id":"tt7938036","world_art_id":null,"type":"serial","add":"2018-11-12 09:20:41","orig_title":"Medici: The Magnificent","year":"2018-10-23","translations":["Любительский (многоголосый закадровый) (ColdFilm)","Профессиональный (многоголосый закадровый) (IdeaFilm)","Профессиональный (многоголосый закадровый)"],"seasons_count":2,"episodes_count":10,"episodes":2,"update":"2018-10-31 07:12:28","iframe_src":"//2413.svetacdn.in/si4jsFRrtgrT/tv-series/3478"},{"id":3437,"title":"Защитники снов","kp_id":"1072936","imdb_id":null,"world_art_id":null,"type":"serial","add":"2018-11-02 16:50:59","orig_title":"Dream Corps","year":"2017-11-16","translations":["Полное дублирование"],"seasons_count":1,"episodes_count":52,"episodes":52,"update":"2018-11-03 08:12:01","iframe_src":"//2413.svetacdn.in/si4jsFRrtgrT/tv-series/3437"},{"id":3432,"title":"Перезапуск любви","kp_id":"1165540","imdb_id":"tt8499118","world_art_id":null,"type":"serial","add":"2018-11-02 02:27:38","orig_title":"Rabu Riran","year":"2018-04-05","translations":["Любительский (двухголосый закадровый) (HighHopes)"],"seasons_count":1,"episodes_count":10,"episodes":10,"update":"2018-11-02 12:32:47","iframe_src":"//2413.svetacdn.in/si4jsFRrtgrT/tv-series/3432"},{"id":3431,"title":"Амбициозный босс","kp_id":"1048287","imdb_id":null,"world_art_id":null,"type":"serial","add":"2018-11-02 02:18:57","orig_title":"U-Prince: The Ambitious Boss","year":"2017-07-04","translations":["Любительский (двухголосый закадровый) (HighHopes)"],"seasons_count":1,"episodes_count":5,"episodes":5,"update":"2018-11-02 09:07:47","iframe_src":"//2413.svetacdn.in/si4jsFRrtgrT/tv-series/3431"},{"id":3430,"title":"Суждено любить тебя","kp_id":null,"imdb_id":"tt5870910","world_art_id":null,"type":"serial","add":"2018-11-02 01:35:00","orig_title":"Destined to Love You","year":"2015-06-16","translations":["Любительский (двухголосый закадровый)"],"seasons_count":1,"episodes_count":41,"episodes":41,"update":"2018-11-02 09:01:33","iframe_src":"//2413.svetacdn.in/si4jsFRrtgrT/tv-series/3430"},{"id":3429,"title":"Шип Алисы","kp_id":"840498","imdb_id":"tt3557604","world_art_id":null,"type":"serial","add":"2018-11-02 01:07:42","orig_title":"Arisu no toge","year":"2014-04-11","translations":["Любительский (двухголосый закадровый) (XDUB Dorama)"],"seasons_count":1,"episodes_count":10,"episodes":10,"update":"2018-11-02 06:55:25","iframe_src":"//2413.svetacdn.in/si4jsFRrtgrT/tv-series/3429"},{"id":3428,"title":"Волшебство Хлои","kp_id":"672957","imdb_id":"tt1194725","world_art_id":null,"type":"serial","add":"2018-11-01 08:52:03","orig_title":"Chloe's Closet","year":"2009-09-01","translations":["Полное дублирование"],"seasons_count":2,"episodes_count":104,"episodes":52,"update":"2018-11-03 08:57:05","iframe_src":"//2413.svetacdn.in/si4jsFRrtgrT/tv-series/3428"},{"id":3425,"title":"Токко: Перемотка","kp_id":"1115473","imdb_id":null,"world_art_id":null,"type":"serial","add":"2018-11-01 00:40:50","orig_title":"Dokgo riwaindeu","year":"2018-09-07","translations":["Любительский (двухголосый закадровый) (SoftBox)"],"seasons_count":1,"episodes_count":15,"episodes":15,"update":"2018-11-01 06:55:36","iframe_src":"//2413.svetacdn.in/si4jsFRrtgrT/tv-series/3425"},{"id":3424,"title":"Чучело","kp_id":"45524","imdb_id":"tt0085335","world_art_id":null,"type":"serial","add":"2018-10-31 11:54:32","orig_title":"Chuchelo","year":"1984-09-14","translations":["Оригинальная дорожка"],"seasons_count":1,"episodes_count":2,"episodes":2,"update":"2018-11-01 12:17:23","iframe_src":"//2413.svetacdn.in/si4jsFRrtgrT/tv-series/3424"},{"id":3423,"title":"Любовь с привилегиями","kp_id":"45156","imdb_id":"tt0097797","world_art_id":null,"type":"serial","add":"2018-10-31 11:50:00","orig_title":"Lyubov s privilegiyami","year":"1990-11-01","translations":["Оригинальная дорожка"],"seasons_count":1,"episodes_count":2,"episodes":2,"update":"2018-11-01 12:19:40","iframe_src":"//2413.svetacdn.in/si4jsFRrtgrT/tv-series/3423"},{"id":3422,"title":"Адъютант его превосходительства","kp_id":"77247","imdb_id":"tt0128915","world_art_id":null,"type":"serial","add":"2018-10-31 11:47:20","orig_title":"Adyutant ego prevoskhoditelstva","year":"1970-04-07","translations":["Оригинальная дорожка"],"seasons_count":1,"episodes_count":5,"episodes":5,"update":"2018-11-01 12:25:26","iframe_src":"//2413.svetacdn.in/si4jsFRrtgrT/tv-series/3422"},{"id":3418,"title":"Богиня прайм-тайма","kp_id":"384371","imdb_id":"tt6398144","world_art_id":null,"type":"serial","add":"2018-10-31 09:07:35","orig_title":"Boginya praym-tayma","year":"2010-04-22","translations":["Оригинальная дорожка"],"seasons_count":1,"episodes_count":8,"episodes":8,"update":"2018-10-31 23:59:44","iframe_src":"//2413.svetacdn.in/si4jsFRrtgrT/tv-series/3418"},{"id":3417,"title":"Мой личный враг","kp_id":"152833","imdb_id":"tt0467473","world_art_id":null,"type":"serial","add":"2018-10-31 08:52:09","orig_title":"Moy lichnyy vrag","year":"2005-04-24","translations":["Оригинальная дорожка"],"seasons_count":1,"episodes_count":4,"episodes":4,"update":"2018-11-01 00:04:08","iframe_src":"//2413.svetacdn.in/si4jsFRrtgrT/tv-series/3417"},{"id":3414,"title":"Неформат","kp_id":"629093","imdb_id":"tt4763350","world_art_id":null,"type":"serial","add":"2018-10-30 08:20:10","orig_title":"Neformat","year":"2014-03-03","translations":["Оригинальная дорожка"],"seasons_count":1,"episodes_count":20,"episodes":20,"update":"2018-10-31 07:14:59","iframe_src":"//2413.svetacdn.in/si4jsFRrtgrT/tv-series/3414"},{"id":3413,"title":"Могучие рейнджеры. Сталь Ниндзя","kp_id":"957474","imdb_id":"tt5335606","world_art_id":null,"type":"serial","add":"2018-10-30 08:04:12","orig_title":"Power Rangers Ninja Steel","year":"2017-01-21","translations":["Любительский (многоголосый закадровый) (ColdFilm)"],"seasons_count":1,"episodes_count":19,"episodes":19,"update":"2018-11-01 23:19:56","iframe_src":"//2413.svetacdn.in/si4jsFRrtgrT/tv-series/3413"},{"id":3407,"title":"Корона Российской империи, или Снова неуловимые","kp_id":"44932","imdb_id":"tt0067313","world_art_id":null,"type":"serial","add":"2018-10-28 15:13:25","orig_title":"Korona Rossiyskoy Imperii, ili Snova Neulovimye","year":"1971-12-13","translations":["Оригинальная дорожка"],"seasons_count":1,"episodes_count":2,"episodes":2,"update":"2018-10-31 08:02:05","iframe_src":"//2413.svetacdn.in/si4jsFRrtgrT/tv-series/3407"},{"id":3388,"title":"Лермонтов","kp_id":"843686","imdb_id":"tt6248372","world_art_id":null,"type":"serial","add":"2018-10-25 13:36:30","orig_title":"Lermontov","year":"2014-11-03","translations":["Оригинальная дорожка"],"seasons_count":1,"episodes_count":2,"episodes":2,"update":"2018-11-01 09:24:46","iframe_src":"//2413.svetacdn.in/si4jsFRrtgrT/tv-series/3388"},{"id":3387,"title":"Легенды о Круге","kp_id":"690738","imdb_id":"tt4760646","world_art_id":null,"type":"serial","add":"2018-10-25 13:32:43","orig_title":"Legendy o Kruge","year":"2013-04-22","translations":["Оригинальная дорожка"],"seasons_count":1,"episodes_count":4,"episodes":4,"update":"2018-10-31 10:28:32","iframe_src":"//2413.svetacdn.in/si4jsFRrtgrT/tv-series/3387"},{"id":3300,"title":"Конг – король обезьян","kp_id":"1004930","imdb_id":"tt5462936","world_art_id":null,"type":"serial","add":"2018-10-14 09:42:20","orig_title":"Kong: King of the Apes","year":"2016-04-15","translations":["Полное дублирование"],"seasons_count":2,"episodes_count":23,"episodes":10,"update":"2018-10-31 10:40:46","iframe_src":"//2413.svetacdn.in/si4jsFRrtgrT/tv-series/3300"},{"id":3175,"title":"Спасая жизни","kp_id":"1010368","imdb_id":"tt6099652","world_art_id":null,"type":"serial","add":"2018-09-17 09:08:01","orig_title":"Syrror","year":"2016-10-19","translations":["Любительский (двухголосый закадровый) (GoldTeam)"],"seasons_count":2,"episodes_count":20,"episodes":10,"update":"2018-11-03 08:07:28","iframe_src":"//2413.svetacdn.in/si4jsFRrtgrT/tv-series/3175"},{"id":3126,"title":"Тутси","kp_id":"4520","imdb_id":"tt0084805","world_art_id":null,"type":"movie","add":"2016-06-13 18:35:18","orig_title":"Tootsie","year":"1982-12-01","translations":["Полное дублирование","[EN] Original (English)","Полное дублирование (SDI Media | Iyuno-SDI Group Russia)","Авторский (одноголосый закадровый) (Горчаков Василий)","Авторский (одноголосый закадровый) (Михалёв Алексей)","Полное дублирование (Мосфильм)","[EN] Original (English)","Профессиональный (двухголосый закадровый) (Интерфильм)","Профессиональный (многоголосый закадровый)","Профессиональный (многоголосый закадровый) (Первый канал | ОРТ)","Профессиональный (многоголосый закадровый) (Останкино)"],"quality":"hdtv","translation":"Полное дублирование","update":"2021-07-30 09:55:15","iframe_src":"//2413.svetacdn.in/si4jsFRrtgrT/movie/3126"},{"id":2942,"title":"Транс","kp_id":"586399","imdb_id":"tt1924429","world_art_id":null,"type":"movie","add":"2016-06-06 20:52:14","orig_title":"Trance","year":"2013-03-27","translations":["Полное дублирование","[EN] Original (English)","Авторский (одноголосый закадровый) (Сербин Юрий)","Полное дублирование","Авторский (одноголосый закадровый) (Матвеев Алексей | Doctor Joker)","Авторский (одноголосый закадровый) (Чадов Михаил)"],"quality":"bd","translation":"Полное дублирование","update":"2021-07-30 11:34:00","iframe_src":"//2413.svetacdn.in/si4jsFRrtgrT/movie/2942"}],"current_page":508,"first_page_url":"https://videocdn.tv/api/short?limit=100&api_token=X6EwAUfE5M9xbo7y0Bp0aPf3uXxG2KLL&cache3508=3508&page=1","from":50701,"last_page":719,"last_page_url":"https://videocdn.tv/api/short?limit=100&api_token=X6EwAUfE5M9xbo7y0Bp0aPf3uXxG2KLL&cache3508=3508&page=719","next_page_url":"https://videocdn.tv/api/short?limit=100&api_token=X6EwAUfE5M9xbo7y0Bp0aPf3uXxG2KLL&cache3508=3508&page=509","path":"https://videocdn.tv/api/short","per_page":100,"prev_page_url":"https://videocdn.tv/api/short?limit=100&api_token=X6EwAUfE5M9xbo7y0Bp0aPf3uXxG2KLL&cache3508=3508&page=507","to":50740,"total":71805}