{"result":true,"data":[{"id":50653,"title":"Американский пирог: Оргии и смысл жизни","kp_id":"394739","imdb_id":"tt1083468","world_art_id":null,"type":"movie","add":"2021-05-25 14:41:22","orig_title":"Orgies and the Meaning of Life","year":"2008-01-01","translations":["Профессиональный (двухголосый закадровый)"],"quality":"dvdrip","translation":"Профессиональный (двухголосый закадровый)","update":"2021-05-25 15:35:56","iframe_src":"//83.svetacdn.in/PfJ50H0ZBPg3/movie/50653"},{"id":50643,"title":"Ренессанс","kp_id":"83082","imdb_id":"tt0386741","world_art_id":null,"type":"movie","add":"2021-05-25 08:45:00","orig_title":"Renaissance","year":"2006-03-15","translations":["Профессиональный (многоголосый закадровый)"],"quality":"bd","translation":"Профессиональный (многоголосый закадровый)","update":"2021-05-25 17:45:36","iframe_src":"//83.svetacdn.in/PfJ50H0ZBPg3/movie/50643"},{"id":50642,"title":"Редвилль","kp_id":"1350015","imdb_id":"tt11778990","world_art_id":null,"type":"movie","add":"2021-05-25 05:55:32","orig_title":"Redville","year":"2020-11-03","translations":["Любительский (многоголосый закадровый) (Синема УС)"],"quality":"webdl","translation":"Любительский (многоголосый закадровый) (Синема УС)","update":"2021-05-25 15:32:30","iframe_src":"//83.svetacdn.in/PfJ50H0ZBPg3/movie/50642"},{"id":49772,"title":"Жена Джейкоба","kp_id":"1355092","imdb_id":"tt11908982","world_art_id":null,"type":"movie","add":"2021-04-21 09:43:35","orig_title":"Jakob's Wife","year":"2021-03-17","translations":["Любительский (многоголосый закадровый) (@MUZOBOZ@)","[EN] Original (English)"],"quality":"webdl","translation":"Любительский (многоголосый закадровый) (@MUZOBOZ@)","update":"2021-05-26 05:56:39","iframe_src":"//83.svetacdn.in/PfJ50H0ZBPg3/movie/49772"},{"id":49765,"title":"Демоны","kp_id":"5903","imdb_id":"tt0267601","world_art_id":null,"type":"movie","add":"2021-04-21 05:33:02","orig_title":"The Irrefutable Truth About Demons","year":"2000-07-13","translations":["Профессиональный (двухголосый закадровый) (Екатеринбург Арт)","[EN] Original (English)"],"quality":"bd","translation":"Профессиональный (двухголосый закадровый) (Екатеринбург Арт)","update":"2021-05-26 06:28:28","iframe_src":"//83.svetacdn.in/PfJ50H0ZBPg3/movie/49765"},{"id":49723,"title":"Немой крик","kp_id":"26228","imdb_id":"tt0081515","world_art_id":null,"type":"movie","add":"2021-04-19 14:42:54","orig_title":"The Silent Scream","year":"1979-11-16","translations":["Авторский (одноголосый закадровый) (Дольский Андрей)","[EN] Original (English)"],"quality":"bd","translation":"Авторский (одноголосый закадровый) (Дольский Андрей)","update":"2021-05-26 06:30:10","iframe_src":"//83.svetacdn.in/PfJ50H0ZBPg3/movie/49723"},{"id":49699,"title":"Танец возлюбленных","kp_id":"21225","imdb_id":"tt0096200","world_art_id":null,"type":"movie","add":"2021-04-19 04:50:50","orig_title":"Sweet Hearts Dance","year":"1988-09-23","translations":["Авторский (одноголосый закадровый) (Визгунов Сергей)","[EN] Original (English)"],"quality":"webdl","translation":"Авторский (одноголосый закадровый) (Визгунов Сергей)","update":"2021-05-26 05:50:52","iframe_src":"//83.svetacdn.in/PfJ50H0ZBPg3/movie/49699"},{"id":49663,"title":"Последствия","kp_id":"79420","imdb_id":"tt0083526","world_art_id":null,"type":"movie","add":"2021-04-17 13:56:37","orig_title":"The Aftermath","year":"1983-07-01","translations":["Любительский (одноголосый закадровый) (Райдер Александр | Rider)","[EN] Original (English)"],"quality":"bd","translation":"Любительский (одноголосый закадровый) (Райдер Александр | Rider)","update":"2021-05-26 06:25:40","iframe_src":"//83.svetacdn.in/PfJ50H0ZBPg3/movie/49663"},{"id":49611,"title":"Идеальные преступления: Смерть за кулисами","kp_id":"1356313","imdb_id":"tt11686316","world_art_id":null,"type":"movie","add":"2021-04-14 13:14:13","orig_title":"Picture Perfect Mysteries: Exit, Stage Death","year":"2020-10-11","translations":["Любительский (многоголосый закадровый) (Синема УС)","Любительский (многоголосый закадровый) (Синема УС)","[EN] Original (English)"],"quality":"webdl","translation":"Любительский (многоголосый закадровый) (Синема УС)","update":"2021-05-26 05:53:53","iframe_src":"//83.svetacdn.in/PfJ50H0ZBPg3/movie/49611"},{"id":49317,"title":"Черная Ева в Гонконге","kp_id":"77364","imdb_id":"tt0074501","world_art_id":null,"type":"movie","add":"2021-04-04 06:11:16","orig_title":"Eva nera","year":"1976-08-05","translations":["Авторский (одноголосый закадровый) (Алексеев Антон)","[EN] Original (English)"],"quality":"bd","translation":"Авторский (одноголосый закадровый) (Алексеев Антон)","update":"2021-05-26 06:18:25","iframe_src":"//83.svetacdn.in/PfJ50H0ZBPg3/movie/49317"},{"id":46787,"title":"Лондонский палач","kp_id":"155858","imdb_id":"tt0057138","world_art_id":null,"type":"movie","add":"2021-01-07 20:15:41","orig_title":"Der Henker von London","year":"1963-11-22","translations":["Профессиональный (многоголосый закадровый) (5-й канал СПб)","Профессиональный (многоголосый закадровый) (5-й канал СПб)"],"quality":"dvdrip","translation":"Профессиональный (многоголосый закадровый) (5-й канал СПб)","update":"2021-05-26 05:23:28","iframe_src":"//83.svetacdn.in/PfJ50H0ZBPg3/movie/46787"},{"id":41235,"title":"Приманка","kp_id":"1083674","imdb_id":"tt6418570","world_art_id":null,"type":"movie","add":"2020-06-16 21:34:04","orig_title":"The Luring","year":"2019-08-23","translations":["Любительский (многоголосый закадровый) (@MUZOBOZ@)","Профессиональный (многоголосый закадровый)","[EN] Original (English)"],"quality":"webdl","translation":"Любительский (многоголосый закадровый) (@MUZOBOZ@)","update":"2021-05-26 05:46:48","iframe_src":"//83.svetacdn.in/PfJ50H0ZBPg3/movie/41235"},{"id":34533,"title":"Господа Бронко","kp_id":"470038","imdb_id":"tt1161418","world_art_id":null,"type":"movie","add":"2019-12-27 21:53:33","orig_title":"Gentlemen Broncos","year":"2009-09-24","translations":["Профессиональный (многоголосый закадровый) (Первый канал | ОРТ)","[EN] Original (English)"],"quality":"bd","translation":"Профессиональный (многоголосый закадровый) (Первый канал | ОРТ)","update":"2021-05-26 06:19:47","iframe_src":"//83.svetacdn.in/PfJ50H0ZBPg3/movie/34533"},{"id":33162,"title":"Месть придурков","kp_id":"3868","imdb_id":"tt0088000","world_art_id":null,"type":"movie","add":"2019-11-16 15:47:05","orig_title":"Revenge of the Nerds","year":"1984-07-20","translations":["Профессиональный (двухголосый закадровый)","Полное дублирование (Paramount Comedy)","[EN] Original (English)","Профессиональный (двухголосый закадровый)"],"quality":"hdtv","translation":"Профессиональный (двухголосый закадровый)","update":"2021-05-25 15:32:02","iframe_src":"//83.svetacdn.in/PfJ50H0ZBPg3/movie/33162"},{"id":14875,"title":"Пустошь","kp_id":"936544","imdb_id":"tt5047400","world_art_id":null,"type":"movie","add":"2018-01-14 21:02:52","orig_title":"Desolation","year":"2017-06-21","translations":["Любительский (одноголосый закадровый) (Хихикающий доктор)","Любительский (многоголосый закадровый) (Синема УС)","Профессиональный (многоголосый закадровый) (SDI Media | Iyuno-SDI Group Russia)","[EN] Original (English)"],"quality":"webdl","translation":"Любительский (одноголосый закадровый) (Хихикающий доктор)","update":"2021-05-26 05:57:55","iframe_src":"//83.svetacdn.in/PfJ50H0ZBPg3/movie/14875"},{"id":10839,"title":"Волшебники из Вэйверли Плэйс в кино","kp_id":"446201","imdb_id":"tt1369845","world_art_id":null,"type":"movie","add":"2017-04-10 07:02:31","orig_title":"Wizards of Waverly Place: The Movie","year":"2009-08-28","translations":["Полное дублирование","Полное дублирование (Невафильм | Нева-1)","[EN] Original (English)"],"quality":"webdl","translation":"Полное дублирование","update":"2021-05-26 05:25:54","iframe_src":"//83.svetacdn.in/PfJ50H0ZBPg3/movie/10839"},{"id":1004,"title":"Наружное наблюдение","kp_id":"567065","imdb_id":"tt4744392","world_art_id":null,"type":"serial","add":"2017-02-14 08:13:06","orig_title":"Naruzhnoe nabludenie","year":"2012-10-22","translations":["Оригинальная дорожка"],"seasons_count":1,"episodes_count":24,"episodes":24,"update":"2017-02-14 14:50:55","iframe_src":"//83.svetacdn.in/PfJ50H0ZBPg3/tv-series/1004"},{"id":1003,"title":"Взрывная волна","kp_id":"1009351","imdb_id":null,"world_art_id":null,"type":"serial","add":"2017-02-14 05:52:30","orig_title":"Взрывная волна","year":"2017-02-12","translations":["Оригинальная дорожка"],"seasons_count":1,"episodes_count":2,"episodes":2,"update":"2017-02-14 08:40:42","iframe_src":"//83.svetacdn.in/PfJ50H0ZBPg3/tv-series/1003"},{"id":998,"title":"На одном дыхании","kp_id":"839395","imdb_id":"tt4389476","world_art_id":null,"type":"serial","add":"2017-02-13 05:31:54","orig_title":"Na odnom dykhanii","year":"2014-04-26","translations":["Оригинальная дорожка"],"seasons_count":1,"episodes_count":4,"episodes":4,"update":"2017-02-13 13:26:23","iframe_src":"//83.svetacdn.in/PfJ50H0ZBPg3/tv-series/998"},{"id":997,"title":"Взлом","kp_id":"1009373","imdb_id":null,"world_art_id":null,"type":"serial","add":"2017-02-12 09:09:22","orig_title":"Взлом","year":"2017-02-04","translations":["Оригинальная дорожка"],"seasons_count":1,"episodes_count":2,"episodes":2,"update":"2017-02-13 05:27:02","iframe_src":"//83.svetacdn.in/PfJ50H0ZBPg3/tv-series/997"},{"id":994,"title":"Сокровища мертвых","kp_id":"412414","imdb_id":"tt1456779","world_art_id":null,"type":"serial","add":"2017-02-12 06:59:46","orig_title":"Sokrovishcha myortvykh","year":"2003-09-09","translations":["Оригинальная дорожка"],"seasons_count":1,"episodes_count":6,"episodes":6,"update":"2017-02-13 10:59:10","iframe_src":"//83.svetacdn.in/PfJ50H0ZBPg3/tv-series/994"},{"id":991,"title":"Красная капелла","kp_id":"81444","imdb_id":"tt0406428","world_art_id":null,"type":"serial","add":"2017-02-10 13:25:51","orig_title":"Krasnaya kapella","year":"2004-09-09","translations":["Оригинальная дорожка"],"seasons_count":1,"episodes_count":16,"episodes":16,"update":"2017-02-10 18:49:08","iframe_src":"//83.svetacdn.in/PfJ50H0ZBPg3/tv-series/991"},{"id":988,"title":"Все вернется","kp_id":"841047","imdb_id":"tt5074338","world_art_id":null,"type":"serial","add":"2017-02-08 13:58:21","orig_title":"Vse vernetsya","year":"2014-12-20","translations":["Оригинальная дорожка"],"seasons_count":1,"episodes_count":4,"episodes":4,"update":"2017-02-09 05:09:09","iframe_src":"//83.svetacdn.in/PfJ50H0ZBPg3/tv-series/988"},{"id":987,"title":"Братья","kp_id":"592359","imdb_id":"tt2054912","world_art_id":null,"type":"serial","add":"2017-02-08 07:44:46","orig_title":"Bratya","year":"2012-05-21","translations":["Оригинальная дорожка"],"seasons_count":1,"episodes_count":8,"episodes":8,"update":"2017-02-08 13:42:53","iframe_src":"//83.svetacdn.in/PfJ50H0ZBPg3/tv-series/987"},{"id":986,"title":"Стилет 2","kp_id":"256375","imdb_id":"tt3784302","world_art_id":null,"type":"serial","add":"2017-02-08 07:41:27","orig_title":"Stilet 2","year":"2004-01-01","translations":["Оригинальная дорожка"],"seasons_count":1,"episodes_count":12,"episodes":12,"update":"2017-02-08 13:50:37","iframe_src":"//83.svetacdn.in/PfJ50H0ZBPg3/tv-series/986"},{"id":985,"title":"Стилет","kp_id":"256374","imdb_id":"tt4390416","world_art_id":null,"type":"serial","add":"2017-02-08 07:39:12","orig_title":"Stilet","year":"2003-01-01","translations":["Оригинальная дорожка"],"seasons_count":1,"episodes_count":10,"episodes":10,"update":"2017-02-08 13:53:55","iframe_src":"//83.svetacdn.in/PfJ50H0ZBPg3/tv-series/985"},{"id":984,"title":"Охота","kp_id":"838271","imdb_id":null,"world_art_id":null,"type":"serial","add":"2017-02-07 13:36:21","orig_title":"Охота","year":"2014-03-16","translations":["Оригинальная дорожка"],"seasons_count":1,"episodes_count":4,"episodes":4,"update":"2017-02-08 07:25:56","iframe_src":"//83.svetacdn.in/PfJ50H0ZBPg3/tv-series/984"},{"id":983,"title":"Чужая женщина","kp_id":"797896","imdb_id":null,"world_art_id":null,"type":"serial","add":"2017-02-07 13:26:18","orig_title":"Чужая женщина","year":"2013-09-21","translations":["Оригинальная дорожка"],"seasons_count":1,"episodes_count":2,"episodes":2,"update":"2017-02-08 06:53:06","iframe_src":"//83.svetacdn.in/PfJ50H0ZBPg3/tv-series/983"},{"id":982,"title":"Злая шутка","kp_id":"1009014","imdb_id":null,"world_art_id":null,"type":"serial","add":"2017-02-07 07:56:51","orig_title":"Злая шутка","year":"2017-02-05","translations":["Оригинальная дорожка"],"seasons_count":1,"episodes_count":1,"episodes":1,"update":"2017-02-08 05:40:43","iframe_src":"//83.svetacdn.in/PfJ50H0ZBPg3/tv-series/982"},{"id":981,"title":"Поздние цветы","kp_id":"844211","imdb_id":"tt6394906","world_art_id":null,"type":"serial","add":"2017-02-06 13:16:14","orig_title":"Pozdnie cvety","year":"2014-11-29","translations":["Оригинальная дорожка"],"seasons_count":1,"episodes_count":2,"episodes":2,"update":"2017-02-07 09:05:53","iframe_src":"//83.svetacdn.in/PfJ50H0ZBPg3/tv-series/981"},{"id":979,"title":"Следствие по телу","kp_id":"502178","imdb_id":"tt1587669","world_art_id":null,"type":"serial","add":"2017-02-06 07:04:32","orig_title":"Body of Proof","year":"2011-01-25","translations":["Полное дублирование"],"seasons_count":3,"episodes_count":42,"episodes":13,"update":"2017-02-08 11:15:34","iframe_src":"//83.svetacdn.in/PfJ50H0ZBPg3/tv-series/979"},{"id":977,"title":"Желанная","kp_id":"427038","imdb_id":"tt4883042","world_art_id":null,"type":"serial","add":"2017-02-06 05:36:47","orig_title":"Zhelannaya","year":"2003-01-01","translations":["Оригинальная дорожка"],"seasons_count":1,"episodes_count":12,"episodes":12,"update":"2017-02-06 10:17:30","iframe_src":"//83.svetacdn.in/PfJ50H0ZBPg3/tv-series/977"},{"id":972,"title":"Сваты 6","kp_id":"688270","imdb_id":"tt2926386","world_art_id":null,"type":"serial","add":"2017-02-03 15:20:24","orig_title":"Svaty 6","year":"2013-03-11","translations":["Оригинальная дорожка"],"seasons_count":1,"episodes_count":16,"episodes":16,"update":"2017-02-07 10:09:22","iframe_src":"//83.svetacdn.in/PfJ50H0ZBPg3/tv-series/972"},{"id":971,"title":"Сваты 5","kp_id":"592293","imdb_id":"tt2860316","world_art_id":null,"type":"serial","add":"2017-02-03 15:15:53","orig_title":"Svaty 5","year":"2011-12-05","translations":["Оригинальная дорожка"],"seasons_count":1,"episodes_count":16,"episodes":16,"update":"2017-02-06 11:58:58","iframe_src":"//83.svetacdn.in/PfJ50H0ZBPg3/tv-series/971"},{"id":955,"title":"Один против всех","kp_id":"963369","imdb_id":null,"world_art_id":null,"type":"serial","add":"2017-01-27 07:17:16","orig_title":"Один против всех","year":"2017-01-23","translations":["Оригинальная дорожка"],"seasons_count":1,"episodes_count":16,"episodes":16,"update":"2017-02-07 18:06:59","iframe_src":"//83.svetacdn.in/PfJ50H0ZBPg3/tv-series/955"},{"id":9100,"title":"Одни в Берлине","kp_id":"776996","imdb_id":"tt3026488","world_art_id":null,"type":"movie","add":"2017-01-22 12:51:59","orig_title":"Alone in Berlin","year":"2016-02-15","translations":["Любительский (многоголосый закадровый) (@MUZOBOZ@)","Профессиональный (многоголосый закадровый) (Pazl Voice)","[EN] Original (English)"],"quality":"webdl","translation":"Любительский (многоголосый закадровый) (@MUZOBOZ@)","update":"2021-05-26 06:16:06","iframe_src":"//83.svetacdn.in/PfJ50H0ZBPg3/movie/9100"},{"id":7371,"title":"33 несчастья","kp_id":"63811","imdb_id":"tt0156807","world_art_id":null,"type":"movie","add":"2016-11-13 11:50:30","orig_title":"Mr. Accident","year":"2000-03-24","translations":["Профессиональный (двухголосый закадровый)","Профессиональный (двухголосый закадровый) (НТВ)","[EN] Original (English)"],"quality":"hdtv","translation":"Профессиональный (двухголосый закадровый)","update":"2021-05-26 05:55:24","iframe_src":"//83.svetacdn.in/PfJ50H0ZBPg3/movie/7371"},{"id":7078,"title":"Лекарство","kp_id":"3633","imdb_id":"tt0112757","world_art_id":null,"type":"movie","add":"2016-11-04 14:32:36","orig_title":"The Cure","year":"1995-04-21","translations":["Профессиональный (многоголосый закадровый)","Профессиональный (многоголосый закадровый)","[EN] Original (English)"],"quality":"hdtv","translation":"Профессиональный (многоголосый закадровый)","update":"2021-05-26 06:26:59","iframe_src":"//83.svetacdn.in/PfJ50H0ZBPg3/movie/7078"},{"id":6350,"title":"Лепрекон: Начало","kp_id":"677807","imdb_id":"tt2345613","world_art_id":null,"type":"movie","add":"2016-10-17 04:48:35","orig_title":"Leprechaun: Origins","year":"2014-08-22","translations":["Любительский (одноголосый закадровый)","Любительский (одноголосый закадровый) (datynet | Агапов Антон)","[EN] Original (English)"],"quality":"webdl","translation":"Любительский (одноголосый закадровый)","update":"2021-05-26 06:23:32","iframe_src":"//83.svetacdn.in/PfJ50H0ZBPg3/movie/6350"},{"id":113,"title":"Гудини","kp_id":"818775","imdb_id":"tt3132738","world_art_id":null,"type":"serial","add":"2016-05-31 06:16:32","orig_title":"Houdini","year":"2014-09-01","translations":["Профессиональный (многоголосый закадровый) (AlexFilm)","Профессиональный (многоголосый закадровый) (LostFilm)"],"seasons_count":1,"episodes_count":2,"episodes":2,"update":"2017-02-13 11:16:56","iframe_src":"//83.svetacdn.in/PfJ50H0ZBPg3/tv-series/113"}],"current_page":590,"first_page_url":"https://videocdn.tv/api/short?limit=100&api_token=RgFQdUIR2dRmwv8iYa5SnFNgnw3vpjKj&cache3590=3590&page=1","from":58901,"last_page":716,"last_page_url":"https://videocdn.tv/api/short?limit=100&api_token=RgFQdUIR2dRmwv8iYa5SnFNgnw3vpjKj&cache3590=3590&page=716","next_page_url":"https://videocdn.tv/api/short?limit=100&api_token=RgFQdUIR2dRmwv8iYa5SnFNgnw3vpjKj&cache3590=3590&page=591","path":"https://videocdn.tv/api/short","per_page":100,"prev_page_url":"https://videocdn.tv/api/short?limit=100&api_token=RgFQdUIR2dRmwv8iYa5SnFNgnw3vpjKj&cache3590=3590&page=589","to":58940,"total":71587}