{"result":true,"data":[{"id":40416,"title":"Практикантка: Лето похоти","kp_id":null,"imdb_id":"tt11497326","world_art_id":null,"type":"movie","add":"2020-05-15 08:44:41","orig_title":"The Intern - A Summer of Lust","year":"2019-01-01","translations":["Любительский (многоголосый закадровый) (Синема УС)"],"quality":"bd","translation":"Любительский (многоголосый закадровый) (Синема УС)","update":"2020-05-15 10:11:31","iframe_src":"//24213.svetacdn.in/71tsRs29n5tZ/movie/40416"},{"id":40415,"title":"Берлин, Берлин","kp_id":"1281755","imdb_id":"tt10556130","world_art_id":null,"type":"movie","add":"2020-05-15 06:24:47","orig_title":"Berlin, Berlin","year":"2020-05-08","translations":["Любительский (многоголосый закадровый) (Синема УС)"],"quality":"webdl","translation":"Любительский (многоголосый закадровый) (Синема УС)","update":"2020-05-15 11:00:27","iframe_src":"//24213.svetacdn.in/71tsRs29n5tZ/movie/40415"},{"id":40413,"title":"Опасный Эскорт","kp_id":"1307509","imdb_id":"tt10994102","world_art_id":null,"type":"movie","add":"2020-05-15 06:18:13","orig_title":"Lies For Rent","year":"2020-02-18","translations":["Любительский (многоголосый закадровый) (AlphaProject)"],"quality":"hdtv","translation":"Любительский (многоголосый закадровый) (AlphaProject)","update":"2020-05-15 10:57:22","iframe_src":"//24213.svetacdn.in/71tsRs29n5tZ/movie/40413"},{"id":40411,"title":"Дом на холме","kp_id":"1219435","imdb_id":"tt9343158","world_art_id":null,"type":"movie","add":"2020-05-15 06:09:00","orig_title":"The House On The Hill","year":"2019-12-07","translations":["Любительский (многоголосый закадровый) (Синема УС)"],"quality":"webdl","translation":"Любительский (многоголосый закадровый) (Синема УС)","update":"2020-05-15 10:56:15","iframe_src":"//24213.svetacdn.in/71tsRs29n5tZ/movie/40411"},{"id":40410,"title":"Сразить можно любого","kp_id":"1098263","imdb_id":"tt7549776","world_art_id":null,"type":"movie","add":"2020-05-15 06:01:57","orig_title":"Tod@s Caen","year":"2019-09-20","translations":["Любительский (многоголосый закадровый) (Синема УС)"],"quality":"webdl","translation":"Любительский (многоголосый закадровый) (Синема УС)","update":"2020-05-15 11:03:04","iframe_src":"//24213.svetacdn.in/71tsRs29n5tZ/movie/40410"},{"id":40409,"title":"Прощание со Сталиным","kp_id":"1313568","imdb_id":"tt10203842","world_art_id":null,"type":"movie","add":"2020-05-14 22:09:49","orig_title":"State Funeral","year":"2019-09-06","translations":["Оригинальная дорожка"],"quality":"webdl","translation":"Оригинальная дорожка","update":"2020-05-15 07:02:17","iframe_src":"//24213.svetacdn.in/71tsRs29n5tZ/movie/40409"},{"id":40406,"title":"Другой я","kp_id":"230628","imdb_id":"tt0246834","world_art_id":null,"type":"movie","add":"2020-05-14 19:14:59","orig_title":"The Other Me","year":"2000-09-08","translations":["Профессиональный (многоголосый закадровый) (СТС)"],"quality":"webdl","translation":"Профессиональный (многоголосый закадровый) (СТС)","update":"2020-05-15 10:54:11","iframe_src":"//24213.svetacdn.in/71tsRs29n5tZ/movie/40406"},{"id":40401,"title":"С. Свенсон","kp_id":"1058590","imdb_id":"tt7438370","world_art_id":null,"type":"movie","add":"2020-05-14 18:34:15","orig_title":"The S. S. Swenson","year":"2019-01-28","translations":["Любительский (многоголосый закадровый) (Синема УС)"],"quality":"webdl","translation":"Любительский (многоголосый закадровый) (Синема УС)","update":"2020-05-15 10:47:40","iframe_src":"//24213.svetacdn.in/71tsRs29n5tZ/movie/40401"},{"id":40399,"title":"Хуже некуда","kp_id":"1125899","imdb_id":"tt8290068","world_art_id":null,"type":"movie","add":"2020-05-14 18:22:19","orig_title":"To Hell and Gone","year":"2019-04-13","translations":["Любительский (многоголосый закадровый) (@MUZOBOZ@)"],"quality":"webdl","translation":"Любительский (многоголосый закадровый) (@MUZOBOZ@)","update":"2020-05-15 10:46:01","iframe_src":"//24213.svetacdn.in/71tsRs29n5tZ/movie/40399"},{"id":40383,"title":"Бог любви","kp_id":"102872","imdb_id":"tt0100441","world_art_id":null,"type":"movie","add":"2020-05-13 20:22:37","orig_title":"Pyar Ka Devta","year":"1990-01-01","translations":["Профессиональный (многоголосый закадровый) (Формат AB)"],"quality":"dvdrip","translation":"Профессиональный (многоголосый закадровый) (Формат AB)","update":"2020-05-15 07:10:14","iframe_src":"//24213.svetacdn.in/71tsRs29n5tZ/movie/40383"},{"id":40381,"title":"Увольнение","kp_id":"494816","imdb_id":"tt1577050","world_art_id":null,"type":"movie","add":"2020-05-13 20:10:09","orig_title":"Fired","year":"2010-01-29","translations":["Любительский (одноголосый закадровый) (Хихикающий доктор)"],"quality":"dvdrip","translation":"Любительский (одноголосый закадровый) (Хихикающий доктор)","update":"2020-05-15 06:58:32","iframe_src":"//24213.svetacdn.in/71tsRs29n5tZ/movie/40381"},{"id":40377,"title":"Разъяренный","kp_id":"70993","imdb_id":"tt0115541","world_art_id":null,"type":"movie","add":"2020-05-13 19:55:14","orig_title":"Angaara","year":"1996-09-13","translations":["Профессиональный (многоголосый закадровый)"],"quality":"dvdrip","translation":"Профессиональный (многоголосый закадровый)","update":"2020-05-15 06:53:33","iframe_src":"//24213.svetacdn.in/71tsRs29n5tZ/movie/40377"},{"id":40376,"title":"Не оставляйте любимых в беде","kp_id":"224800","imdb_id":"tt0461323","world_art_id":null,"type":"movie","add":"2020-05-13 19:52:49","orig_title":"Pyare Mohan","year":"2006-04-21","translations":["Профессиональный (многоголосый закадровый)"],"quality":"dvdrip","translation":"Профессиональный (многоголосый закадровый)","update":"2020-05-15 06:52:59","iframe_src":"//24213.svetacdn.in/71tsRs29n5tZ/movie/40376"},{"id":40374,"title":"Прощание","kp_id":"86813","imdb_id":"tt0423100","world_art_id":null,"type":"movie","add":"2020-05-13 19:34:02","orig_title":"Rukhsat","year":"1988-06-10","translations":["Профессиональный (многоголосый закадровый)"],"quality":"dvdrip","translation":"Профессиональный (многоголосый закадровый)","update":"2020-05-15 06:50:52","iframe_src":"//24213.svetacdn.in/71tsRs29n5tZ/movie/40374"},{"id":40369,"title":"Ярость","kp_id":"564978","imdb_id":"tt1708453","world_art_id":null,"type":"movie","add":"2020-05-13 19:19:19","orig_title":"Aakrosh","year":"2010-10-15","translations":["Любительский (одноголосый закадровый)","Профессиональный (многоголосый закадровый) (Red Media)"],"quality":"dvdrip","translation":"Любительский (одноголосый закадровый)","update":"2020-05-15 07:06:35","iframe_src":"//24213.svetacdn.in/71tsRs29n5tZ/movie/40369"},{"id":39606,"title":"Жестокий мир","kp_id":"86833","imdb_id":"tt0301231","world_art_id":null,"type":"movie","add":"2020-04-20 21:24:46","orig_title":"Duniya","year":"1984-09-18","translations":["Профессиональный (двухголосый закадровый)"],"quality":"webdl","translation":"Профессиональный (двухголосый закадровый)","update":"2020-05-15 07:09:16","iframe_src":"//24213.svetacdn.in/71tsRs29n5tZ/movie/39606"},{"id":38930,"title":"Великолепная семерка","kp_id":"78518","imdb_id":"tt0084630","world_art_id":null,"type":"movie","add":"2020-04-06 08:18:59","orig_title":"Satte Pe Satta","year":"1982-01-22","translations":["Профессиональный (многоголосый закадровый)"],"quality":"webdl","translation":"Профессиональный (многоголосый закадровый)","update":"2020-05-15 07:04:40","iframe_src":"//24213.svetacdn.in/71tsRs29n5tZ/movie/38930"},{"id":37585,"title":"Великая сила любви","kp_id":"39709","imdb_id":"tt0088442","world_art_id":null,"type":"movie","add":"2020-03-08 21:33:50","orig_title":"Zameen Aasmaan","year":"1984-06-01","translations":["Профессиональный (одноголосый закадровый)"],"quality":"dvdrip","translation":"Профессиональный (одноголосый закадровый)","update":"2020-05-15 07:00:25","iframe_src":"//24213.svetacdn.in/71tsRs29n5tZ/movie/37585"},{"id":36412,"title":"Страстная любовь","kp_id":"77635","imdb_id":"tt0172234","world_art_id":null,"type":"movie","add":"2020-02-17 11:25:37","orig_title":"Chaahat","year":"1996-06-06","translations":["Профессиональный (многоголосый закадровый) (SDI Media | Iyuno-SDI Group Russia)","Профессиональный (многоголосый закадровый) (Формат AB)"],"quality":"webdl","translation":"Профессиональный (многоголосый закадровый) (SDI Media | Iyuno-SDI Group Russia)","update":"2020-05-15 06:57:20","iframe_src":"//24213.svetacdn.in/71tsRs29n5tZ/movie/36412"},{"id":15286,"title":"Опасное задание","kp_id":"1009137","imdb_id":"tt6170506","world_art_id":null,"type":"movie","add":"2018-02-24 22:04:43","orig_title":"Beast of Burden","year":"2018-02-23","translations":["Любительский (многоголосый закадровый) (Синема УС)","Профессиональный (многоголосый закадровый) (HDrezka Studio)","Профессиональный (многоголосый закадровый) (GreenРай Studio)","Полное дублирование","Профессиональный (многоголосый закадровый) (HDrezka Studio)"],"quality":"webdl","translation":"Любительский (многоголосый закадровый) (Синема УС)","update":"2020-05-15 12:02:50","iframe_src":"//24213.svetacdn.in/71tsRs29n5tZ/movie/15286"}],"current_page":1237,"first_page_url":"https://videocdn.tv/api/short?limit=100&api_token=EnbO9h8pv1VyjbCJhg0WM9nG259n7mtz&cache31237=31237&page=1","from":123601,"last_page":725,"last_page_url":"https://videocdn.tv/api/short?limit=100&api_token=EnbO9h8pv1VyjbCJhg0WM9nG259n7mtz&cache31237=31237&page=725","next_page_url":null,"path":"https://videocdn.tv/api/short","per_page":100,"prev_page_url":"https://videocdn.tv/api/short?limit=100&api_token=EnbO9h8pv1VyjbCJhg0WM9nG259n7mtz&cache31237=31237&page=1236","to":123620,"total":72431}