{"result":true,"data":[{"id":53464,"title":"Обнаженная шпора","kp_id":"8465","imdb_id":"tt0044953","world_art_id":null,"type":"movie","add":"2021-09-28 06:34:20","orig_title":"The Naked Spur","year":"1953-01-30","translations":["Профессиональный (многоголосый закадровый) (Светла)","[EN] Original (English)"],"quality":"bd","translation":"Профессиональный (многоголосый закадровый) (Светла)","update":"2021-09-28 11:32:00","iframe_src":"//2413.svetacdn.in/IAF0wWTdNYZm/movie/53464"},{"id":53463,"title":"Дзокки","kp_id":"4477983","imdb_id":"tt14444620","world_art_id":null,"type":"movie","add":"2021-09-28 05:36:45","orig_title":"Zokki","year":"2020-11-04","translations":["Любительский (двухголосый закадровый) (АрхиAsia)"],"quality":"webdl","translation":"Любительский (двухголосый закадровый) (АрхиAsia)","update":"2021-09-28 09:26:04","iframe_src":"//2413.svetacdn.in/IAF0wWTdNYZm/movie/53463"},{"id":53460,"title":"Нежный капкан","kp_id":null,"imdb_id":"tt14128824","world_art_id":null,"type":"movie","add":"2021-09-27 18:36:50","orig_title":"The Tender Trap","year":"2021-01-01","translations":["Любительский (многоголосый закадровый) (Синема УС)"],"quality":"webdl","translation":"Любительский (многоголосый закадровый) (Синема УС)","update":"2021-09-28 08:22:24","iframe_src":"//2413.svetacdn.in/IAF0wWTdNYZm/movie/53460"},{"id":53459,"title":"Цена адаптации","kp_id":"4480377","imdb_id":"tt14758576","world_art_id":null,"type":"movie","add":"2021-09-27 18:35:23","orig_title":"Trouble in Suburbia","year":"2021-09-18","translations":["Любительский (многоголосый закадровый) (Синема УС)"],"quality":"webdl","translation":"Любительский (многоголосый закадровый) (Синема УС)","update":"2021-09-28 08:42:24","iframe_src":"//2413.svetacdn.in/IAF0wWTdNYZm/movie/53459"},{"id":53458,"title":"Тайна ветра","kp_id":"1329092","imdb_id":"tt11101894","world_art_id":null,"type":"movie","add":"2021-09-27 18:33:36","orig_title":"Bí Mât Cua Gió","year":"2019-10-04","translations":["Любительский (многоголосый закадровый) (Синема УС)"],"quality":"webdl","translation":"Любительский (многоголосый закадровый) (Синема УС)","update":"2021-09-28 08:43:30","iframe_src":"//2413.svetacdn.in/IAF0wWTdNYZm/movie/53458"},{"id":53457,"title":"Паника. Часть первая","kp_id":"1431593","imdb_id":"tt12833810","world_art_id":null,"type":"movie","add":"2021-09-27 18:30:47","orig_title":"Pánico Volumen 1","year":"2020-10-12","translations":["Любительский (многоголосый закадровый) (AlphaProject)"],"quality":"webdl","translation":"Любительский (многоголосый закадровый) (AlphaProject)","update":"2021-09-28 08:44:18","iframe_src":"//2413.svetacdn.in/IAF0wWTdNYZm/movie/53457"},{"id":53455,"title":"Ты должен умереть","kp_id":"1275449","imdb_id":"tt10122486","world_art_id":null,"type":"movie","add":"2021-09-27 18:26:32","orig_title":"I Need You Dead!","year":"2020-03-13","translations":["Любительский (многоголосый закадровый) (Синема УС)"],"quality":"webdl","translation":"Любительский (многоголосый закадровый) (Синема УС)","update":"2021-09-28 08:38:06","iframe_src":"//2413.svetacdn.in/IAF0wWTdNYZm/movie/53455"},{"id":53454,"title":"Прилив","kp_id":"1343306","imdb_id":"tt11394284","world_art_id":null,"type":"movie","add":"2021-09-27 18:24:39","orig_title":"High Tide","year":"2020-01-27","translations":["Любительский (многоголосый закадровый) (AlphaProject)"],"quality":"webdl","translation":"Любительский (многоголосый закадровый) (AlphaProject)","update":"2021-09-28 08:35:42","iframe_src":"//2413.svetacdn.in/IAF0wWTdNYZm/movie/53454"},{"id":53453,"title":"Свадьба Дианы","kp_id":"1404901","imdb_id":"tt12877032","world_art_id":null,"type":"movie","add":"2021-09-27 18:21:26","orig_title":"Dianas bryllup","year":"2020-09-11","translations":["Любительский (многоголосый закадровый) (Синема УС)"],"quality":"webdl","translation":"Любительский (многоголосый закадровый) (Синема УС)","update":"2021-09-28 08:36:41","iframe_src":"//2413.svetacdn.in/IAF0wWTdNYZm/movie/53453"},{"id":53452,"title":"Дорогая Аффи","kp_id":null,"imdb_id":"tt14928724","world_art_id":null,"type":"movie","add":"2021-09-27 18:19:08","orig_title":"Dear Affy","year":"2020-01-01","translations":["Любительский (многоголосый закадровый) (Синема УС)"],"quality":"webdl","translation":"Любительский (многоголосый закадровый) (Синема УС)","update":"2021-09-28 08:33:00","iframe_src":"//2413.svetacdn.in/IAF0wWTdNYZm/movie/53452"},{"id":53451,"title":"Смертельный проступок","kp_id":"4366993","imdb_id":"tt13883320","world_art_id":null,"type":"movie","add":"2021-09-27 18:09:20","orig_title":"Impropriety","year":"2021-05-28","translations":["Любительский (многоголосый закадровый) (AlphaProject)"],"quality":"webdl","translation":"Любительский (многоголосый закадровый) (AlphaProject)","update":"2021-09-28 08:28:15","iframe_src":"//2413.svetacdn.in/IAF0wWTdNYZm/movie/53451"},{"id":53450,"title":"Балаган","kp_id":"2001564","imdb_id":"tt13566356","world_art_id":null,"type":"movie","add":"2021-09-27 18:07:59","orig_title":"Circus","year":"2020-01-01","translations":["Любительский (многоголосый закадровый) (Синема УС)"],"quality":"webdl","translation":"Любительский (многоголосый закадровый) (Синема УС)","update":"2021-09-28 08:25:14","iframe_src":"//2413.svetacdn.in/IAF0wWTdNYZm/movie/53450"},{"id":53341,"title":"Дом у озера","kp_id":"1177261","imdb_id":"tt8689290","world_art_id":null,"type":"movie","add":"2021-09-23 11:18:51","orig_title":"The Alpines","year":"2021-02-05","translations":["Любительский (многоголосый закадровый) (AlphaProject)","Любительский (многоголосый закадровый) (AlphaProject)"],"quality":"webdl","translation":"Любительский (многоголосый закадровый) (AlphaProject)","update":"2021-09-28 08:33:27","iframe_src":"//2413.svetacdn.in/IAF0wWTdNYZm/movie/53341"},{"id":53077,"title":"Блокадный дневник","kp_id":"1346362","imdb_id":"tt13723712","world_art_id":null,"type":"movie","add":"2021-09-12 16:19:01","orig_title":"Blokadnyy dnevnik","year":"2021-09-08","translations":["Оригинальная дорожка","Оригинальная дорожка"],"quality":"ts","translation":"Оригинальная дорожка","update":"2021-09-28 09:23:58","iframe_src":"//2413.svetacdn.in/IAF0wWTdNYZm/movie/53077"},{"id":48099,"title":"Носильщик №1","kp_id":"1263549","imdb_id":"tt10280276","world_art_id":null,"type":"movie","add":"2021-02-21 09:56:53","orig_title":"Coolie No. 1","year":"2020-12-25","translations":["Любительский (многоголосый закадровый) (OnisFilms)","Любительский (многоголосый закадровый) (Honey&Haseena)","Любительский (многоголосый закадровый) (FanStudio)","Профессиональный (многоголосый закадровый) (ZEE TV)"],"quality":"webdl","translation":"Любительский (многоголосый закадровый) (OnisFilms)","update":"2021-09-28 11:33:16","iframe_src":"//2413.svetacdn.in/IAF0wWTdNYZm/movie/48099"},{"id":32232,"title":"Уильям. Последний неандерталец","kp_id":"1026795","imdb_id":"tt6316816","world_art_id":null,"type":"movie","add":"2019-10-22 07:59:40","orig_title":"William","year":"2019-04-05","translations":["Любительский (многоголосый закадровый) (Синема УС)","Профессиональный (многоголосый закадровый) (IVI)","[EN] Original (English)"],"quality":"webdl","translation":"Любительский (многоголосый закадровый) (Синема УС)","update":"2021-09-28 11:37:04","iframe_src":"//2413.svetacdn.in/IAF0wWTdNYZm/movie/32232"},{"id":5471,"title":"Государственная защита 3","kp_id":"696059","imdb_id":null,"world_art_id":null,"type":"serial","add":"2019-10-15 08:23:56","orig_title":"Государственная защита 2","year":"2013-01-01","translations":["Оригинальная дорожка"],"seasons_count":1,"episodes_count":16,"episodes":16,"update":"2019-10-16 08:13:05","iframe_src":"//2413.svetacdn.in/IAF0wWTdNYZm/tv-series/5471"},{"id":5470,"title":"Государственная защита 2","kp_id":"602561","imdb_id":null,"world_art_id":null,"type":"serial","add":"2019-10-15 08:21:09","orig_title":"Государственная защита 2","year":"2012-01-01","translations":["Оригинальная дорожка"],"seasons_count":1,"episodes_count":12,"episodes":12,"update":"2019-10-16 08:33:24","iframe_src":"//2413.svetacdn.in/IAF0wWTdNYZm/tv-series/5470"},{"id":5467,"title":"Черная лагуна","kp_id":"455241","imdb_id":"tt1024810","world_art_id":null,"type":"serial","add":"2019-10-14 19:48:33","orig_title":"El internado","year":"2007-05-24","translations":["Профессиональный (многоголосый закадровый) (AXN Sci-Fi)"],"seasons_count":7,"episodes_count":71,"episodes":15,"update":"2019-10-15 20:42:51","iframe_src":"//2413.svetacdn.in/IAF0wWTdNYZm/tv-series/5467"},{"id":5463,"title":"Васильки","kp_id":"716857","imdb_id":null,"world_art_id":null,"type":"serial","add":"2019-10-14 09:36:54","orig_title":"Васильки","year":"2013-01-01","translations":["Оригинальная дорожка"],"seasons_count":1,"episodes_count":2,"episodes":2,"update":"2019-10-14 23:17:59","iframe_src":"//2413.svetacdn.in/IAF0wWTdNYZm/tv-series/5463"},{"id":5461,"title":"Одержимый","kp_id":"469223","imdb_id":"tt4372838","world_art_id":null,"type":"serial","add":"2019-10-14 07:03:59","orig_title":"Oderzhimiy","year":"2010-08-26","translations":["Оригинальная дорожка"],"seasons_count":1,"episodes_count":12,"episodes":12,"update":"2019-10-15 10:54:19","iframe_src":"//2413.svetacdn.in/IAF0wWTdNYZm/tv-series/5461"},{"id":5460,"title":"Знаки судьбы","kp_id":null,"imdb_id":null,"world_art_id":null,"type":"serial","add":"2019-10-14 06:58:15","orig_title":"Znaki sudbi","year":"2017-01-01","translations":["Оригинальная дорожка"],"seasons_count":1,"episodes_count":20,"episodes":20,"update":"2019-10-15 10:50:37","iframe_src":"//2413.svetacdn.in/IAF0wWTdNYZm/tv-series/5460"},{"id":5459,"title":"Беги","kp_id":"717627","imdb_id":"tt2297604","world_art_id":null,"type":"serial","add":"2019-10-14 05:44:09","orig_title":"Run","year":"2013-07-15","translations":["Профессиональный (многоголосый закадровый) (TVShows)"],"seasons_count":1,"episodes_count":4,"episodes":4,"update":"2019-10-14 08:07:06","iframe_src":"//2413.svetacdn.in/IAF0wWTdNYZm/tv-series/5459"},{"id":5458,"title":"Линия жизни","kp_id":"1309170","imdb_id":null,"world_art_id":null,"type":"serial","add":"2019-10-14 05:39:46","orig_title":"Линия жизни","year":"2019-10-12","translations":["Оригинальная дорожка"],"seasons_count":1,"episodes_count":2,"episodes":2,"update":"2019-10-14 08:10:56","iframe_src":"//2413.svetacdn.in/IAF0wWTdNYZm/tv-series/5458"},{"id":5455,"title":"Сказание о Сельме","kp_id":"1043432","imdb_id":"tt6210414","world_art_id":null,"type":"serial","add":"2019-10-12 22:36:56","orig_title":"Selmas saga","year":"2016-12-01","translations":["Профессиональный (многоголосый закадровый)"],"seasons_count":1,"episodes_count":24,"episodes":24,"update":"2019-10-14 10:14:12","iframe_src":"//2413.svetacdn.in/IAF0wWTdNYZm/tv-series/5455"},{"id":5454,"title":"Волшебники двора","kp_id":"1270775","imdb_id":null,"world_art_id":null,"type":"serial","add":"2019-10-12 22:16:56","orig_title":"Волшебники двора","year":"2016-01-01","translations":["Оригинальная дорожка"],"seasons_count":2,"episodes_count":16,"episodes":6,"update":"2019-10-13 08:09:54","iframe_src":"//2413.svetacdn.in/IAF0wWTdNYZm/tv-series/5454"},{"id":5452,"title":"Госпожа лекарь","kp_id":"1046870","imdb_id":"tt5686372","world_art_id":null,"type":"serial","add":"2019-10-12 13:42:04","orig_title":"The Imperial Doctress","year":"2016-02-13","translations":["Любительский (двухголосый закадровый) (East Dream)"],"seasons_count":1,"episodes_count":50,"episodes":50,"update":"2019-10-13 21:52:27","iframe_src":"//2413.svetacdn.in/IAF0wWTdNYZm/tv-series/5452"},{"id":5451,"title":"Маменькин сынок","kp_id":"1272301","imdb_id":null,"world_art_id":null,"type":"serial","add":"2019-10-12 13:34:19","orig_title":"Маменькин сынок","year":"2019-01-01","translations":["Оригинальная дорожка"],"seasons_count":1,"episodes_count":4,"episodes":4,"update":"2019-10-14 16:54:47","iframe_src":"//2413.svetacdn.in/IAF0wWTdNYZm/tv-series/5451"},{"id":5449,"title":"Сограждане","kp_id":"1209858","imdb_id":null,"world_art_id":null,"type":"serial","add":"2019-10-12 11:47:12","orig_title":"Gukmin yeoreobun","year":"2019-04-01","translations":["Любительский (двухголосый закадровый) (GREEN TEA)"],"seasons_count":1,"episodes_count":18,"episodes":18,"update":"2019-10-14 11:35:53","iframe_src":"//2413.svetacdn.in/IAF0wWTdNYZm/tv-series/5449"},{"id":5448,"title":"Кузей Гюней","kp_id":"622126","imdb_id":"tt2050064","world_art_id":null,"type":"serial","add":"2019-10-12 08:06:21","orig_title":"Kuzey Güney","year":"2011-09-07","translations":["Профессиональный (многоголосый закадровый)","Любительский (одноголосый закадровый)"],"seasons_count":2,"episodes_count":80,"episodes":40,"update":"2019-10-14 10:54:23","iframe_src":"//2413.svetacdn.in/IAF0wWTdNYZm/tv-series/5448"},{"id":5447,"title":"Маркус","kp_id":"1311084","imdb_id":null,"world_art_id":null,"type":"serial","add":"2019-10-12 06:28:18","orig_title":"Markus","year":"2019-10-07","translations":["Оригинальная дорожка"],"seasons_count":1,"episodes_count":8,"episodes":8,"update":"2019-10-16 07:04:34","iframe_src":"//2413.svetacdn.in/IAF0wWTdNYZm/tv-series/5447"},{"id":5446,"title":"Дарья","kp_id":"281885","imdb_id":"tt0118298","world_art_id":null,"type":"serial","add":"2019-10-11 20:35:49","orig_title":"Daria","year":"1997-03-03","translations":["Профессиональный (многоголосый закадровый) (MTV)"],"seasons_count":5,"episodes_count":65,"episodes":13,"update":"2019-10-14 20:17:27","iframe_src":"//2413.svetacdn.in/IAF0wWTdNYZm/tv-series/5446"},{"id":5444,"title":"За три дня до любви","kp_id":"1118170","imdb_id":null,"world_art_id":null,"type":"serial","add":"2019-10-11 18:05:19","orig_title":"За три дня до любви","year":"2018-08-19","translations":["Оригинальная дорожка"],"seasons_count":1,"episodes_count":16,"episodes":16,"update":"2019-10-15 18:09:52","iframe_src":"//2413.svetacdn.in/IAF0wWTdNYZm/tv-series/5444"},{"id":5443,"title":"Планеты","kp_id":"1272394","imdb_id":"tt10394800","world_art_id":null,"type":"serial","add":"2019-10-11 14:19:31","orig_title":"The Planets","year":"2019-05-28","translations":["Профессиональный (двухголосый закадровый)"],"seasons_count":1,"episodes_count":5,"episodes":10,"update":"2019-10-15 14:55:37","iframe_src":"//2413.svetacdn.in/IAF0wWTdNYZm/tv-series/5443"},{"id":5333,"title":"Агата и сыск. Королева брильянтов","kp_id":"1306645","imdb_id":null,"world_art_id":null,"type":"serial","add":"2019-09-28 13:45:12","orig_title":"Агата и сыск. Королева брильянтов","year":"2019-09-28","translations":["Оригинальная дорожка"],"seasons_count":1,"episodes_count":4,"episodes":4,"update":"2019-10-16 08:27:16","iframe_src":"//2413.svetacdn.in/IAF0wWTdNYZm/tv-series/5333"},{"id":3970,"title":"С появлением тебя","kp_id":"1165166","imdb_id":"tt7901874","world_art_id":null,"type":"serial","add":"2019-01-28 13:17:32","orig_title":"Aapke Aa Jaane Se","year":"2018-01-15","translations":["Профессиональный (многоголосый закадровый)"],"seasons_count":1,"episodes_count":365,"episodes":365,"update":"2019-10-16 08:22:56","iframe_src":"//2413.svetacdn.in/IAF0wWTdNYZm/tv-series/3970"},{"id":9836,"title":"Последняя смена","kp_id":"770917","imdb_id":"tt2965466","world_art_id":null,"type":"movie","add":"2017-02-20 12:41:57","orig_title":"Last Shift","year":"2014-10-25","translations":["Любительский (одноголосый закадровый) (Хихикающий доктор)","Профессиональный (многоголосый закадровый) (IVI)"],"quality":"bd","translation":"Любительский (одноголосый закадровый) (Хихикающий доктор)","update":"2021-09-28 08:34:56","iframe_src":"//2413.svetacdn.in/IAF0wWTdNYZm/movie/9836"},{"id":9501,"title":"Белая масаи","kp_id":"110917","imdb_id":"tt0436889","world_art_id":null,"type":"movie","add":"2017-02-07 13:31:32","orig_title":"Die Weisse Massai","year":"2005-09-14","translations":["Профессиональный (двухголосый закадровый) (Elrom)","Профессиональный (двухголосый закадровый) (Elrom)"],"quality":"dvdrip","translation":"Профессиональный (двухголосый закадровый) (Elrom)","update":"2021-09-28 11:35:04","iframe_src":"//2413.svetacdn.in/IAF0wWTdNYZm/movie/9501"},{"id":6946,"title":"Снайпер","kp_id":"17288","imdb_id":"tt0108171","world_art_id":null,"type":"movie","add":"2016-11-01 12:30:23","orig_title":"Sniper","year":"1993-01-29","translations":["Профессиональный (многоголосый закадровый)","Профессиональный (многоголосый закадровый)","Авторский (одноголосый закадровый) (Есарев Дмитрий)","Авторский (одноголосый закадровый) (Гаврилов Андрей)","Авторский (одноголосый закадровый) (Гоблин | Пучков Дмитрий)","Авторский (одноголосый закадровый) (Горчаков Василий)","Авторский (одноголосый закадровый) (Латышев Максим | CDV)","Авторский (одноголосый закадровый) (Володарский Леонид)","Авторский (одноголосый закадровый) (Живов Юрий)","[EN] Original (English)","Профессиональный (двухголосый закадровый) (НТВ)"],"quality":"hdtv","translation":"Профессиональный (многоголосый закадровый)","update":"2021-09-28 08:25:02","iframe_src":"//2413.svetacdn.in/IAF0wWTdNYZm/movie/6946"},{"id":5445,"title":"Сестричка, действуй","kp_id":"6558","imdb_id":"tt0105417","world_art_id":null,"type":"movie","add":"2016-09-23 09:02:38","orig_title":"Sister Act","year":"1992-05-29","translations":["Профессиональный (многоголосый закадровый)","Авторский (одноголосый закадровый) (Гаврилов Андрей)","[EN] Original (English)","Профессиональный (двухголосый закадровый) (НТВ)","Профессиональный (двухголосый закадровый) (Первый канал | ОРТ)","Профессиональный (многоголосый закадровый)","Авторский (одноголосый закадровый) (Горчаков Василий)"],"quality":"bd","translation":"Профессиональный (многоголосый закадровый)","update":"2021-09-28 11:28:57","iframe_src":"//2413.svetacdn.in/IAF0wWTdNYZm/movie/5445"}],"current_page":434,"first_page_url":"https://videocdn.tv/api/short?limit=100&api_token=6Onb1W1alEUrBcKJZD3GoKBbWyAl2uG2&cache3434=3434&page=1","from":43301,"last_page":720,"last_page_url":"https://videocdn.tv/api/short?limit=100&api_token=6Onb1W1alEUrBcKJZD3GoKBbWyAl2uG2&cache3434=3434&page=720","next_page_url":"https://videocdn.tv/api/short?limit=100&api_token=6Onb1W1alEUrBcKJZD3GoKBbWyAl2uG2&cache3434=3434&page=435","path":"https://videocdn.tv/api/short","per_page":100,"prev_page_url":"https://videocdn.tv/api/short?limit=100&api_token=6Onb1W1alEUrBcKJZD3GoKBbWyAl2uG2&cache3434=3434&page=433","to":43340,"total":71934}