{"result":true,"data":[{"id":47414,"title":"Простая история","kp_id":"35720","imdb_id":"tt0102987","world_art_id":null,"type":"movie","add":"2021-01-26 10:17:59","orig_title":"Una storia semplice","year":"1991-09-03","translations":["Любительский (одноголосый закадровый) (Герусов)"],"quality":"tv","translation":"Любительский (одноголосый закадровый) (Герусов)","update":"2021-01-26 12:33:48","iframe_src":"//83.svetacdn.in/PfJ50H0ZBPg3/movie/47414"},{"id":47409,"title":"Сосед желает мне смерти","kp_id":"1276390","imdb_id":"tt10011244","world_art_id":null,"type":"movie","add":"2021-01-26 08:19:37","orig_title":"My Neighbor Wants Me Dead","year":"2019-03-09","translations":["Любительский (многоголосый закадровый) (Синема УС)"],"quality":"webdl","translation":"Любительский (многоголосый закадровый) (Синема УС)","update":"2021-01-26 13:37:02","iframe_src":"//83.svetacdn.in/PfJ50H0ZBPg3/movie/47409"},{"id":47408,"title":"Петля","kp_id":"1400930","imdb_id":"tt12841318","world_art_id":null,"type":"movie","add":"2021-01-26 08:18:17","orig_title":"Petla","year":"2020-09-04","translations":["Любительский (многоголосый закадровый) (Синема УС)"],"quality":"bd","translation":"Любительский (многоголосый закадровый) (Синема УС)","update":"2021-01-26 12:54:59","iframe_src":"//83.svetacdn.in/PfJ50H0ZBPg3/movie/47408"},{"id":47407,"title":"Выкупная стоимость","kp_id":"1305109","imdb_id":"tt10940038","world_art_id":null,"type":"movie","add":"2021-01-26 08:16:32","orig_title":"Redemption Value","year":"2019-10-31","translations":["Любительский (многоголосый закадровый) (Синема УС)"],"quality":"webdl","translation":"Любительский (многоголосый закадровый) (Синема УС)","update":"2021-01-26 13:36:32","iframe_src":"//83.svetacdn.in/PfJ50H0ZBPg3/movie/47407"},{"id":47406,"title":"Принцесса из космоса","kp_id":"2001971","imdb_id":"tt11132278","world_art_id":null,"type":"movie","add":"2021-01-26 08:14:21","orig_title":"Space Princess","year":"2019-11-28","translations":["Любительский (многоголосый закадровый) (Синема УС)"],"quality":"webdl","translation":"Любительский (многоголосый закадровый) (Синема УС)","update":"2021-01-26 13:36:16","iframe_src":"//83.svetacdn.in/PfJ50H0ZBPg3/movie/47406"},{"id":47405,"title":"Черный мститетель","kp_id":"1226289","imdb_id":"tt8448394","world_art_id":null,"type":"movie","add":"2021-01-26 08:12:45","orig_title":"The Black Revenger","year":"2019-05-20","translations":["Любительский (многоголосый закадровый) (Синема УС)"],"quality":"webdl","translation":"Любительский (многоголосый закадровый) (Синема УС)","update":"2021-01-26 13:36:13","iframe_src":"//83.svetacdn.in/PfJ50H0ZBPg3/movie/47405"},{"id":47402,"title":"Сон 2","kp_id":null,"imdb_id":"tt9531530","world_art_id":null,"type":"movie","add":"2021-01-26 07:28:20","orig_title":"The Dream 2","year":"2019-04-08","translations":["Любительский (многоголосый закадровый) (AlphaProject)"],"quality":"webdl","translation":"Любительский (многоголосый закадровый) (AlphaProject)","update":"2021-01-26 08:30:56","iframe_src":"//83.svetacdn.in/PfJ50H0ZBPg3/movie/47402"},{"id":47400,"title":"Призрак","kp_id":"713702","imdb_id":"tt1519633","world_art_id":null,"type":"movie","add":"2021-01-26 05:49:35","orig_title":"Gwi","year":"2009-10-09","translations":["Профессиональный (многоголосый закадровый)"],"quality":"webdl","translation":"Профессиональный (многоголосый закадровый)","update":"2021-01-26 11:08:56","iframe_src":"//83.svetacdn.in/PfJ50H0ZBPg3/movie/47400"},{"id":47383,"title":"Чернее","kp_id":"1372423","imdb_id":"tt12092890","world_art_id":null,"type":"movie","add":"2021-01-25 15:23:30","orig_title":"Blackened","year":"2019-05-23","translations":["Любительский (многоголосый закадровый) (Синема УС)"],"quality":"webdl","translation":"Любительский (многоголосый закадровый) (Синема УС)","update":"2021-01-26 11:54:01","iframe_src":"//83.svetacdn.in/PfJ50H0ZBPg3/movie/47383"},{"id":47381,"title":"Современный отец","kp_id":"1349105","imdb_id":"tt11809212","world_art_id":null,"type":"movie","add":"2021-01-25 15:16:02","orig_title":"Father of Today","year":"2020-07-08","translations":["Любительский (многоголосый закадровый) (Синема УС)"],"quality":"webdl","translation":"Любительский (многоголосый закадровый) (Синема УС)","update":"2021-01-26 10:33:30","iframe_src":"//83.svetacdn.in/PfJ50H0ZBPg3/movie/47381"},{"id":47379,"title":"К свиданиям готова","kp_id":null,"imdb_id":"tt10077042","world_art_id":null,"type":"movie","add":"2021-01-25 15:08:43","orig_title":"Single & Ready","year":"2019-04-04","translations":["Любительский (многоголосый закадровый) (Синема УС)"],"quality":"webdl","translation":"Любительский (многоголосый закадровый) (Синема УС)","update":"2021-01-26 12:15:21","iframe_src":"//83.svetacdn.in/PfJ50H0ZBPg3/movie/47379"},{"id":47378,"title":"Сюрприз от бабушки","kp_id":"1236865","imdb_id":"tt9695258","world_art_id":null,"type":"movie","add":"2021-01-25 15:05:06","orig_title":"Salir del ropero","year":"2019-10-20","translations":["Любительский (многоголосый закадровый) (Синема УС)"],"quality":"webdl","translation":"Любительский (многоголосый закадровый) (Синема УС)","update":"2021-01-26 11:55:22","iframe_src":"//83.svetacdn.in/PfJ50H0ZBPg3/movie/47378"},{"id":47376,"title":"Акулий вирус","kp_id":null,"imdb_id":"tt13785940","world_art_id":null,"type":"movie","add":"2021-01-25 15:00:43","orig_title":"Virus Shark","year":"2021-04-13","translations":["Любительский (многоголосый закадровый) (Синема УС)"],"quality":"webdl","translation":"Любительский (многоголосый закадровый) (Синема УС)","update":"2021-01-26 10:34:05","iframe_src":"//83.svetacdn.in/PfJ50H0ZBPg3/movie/47376"},{"id":46266,"title":"Поезд","kp_id":"77361","imdb_id":"tt0070826","world_art_id":null,"type":"movie","add":"2020-12-20 10:02:58","orig_title":"Le train","year":"1973-10-31","translations":["Профессиональный (двухголосый закадровый)","Профессиональный (многоголосый закадровый) (Первый канал | ОРТ)"],"quality":"bd","translation":"Профессиональный (двухголосый закадровый)","update":"2021-01-26 11:04:21","iframe_src":"//83.svetacdn.in/PfJ50H0ZBPg3/movie/46266"},{"id":46210,"title":"Брешь","kp_id":"1273044","imdb_id":"tt9820556","world_art_id":null,"type":"movie","add":"2020-12-18 11:06:42","orig_title":"Breach","year":"2020-12-18","translations":["Original (English)","Полное дублирование","Любительский (одноголосый закадровый)","Полное дублирование (iTunes)"],"quality":"webdl","translation":"Original (English)","update":"2021-01-26 08:29:56","iframe_src":"//83.svetacdn.in/PfJ50H0ZBPg3/movie/46210"},{"id":44004,"title":"Глории","kp_id":"1100969","imdb_id":"tt7435316","world_art_id":null,"type":"movie","add":"2020-09-30 20:01:18","orig_title":"The Glorias","year":"2020-01-26","translations":["Любительский (многоголосый закадровый) (@MUZOBOZ@)","Original (English)","Профессиональный (многоголосый закадровый) (iTunes)"],"quality":"webdl","translation":"Любительский (многоголосый закадровый) (@MUZOBOZ@)","update":"2021-01-26 11:05:27","iframe_src":"//83.svetacdn.in/PfJ50H0ZBPg3/movie/44004"},{"id":40328,"title":"Капоне. Лицо со шрамом","kp_id":"1007761","imdb_id":"tt6199572","world_art_id":null,"type":"movie","add":"2020-05-12 18:09:39","orig_title":"Capone","year":"2020-05-12","translations":["Любительский (многоголосый закадровый) (AlphaProject)","Любительский (двухголосый закадровый) (LakeFilms)","Профессиональный (многоголосый закадровый) (HDrezka Studio)","Original (English)","Полное дублирование","Полное дублирование (iTunes)","Авторский (одноголосый закадровый) (Яроцкий Михаил | Kyberpunk)"],"quality":"webdl","translation":"Любительский (многоголосый закадровый) (AlphaProject)","update":"2021-01-26 12:48:28","iframe_src":"//83.svetacdn.in/PfJ50H0ZBPg3/movie/40328"},{"id":33866,"title":"Рисунки Хокусая","kp_id":"96128","imdb_id":"tt0202908","world_art_id":null,"type":"movie","add":"2019-12-09 18:38:08","orig_title":"Hokusai manga","year":"1981-09-12","translations":["Любительский (одноголосый закадровый) (Воротилин Олег)","Авторский (одноголосый закадровый) (Воротилин Олег)"],"quality":"dvdrip","translation":"Любительский (одноголосый закадровый) (Воротилин Олег)","update":"2021-01-26 10:54:05","iframe_src":"//83.svetacdn.in/PfJ50H0ZBPg3/movie/33866"},{"id":26751,"title":"Тихие страницы","kp_id":"40759","imdb_id":"tt0108338","world_art_id":null,"type":"movie","add":"2019-05-19 16:03:25","orig_title":"Tikhie stranitsy","year":"1994-02-12","translations":["Оригинальная дорожка"],"quality":"bd","translation":"Оригинальная дорожка","update":"2021-01-26 12:46:55","iframe_src":"//83.svetacdn.in/PfJ50H0ZBPg3/movie/26751"},{"id":22873,"title":"Про бизнесмена Фому","kp_id":"40965","imdb_id":"tt0365656","world_art_id":null,"type":"movie","add":"2019-03-10 16:20:19","orig_title":"Pro biznesmena Fomu","year":"1993-01-01","translations":["Оригинальная дорожка"],"quality":"tc","translation":"Оригинальная дорожка","update":"2021-01-26 10:56:07","iframe_src":"//83.svetacdn.in/PfJ50H0ZBPg3/movie/22873"},{"id":2884,"title":"Без вести","kp_id":"1045207","imdb_id":"tt6483836","world_art_id":null,"type":"serial","add":"2018-07-02 07:13:25","orig_title":"Gone","year":"2017-11-13","translations":["Профессиональный (многоголосый закадровый)"],"seasons_count":1,"episodes_count":12,"episodes":12,"update":"2018-07-03 06:40:44","iframe_src":"//83.svetacdn.in/PfJ50H0ZBPg3/tv-series/2884"},{"id":2883,"title":"Тайны города Эн","kp_id":"839441","imdb_id":null,"world_art_id":null,"type":"serial","add":"2018-07-02 06:10:42","orig_title":"Тайны города Эн","year":"2018-01-01","translations":["Оригинальная дорожка"],"seasons_count":1,"episodes_count":8,"episodes":8,"update":"2018-07-03 06:18:29","iframe_src":"//83.svetacdn.in/PfJ50H0ZBPg3/tv-series/2883"},{"id":2882,"title":"Просто роман","kp_id":"1162771","imdb_id":null,"world_art_id":null,"type":"serial","add":"2018-07-02 05:59:25","orig_title":"Просто роман","year":"2018-06-30","translations":["Оригинальная дорожка"],"seasons_count":1,"episodes_count":2,"episodes":2,"update":"2018-07-02 22:45:51","iframe_src":"//83.svetacdn.in/PfJ50H0ZBPg3/tv-series/2882"},{"id":2877,"title":"Правдоподобные истории Нила Геймана","kp_id":"943960","imdb_id":"tt5182786","world_art_id":null,"type":"serial","add":"2018-06-29 09:57:59","orig_title":"Neil Gaiman's Likely Stories","year":"2016-05-26","translations":["Любительский (многоголосый закадровый) (GreenРай Studio)"],"seasons_count":1,"episodes_count":4,"episodes":4,"update":"2018-06-29 17:13:55","iframe_src":"//83.svetacdn.in/PfJ50H0ZBPg3/tv-series/2877"},{"id":2871,"title":"Розанна","kp_id":"277673","imdb_id":"tt0094540","world_art_id":null,"type":"serial","add":"2018-06-27 07:10:24","orig_title":"Roseanne","year":"1988-10-18","translations":["Профессиональный (многоголосый закадровый)"],"seasons_count":1,"episodes_count":9,"episodes":9,"update":"2018-06-28 11:28:05","iframe_src":"//83.svetacdn.in/PfJ50H0ZBPg3/tv-series/2871"},{"id":2867,"title":"Пленница","kp_id":"1121463","imdb_id":"tt7975550","world_art_id":null,"type":"serial","add":"2018-06-25 16:36:25","orig_title":"Tutsak","year":"2017-09-19","translations":["Любительский (двухголосый закадровый) (TurkStar)"],"seasons_count":1,"episodes_count":9,"episodes":9,"update":"2018-06-29 06:59:17","iframe_src":"//83.svetacdn.in/PfJ50H0ZBPg3/tv-series/2867"},{"id":2863,"title":"По щучьему велению","kp_id":"1115298","imdb_id":"tt8394098","world_art_id":null,"type":"serial","add":"2018-06-24 07:09:30","orig_title":"Po shchuchemu veleniyu","year":"2018-03-18","translations":["Оригинальная дорожка"],"seasons_count":1,"episodes_count":2,"episodes":2,"update":"2018-06-29 06:51:09","iframe_src":"//83.svetacdn.in/PfJ50H0ZBPg3/tv-series/2863"},{"id":2862,"title":"Приличная семья сдаст комнату","kp_id":"1115062","imdb_id":null,"world_art_id":null,"type":"serial","add":"2018-06-24 07:06:46","orig_title":"Приличная семья сдаст комнату","year":"2018-04-14","translations":["Оригинальная дорожка"],"seasons_count":1,"episodes_count":2,"episodes":2,"update":"2018-06-29 06:49:22","iframe_src":"//83.svetacdn.in/PfJ50H0ZBPg3/tv-series/2862"},{"id":2861,"title":"Незнакомка в зеркале","kp_id":"1115547","imdb_id":null,"world_art_id":null,"type":"serial","add":"2018-06-24 07:04:18","orig_title":"Незнакомка в зеркале","year":"2018-04-21","translations":["Оригинальная дорожка"],"seasons_count":1,"episodes_count":2,"episodes":2,"update":"2018-06-29 06:47:18","iframe_src":"//83.svetacdn.in/PfJ50H0ZBPg3/tv-series/2861"},{"id":2844,"title":"Садовое кольцо","kp_id":"982733","imdb_id":null,"world_art_id":null,"type":"serial","add":"2018-06-19 07:47:49","orig_title":"Садовое кольцо","year":"2018-06-18","translations":["Оригинальная дорожка"],"seasons_count":1,"episodes_count":12,"episodes":12,"update":"2018-07-02 22:44:37","iframe_src":"//83.svetacdn.in/PfJ50H0ZBPg3/tv-series/2844"},{"id":2842,"title":"Пятая стража","kp_id":"736388","imdb_id":"tt3508568","world_art_id":null,"type":"serial","add":"2018-06-19 05:13:58","orig_title":"Pyataya strazha","year":"2013-02-18","translations":["Оригинальная дорожка"],"seasons_count":3,"episodes_count":181,"episodes":56,"update":"2018-07-03 05:02:47","iframe_src":"//83.svetacdn.in/PfJ50H0ZBPg3/tv-series/2842"},{"id":2841,"title":"Надломленные души","kp_id":"1142533","imdb_id":null,"world_art_id":null,"type":"serial","add":"2018-06-18 11:11:05","orig_title":"Надломленные души","year":"2018-06-02","translations":["Оригинальная дорожка"],"seasons_count":1,"episodes_count":2,"episodes":2,"update":"2018-06-29 06:44:43","iframe_src":"//83.svetacdn.in/PfJ50H0ZBPg3/tv-series/2841"},{"id":2840,"title":"На пороге любви","kp_id":"1047823","imdb_id":null,"world_art_id":null,"type":"serial","add":"2018-06-18 11:09:21","orig_title":"На пороге любви","year":"2018-05-08","translations":["Оригинальная дорожка"],"seasons_count":1,"episodes_count":2,"episodes":2,"update":"2018-06-29 06:42:35","iframe_src":"//83.svetacdn.in/PfJ50H0ZBPg3/tv-series/2840"},{"id":2802,"title":"Клуб обманутых жен","kp_id":"1159407","imdb_id":null,"world_art_id":null,"type":"serial","add":"2018-06-13 05:48:41","orig_title":"Клуб обманутых жен","year":"2018-06-12","translations":["Оригинальная дорожка"],"seasons_count":1,"episodes_count":2,"episodes":2,"update":"2018-06-28 15:29:32","iframe_src":"//83.svetacdn.in/PfJ50H0ZBPg3/tv-series/2802"},{"id":2793,"title":"Пасечник 2","kp_id":"842832","imdb_id":null,"world_art_id":null,"type":"serial","add":"2018-06-11 14:07:08","orig_title":"Пасечник 2","year":"2016-02-15","translations":["Оригинальная дорожка"],"seasons_count":1,"episodes_count":32,"episodes":32,"update":"2018-06-28 09:51:02","iframe_src":"//83.svetacdn.in/PfJ50H0ZBPg3/tv-series/2793"},{"id":2748,"title":"Богатый парень","kp_id":"1072950","imdb_id":"tt8178468","world_art_id":null,"type":"serial","add":"2018-06-06 08:54:23","orig_title":"Ri-cheu Maen","year":"2018-05-09","translations":["Любительский (двухголосый закадровый) (SoftBox)"],"seasons_count":1,"episodes_count":16,"episodes":16,"update":"2018-07-02 11:59:51","iframe_src":"//83.svetacdn.in/PfJ50H0ZBPg3/tv-series/2748"},{"id":2731,"title":"Участковый","kp_id":"585202","imdb_id":"tt3613462","world_art_id":null,"type":"serial","add":"2018-06-04 12:50:20","orig_title":"Uchastkovyy","year":"2012-03-26","translations":["Оригинальная дорожка"],"seasons_count":1,"episodes_count":24,"episodes":24,"update":"2018-06-29 14:29:42","iframe_src":"//83.svetacdn.in/PfJ50H0ZBPg3/tv-series/2731"},{"id":2694,"title":"Лето в теплой компании","kp_id":"1115291","imdb_id":"tt6647016","world_art_id":null,"type":"serial","add":"2018-05-30 07:13:35","orig_title":"Sommaren med släkten","year":"2017-03-19","translations":["Любительский (многоголосый закадровый) (GreenРай Studio)"],"seasons_count":1,"episodes_count":10,"episodes":10,"update":"2018-07-02 15:48:02","iframe_src":"//83.svetacdn.in/PfJ50H0ZBPg3/tv-series/2694"},{"id":2237,"title":"Пожизненный приговор","kp_id":"1014288","imdb_id":"tt6088922","world_art_id":null,"type":"serial","add":"2018-03-16 11:12:15","orig_title":"Life Sentence","year":"2018-03-07","translations":["Профессиональный (многоголосый закадровый) (IdeaFilm)","Профессиональный (многоголосый закадровый) (NewStudio)"],"seasons_count":1,"episodes_count":13,"episodes":13,"update":"2018-06-28 22:41:29","iframe_src":"//83.svetacdn.in/PfJ50H0ZBPg3/tv-series/2237"},{"id":1061,"title":"Заложница","kp_id":"982784","imdb_id":"tt5052460","world_art_id":null,"type":"serial","add":"2017-02-28 14:17:23","orig_title":"Taken","year":"2017-02-27","translations":["Профессиональный (многоголосый закадровый) (IdeaFilm)","Профессиональный (многоголосый закадровый) (LostFilm)"],"seasons_count":2,"episodes_count":26,"episodes":16,"update":"2018-07-03 12:18:11","iframe_src":"//83.svetacdn.in/PfJ50H0ZBPg3/tv-series/1061"}],"current_page":466,"first_page_url":"https://videocdn.tv/api/short?limit=100&api_token=RgFQdUIR2dRmwv8iYa5SnFNgnw3vpjKj&cache3466=3466&page=1","from":46501,"last_page":664,"last_page_url":"https://videocdn.tv/api/short?limit=100&api_token=RgFQdUIR2dRmwv8iYa5SnFNgnw3vpjKj&cache3466=3466&page=664","next_page_url":"https://videocdn.tv/api/short?limit=100&api_token=RgFQdUIR2dRmwv8iYa5SnFNgnw3vpjKj&cache3466=3466&page=467","path":"https://videocdn.tv/api/short","per_page":100,"prev_page_url":"https://videocdn.tv/api/short?limit=100&api_token=RgFQdUIR2dRmwv8iYa5SnFNgnw3vpjKj&cache3466=3466&page=465","to":46540,"total":66383}