{"result":true,"data":[{"id":54970,"title":"Олимпия 2","kp_id":"39424","imdb_id":"tt0030523","world_art_id":null,"type":"movie","add":"2021-12-03 12:05:39","orig_title":"Olympia 2. Teil - Fest der Schönheit","year":"1938-04-20","translations":["Авторский (одноголосый закадровый) (Живов Юрий)"],"quality":"dvdrip","translation":"Авторский (одноголосый закадровый) (Живов Юрий)","update":"2021-12-03 15:41:30","iframe_src":"//83.svetacdn.in/PfJ50H0ZBPg3/movie/54970"},{"id":54967,"title":"Победа веры","kp_id":"39427","imdb_id":"tt0156078","world_art_id":null,"type":"movie","add":"2021-12-03 11:51:28","orig_title":"Der Sieg des Glaubens","year":"1933-12-01","translations":["Профессиональный (одноголосый закадровый)"],"quality":"dvdrip","translation":"Профессиональный (одноголосый закадровый)","update":"2021-12-03 15:40:06","iframe_src":"//83.svetacdn.in/PfJ50H0ZBPg3/movie/54967"},{"id":54966,"title":"Операция «Коза»","kp_id":"66195","imdb_id":"tt0230596","world_art_id":null,"type":"movie","add":"2021-12-03 11:05:31","orig_title":"Operacja Koza","year":"2000-03-31","translations":["Профессиональный (двухголосый закадровый) (Фортуна-Фильм)"],"quality":"sat","translation":"Профессиональный (двухголосый закадровый) (Фортуна-Фильм)","update":"2021-12-03 15:43:32","iframe_src":"//83.svetacdn.in/PfJ50H0ZBPg3/movie/54966"},{"id":54965,"title":"Месть пернатого змея","kp_id":"55104","imdb_id":"tt0088344","world_art_id":null,"type":"movie","add":"2021-12-03 06:32:59","orig_title":"La vengeance du serpent à plumes","year":"1984-11-28","translations":["Профессиональный (многоголосый закадровый)"],"quality":"bd","translation":"Профессиональный (многоголосый закадровый)","update":"2021-12-03 11:11:14","iframe_src":"//83.svetacdn.in/PfJ50H0ZBPg3/movie/54965"},{"id":54964,"title":"Это случилось при свете дня","kp_id":"72828","imdb_id":"tt0051588","world_art_id":null,"type":"movie","add":"2021-12-03 06:25:13","orig_title":"Es geschah am hellichten Tag","year":"1958-07-04","translations":["Любительский (одноголосый закадровый)"],"quality":"bd","translation":"Любительский (одноголосый закадровый)","update":"2021-12-03 11:12:57","iframe_src":"//83.svetacdn.in/PfJ50H0ZBPg3/movie/54964"},{"id":54963,"title":"Черный бархат","kp_id":"223128","imdb_id":"tt0075766","world_art_id":null,"type":"movie","add":"2021-12-03 06:23:20","orig_title":"Velluto nero","year":"1976-08-06","translations":["Любительский (одноголосый закадровый) (Urasiko)","Любительский (одноголосый закадровый) (Horror Maker | Хоррор Мэйкер)"],"quality":"bd","translation":"Любительский (одноголосый закадровый) (Urasiko)","update":"2021-12-03 11:18:26","iframe_src":"//83.svetacdn.in/PfJ50H0ZBPg3/movie/54963"},{"id":54959,"title":"Ведьма: Возрождение","kp_id":"1249490","imdb_id":"tt9257906","world_art_id":null,"type":"movie","add":"2021-12-02 20:45:01","orig_title":"The Unkind","year":"2022-02-10","translations":["Любительский (многоголосый закадровый) (AlphaProject)"],"quality":"webdl","translation":"Любительский (многоголосый закадровый) (AlphaProject)","update":"2021-12-03 12:01:32","iframe_src":"//83.svetacdn.in/PfJ50H0ZBPg3/movie/54959"},{"id":54957,"title":"Треугольник Дьявола","kp_id":"4545986","imdb_id":"tt12951846","world_art_id":null,"type":"movie","add":"2021-12-02 20:39:41","orig_title":"Devil's Triangle","year":"2021-11-26","translations":["Любительский (многоголосый закадровый) (Синема УС)"],"quality":"webdl","translation":"Любительский (многоголосый закадровый) (Синема УС)","update":"2021-12-03 11:58:27","iframe_src":"//83.svetacdn.in/PfJ50H0ZBPg3/movie/54957"},{"id":54956,"title":"Смертельная связь","kp_id":"1392952","imdb_id":"tt12503602","world_art_id":null,"type":"movie","add":"2021-12-02 20:33:05","orig_title":"Death Link","year":"2021-01-01","translations":["Любительский (многоголосый закадровый) (Синема УС)"],"quality":"webdl","translation":"Любительский (многоголосый закадровый) (Синема УС)","update":"2021-12-03 11:57:35","iframe_src":"//83.svetacdn.in/PfJ50H0ZBPg3/movie/54956"},{"id":54955,"title":"Рождество вместе с тобой","kp_id":"4653137","imdb_id":"tt15420960","world_art_id":null,"type":"movie","add":"2021-12-02 20:30:44","orig_title":"A Christmas Together with You","year":"2021-11-20","translations":["Любительский (многоголосый закадровый) (AlphaProject)"],"quality":"webdl","translation":"Любительский (многоголосый закадровый) (AlphaProject)","update":"2021-12-03 11:56:40","iframe_src":"//83.svetacdn.in/PfJ50H0ZBPg3/movie/54955"},{"id":54951,"title":"Посредник","kp_id":"1349287","imdb_id":"tt11640536","world_art_id":null,"type":"movie","add":"2021-12-02 12:57:51","orig_title":"The Middle Man","year":"2021-09-12","translations":["Любительский (многоголосый закадровый) (AlphaProject)"],"quality":"webdl","translation":"Любительский (многоголосый закадровый) (AlphaProject)","update":"2021-12-03 11:54:14","iframe_src":"//83.svetacdn.in/PfJ50H0ZBPg3/movie/54951"},{"id":54950,"title":"В сердце машины","kp_id":"1391831","imdb_id":"tt12595378","world_art_id":null,"type":"movie","add":"2021-12-02 12:56:01","orig_title":"In the Heart of the Machine","year":"2022-01-28","translations":["Любительский (многоголосый закадровый) (@MUZOBOZ@)"],"quality":"webdl","translation":"Любительский (многоголосый закадровый) (@MUZOBOZ@)","update":"2021-12-03 11:53:23","iframe_src":"//83.svetacdn.in/PfJ50H0ZBPg3/movie/54950"},{"id":54949,"title":"Дом из стекла","kp_id":"1191300","imdb_id":"tt8999904","world_art_id":null,"type":"movie","add":"2021-12-02 12:53:01","orig_title":"House of Glass","year":"2021-11-30","translations":["Любительский (многоголосый закадровый) (Синема УС)"],"quality":"webdl","translation":"Любительский (многоголосый закадровый) (Синема УС)","update":"2021-12-03 11:52:11","iframe_src":"//83.svetacdn.in/PfJ50H0ZBPg3/movie/54949"},{"id":54948,"title":"Честный вор","kp_id":"675777","imdb_id":"tt2332535","world_art_id":null,"type":"movie","add":"2021-12-02 12:51:41","orig_title":"Good Thief","year":"2021-01-01","translations":["Любительский (многоголосый закадровый) (Синема УС)"],"quality":"webdl","translation":"Любительский (многоголосый закадровый) (Синема УС)","update":"2021-12-03 11:50:51","iframe_src":"//83.svetacdn.in/PfJ50H0ZBPg3/movie/54948"},{"id":54947,"title":"Рождество дома","kp_id":"1438022","imdb_id":"tt13293184","world_art_id":null,"type":"movie","add":"2021-12-02 12:49:52","orig_title":"Christmas Staycation","year":"2020-12-12","translations":["Любительский (многоголосый закадровый) (Синема УС)"],"quality":"webdl","translation":"Любительский (многоголосый закадровый) (Синема УС)","update":"2021-12-03 11:48:40","iframe_src":"//83.svetacdn.in/PfJ50H0ZBPg3/movie/54947"},{"id":54946,"title":"Рождество среди сосен","kp_id":"1448666","imdb_id":"tt13401252","world_art_id":null,"type":"movie","add":"2021-12-02 12:47:05","orig_title":"Christmas in the Pines","year":"2021-11-02","translations":["Любительский (многоголосый закадровый) (Синема УС)"],"quality":"webdl","translation":"Любительский (многоголосый закадровый) (Синема УС)","update":"2021-12-03 11:46:28","iframe_src":"//83.svetacdn.in/PfJ50H0ZBPg3/movie/54946"},{"id":54945,"title":"Всё не то, чем кажется","kp_id":"4291722","imdb_id":"tt13677962","world_art_id":null,"type":"movie","add":"2021-12-02 12:45:16","orig_title":"Blonde. Purple","year":"2021-11-29","translations":["Любительский (многоголосый закадровый) (Синема УС)"],"quality":"webdl","translation":"Любительский (многоголосый закадровый) (Синема УС)","update":"2021-12-03 11:45:28","iframe_src":"//83.svetacdn.in/PfJ50H0ZBPg3/movie/54945"},{"id":54944,"title":"Рождественская песнь","kp_id":"1202116","imdb_id":"tt9136058","world_art_id":null,"type":"movie","add":"2021-12-02 12:43:16","orig_title":"A Christmas Carol","year":"2020-12-04","translations":["Любительский (многоголосый закадровый) (Синема УС)"],"quality":"webdl","translation":"Любительский (многоголосый закадровый) (Синема УС)","update":"2021-12-03 11:44:29","iframe_src":"//83.svetacdn.in/PfJ50H0ZBPg3/movie/54944"},{"id":7520,"title":"Дочь за отца","kp_id":"906421","imdb_id":null,"world_art_id":null,"type":"serial","add":"2020-05-15 10:42:54","orig_title":"Дочь за отца","year":"2015-07-25","translations":["Оригинальная дорожка"],"seasons_count":1,"episodes_count":2,"episodes":2,"update":"2020-05-16 03:30:39","iframe_src":"//83.svetacdn.in/PfJ50H0ZBPg3/tv-series/7520"},{"id":7517,"title":"Преступный мир","kp_id":"1371852","imdb_id":"tt9680440","world_art_id":null,"type":"serial","add":"2020-05-15 09:08:14","orig_title":"Paatal Lok","year":"2020-05-15","translations":["Любительский (многоголосый закадровый) (ColdFilm)","Любительский (двухголосый закадровый) (KerobTV)","Любительский (многоголосый закадровый) (Octopus)"],"seasons_count":1,"episodes_count":9,"episodes":9,"update":"2020-05-16 06:04:13","iframe_src":"//83.svetacdn.in/PfJ50H0ZBPg3/tv-series/7517"},{"id":7516,"title":"Преступный мир","kp_id":"1201113","imdb_id":"tt9095260","world_art_id":null,"type":"serial","add":"2020-05-15 08:01:58","orig_title":"Criminal Justice","year":"2019-04-05","translations":["Любительский (многоголосый закадровый) (Octopus)"],"seasons_count":1,"episodes_count":10,"episodes":10,"update":"2020-05-16 08:44:47","iframe_src":"//83.svetacdn.in/PfJ50H0ZBPg3/tv-series/7516"},{"id":7515,"title":"Мышеловка для кота","kp_id":"1377937","imdb_id":null,"world_art_id":null,"type":"serial","add":"2020-05-15 05:41:59","orig_title":"Мышеловка для кота","year":"2020-03-02","translations":["Оригинальная дорожка"],"seasons_count":1,"episodes_count":12,"episodes":12,"update":"2020-05-15 12:00:54","iframe_src":"//83.svetacdn.in/PfJ50H0ZBPg3/tv-series/7515"},{"id":7514,"title":"Северное сияние. Древо колдуна. Фильм восьмой","kp_id":"1328483","imdb_id":null,"world_art_id":null,"type":"serial","add":"2020-05-15 05:34:42","orig_title":"Северное сияние. Древо колдуна. Фильм восьмой","year":"2020-05-15","translations":["Оригинальная дорожка"],"seasons_count":1,"episodes_count":2,"episodes":2,"update":"2020-05-15 08:40:32","iframe_src":"//83.svetacdn.in/PfJ50H0ZBPg3/tv-series/7514"},{"id":7513,"title":"Замкнутый круг","kp_id":"797969","imdb_id":"tt2888334","world_art_id":null,"type":"serial","add":"2020-05-14 21:53:32","orig_title":"Full Circle","year":"2013-10-09","translations":["Профессиональный (многоголосый закадровый) (SET)"],"seasons_count":1,"episodes_count":10,"episodes":10,"update":"2020-05-15 07:59:46","iframe_src":"//83.svetacdn.in/PfJ50H0ZBPg3/tv-series/7513"},{"id":7512,"title":"Оправдание","kp_id":"934925","imdb_id":"tt5051400","world_art_id":null,"type":"serial","add":"2020-05-14 21:45:23","orig_title":"Vindication","year":"2019-08-09","translations":["Любительский (многоголосый закадровый) (Octopus)"],"seasons_count":1,"episodes_count":10,"episodes":10,"update":"2020-05-15 07:46:59","iframe_src":"//83.svetacdn.in/PfJ50H0ZBPg3/tv-series/7512"},{"id":7511,"title":"Агент по недвижимости","kp_id":"1337562","imdb_id":"tt11523800","world_art_id":null,"type":"serial","add":"2020-05-14 21:42:57","orig_title":"L'agent immobilier","year":"2020-04-30","translations":["Любительский (многоголосый закадровый) (Octopus)"],"seasons_count":1,"episodes_count":4,"episodes":4,"update":"2020-05-15 07:09:33","iframe_src":"//83.svetacdn.in/PfJ50H0ZBPg3/tv-series/7511"},{"id":7510,"title":"К западу от свободы","kp_id":"1374320","imdb_id":"tt7520178","world_art_id":null,"type":"serial","add":"2020-05-14 19:23:02","orig_title":"West of Liberty","year":"2019-02-01","translations":["Любительский (многоголосый закадровый) (Octopus)"],"seasons_count":1,"episodes_count":6,"episodes":6,"update":"2020-05-15 07:17:20","iframe_src":"//83.svetacdn.in/PfJ50H0ZBPg3/tv-series/7510"},{"id":7509,"title":"Темные Истории","kp_id":"1229955","imdb_id":"tt9598554","world_art_id":null,"type":"serial","add":"2020-05-14 18:52:06","orig_title":"Dark Stories","year":"2019-10-31","translations":["Любительский (многоголосый закадровый) (Octopus)"],"seasons_count":1,"episodes_count":5,"episodes":5,"update":"2020-05-14 19:31:12","iframe_src":"//83.svetacdn.in/PfJ50H0ZBPg3/tv-series/7509"},{"id":7508,"title":"Некотируемый","kp_id":"1264789","imdb_id":"tt9184592","world_art_id":null,"type":"serial","add":"2020-05-14 13:51:44","orig_title":"The Unlisted","year":"2019-09-15","translations":["Любительский (многоголосый закадровый) (Octopus)"],"seasons_count":1,"episodes_count":15,"episodes":15,"update":"2020-05-15 12:44:59","iframe_src":"//83.svetacdn.in/PfJ50H0ZBPg3/tv-series/7508"},{"id":7502,"title":"Выстрел","kp_id":null,"imdb_id":"tt7194490","world_art_id":null,"type":"serial","add":"2020-05-14 08:07:17","orig_title":"Bang","year":"2017-09-10","translations":["Любительский (многоголосый закадровый) (Octopus)"],"seasons_count":2,"episodes_count":14,"episodes":6,"update":"2020-05-15 10:52:47","iframe_src":"//83.svetacdn.in/PfJ50H0ZBPg3/tv-series/7502"},{"id":7494,"title":"Вместо неё","kp_id":"897890","imdb_id":"tt4643348","world_art_id":null,"type":"serial","add":"2020-05-13 13:55:42","orig_title":"Vmesto nee","year":"2015-05-01","translations":["Оригинальная дорожка"],"seasons_count":1,"episodes_count":4,"episodes":4,"update":"2020-05-14 19:09:42","iframe_src":"//83.svetacdn.in/PfJ50H0ZBPg3/tv-series/7494"},{"id":7489,"title":"Мушкетеры 20 лет спустя","kp_id":"41632","imdb_id":"tt0125418","world_art_id":null,"type":"serial","add":"2020-05-13 11:04:03","orig_title":"Mushketyory 20 let spustya","year":"1993-01-01","translations":["Оригинальная дорожка"],"seasons_count":1,"episodes_count":4,"episodes":4,"update":"2020-05-16 10:02:04","iframe_src":"//83.svetacdn.in/PfJ50H0ZBPg3/tv-series/7489"},{"id":7488,"title":"Аси","kp_id":"438216","imdb_id":"tt1147691","world_art_id":null,"type":"serial","add":"2020-05-13 10:37:36","orig_title":"Asi","year":"2007-10-26","translations":["Любительский (многоголосый закадровый)"],"seasons_count":2,"episodes_count":71,"episodes":37,"update":"2020-05-16 10:00:56","iframe_src":"//83.svetacdn.in/PfJ50H0ZBPg3/tv-series/7488"},{"id":7463,"title":"Озеро","kp_id":"1250892","imdb_id":"tt10051464","world_art_id":null,"type":"serial","add":"2020-05-10 21:14:38","orig_title":"Jezero","year":"2019-08-21","translations":["Любительский (многоголосый закадровый) (Octopus)","Любительский (многоголосый закадровый) (ColdFilm)"],"seasons_count":1,"episodes_count":6,"episodes":6,"update":"2020-05-15 07:06:54","iframe_src":"//83.svetacdn.in/PfJ50H0ZBPg3/tv-series/7463"},{"id":7417,"title":"Выше только любовь","kp_id":"1201821","imdb_id":null,"world_art_id":null,"type":"serial","add":"2020-05-06 10:45:37","orig_title":"Выше только любовь","year":"2020-05-05","translations":["Оригинальная дорожка"],"seasons_count":1,"episodes_count":4,"episodes":4,"update":"2020-05-16 09:24:20","iframe_src":"//83.svetacdn.in/PfJ50H0ZBPg3/tv-series/7417"},{"id":37301,"title":"Очаровательная лгунья","kp_id":"71385","imdb_id":"tt0054603","world_art_id":null,"type":"movie","add":"2020-03-03 12:03:34","orig_title":"Adorable menteuse","year":"1962-02-02","translations":["Профессиональный (двухголосый закадровый) (РТР | Россия)","Профессиональный (двухголосый закадровый) (РТР | Россия)"],"quality":"dvdrip","translation":"Профессиональный (двухголосый закадровый) (РТР | Россия)","update":"2021-12-03 11:20:06","iframe_src":"//83.svetacdn.in/PfJ50H0ZBPg3/movie/37301"},{"id":30686,"title":"Плохой парень","kp_id":"76557","imdb_id":"tt0307213","world_art_id":null,"type":"movie","add":"2019-09-08 11:58:49","orig_title":"Nabbeun namja","year":"2001-11-11","translations":["Профессиональный (многоголосый закадровый)","Профессиональный (двухголосый закадровый)"],"quality":"bd","translation":"Профессиональный (многоголосый закадровый)","update":"2021-12-03 11:14:55","iframe_src":"//83.svetacdn.in/PfJ50H0ZBPg3/movie/30686"},{"id":4501,"title":"Долго и счастливо","kp_id":"412472","imdb_id":"tt0759475","world_art_id":null,"type":"serial","add":"2019-05-14 09:36:00","orig_title":"'Til Death","year":"2006-09-06","translations":["Профессиональный (многоголосый закадровый)","Профессиональный (многоголосый закадровый) (SET)"],"seasons_count":4,"episodes_count":81,"episodes":37,"update":"2020-05-15 13:37:23","iframe_src":"//83.svetacdn.in/PfJ50H0ZBPg3/tv-series/4501"},{"id":4447,"title":"Мёртв для меня","kp_id":"1171979","imdb_id":"tt8064302","world_art_id":null,"type":"serial","add":"2019-05-04 05:04:00","orig_title":"Dead to Me","year":"2019-05-03","translations":["Полное дублирование (Пифагор)","Профессиональный (многоголосый закадровый) (HDrezka Studio)","Профессиональный (многоголосый закадровый) (TVShows)","Любительский (многоголосый закадровый) (ColdFilm)","Любительский (многоголосый закадровый) (Octopus)","Профессиональный (двухголосый закадровый) (IdeaFilm)"],"seasons_count":2,"episodes_count":20,"episodes":10,"update":"2020-05-15 08:36:54","iframe_src":"//83.svetacdn.in/PfJ50H0ZBPg3/tv-series/4447"},{"id":3272,"title":"Динозавр","kp_id":"1006697","imdb_id":null,"world_art_id":null,"type":"serial","add":"2018-10-09 07:26:30","orig_title":"Динозавр","year":"2018-10-08","translations":["Оригинальная дорожка"],"seasons_count":2,"episodes_count":20,"episodes":10,"update":"2020-05-16 08:59:35","iframe_src":"//83.svetacdn.in/PfJ50H0ZBPg3/tv-series/3272"}],"current_page":340,"first_page_url":"https://videocdn.tv/api/short?limit=100&api_token=RgFQdUIR2dRmwv8iYa5SnFNgnw3vpjKj&cache3340=3340&page=1","from":33901,"last_page":720,"last_page_url":"https://videocdn.tv/api/short?limit=100&api_token=RgFQdUIR2dRmwv8iYa5SnFNgnw3vpjKj&cache3340=3340&page=720","next_page_url":"https://videocdn.tv/api/short?limit=100&api_token=RgFQdUIR2dRmwv8iYa5SnFNgnw3vpjKj&cache3340=3340&page=341","path":"https://videocdn.tv/api/short","per_page":100,"prev_page_url":"https://videocdn.tv/api/short?limit=100&api_token=RgFQdUIR2dRmwv8iYa5SnFNgnw3vpjKj&cache3340=3340&page=339","to":33940,"total":71934}