{"result":true,"data":[{"id":24894,"title":"Дрифтер","kp_id":"574863","imdb_id":"tt5104740","world_art_id":null,"type":"movie","add":"2019-04-19 09:52:00","orig_title":"Drifter","year":"2011-01-21","translations":["Оригинальная дорожка"],"quality":"dvdrip","translation":"Оригинальная дорожка","update":"2019-04-20 08:16:48","iframe_src":"//8209.svetacdn.in/si4jsFRrtgrT/movie/24894"},{"id":24893,"title":"Гидравлика","kp_id":"542239","imdb_id":"tt5204956","world_art_id":null,"type":"movie","add":"2019-04-19 09:49:59","orig_title":"Gidravlika","year":"2010-01-01","translations":["Оригинальная дорожка"],"quality":"hdtv","translation":"Оригинальная дорожка","update":"2019-04-20 08:18:54","iframe_src":"//8209.svetacdn.in/si4jsFRrtgrT/movie/24893"},{"id":24892,"title":"Распутница","kp_id":"198368","imdb_id":"tt0064643","world_art_id":null,"type":"movie","add":"2019-04-19 09:46:30","orig_title":"La matriarca","year":"1968-12-23","translations":["Авторский (одноголосый закадровый) (Алексеев Антон)"],"quality":"dvdrip","translation":"Авторский (одноголосый закадровый) (Алексеев Антон)","update":"2019-04-20 08:19:46","iframe_src":"//8209.svetacdn.in/si4jsFRrtgrT/movie/24892"},{"id":24891,"title":"Лунная радуга","kp_id":"45125","imdb_id":"tt0089618","world_art_id":null,"type":"movie","add":"2019-04-19 09:43:39","orig_title":"Lunnaya raduga","year":"1984-01-24","translations":["Оригинальная дорожка"],"quality":"dvdrip","translation":"Оригинальная дорожка","update":"2019-04-20 08:21:54","iframe_src":"//8209.svetacdn.in/si4jsFRrtgrT/movie/24891"},{"id":24890,"title":"Нужные люди","kp_id":"95219","imdb_id":"tt0091659","world_art_id":null,"type":"movie","add":"2019-04-19 09:40:35","orig_title":"Nuzhnye lyudi","year":"1986-01-01","translations":["Оригинальная дорожка"],"quality":"tv","translation":"Оригинальная дорожка","update":"2019-04-20 08:24:15","iframe_src":"//8209.svetacdn.in/si4jsFRrtgrT/movie/24890"},{"id":24889,"title":"Приключения Алёнушки и Ерёмы","kp_id":"394065","imdb_id":"tt1580005","world_art_id":null,"type":"movie","add":"2019-04-19 09:38:15","orig_title":"Priklyucheniya Alyonushki i Yeryomy","year":"2008-11-29","translations":["Оригинальная дорожка"],"quality":"bd","translation":"Оригинальная дорожка","update":"2019-04-20 08:26:24","iframe_src":"//8209.svetacdn.in/si4jsFRrtgrT/movie/24889"},{"id":24868,"title":"Глазами волка","kp_id":"464890","imdb_id":"tt3725122","world_art_id":null,"type":"movie","add":"2019-04-18 23:44:41","orig_title":"Glazami volka","year":"2006-05-18","translations":["Оригинальная дорожка"],"quality":"sat","translation":"Оригинальная дорожка","update":"2019-04-19 10:48:13","iframe_src":"//8209.svetacdn.in/si4jsFRrtgrT/movie/24868"},{"id":24867,"title":"Полет аиста над капустным полем","kp_id":"466457","imdb_id":null,"world_art_id":null,"type":"movie","add":"2019-04-18 23:27:20","orig_title":"Полет аиста над капустным полем","year":"2004-01-01","translations":["Оригинальная дорожка"],"quality":"sat","translation":"Оригинальная дорожка","update":"2019-04-19 10:49:30","iframe_src":"//8209.svetacdn.in/si4jsFRrtgrT/movie/24867"},{"id":24866,"title":"Посвящение в любовь","kp_id":"402563","imdb_id":"tt1160757","world_art_id":null,"type":"movie","add":"2019-04-18 23:10:25","orig_title":"Posvyashchenie v lyubov","year":"1994-01-01","translations":["Оригинальная дорожка"],"quality":"sat","translation":"Оригинальная дорожка","update":"2019-04-19 10:51:23","iframe_src":"//8209.svetacdn.in/si4jsFRrtgrT/movie/24866"},{"id":24865,"title":"Приехали на конкурс повара","kp_id":"420106","imdb_id":"tt2032517","world_art_id":null,"type":"movie","add":"2019-04-18 23:01:26","orig_title":"Priekhali na konkurs povara","year":"1978-12-26","translations":["Оригинальная дорожка"],"quality":"dvdrip","translation":"Оригинальная дорожка","update":"2019-04-19 10:52:17","iframe_src":"//8209.svetacdn.in/si4jsFRrtgrT/movie/24865"},{"id":24864,"title":"Русский крест","kp_id":"482080","imdb_id":null,"world_art_id":null,"type":"movie","add":"2019-04-18 22:46:16","orig_title":"Русский крест","year":"2010-04-03","translations":["Оригинальная дорожка"],"quality":"sat","translation":"Оригинальная дорожка","update":"2019-04-19 10:54:15","iframe_src":"//8209.svetacdn.in/si4jsFRrtgrT/movie/24864"},{"id":24863,"title":"Останки","kp_id":"597438","imdb_id":"tt1870527","world_art_id":null,"type":"movie","add":"2019-04-18 22:29:34","orig_title":"Remains","year":"2011-12-06","translations":["Профессиональный (двухголосый закадровый) (НТВ)"],"quality":"bd","translation":"Профессиональный (двухголосый закадровый) (НТВ)","update":"2019-04-19 10:56:10","iframe_src":"//8209.svetacdn.in/si4jsFRrtgrT/movie/24863"},{"id":24862,"title":"Рыжик","kp_id":"42162","imdb_id":"tt0170534","world_art_id":null,"type":"movie","add":"2019-04-18 22:25:55","orig_title":"Ryzhik","year":"1961-03-20","translations":["Оригинальная дорожка"],"quality":"dvdrip","translation":"Оригинальная дорожка","update":"2019-04-19 10:56:45","iframe_src":"//8209.svetacdn.in/si4jsFRrtgrT/movie/24862"},{"id":24861,"title":"Самая счастливая","kp_id":"497660","imdb_id":"tt9506296","world_art_id":null,"type":"movie","add":"2019-04-18 22:13:16","orig_title":"Samaya schastlivaya","year":"2010-02-13","translations":["Оригинальная дорожка"],"quality":"sat","translation":"Оригинальная дорожка","update":"2019-04-19 10:57:19","iframe_src":"//8209.svetacdn.in/si4jsFRrtgrT/movie/24861"},{"id":24860,"title":"Школа для толстушек","kp_id":"490359","imdb_id":null,"world_art_id":null,"type":"movie","add":"2019-04-18 22:05:15","orig_title":"Школа для толстушек","year":"2010-05-01","translations":["Оригинальная дорожка"],"quality":"sat","translation":"Оригинальная дорожка","update":"2019-04-19 10:58:23","iframe_src":"//8209.svetacdn.in/si4jsFRrtgrT/movie/24860"},{"id":24859,"title":"Трудно быть Мачо","kp_id":"450144","imdb_id":null,"world_art_id":null,"type":"movie","add":"2019-04-18 21:53:45","orig_title":"Трудно быть Мачо","year":"2008-01-01","translations":["Оригинальная дорожка"],"quality":"dvdrip","translation":"Оригинальная дорожка","update":"2019-04-19 10:59:15","iframe_src":"//8209.svetacdn.in/si4jsFRrtgrT/movie/24859"},{"id":24858,"title":"Выйти замуж за генерала","kp_id":"471790","imdb_id":null,"world_art_id":null,"type":"movie","add":"2019-04-18 21:45:06","orig_title":"Выйти замуж за генерала","year":"2008-02-23","translations":["Оригинальная дорожка"],"quality":"sat","translation":"Оригинальная дорожка","update":"2019-04-19 07:48:25","iframe_src":"//8209.svetacdn.in/si4jsFRrtgrT/movie/24858"},{"id":24857,"title":"Золотой автомобиль","kp_id":"623401","imdb_id":null,"world_art_id":null,"type":"movie","add":"2019-04-18 21:36:00","orig_title":"Золотой автомобиль","year":"2010-01-01","translations":["Оригинальная дорожка"],"quality":"sat","translation":"Оригинальная дорожка","update":"2019-04-19 07:47:37","iframe_src":"//8209.svetacdn.in/si4jsFRrtgrT/movie/24857"},{"id":24856,"title":"Была не была","kp_id":"397379","imdb_id":null,"world_art_id":null,"type":"movie","add":"2019-04-18 21:25:57","orig_title":"Была не была","year":"2006-01-01","translations":["Оригинальная дорожка"],"quality":"dvdrip","translation":"Оригинальная дорожка","update":"2019-04-19 07:46:25","iframe_src":"//8209.svetacdn.in/si4jsFRrtgrT/movie/24856"},{"id":24854,"title":"Финиковая косточка","kp_id":"10296","imdb_id":"tt0072253","world_art_id":null,"type":"movie","add":"2019-04-18 21:15:30","orig_title":"The Tamarind Seed","year":"1974-07-11","translations":["Профессиональный (многоголосый закадровый)"],"quality":"bd","translation":"Профессиональный (многоголосый закадровый)","update":"2019-04-19 07:44:05","iframe_src":"//8209.svetacdn.in/si4jsFRrtgrT/movie/24854"}],"current_page":1626,"first_page_url":"https://videocdn.tv/api/short?limit=100&api_token=X6EwAUfE5M9xbo7y0Bp0aPf3uXxG2KLL&cache31626=31626&page=1","from":162501,"last_page":658,"last_page_url":"https://videocdn.tv/api/short?limit=100&api_token=X6EwAUfE5M9xbo7y0Bp0aPf3uXxG2KLL&cache31626=31626&page=658","next_page_url":null,"path":"https://videocdn.tv/api/short","per_page":100,"prev_page_url":"https://videocdn.tv/api/short?limit=100&api_token=X6EwAUfE5M9xbo7y0Bp0aPf3uXxG2KLL&cache31626=31626&page=1625","to":162520,"total":65702}