{"result":true,"data":[{"id":33024,"title":"И разверзся Ад","kp_id":"1156577","imdb_id":"tt7947624","world_art_id":null,"type":"movie","add":"2019-11-12 20:29:33","orig_title":"Here Comes Hell","year":"2019-03-01","translations":["Любительский (многоголосый закадровый) (Синема УС)"],"quality":"webdl","translation":"Любительский (многоголосый закадровый) (Синема УС)","update":"2019-11-13 11:10:12","iframe_src":"//83.svetacdn.in/PfJ50H0ZBPg3/movie/33024"},{"id":33017,"title":"Безумие, прощай","kp_id":"1034545","imdb_id":"tt6349194","world_art_id":null,"type":"movie","add":"2019-11-12 20:23:28","orig_title":"Madness, Farewell","year":"2018-11-01","translations":["Любительский (многоголосый закадровый) (Синема УС)"],"quality":"webdl","translation":"Любительский (многоголосый закадровый) (Синема УС)","update":"2019-11-13 11:11:16","iframe_src":"//83.svetacdn.in/PfJ50H0ZBPg3/movie/33017"},{"id":33005,"title":"Гнилой человек","kp_id":"723916","imdb_id":"tt2574666","world_art_id":null,"type":"movie","add":"2019-11-12 12:45:25","orig_title":"Septic Man","year":"2013-09-19","translations":["Любительский (одноголосый закадровый) (Хихикающий доктор)"],"quality":"webdl","translation":"Любительский (одноголосый закадровый) (Хихикающий доктор)","update":"2019-11-13 12:10:58","iframe_src":"//83.svetacdn.in/PfJ50H0ZBPg3/movie/33005"},{"id":33004,"title":"Любовь и кухня","kp_id":"477742","imdb_id":"tt1519663","world_art_id":null,"type":"movie","add":"2019-11-12 12:42:34","orig_title":"Love's Kitchen","year":"2011-04-26","translations":["Профессиональный (многоголосый закадровый)"],"quality":"bd","translation":"Профессиональный (многоголосый закадровый)","update":"2019-11-13 12:13:16","iframe_src":"//83.svetacdn.in/PfJ50H0ZBPg3/movie/33004"},{"id":33003,"title":"Кукарача 3D","kp_id":"468295","imdb_id":"tt1843957","world_art_id":null,"type":"movie","add":"2019-11-12 12:39:53","orig_title":"Kukaracha 3D","year":"2011-03-24","translations":["Оригинальная дорожка"],"quality":"bd","translation":"Оригинальная дорожка","update":"2019-11-13 12:13:53","iframe_src":"//83.svetacdn.in/PfJ50H0ZBPg3/movie/33003"},{"id":33002,"title":"Познакомьтесь с Фиблами","kp_id":"5914","imdb_id":"tt0097858","world_art_id":null,"type":"movie","add":"2019-11-12 12:36:48","orig_title":"Meet the Feebles","year":"1989-12-08","translations":["Любительский (одноголосый закадровый)"],"quality":"dvdrip","translation":"Любительский (одноголосый закадровый)","update":"2019-11-13 12:12:55","iframe_src":"//83.svetacdn.in/PfJ50H0ZBPg3/movie/33002"},{"id":33001,"title":"Обеление","kp_id":"673966","imdb_id":"tt2297063","world_art_id":null,"type":"movie","add":"2019-11-12 12:34:51","orig_title":"Whitewash","year":"2013-04-19","translations":["Любительский (одноголосый закадровый) (den904)"],"quality":"webdl","translation":"Любительский (одноголосый закадровый) (den904)","update":"2019-11-13 12:13:13","iframe_src":"//83.svetacdn.in/PfJ50H0ZBPg3/movie/33001"},{"id":33000,"title":"Глаз разума","kp_id":"902198","imdb_id":"tt4567486","world_art_id":null,"type":"movie","add":"2019-11-12 12:31:59","orig_title":"The Mind's Eye","year":"2015-09-15","translations":["Любительский (многоголосый закадровый) (Студия Пиратского Дубляжа)"],"quality":"webdl","translation":"Любительский (многоголосый закадровый) (Студия Пиратского Дубляжа)","update":"2019-11-13 12:11:24","iframe_src":"//83.svetacdn.in/PfJ50H0ZBPg3/movie/33000"},{"id":32999,"title":"Молот","kp_id":"477589","imdb_id":"tt1094666","world_art_id":null,"type":"movie","add":"2019-11-12 12:30:10","orig_title":"Hamill","year":"2010-11-07","translations":["Профессиональный (многоголосый закадровый)"],"quality":"dvdrip","translation":"Профессиональный (многоголосый закадровый)","update":"2019-11-13 12:09:30","iframe_src":"//83.svetacdn.in/PfJ50H0ZBPg3/movie/32999"},{"id":32989,"title":"В поисках Санта Лапуса","kp_id":"485775","imdb_id":"tt1544572","world_art_id":null,"type":"movie","add":"2019-11-11 21:33:57","orig_title":"The Search for Santa Paws","year":"2010-11-09","translations":["Полное дублирование"],"quality":"bd","translation":"Полное дублирование","update":"2019-11-12 14:37:53","iframe_src":"//83.svetacdn.in/PfJ50H0ZBPg3/movie/32989"},{"id":32988,"title":"Брошенная на произвол судьбы","kp_id":"400714","imdb_id":"tt1016321","world_art_id":null,"type":"movie","add":"2019-11-11 21:30:23","orig_title":"À Deriva","year":"2009-05-21","translations":["Любительский (одноголосый закадровый) (den904)"],"quality":"dvdrip","translation":"Любительский (одноголосый закадровый) (den904)","update":"2019-11-12 14:37:10","iframe_src":"//83.svetacdn.in/PfJ50H0ZBPg3/movie/32988"},{"id":32973,"title":"Золотая лихорадка","kp_id":"565510","imdb_id":"tt1714176","world_art_id":null,"type":"movie","add":"2019-11-11 20:10:54","orig_title":"Yellow Rock","year":"2011-11-01","translations":["Профессиональный (двухголосый закадровый) (НТВ)"],"quality":"hdrip","translation":"Профессиональный (двухголосый закадровый) (НТВ)","update":"2019-11-12 21:12:34","iframe_src":"//83.svetacdn.in/PfJ50H0ZBPg3/movie/32973"},{"id":32972,"title":"Психо 3","kp_id":"9744","imdb_id":"tt0091799","world_art_id":null,"type":"movie","add":"2019-11-11 20:08:31","orig_title":"Psycho III","year":"1986-06-27","translations":["Профессиональный (многоголосый закадровый)"],"quality":"bd","translation":"Профессиональный (многоголосый закадровый)","update":"2019-11-12 21:12:33","iframe_src":"//83.svetacdn.in/PfJ50H0ZBPg3/movie/32972"},{"id":32969,"title":"Хороший вор","kp_id":"7633","imdb_id":"tt0281820","world_art_id":null,"type":"movie","add":"2019-11-11 19:51:12","orig_title":"The Good Thief","year":"2002-09-06","translations":["Профессиональный (многоголосый закадровый)"],"quality":"dvdrip","translation":"Профессиональный (многоголосый закадровый)","update":"2019-11-12 21:14:07","iframe_src":"//83.svetacdn.in/PfJ50H0ZBPg3/movie/32969"},{"id":32968,"title":"Психо 4: Начало","kp_id":"80267","imdb_id":"tt0102724","world_art_id":null,"type":"movie","add":"2019-11-11 19:49:15","orig_title":"Psycho IV: The Beginning","year":"1990-11-10","translations":["Профессиональный (многоголосый закадровый) (ДТВ)"],"quality":"bd","translation":"Профессиональный (многоголосый закадровый) (ДТВ)","update":"2019-11-12 21:21:17","iframe_src":"//83.svetacdn.in/PfJ50H0ZBPg3/movie/32968"},{"id":32967,"title":"Огни большого города","kp_id":"414","imdb_id":"tt0021749","world_art_id":null,"type":"movie","add":"2019-11-11 19:47:36","orig_title":"City Lights","year":"1931-01-30","translations":["Original (English)"],"quality":"bd","translation":"Original (English)","update":"2019-11-12 15:17:05","iframe_src":"//83.svetacdn.in/PfJ50H0ZBPg3/movie/32967"},{"id":31199,"title":"Проклятие «Мэри»","kp_id":"1093221","imdb_id":"tt5834854","world_art_id":null,"type":"movie","add":"2019-09-26 09:45:54","orig_title":"Mary","year":"2019-08-23","translations":["Полное дублирование"],"quality":"webdl","translation":"Полное дублирование","update":"2019-11-12 14:51:17","iframe_src":"//83.svetacdn.in/PfJ50H0ZBPg3/movie/31199"},{"id":31165,"title":"Женщины мафии 2","kp_id":"1180793","imdb_id":"tt8858420","world_art_id":null,"type":"movie","add":"2019-09-25 09:20:58","orig_title":"Kobiety mafii 2","year":"2019-02-22","translations":["Любительский (многоголосый закадровый) (Синема УС)","Авторский (одноголосый закадровый) (Гаевский Евгений)"],"quality":"bd","translation":"Любительский (многоголосый закадровый) (Синема УС)","update":"2019-11-12 14:56:59","iframe_src":"//83.svetacdn.in/PfJ50H0ZBPg3/movie/31165"},{"id":19301,"title":"Руби и Повелитель воды","kp_id":"1115748","imdb_id":"tt8925102","world_art_id":null,"type":"movie","add":"2018-09-30 20:24:54","orig_title":"The Ladybug","year":"2018-02-02","translations":["Полное дублирование"],"quality":"webdl","translation":"Полное дублирование","update":"2019-11-12 14:47:06","iframe_src":"//83.svetacdn.in/PfJ50H0ZBPg3/movie/19301"},{"id":1369,"title":"Рокки","kp_id":"6462","imdb_id":"tt0075148","world_art_id":null,"type":"movie","add":"2016-04-21 08:46:14","orig_title":"Rocky","year":"1976-11-21","translations":["Профессиональный (многоголосый закадровый)","Original (English)","Авторский (одноголосый закадровый) (Гаврилов Андрей)","Профессиональный (многоголосый закадровый) (DDV)"],"quality":"bd","translation":"Профессиональный (многоголосый закадровый)","update":"2019-11-13 12:19:57","iframe_src":"//83.svetacdn.in/PfJ50H0ZBPg3/movie/1369"}],"current_page":942,"first_page_url":"https://videocdn.tv/api/short?limit=100&api_token=RgFQdUIR2dRmwv8iYa5SnFNgnw3vpjKj&cache3942=3942&page=1","from":94101,"last_page":604,"last_page_url":"https://videocdn.tv/api/short?limit=100&api_token=RgFQdUIR2dRmwv8iYa5SnFNgnw3vpjKj&cache3942=3942&page=604","next_page_url":null,"path":"https://videocdn.tv/api/short","per_page":100,"prev_page_url":"https://videocdn.tv/api/short?limit=100&api_token=RgFQdUIR2dRmwv8iYa5SnFNgnw3vpjKj&cache3942=3942&page=941","to":94120,"total":60312}