{"result":true,"data":[{"id":35479,"title":"Антисоциалка","kp_id":"747179","imdb_id":"tt2772092","world_art_id":null,"type":"movie","add":"2020-01-26 14:55:56","orig_title":"Antisocial","year":"2013-07-31","translations":["Любительский (двухголосый закадровый)"],"quality":"hdrip","translation":"Любительский (двухголосый закадровый)","update":"2020-01-27 07:02:59","iframe_src":"//7923.svetacdn.in/si4jsFRrtgrT/movie/35479"},{"id":35476,"title":"Резвая","kp_id":"299985","imdb_id":"tt0499558","world_art_id":null,"type":"movie","add":"2020-01-26 13:56:06","orig_title":"Ruffian","year":"2007-06-09","translations":["Профессиональный (многоголосый закадровый)"],"quality":"dvdrip","translation":"Профессиональный (многоголосый закадровый)","update":"2020-01-27 06:58:23","iframe_src":"//7923.svetacdn.in/si4jsFRrtgrT/movie/35476"},{"id":35475,"title":"Смерть проводника","kp_id":"302500","imdb_id":"tt0302815","world_art_id":null,"type":"movie","add":"2020-01-26 13:53:19","orig_title":"Mort d'un guide","year":"1975-01-04","translations":["Любительский (одноголосый закадровый)"],"quality":"tv","translation":"Любительский (одноголосый закадровый)","update":"2020-01-27 06:57:50","iframe_src":"//7923.svetacdn.in/si4jsFRrtgrT/movie/35475"},{"id":35474,"title":"Золотая пыль","kp_id":"640","imdb_id":"tt0218378","world_art_id":null,"type":"movie","add":"2020-01-26 13:47:29","orig_title":"The Claim","year":"2001-02-02","translations":["Профессиональный (многоголосый закадровый) (5-й канал СПб)"],"quality":"dvdrip","translation":"Профессиональный (многоголосый закадровый) (5-й канал СПб)","update":"2020-01-27 06:50:43","iframe_src":"//7923.svetacdn.in/si4jsFRrtgrT/movie/35474"},{"id":35472,"title":"Космические друзья","kp_id":"405755","imdb_id":"tt1164647","world_art_id":null,"type":"movie","add":"2020-01-26 12:27:56","orig_title":"Space Buddies","year":"2009-02-03","translations":["Профессиональный (двухголосый закадровый)"],"quality":"bd","translation":"Профессиональный (двухголосый закадровый)","update":"2020-01-27 06:47:33","iframe_src":"//7923.svetacdn.in/si4jsFRrtgrT/movie/35472"},{"id":35471,"title":"Чудовищная ночь","kp_id":"570370","imdb_id":"tt1763256","world_art_id":null,"type":"movie","add":"2020-01-26 12:25:00","orig_title":"Mischief Night","year":"2014-05-20","translations":["Любительский (одноголосый закадровый)"],"quality":"hdrip","translation":"Любительский (одноголосый закадровый)","update":"2020-01-27 06:46:51","iframe_src":"//7923.svetacdn.in/si4jsFRrtgrT/movie/35471"},{"id":35470,"title":"Возвращение в страну Оз","kp_id":"7137","imdb_id":"tt0089908","world_art_id":null,"type":"movie","add":"2020-01-26 12:23:04","orig_title":"Return to Oz","year":"1985-06-21","translations":["Авторский (одноголосый закадровый) (Живов Юрий)"],"quality":"bd","translation":"Авторский (одноголосый закадровый) (Живов Юрий)","update":"2020-01-27 06:44:33","iframe_src":"//7923.svetacdn.in/si4jsFRrtgrT/movie/35470"},{"id":35469,"title":"Бильярдист","kp_id":"459","imdb_id":"tt0054997","world_art_id":null,"type":"movie","add":"2020-01-26 12:18:55","orig_title":"The Hustler","year":"1961-09-25","translations":["Профессиональный (многоголосый закадровый)"],"quality":"bd","translation":"Профессиональный (многоголосый закадровый)","update":"2020-01-27 06:49:29","iframe_src":"//7923.svetacdn.in/si4jsFRrtgrT/movie/35469"},{"id":35468,"title":"Твое бикини в моем чемодане","kp_id":"721624","imdb_id":"tt2482082","world_art_id":null,"type":"movie","add":"2020-01-26 12:15:14","orig_title":"Solo para dos","year":"2013-09-19","translations":["Профессиональный (многоголосый закадровый)"],"quality":"dvdrip","translation":"Профессиональный (многоголосый закадровый)","update":"2020-01-27 06:43:10","iframe_src":"//7923.svetacdn.in/si4jsFRrtgrT/movie/35468"},{"id":35467,"title":"Кругосветное путешествие Твити","kp_id":"335329","imdb_id":"tt0248575","world_art_id":null,"type":"movie","add":"2020-01-26 12:12:48","orig_title":"Tweety's High-Flying Adventure","year":"2000-09-12","translations":["Авторский (одноголосый закадровый) (Дольский Андрей)"],"quality":"dvdrip","translation":"Авторский (одноголосый закадровый) (Дольский Андрей)","update":"2020-01-27 06:42:28","iframe_src":"//7923.svetacdn.in/si4jsFRrtgrT/movie/35467"},{"id":35466,"title":"Убей меня, пожалуйста","kp_id":"568586","imdb_id":"tt1728130","world_art_id":null,"type":"movie","add":"2020-01-26 12:08:56","orig_title":"Kill Me Please","year":"2010-11-03","translations":["Профессиональный (многоголосый закадровый)"],"quality":"dvdrip","translation":"Профессиональный (многоголосый закадровый)","update":"2020-01-27 06:22:18","iframe_src":"//7923.svetacdn.in/si4jsFRrtgrT/movie/35466"},{"id":35465,"title":"Воин","kp_id":"506198","imdb_id":"tt1623772","world_art_id":null,"type":"movie","add":"2020-01-26 12:06:37","orig_title":"The One Warrior","year":"2011-11-01","translations":["Профессиональный (многоголосый закадровый)"],"quality":"hdrip","translation":"Профессиональный (многоголосый закадровый)","update":"2020-01-27 06:21:30","iframe_src":"//7923.svetacdn.in/si4jsFRrtgrT/movie/35465"},{"id":35464,"title":"Последние львы","kp_id":"570046","imdb_id":"tt1692928","world_art_id":null,"type":"movie","add":"2020-01-26 12:01:58","orig_title":"The Last Lions","year":"2011-01-13","translations":["Авторский (одноголосый закадровый) (Дасевич Александр)"],"quality":"bd","translation":"Авторский (одноголосый закадровый) (Дасевич Александр)","update":"2020-01-27 06:20:49","iframe_src":"//7923.svetacdn.in/si4jsFRrtgrT/movie/35464"},{"id":35463,"title":"Резня","kp_id":null,"imdb_id":"tt6547822","world_art_id":null,"type":"movie","add":"2020-01-26 05:48:21","orig_title":"Bloody Murder","year":"2017-02-15","translations":["Любительский (многоголосый закадровый) (Синема УС)"],"quality":"webdl","translation":"Любительский (многоголосый закадровый) (Синема УС)","update":"2020-01-26 16:02:38","iframe_src":"//7923.svetacdn.in/si4jsFRrtgrT/movie/35463"},{"id":35461,"title":"Эмили","kp_id":"889036","imdb_id":"tt4393036","world_art_id":null,"type":"movie","add":"2020-01-26 05:41:12","orig_title":"Emily","year":"2017-01-27","translations":["Любительский (многоголосый закадровый) (Синема УС)"],"quality":"webdl","translation":"Любительский (многоголосый закадровый) (Синема УС)","update":"2020-01-26 13:29:00","iframe_src":"//7923.svetacdn.in/si4jsFRrtgrT/movie/35461"},{"id":35456,"title":"Ронни Чиенг: Азиатский комик разрушает Америку","kp_id":"1323493","imdb_id":"tt11248800","world_art_id":null,"type":"movie","add":"2020-01-26 05:33:35","orig_title":"Ronny Chieng: Asian Comedian Destroys America","year":"2019-12-17","translations":["Любительский (многоголосый закадровый) (Синема УС)"],"quality":"webdl","translation":"Любительский (многоголосый закадровый) (Синема УС)","update":"2020-01-26 13:46:36","iframe_src":"//7923.svetacdn.in/si4jsFRrtgrT/movie/35456"},{"id":35454,"title":"Саки","kp_id":"1038675","imdb_id":"tt6027102","world_art_id":null,"type":"movie","add":"2020-01-26 05:30:31","orig_title":"Saki","year":"2017-02-03","translations":["Любительский (многоголосый закадровый) (Синема УС)"],"quality":"bd","translation":"Любительский (многоголосый закадровый) (Синема УС)","update":"2020-01-26 16:02:07","iframe_src":"//7923.svetacdn.in/si4jsFRrtgrT/movie/35454"},{"id":34257,"title":"Дельфин Берни 2","kp_id":"1202494","imdb_id":"tt9149946","world_art_id":null,"type":"movie","add":"2019-12-19 09:32:13","orig_title":"Bernie the Dolphin 2","year":"2019-12-17","translations":["Полное дублирование (iTunes)","Original (English)"],"quality":"webdl","translation":"Полное дублирование (iTunes)","update":"2020-01-27 06:59:39","iframe_src":"//7923.svetacdn.in/si4jsFRrtgrT/movie/34257"},{"id":13717,"title":"Буквально перед Аароном","kp_id":"981978","imdb_id":"tt5758802","world_art_id":null,"type":"movie","add":"2017-10-04 21:12:39","orig_title":"Literally, Right Before Aaron","year":"2017-04-22","translations":["Полное дублирование (iTunes)"],"quality":"bd","translation":"Полное дублирование (iTunes)","update":"2020-01-27 06:52:53","iframe_src":"//7923.svetacdn.in/si4jsFRrtgrT/movie/13717"},{"id":2018,"title":"Чарли и шoколадная фабрика","kp_id":"38905","imdb_id":"tt0367594","world_art_id":null,"type":"movie","add":"2016-05-10 15:30:18","orig_title":"Charlie and the Chocolate Factory","year":"2005-07-10","translations":["Полное дублирование"],"quality":"bd","translation":"Полное дублирование","update":"2020-01-27 06:48:55","iframe_src":"//7923.svetacdn.in/si4jsFRrtgrT/movie/2018"}],"current_page":1022,"first_page_url":"https://videocdn.tv/api/short?limit=100&api_token=X6EwAUfE5M9xbo7y0Bp0aPf3uXxG2KLL&cache31022=31022&page=1","from":102101,"last_page":645,"last_page_url":"https://videocdn.tv/api/short?limit=100&api_token=X6EwAUfE5M9xbo7y0Bp0aPf3uXxG2KLL&cache31022=31022&page=645","next_page_url":null,"path":"https://videocdn.tv/api/short","per_page":100,"prev_page_url":"https://videocdn.tv/api/short?limit=100&api_token=X6EwAUfE5M9xbo7y0Bp0aPf3uXxG2KLL&cache31022=31022&page=1021","to":102120,"total":64442}