{"result":true,"data":[{"id":44422,"title":"Жуткая невеста","kp_id":"1275100","imdb_id":"tt10498022","world_art_id":null,"type":"movie","add":"2020-10-13 20:36:41","orig_title":"Scary Bride","year":"2020-10-13","translations":["Любительский (многоголосый закадровый) (@MUZOBOZ@)"],"quality":"webdl","translation":"Любительский (многоголосый закадровый) (@MUZOBOZ@)","update":"2020-10-14 05:53:17","iframe_src":"//7043.svetacdn.in/71tsRs29n5tZ/movie/44422"},{"id":44419,"title":"Художник","kp_id":"1114480","imdb_id":"tt7772872","world_art_id":null,"type":"movie","add":"2020-10-13 19:58:41","orig_title":"Painter","year":"2020-10-13","translations":["Любительский (многоголосый закадровый) (@MUZOBOZ@)"],"quality":"webdl","translation":"Любительский (многоголосый закадровый) (@MUZOBOZ@)","update":"2020-10-14 05:54:22","iframe_src":"//7043.svetacdn.in/71tsRs29n5tZ/movie/44419"},{"id":44400,"title":"Призраки на перекрестке Долины Смерти","kp_id":"1141932","imdb_id":"tt8359620","world_art_id":null,"type":"movie","add":"2020-10-13 17:27:41","orig_title":"Haunting at Death Valley Junction","year":"2020-10-06","translations":["Любительский (многоголосый закадровый) (Синема УС)"],"quality":"webdl","translation":"Любительский (многоголосый закадровый) (Синема УС)","update":"2020-10-13 20:21:43","iframe_src":"//7043.svetacdn.in/71tsRs29n5tZ/movie/44400"},{"id":44399,"title":"Отчаянные меры","kp_id":"1419811","imdb_id":"tt13090630","world_art_id":null,"type":"movie","add":"2020-10-13 17:08:49","orig_title":"Times & Measures","year":"2020-09-01","translations":["Любительский (многоголосый закадровый) (Синема УС)"],"quality":"webdl","translation":"Любительский (многоголосый закадровый) (Синема УС)","update":"2020-10-13 19:44:11","iframe_src":"//7043.svetacdn.in/71tsRs29n5tZ/movie/44399"},{"id":44398,"title":"Кармилла","kp_id":"1051550","imdb_id":"tt7280218","world_art_id":null,"type":"movie","add":"2020-10-13 17:02:29","orig_title":"Carmilla","year":"2019-06-28","translations":["Любительский (многоголосый закадровый) (@MUZOBOZ@)"],"quality":"webdl","translation":"Любительский (многоголосый закадровый) (@MUZOBOZ@)","update":"2020-10-13 21:26:13","iframe_src":"//7043.svetacdn.in/71tsRs29n5tZ/movie/44398"},{"id":44324,"title":"Никто не умрет","kp_id":"1286757","imdb_id":"tt10682318","world_art_id":null,"type":"movie","add":"2020-10-11 22:06:19","orig_title":"Ander Mens","year":"2019-12-23","translations":["Любительский (многоголосый закадровый) (@MUZOBOZ@)"],"quality":"webdl","translation":"Любительский (многоголосый закадровый) (@MUZOBOZ@)","update":"2020-10-14 05:57:23","iframe_src":"//7043.svetacdn.in/71tsRs29n5tZ/movie/44324"},{"id":44319,"title":"Кричащая тишина","kp_id":"1248887","imdb_id":"tt8302022","world_art_id":null,"type":"movie","add":"2020-10-11 21:55:31","orig_title":"El silencio a gritos","year":"2018-04-15","translations":["Любительский (многоголосый закадровый) (Синема УС)"],"quality":"webdl","translation":"Любительский (многоголосый закадровый) (Синема УС)","update":"2020-10-14 05:55:53","iframe_src":"//7043.svetacdn.in/71tsRs29n5tZ/movie/44319"},{"id":44301,"title":"Волки","kp_id":"1033137","imdb_id":"tt6130920","world_art_id":null,"type":"movie","add":"2020-10-11 10:33:17","orig_title":"Wolfe","year":"2018-10-26","translations":["Любительский (многоголосый закадровый) (Синема УС)"],"quality":"webdl","translation":"Любительский (многоголосый закадровый) (Синема УС)","update":"2020-10-13 21:36:45","iframe_src":"//7043.svetacdn.in/71tsRs29n5tZ/movie/44301"},{"id":44300,"title":"Каприз","kp_id":"936326","imdb_id":"tt5068902","world_art_id":null,"type":"movie","add":"2020-10-11 10:30:17","orig_title":"Caprice","year":"2018-03-30","translations":["Любительский (многоголосый закадровый) (Синема УС)"],"quality":"webdl","translation":"Любительский (многоголосый закадровый) (Синема УС)","update":"2020-10-13 21:39:14","iframe_src":"//7043.svetacdn.in/71tsRs29n5tZ/movie/44300"},{"id":44299,"title":"Чудовище","kp_id":"1092419","imdb_id":"tt6840904","world_art_id":null,"type":"movie","add":"2020-10-11 10:28:23","orig_title":"Monster","year":"2018-06-29","translations":["Любительский (многоголосый закадровый) (Синема УС)"],"quality":"webdl","translation":"Любительский (многоголосый закадровый) (Синема УС)","update":"2020-10-13 21:33:51","iframe_src":"//7043.svetacdn.in/71tsRs29n5tZ/movie/44299"},{"id":44297,"title":"Девочка из прошлого","kp_id":"1326161","imdb_id":"tt7194618","world_art_id":null,"type":"movie","add":"2020-10-11 09:33:00","orig_title":"Co gai den tu hom qua","year":"2017-07-21","translations":["Любительский (многоголосый закадровый) (Синема УС)"],"quality":"webdl","translation":"Любительский (многоголосый закадровый) (Синема УС)","update":"2020-10-13 21:35:14","iframe_src":"//7043.svetacdn.in/71tsRs29n5tZ/movie/44297"},{"id":44295,"title":"Улица Малберри","kp_id":"195326","imdb_id":"tt0473514","world_art_id":null,"type":"movie","add":"2020-10-11 09:12:25","orig_title":"Mulberry St","year":"2006-11-16","translations":["Любительский (одноголосый закадровый)"],"quality":"dvdrip","translation":"Любительский (одноголосый закадровый)","update":"2020-10-13 21:29:22","iframe_src":"//7043.svetacdn.in/71tsRs29n5tZ/movie/44295"},{"id":44292,"title":"Сестры Мунэката","kp_id":"156245","imdb_id":"tt0042762","world_art_id":null,"type":"movie","add":"2020-10-10 12:45:54","orig_title":"Munekata kyôdai","year":"1950-08-25","translations":["Любительский (многоголосый закадровый)"],"quality":"webdl","translation":"Любительский (многоголосый закадровый)","update":"2020-10-13 17:54:30","iframe_src":"//7043.svetacdn.in/71tsRs29n5tZ/movie/44292"},{"id":44291,"title":"Уютные норки","kp_id":"50640","imdb_id":"tt0167331","world_art_id":null,"type":"movie","add":"2020-10-10 07:16:28","orig_title":"Pelísky","year":"1999-04-08","translations":["Профессиональный (многоголосый закадровый)"],"quality":"bd","translation":"Профессиональный (многоголосый закадровый)","update":"2020-10-13 15:41:38","iframe_src":"//7043.svetacdn.in/71tsRs29n5tZ/movie/44291"},{"id":44280,"title":"Замечательная эпоха","kp_id":"77223","imdb_id":"tt0103168","world_art_id":null,"type":"movie","add":"2020-10-09 19:50:09","orig_title":"Une époque formidable...","year":"1991-06-19","translations":["Профессиональный (многоголосый закадровый) (Твин)"],"quality":"bd","translation":"Профессиональный (многоголосый закадровый) (Твин)","update":"2020-10-13 07:31:20","iframe_src":"//7043.svetacdn.in/71tsRs29n5tZ/movie/44280"},{"id":44200,"title":"Поцелуями сотри кровь с моих рук","kp_id":"15244","imdb_id":"tt0040512","world_art_id":null,"type":"movie","add":"2020-10-07 11:16:07","orig_title":"Kiss the Blood Off My Hands","year":"1948-10-30","translations":["Original (English)","Профессиональный (многоголосый закадровый) (СТС)"],"quality":"dvdrip","translation":"Original (English)","update":"2020-10-13 19:41:57","iframe_src":"//7043.svetacdn.in/71tsRs29n5tZ/movie/44200"},{"id":43590,"title":"Дьявол всегда здесь","kp_id":"1072788","imdb_id":"tt7395114","world_art_id":null,"type":"movie","add":"2020-09-16 12:41:55","orig_title":"The Devil All the Time","year":"2020-09-16","translations":["Original (English)","Любительский (двухголосый закадровый) (OnisFilms)","Любительский (многоголосый закадровый) (@MUZOBOZ@)","Профессиональный (многоголосый закадровый) (HDrezka Studio)","Профессиональный (многоголосый закадровый) (HDrezka Studio 18+)","Original (English)","Любительский (многоголосый закадровый) (Flarrow Films)"],"quality":"webdl","translation":"Original (English)","update":"2020-10-13 07:24:37","iframe_src":"//7043.svetacdn.in/71tsRs29n5tZ/movie/43590"},{"id":28135,"title":"Венок сонетов","kp_id":"45716","imdb_id":"tt0153512","world_art_id":null,"type":"movie","add":"2019-06-22 11:39:51","orig_title":"Venok sonetov","year":"1977-09-20","translations":["Оригинальная дорожка","Оригинальная дорожка"],"quality":"sat","translation":"Оригинальная дорожка","update":"2020-10-13 07:26:56","iframe_src":"//7043.svetacdn.in/71tsRs29n5tZ/movie/28135"},{"id":26239,"title":"Сыновья уходят в бой","kp_id":"277378","imdb_id":"tt5088274","world_art_id":null,"type":"movie","add":"2019-05-09 21:18:32","orig_title":"Synovya ukhodyat v boy","year":"1971-09-29","translations":["Оригинальная дорожка","Оригинальная дорожка"],"quality":"tv","translation":"Оригинальная дорожка","update":"2020-10-13 07:26:01","iframe_src":"//7043.svetacdn.in/71tsRs29n5tZ/movie/26239"},{"id":3465,"title":"Лишь ты","kp_id":"793569","imdb_id":"tt3076512","world_art_id":null,"type":"serial","add":"2018-11-07 23:29:41","orig_title":"Chiu shih yao ni ai shang wo","year":"2013-06-21","translations":["Любительский (многоголосый закадровый)"],"seasons_count":1,"episodes_count":21,"episodes":21,"update":"2018-11-08 07:28:01","iframe_src":"//7043.svetacdn.in/71tsRs29n5tZ/tv-series/3465"},{"id":3464,"title":"Набросок","kp_id":"1100381","imdb_id":"tt8269322","world_art_id":null,"type":"serial","add":"2018-11-07 09:17:26","orig_title":"Seukechi","year":"2018-05-25","translations":["Любительский (одноголосый закадровый)"],"seasons_count":1,"episodes_count":16,"episodes":16,"update":"2018-11-08 08:01:43","iframe_src":"//7043.svetacdn.in/71tsRs29n5tZ/tv-series/3464"},{"id":3463,"title":"Маруся","kp_id":"1204207","imdb_id":null,"world_art_id":null,"type":"serial","add":"2018-11-07 09:13:56","orig_title":"Маруся","year":"2018-11-03","translations":["Оригинальная дорожка"],"seasons_count":1,"episodes_count":2,"episodes":2,"update":"2018-11-08 08:16:02","iframe_src":"//7043.svetacdn.in/71tsRs29n5tZ/tv-series/3463"},{"id":3462,"title":"Самый сильный курьер","kp_id":"1045132","imdb_id":"tt7022748","world_art_id":null,"type":"serial","add":"2018-11-07 08:52:35","orig_title":"Choi-kang Bae-dal-ggun","year":"2017-08-04","translations":["Любительский (двухголосый закадровый) (SoftBox)"],"seasons_count":1,"episodes_count":16,"episodes":16,"update":"2018-11-08 08:39:17","iframe_src":"//7043.svetacdn.in/71tsRs29n5tZ/tv-series/3462"},{"id":3461,"title":"Воссоединившиеся миры","kp_id":"1045562","imdb_id":"tt7056766","world_art_id":null,"type":"serial","add":"2018-11-07 08:16:12","orig_title":"Dashi Mannan Segye","year":"2017-07-19","translations":["Любительский (двухголосый закадровый) (SoftBox)"],"seasons_count":1,"episodes_count":20,"episodes":20,"update":"2018-11-08 09:08:39","iframe_src":"//7043.svetacdn.in/71tsRs29n5tZ/tv-series/3461"},{"id":3460,"title":"Непредвиденные обстоятельства","kp_id":"1204209","imdb_id":null,"world_art_id":null,"type":"serial","add":"2018-11-07 07:24:41","orig_title":"Непредвиденные обстоятельства","year":"2018-11-04","translations":["Оригинальная дорожка"],"seasons_count":1,"episodes_count":2,"episodes":2,"update":"2018-11-08 10:29:07","iframe_src":"//7043.svetacdn.in/71tsRs29n5tZ/tv-series/3460"},{"id":3459,"title":"Зинка-москвичка","kp_id":"1162902","imdb_id":null,"world_art_id":null,"type":"serial","add":"2018-11-07 07:18:16","orig_title":"Зинка-москвичка","year":"2018-11-05","translations":["Оригинальная дорожка"],"seasons_count":1,"episodes_count":2,"episodes":2,"update":"2018-11-08 10:27:09","iframe_src":"//7043.svetacdn.in/71tsRs29n5tZ/tv-series/3459"},{"id":3458,"title":"Шабабники","kp_id":"1159835","imdb_id":"tt7865452","world_art_id":null,"type":"serial","add":"2018-11-07 07:14:22","orig_title":"Shababnikim","year":"2017-12-24","translations":["Любительский (многоголосый закадровый) (GreenРай Studio)"],"seasons_count":1,"episodes_count":12,"episodes":12,"update":"2018-11-08 10:34:35","iframe_src":"//7043.svetacdn.in/71tsRs29n5tZ/tv-series/3458"},{"id":3456,"title":"Информатор","kp_id":null,"imdb_id":"tt7161312","world_art_id":null,"type":"serial","add":"2018-11-07 06:09:57","orig_title":"Informer","year":"2018-10-16","translations":["Профессиональный (многоголосый закадровый) (NewStudio)"],"seasons_count":1,"episodes_count":6,"episodes":6,"update":"2018-11-07 10:51:59","iframe_src":"//7043.svetacdn.in/71tsRs29n5tZ/tv-series/3456"},{"id":3453,"title":"Сильвестр и Твити: Загадочные истории","kp_id":"433795","imdb_id":"tt0112186","world_art_id":null,"type":"serial","add":"2018-11-06 11:35:45","orig_title":"The Sylvester & Tweety Mysteries","year":"1995-09-09","translations":["Профессиональный (двухголосый закадровый) (НТВ)","Полное дублирование"],"seasons_count":5,"episodes_count":52,"episodes":5,"update":"2018-11-08 09:25:35","iframe_src":"//7043.svetacdn.in/71tsRs29n5tZ/tv-series/3453"},{"id":3448,"title":"Мыслить как преступник","kp_id":"1033099","imdb_id":"tt6568694","world_art_id":null,"type":"serial","add":"2018-11-05 16:21:16","orig_title":"keu-li-mi-neol Ma-in-deu","year":"2017-07-26","translations":["Любительский (двухголосый закадровый) (SoftBox)"],"seasons_count":1,"episodes_count":20,"episodes":20,"update":"2018-11-07 15:17:36","iframe_src":"//7043.svetacdn.in/71tsRs29n5tZ/tv-series/3448"},{"id":3436,"title":"Гарфилд и его друзья","kp_id":"85173","imdb_id":"tt0094469","world_art_id":null,"type":"serial","add":"2018-11-02 08:53:23","orig_title":"Garfield and Friends","year":"1988-09-17","translations":["Профессиональный (многоголосый закадровый)","Профессиональный (одноголосый закадровый)"],"seasons_count":7,"episodes_count":96,"episodes":9,"update":"2018-11-08 10:36:06","iframe_src":"//7043.svetacdn.in/71tsRs29n5tZ/tv-series/3436"},{"id":3420,"title":"Викинг Вик","kp_id":"843771","imdb_id":"tt3072988","world_art_id":null,"type":"serial","add":"2018-10-31 11:13:52","orig_title":"Vic the Viking","year":"2013-07-04","translations":["Полное дублирование"],"seasons_count":1,"episodes_count":78,"episodes":78,"update":"2018-11-09 08:22:19","iframe_src":"//7043.svetacdn.in/71tsRs29n5tZ/tv-series/3420"},{"id":3362,"title":"46 исчезнувших","kp_id":"975293","imdb_id":"tt5606154","world_art_id":null,"type":"serial","add":"2018-10-23 09:04:08","orig_title":"46 Yok Olan","year":"2016-03-27","translations":["Профессиональный (двухголосый закадровый) (ViruseProject)"],"seasons_count":1,"episodes_count":8,"episodes":8,"update":"2018-11-07 23:19:16","iframe_src":"//7043.svetacdn.in/71tsRs29n5tZ/tv-series/3362"},{"id":3279,"title":"Гаджет и Гаджетины","kp_id":"229816","imdb_id":"tt0387741","world_art_id":null,"type":"serial","add":"2018-10-10 18:58:28","orig_title":"Gadget and the Gadgetinis","year":"2003-08-18","translations":["Полное дублирование"],"seasons_count":2,"episodes_count":52,"episodes":26,"update":"2018-11-07 16:08:43","iframe_src":"//7043.svetacdn.in/71tsRs29n5tZ/tv-series/3279"},{"id":3207,"title":"Опять овсянка","kp_id":"1108370","imdb_id":"tt7448858","world_art_id":null,"type":"serial","add":"2018-09-24 09:14:57","orig_title":"Porridge","year":"2016-08-26","translations":["Любительский (двухголосый закадровый) (SNK-TV)"],"seasons_count":1,"episodes_count":6,"episodes":6,"update":"2018-11-08 09:29:55","iframe_src":"//7043.svetacdn.in/71tsRs29n5tZ/tv-series/3207"},{"id":2973,"title":"Время","kp_id":"1118099","imdb_id":"tt8487682","world_art_id":null,"type":"serial","add":"2018-07-28 10:00:54","orig_title":"Shigan","year":"2018-07-25","translations":["Любительский (двухголосый закадровый) (SoftBox)","Любительский (двухголосый закадровый)"],"seasons_count":1,"episodes_count":16,"episodes":16,"update":"2018-11-08 08:21:11","iframe_src":"//7043.svetacdn.in/71tsRs29n5tZ/tv-series/2973"},{"id":2902,"title":"Мистер Солнечный Свет","kp_id":"1045501","imdb_id":"tt7094780","world_art_id":null,"type":"serial","add":"2018-07-09 15:57:09","orig_title":"Miseuteo Shunshain","year":"2018-07-07","translations":["Любительский (двухголосый закадровый) (SoftBox)","Любительский (двухголосый закадровый) (Sunshine Studio)"],"seasons_count":1,"episodes_count":24,"episodes":24,"update":"2018-11-08 08:22:39","iframe_src":"//7043.svetacdn.in/71tsRs29n5tZ/tv-series/2902"},{"id":2834,"title":"Жизнь на Марсе","kp_id":"1112104","imdb_id":"tt8236544","world_art_id":null,"type":"serial","add":"2018-06-18 08:37:39","orig_title":"La-i-peu on Ma-seu","year":"2018-06-09","translations":["Любительский (двухголосый закадровый) (SoftBox)","Любительский (многоголосый закадровый) (XDUB Dorama + Колобок)"],"seasons_count":1,"episodes_count":16,"episodes":16,"update":"2018-11-07 12:25:58","iframe_src":"//7043.svetacdn.in/71tsRs29n5tZ/tv-series/2834"},{"id":13715,"title":"Операция 'Мутанты'","kp_id":"17016","imdb_id":"tt0106215","world_art_id":null,"type":"movie","add":"2017-10-04 07:45:57","orig_title":"Acción mutante","year":"1993-01-18","translations":["Профессиональный (двухголосый закадровый)","Профессиональный (двухголосый закадровый)"],"quality":"dvdrip","translation":"Профессиональный (двухголосый закадровый)","update":"2020-10-13 17:56:40","iframe_src":"//7043.svetacdn.in/71tsRs29n5tZ/movie/13715"},{"id":1108,"title":"Теща-командир","kp_id":"1008904","imdb_id":null,"world_art_id":null,"type":"serial","add":"2017-03-15 06:15:28","orig_title":"Теща-командир","year":"2017-01-01","translations":["Оригинальная дорожка"],"seasons_count":1,"episodes_count":2,"episodes":2,"update":"2018-11-09 13:44:53","iframe_src":"//7043.svetacdn.in/71tsRs29n5tZ/tv-series/1108"}],"current_page":393,"first_page_url":"https://videocdn.tv/api/short?limit=100&api_token=EnbO9h8pv1VyjbCJhg0WM9nG259n7mtz&cache3393=3393&page=1","from":39201,"last_page":617,"last_page_url":"https://videocdn.tv/api/short?limit=100&api_token=EnbO9h8pv1VyjbCJhg0WM9nG259n7mtz&cache3393=3393&page=617","next_page_url":"https://videocdn.tv/api/short?limit=100&api_token=EnbO9h8pv1VyjbCJhg0WM9nG259n7mtz&cache3393=3393&page=394","path":"https://videocdn.tv/api/short","per_page":100,"prev_page_url":"https://videocdn.tv/api/short?limit=100&api_token=EnbO9h8pv1VyjbCJhg0WM9nG259n7mtz&cache3393=3393&page=392","to":39240,"total":61671}