{"result":true,"data":[{"id":9780,"title":"Тайное влечение","kp_id":"647453","imdb_id":"tt2103267","world_art_id":null,"type":"movie","add":"2017-02-17 05:43:16","orig_title":"Adore","year":"2013-01-18","translations":["Полное дублирование"],"quality":"bd","translation":"Полное дублирование","update":"2017-02-17 09:13:08","iframe_src":"//83.svetacdn.in/PfJ50H0ZBPg3/movie/9780"},{"id":9779,"title":"Сафари","kp_id":"996304","imdb_id":"tt5901212","world_art_id":null,"type":"movie","add":"2017-02-16 14:11:59","orig_title":"Safari","year":"2016-09-03","translations":["Профессиональный (многоголосый закадровый)"],"quality":"camrip","translation":"Профессиональный (многоголосый закадровый)","update":"2017-02-17 09:13:09","iframe_src":"//83.svetacdn.in/PfJ50H0ZBPg3/movie/9779"},{"id":9777,"title":"Шальные пули","kp_id":"897272","imdb_id":"tt4038806","world_art_id":null,"type":"movie","add":"2017-02-16 14:08:58","orig_title":"Stray Bullets","year":"2016-09-16","translations":["Любительский (многоголосый закадровый) (Синема УС)"],"quality":"webdl","translation":"Любительский (многоголосый закадровый) (Синема УС)","update":"2017-02-17 09:13:08","iframe_src":"//83.svetacdn.in/PfJ50H0ZBPg3/movie/9777"},{"id":9745,"title":"Дорогая Клаудиа","kp_id":"35875","imdb_id":"tt0179145","world_art_id":null,"type":"movie","add":"2017-02-16 07:48:40","orig_title":"Dear Claudia","year":"1999-02-25","translations":["Профессиональный (двухголосый закадровый)"],"quality":"dvdrip","translation":"Профессиональный (двухголосый закадровый)","update":"2017-02-16 12:29:22","iframe_src":"//83.svetacdn.in/PfJ50H0ZBPg3/movie/9745"},{"id":9744,"title":"Чук и Гек","kp_id":"45533","imdb_id":"tt0045627","world_art_id":null,"type":"movie","add":"2017-02-16 07:37:09","orig_title":"Chuk i Gek","year":"1953-10-29","translations":["Оригинальная дорожка"],"quality":"dvdrip","translation":"Оригинальная дорожка","update":"2017-02-16 12:28:54","iframe_src":"//83.svetacdn.in/PfJ50H0ZBPg3/movie/9744"},{"id":9743,"title":"Найти и обезвредить","kp_id":"46306","imdb_id":"tt0251890","world_art_id":null,"type":"movie","add":"2017-02-16 07:28:01","orig_title":"Nayti i obezvredit","year":"1984-08-02","translations":["Оригинальная дорожка"],"quality":"dvdrip","translation":"Оригинальная дорожка","update":"2017-02-16 12:25:51","iframe_src":"//83.svetacdn.in/PfJ50H0ZBPg3/movie/9743"},{"id":9742,"title":"Потерять себя","kp_id":"94807","imdb_id":"tt0117099","world_art_id":null,"type":"movie","add":"2017-02-16 07:23:08","orig_title":"Mr. Bechara","year":"1996-08-30","translations":["Профессиональный (двухголосый закадровый)"],"quality":"dvdrip","translation":"Профессиональный (двухголосый закадровый)","update":"2017-02-16 12:30:03","iframe_src":"//83.svetacdn.in/PfJ50H0ZBPg3/movie/9742"},{"id":9741,"title":"Западня","kp_id":"14588","imdb_id":"tt0114397","world_art_id":null,"type":"movie","add":"2017-02-16 07:20:20","orig_title":"The Set Up","year":"1995-07-23","translations":["Профессиональный (двухголосый закадровый) (НТВ)"],"quality":"dvdrip","translation":"Профессиональный (двухголосый закадровый) (НТВ)","update":"2017-02-16 11:56:18","iframe_src":"//83.svetacdn.in/PfJ50H0ZBPg3/movie/9741"},{"id":9739,"title":"Ниндзя из будущего","kp_id":"65484","imdb_id":"tt0095643","world_art_id":null,"type":"movie","add":"2017-02-16 07:10:20","orig_title":"Mirai Ninja","year":"1988-05-01","translations":["Авторский (одноголосый закадровый) (Дохалов Вартан)"],"quality":"dvdrip","translation":"Авторский (одноголосый закадровый) (Дохалов Вартан)","update":"2017-02-16 11:54:43","iframe_src":"//83.svetacdn.in/PfJ50H0ZBPg3/movie/9739"},{"id":9737,"title":"Большая семья","kp_id":"46175","imdb_id":"tt0046797","world_art_id":null,"type":"movie","add":"2017-02-16 07:05:33","orig_title":"Bolshaya semya","year":"1955-05-19","translations":["Оригинальная дорожка"],"quality":"dvdrip","translation":"Оригинальная дорожка","update":"2017-02-16 11:52:45","iframe_src":"//83.svetacdn.in/PfJ50H0ZBPg3/movie/9737"},{"id":9735,"title":"Полное затмение","kp_id":"77373","imdb_id":"tt0106980","world_art_id":null,"type":"movie","add":"2017-02-16 06:57:11","orig_title":"Full Eclipse","year":"1993-11-27","translations":["Профессиональный (многоголосый закадровый)"],"quality":"dvdrip","translation":"Профессиональный (многоголосый закадровый)","update":"2017-02-16 11:50:18","iframe_src":"//83.svetacdn.in/PfJ50H0ZBPg3/movie/9735"},{"id":9734,"title":"Педагогическая поэма","kp_id":"42911","imdb_id":"tt0048478","world_art_id":null,"type":"movie","add":"2017-02-16 06:53:13","orig_title":"Pedagogicheskaya poema","year":"1956-06-09","translations":["Оригинальная дорожка"],"quality":"dvdrip","translation":"Оригинальная дорожка","update":"2017-02-16 11:49:40","iframe_src":"//83.svetacdn.in/PfJ50H0ZBPg3/movie/9734"},{"id":9733,"title":"Страшный суд","kp_id":"51465","imdb_id":"tt0353357","world_art_id":null,"type":"movie","add":"2017-02-16 06:50:57","orig_title":"Day of Wrath","year":"2006-03-29","translations":["Профессиональный (многоголосый закадровый)"],"quality":"dvdrip","translation":"Профессиональный (многоголосый закадровый)","update":"2017-02-16 11:48:09","iframe_src":"//83.svetacdn.in/PfJ50H0ZBPg3/movie/9733"},{"id":9732,"title":"Ближний бой","kp_id":"252261","imdb_id":"tt0780484","world_art_id":null,"type":"movie","add":"2017-02-16 06:47:35","orig_title":"Blizhniy Boy: The Ultimate Fighter","year":"2007-01-01","translations":["Полное дублирование"],"quality":"dvdrip","translation":"Полное дублирование","update":"2017-02-16 11:49:09","iframe_src":"//83.svetacdn.in/PfJ50H0ZBPg3/movie/9732"},{"id":9731,"title":"Металлический зверь","kp_id":"18118","imdb_id":"tt0114193","world_art_id":null,"type":"movie","add":"2017-02-16 06:45:09","orig_title":"Project: Metalbeast","year":"1995-01-01","translations":["Авторский (одноголосый закадровый) (Алексеев Антон)"],"quality":"dvdrip","translation":"Авторский (одноголосый закадровый) (Алексеев Антон)","update":"2017-02-16 11:51:55","iframe_src":"//83.svetacdn.in/PfJ50H0ZBPg3/movie/9731"},{"id":9730,"title":"О, божественный пес!","kp_id":"10290","imdb_id":"tt0081269","world_art_id":null,"type":"movie","add":"2017-02-16 06:44:25","orig_title":"Oh Heavenly Dog","year":"1980-07-11","translations":["Авторский (одноголосый закадровый) (Гаврилов Андрей)"],"quality":"dvdrip","translation":"Авторский (одноголосый закадровый) (Гаврилов Андрей)","update":"2017-02-16 11:47:34","iframe_src":"//83.svetacdn.in/PfJ50H0ZBPg3/movie/9730"},{"id":9729,"title":"Зомби из открытого космоса","kp_id":"570245","imdb_id":"tt1642669","world_art_id":null,"type":"movie","add":"2017-02-16 06:32:27","orig_title":"Zombies from Outer Space","year":"2012-05-18","translations":["Любительский (одноголосый закадровый) (Хихикающий доктор)"],"quality":"dvdrip","translation":"Любительский (одноголосый закадровый) (Хихикающий доктор)","update":"2017-02-16 17:25:06","iframe_src":"//83.svetacdn.in/PfJ50H0ZBPg3/movie/9729"},{"id":9728,"title":"Жасмин","kp_id":"252717","imdb_id":"tt0778749","world_art_id":null,"type":"movie","add":"2017-02-16 06:30:59","orig_title":"Jasminum","year":"2006-05-05","translations":["Любительский (одноголосый закадровый)"],"quality":"dvdrip","translation":"Любительский (одноголосый закадровый)","update":"2017-02-16 11:46:51","iframe_src":"//83.svetacdn.in/PfJ50H0ZBPg3/movie/9728"},{"id":9727,"title":"Четверо против кардинала","kp_id":"146354","imdb_id":"tt0454427","world_art_id":null,"type":"movie","add":"2017-02-16 06:30:16","orig_title":"Les Charlots en folie: À nous quatre Cardinal!","year":"1974-08-30","translations":["Полное дублирование"],"quality":"vhs","translation":"Полное дублирование","update":"2017-02-16 11:51:17","iframe_src":"//83.svetacdn.in/PfJ50H0ZBPg3/movie/9727"},{"id":9726,"title":"Гром в раю","kp_id":"237256","imdb_id":"tt0395284","world_art_id":null,"type":"movie","add":"2017-02-16 06:29:05","orig_title":"Thunder in Paradise","year":"1993-09-22","translations":["Авторский (одноголосый закадровый) (Горчаков Василий)"],"quality":"dvdrip","translation":"Авторский (одноголосый закадровый) (Горчаков Василий)","update":"2017-02-16 12:27:07","iframe_src":"//83.svetacdn.in/PfJ50H0ZBPg3/movie/9726"}],"current_page":2265,"first_page_url":"https://videocdn.tv/api/short?limit=100&api_token=RgFQdUIR2dRmwv8iYa5SnFNgnw3vpjKj&cache32265=32265&page=1","from":226401,"last_page":650,"last_page_url":"https://videocdn.tv/api/short?limit=100&api_token=RgFQdUIR2dRmwv8iYa5SnFNgnw3vpjKj&cache32265=32265&page=650","next_page_url":null,"path":"https://videocdn.tv/api/short","per_page":100,"prev_page_url":"https://videocdn.tv/api/short?limit=100&api_token=RgFQdUIR2dRmwv8iYa5SnFNgnw3vpjKj&cache32265=32265&page=2264","to":226420,"total":64908}