{"result":true,"data":[{"id":48295,"title":"Двухколесный друг","kp_id":null,"imdb_id":"tt13947978","world_art_id":null,"type":"movie","add":"2021-02-28 13:20:20","orig_title":"Accomplice","year":"2021-01-28","translations":["Любительский (одноголосый закадровый)"],"quality":"webdl","translation":"Любительский (одноголосый закадровый)","update":"2021-02-28 14:25:10","iframe_src":"//83.svetacdn.in/PfJ50H0ZBPg3/movie/48295"},{"id":48293,"title":"Клятва на крови","kp_id":"587311","imdb_id":"tt1920986","world_art_id":null,"type":"movie","add":"2021-02-27 16:30:55","orig_title":"Khuda Kasam","year":"2010-11-26","translations":["Профессиональный (многоголосый закадровый) (Red Media)"],"quality":"webdl","translation":"Профессиональный (многоголосый закадровый) (Red Media)","update":"2021-03-01 08:58:42","iframe_src":"//83.svetacdn.in/PfJ50H0ZBPg3/movie/48293"},{"id":48289,"title":"Карманные деньги","kp_id":"18494","imdb_id":"tt0074152","world_art_id":null,"type":"movie","add":"2021-02-27 07:46:42","orig_title":"L'argent de poche","year":"1976-03-17","translations":["Авторский (одноголосый закадровый) (Кузнецов Сергей)"],"quality":"bd","translation":"Авторский (одноголосый закадровый) (Кузнецов Сергей)","update":"2021-03-01 09:37:57","iframe_src":"//83.svetacdn.in/PfJ50H0ZBPg3/movie/48289"},{"id":48287,"title":"Обрыв","kp_id":"4326564","imdb_id":null,"world_art_id":null,"type":"movie","add":"2021-02-27 07:27:18","orig_title":"Обрыв","year":"2020-01-01","translations":["Оригинальная дорожка"],"quality":"webdl","translation":"Оригинальная дорожка","update":"2021-02-27 15:27:06","iframe_src":"//83.svetacdn.in/PfJ50H0ZBPg3/movie/48287"},{"id":48285,"title":"Три виноградины","kp_id":"1284488","imdb_id":"tt10657126","world_art_id":null,"type":"movie","add":"2021-02-26 16:49:31","orig_title":"3Bobule","year":"2020-06-25","translations":["Любительский (многоголосый закадровый) (Синема УС)"],"quality":"bd","translation":"Любительский (многоголосый закадровый) (Синема УС)","update":"2021-02-26 23:28:06","iframe_src":"//83.svetacdn.in/PfJ50H0ZBPg3/movie/48285"},{"id":48284,"title":"Под маской Марвел","kp_id":"4365701","imdb_id":"tt13885628","world_art_id":null,"type":"movie","add":"2021-02-26 16:46:50","orig_title":"Marvel's Behind the Mask","year":"2021-02-12","translations":["Любительский (многоголосый закадровый) (Синема УС)"],"quality":"webdl","translation":"Любительский (многоголосый закадровый) (Синема УС)","update":"2021-02-26 23:28:34","iframe_src":"//83.svetacdn.in/PfJ50H0ZBPg3/movie/48284"},{"id":48283,"title":"Искренне твой","kp_id":"1273859","imdb_id":"tt10372548","world_art_id":null,"type":"movie","add":"2021-02-26 16:43:42","orig_title":"Sincerely, Yours, Truly","year":"2020-01-20","translations":["Любительский (многоголосый закадровый) (Синема УС)"],"quality":"hdtv","translation":"Любительский (многоголосый закадровый) (Синема УС)","update":"2021-02-26 23:24:15","iframe_src":"//83.svetacdn.in/PfJ50H0ZBPg3/movie/48283"},{"id":48278,"title":"Свидетель","kp_id":"1322151","imdb_id":"tt11222994","world_art_id":null,"type":"movie","add":"2021-02-26 15:33:08","orig_title":"IMThem","year":"2021-02-21","translations":["Любительский (многоголосый закадровый) (Синема УС)"],"quality":"webdl","translation":"Любительский (многоголосый закадровый) (Синема УС)","update":"2021-02-26 23:26:55","iframe_src":"//83.svetacdn.in/PfJ50H0ZBPg3/movie/48278"},{"id":48277,"title":"Потерянные и ищущие","kp_id":null,"imdb_id":"tt13806204","world_art_id":null,"type":"movie","add":"2021-02-26 15:29:21","orig_title":"Lost & Striving","year":"2021-01-01","translations":["Любительский (многоголосый закадровый) (AlphaProject)"],"quality":"webdl","translation":"Любительский (многоголосый закадровый) (AlphaProject)","update":"2021-02-26 23:26:25","iframe_src":"//83.svetacdn.in/PfJ50H0ZBPg3/movie/48277"},{"id":48276,"title":"Кактус Джек","kp_id":"1203148","imdb_id":"tt9001474","world_art_id":null,"type":"movie","add":"2021-02-26 15:24:33","orig_title":"Cactus Jack","year":"2021-01-22","translations":["Любительский (многоголосый закадровый) (AlphaProject)"],"quality":"webdl","translation":"Любительский (многоголосый закадровый) (AlphaProject)","update":"2021-02-26 23:26:00","iframe_src":"//83.svetacdn.in/PfJ50H0ZBPg3/movie/48276"},{"id":48275,"title":"Правосудие – в паутине власти","kp_id":"1083113","imdb_id":"tt7003320","world_art_id":null,"type":"movie","add":"2021-02-26 15:20:08","orig_title":"Justice - Verstrickt im Netz der Macht","year":"2019-10-31","translations":["Любительский (многоголосый закадровый) (Синема УС)"],"quality":"webdl","translation":"Любительский (многоголосый закадровый) (Синема УС)","update":"2021-02-26 23:25:15","iframe_src":"//83.svetacdn.in/PfJ50H0ZBPg3/movie/48275"},{"id":48274,"title":"Кайна","kp_id":null,"imdb_id":"tt6180106","world_art_id":null,"type":"movie","add":"2021-02-26 15:16:35","orig_title":"Caina","year":"2020-07-30","translations":["Любительский (многоголосый закадровый) (Синема УС)"],"quality":"webdl","translation":"Любительский (многоголосый закадровый) (Синема УС)","update":"2021-02-26 23:24:40","iframe_src":"//83.svetacdn.in/PfJ50H0ZBPg3/movie/48274"},{"id":48264,"title":"Монах с хлыстом","kp_id":"234447","imdb_id":"tt0062022","world_art_id":null,"type":"movie","add":"2021-02-26 06:51:28","orig_title":"Der Mönch mit der Peitsche","year":"1967-08-11","translations":["Профессиональный (многоголосый закадровый) (5-й канал СПб)"],"quality":"bd","translation":"Профессиональный (многоголосый закадровый) (5-й канал СПб)","update":"2021-02-27 15:30:43","iframe_src":"//83.svetacdn.in/PfJ50H0ZBPg3/movie/48264"},{"id":48019,"title":"Школа отменяется навсегда","kp_id":"1290463","imdb_id":"tt10510280","world_art_id":null,"type":"movie","add":"2021-02-17 19:00:19","orig_title":"School's Out Forever","year":"2021-02-15","translations":["Профессиональный (многоголосый закадровый) (HDrezka Studio)"],"quality":"webdl","translation":"Профессиональный (многоголосый закадровый) (HDrezka Studio)","update":"2021-02-27 13:15:03","iframe_src":"//83.svetacdn.in/PfJ50H0ZBPg3/movie/48019"},{"id":46902,"title":"Не возненавидь","kp_id":"1211961","imdb_id":"tt8571674","world_art_id":null,"type":"movie","add":"2021-01-11 09:40:00","orig_title":"Non odiare","year":"2020-09-10","translations":["Любительский (многоголосый закадровый) (@MUZOBOZ@)"],"quality":"bd","translation":"Любительский (многоголосый закадровый) (@MUZOBOZ@)","update":"2021-03-01 09:42:23","iframe_src":"//83.svetacdn.in/PfJ50H0ZBPg3/movie/46902"},{"id":45996,"title":"Заклятье: Другая сторона","kp_id":"1330635","imdb_id":"tt11320192","world_art_id":null,"type":"movie","add":"2020-12-10 22:38:02","orig_title":"Andra sidan","year":"2020-10-23","translations":["Полное дублирование (iTunes)"],"quality":"webdl","translation":"Полное дублирование (iTunes)","update":"2021-03-01 08:30:43","iframe_src":"//83.svetacdn.in/PfJ50H0ZBPg3/movie/45996"},{"id":45858,"title":"Что скрывает вода","kp_id":"1214235","imdb_id":"tt9264728","world_art_id":null,"type":"movie","add":"2020-12-05 10:49:15","orig_title":"What Lies Below","year":"2020-12-04","translations":["Любительский (многоголосый закадровый) (@MUZOBOZ@)","Original (English)","Полное дублирование (iTunes)"],"quality":"webdl","translation":"Любительский (многоголосый закадровый) (@MUZOBOZ@)","update":"2021-02-27 15:36:07","iframe_src":"//83.svetacdn.in/PfJ50H0ZBPg3/movie/45858"},{"id":44703,"title":"Мальмкрог","kp_id":"1263727","imdb_id":"tt10213380","world_art_id":null,"type":"movie","add":"2020-10-22 19:16:13","orig_title":"Malmkrog","year":"2020-02-20","translations":["Любительский (многоголосый закадровый) (AlphaProject)","Любительский (многоголосый закадровый) (AlphaProject)"],"quality":"webdl","translation":"Любительский (многоголосый закадровый) (AlphaProject)","update":"2021-03-01 09:47:51","iframe_src":"//83.svetacdn.in/PfJ50H0ZBPg3/movie/44703"},{"id":44499,"title":"Фестиваль Рифкина","kp_id":"1169702","imdb_id":"tt8593904","world_art_id":null,"type":"movie","add":"2020-10-16 12:54:51","orig_title":"Rifkin's Festival","year":"2020-09-18","translations":["Полное дублирование (iTunes)"],"quality":"webdl","translation":"Полное дублирование (iTunes)","update":"2021-02-27 15:25:20","iframe_src":"//83.svetacdn.in/PfJ50H0ZBPg3/movie/44499"},{"id":7137,"title":"Инспектор Гаджет","kp_id":"229620","imdb_id":"tt0085033","world_art_id":null,"type":"serial","add":"2020-04-08 17:04:03","orig_title":"Inspector Gadget","year":"1983-09-12","translations":["Профессиональный (многоголосый закадровый)"],"seasons_count":2,"episodes_count":86,"episodes":21,"update":"2020-04-09 12:48:56","iframe_src":"//83.svetacdn.in/PfJ50H0ZBPg3/tv-series/7137"},{"id":7135,"title":"Война за мечту","kp_id":"1189867","imdb_id":"tt6489202","world_art_id":null,"type":"serial","add":"2020-04-08 10:56:59","orig_title":"Clash of Futures","year":"2018-09-11","translations":["Любительский (многоголосый закадровый) (GreenРай Studio)"],"seasons_count":1,"episodes_count":8,"episodes":8,"update":"2020-04-08 18:13:40","iframe_src":"//83.svetacdn.in/PfJ50H0ZBPg3/tv-series/7135"},{"id":7134,"title":"Гори в аду шоу","kp_id":"499941","imdb_id":"tt1556078","world_art_id":null,"type":"serial","add":"2020-04-08 10:51:46","orig_title":"Funny or Die Presents...","year":"2010-02-19","translations":["Профессиональный (многоголосый закадровый) (Кравец)"],"seasons_count":2,"episodes_count":22,"episodes":10,"update":"2020-04-08 17:37:24","iframe_src":"//83.svetacdn.in/PfJ50H0ZBPg3/tv-series/7134"},{"id":7132,"title":"Твой мир","kp_id":"673039","imdb_id":"tt4280990","world_art_id":null,"type":"serial","add":"2020-04-08 07:37:27","orig_title":"Tvoy mir","year":"2012-05-14","translations":["Оригинальная дорожка"],"seasons_count":1,"episodes_count":16,"episodes":16,"update":"2020-04-09 08:42:45","iframe_src":"//83.svetacdn.in/PfJ50H0ZBPg3/tv-series/7132"},{"id":7129,"title":"Три сестры","kp_id":"1356111","imdb_id":"tt11981288","world_art_id":null,"type":"serial","add":"2020-04-08 07:20:26","orig_title":"Tri sestry","year":"2020-03-02","translations":["Оригинальная дорожка"],"seasons_count":1,"episodes_count":8,"episodes":8,"update":"2020-04-08 15:48:42","iframe_src":"//83.svetacdn.in/PfJ50H0ZBPg3/tv-series/7129"},{"id":7124,"title":"Старая школа","kp_id":"818797","imdb_id":"tt3164100","world_art_id":null,"type":"serial","add":"2020-04-07 19:53:06","orig_title":"Old School","year":"2014-05-23","translations":["Профессиональный (многоголосый закадровый) (BaibaKo)"],"seasons_count":1,"episodes_count":8,"episodes":8,"update":"2020-04-08 20:39:29","iframe_src":"//83.svetacdn.in/PfJ50H0ZBPg3/tv-series/7124"},{"id":7121,"title":"Компаньоны","kp_id":"504724","imdb_id":"tt1600199","world_art_id":null,"type":"serial","add":"2020-04-07 12:28:41","orig_title":"Franklin & Bash","year":"2011-06-01","translations":["Профессиональный (многоголосый закадровый) (SET)"],"seasons_count":4,"episodes_count":40,"episodes":10,"update":"2020-04-08 14:34:20","iframe_src":"//83.svetacdn.in/PfJ50H0ZBPg3/tv-series/7121"},{"id":7118,"title":"Изящный цветок","kp_id":"297213","imdb_id":"tt0101050","world_art_id":null,"type":"serial","add":"2020-04-07 11:31:37","orig_title":"Blossom","year":"1991-01-03","translations":["Любительский (одноголосый закадровый)"],"seasons_count":1,"episodes_count":14,"episodes":14,"update":"2020-04-08 14:03:44","iframe_src":"//83.svetacdn.in/PfJ50H0ZBPg3/tv-series/7118"},{"id":7115,"title":"Величайшие сражения древности","kp_id":"472210","imdb_id":"tt1274788","world_art_id":null,"type":"serial","add":"2020-04-07 08:44:26","orig_title":"Battles BC","year":"2009-03-09","translations":["Профессиональный (многоголосый закадровый)"],"seasons_count":1,"episodes_count":8,"episodes":8,"update":"2020-04-08 15:52:00","iframe_src":"//83.svetacdn.in/PfJ50H0ZBPg3/tv-series/7115"},{"id":7114,"title":"Петтсон и Финдус","kp_id":"601836","imdb_id":"tt1122790","world_art_id":null,"type":"serial","add":"2020-04-07 07:43:53","orig_title":"Pettson und Findus","year":"1999-01-01","translations":["Полное дублирование"],"seasons_count":1,"episodes_count":13,"episodes":13,"update":"2020-04-08 15:46:59","iframe_src":"//83.svetacdn.in/PfJ50H0ZBPg3/tv-series/7114"},{"id":7113,"title":"Супер весёлый вечер","kp_id":"673145","imdb_id":"tt2298477","world_art_id":null,"type":"serial","add":"2020-04-07 07:35:42","orig_title":"Super Fun Night","year":"2013-10-02","translations":["Профессиональный (многоголосый закадровый) (ТНТ)"],"seasons_count":1,"episodes_count":17,"episodes":17,"update":"2020-04-08 15:09:49","iframe_src":"//83.svetacdn.in/PfJ50H0ZBPg3/tv-series/7113"},{"id":7108,"title":"Красные браслеты","kp_id":"929638","imdb_id":"tt4942462","world_art_id":null,"type":"serial","add":"2020-04-06 13:39:43","orig_title":"Club der roten Bänder","year":"2015-11-09","translations":["Профессиональный (двухголосый закадровый) (ViruseProject)","Профессиональный (многоголосый закадровый) (ViruseProject)"],"seasons_count":3,"episodes_count":30,"episodes":10,"update":"2020-04-09 05:52:14","iframe_src":"//83.svetacdn.in/PfJ50H0ZBPg3/tv-series/7108"},{"id":7105,"title":"Истина в вине","kp_id":"843822","imdb_id":"tt8428510","world_art_id":null,"type":"serial","add":"2020-04-06 12:33:20","orig_title":"Istina v vine","year":"2015-05-03","translations":["Оригинальная дорожка"],"seasons_count":1,"episodes_count":4,"episodes":4,"update":"2020-04-08 13:38:58","iframe_src":"//83.svetacdn.in/PfJ50H0ZBPg3/tv-series/7105"},{"id":7094,"title":"Сумасшедшие за стеклом","kp_id":"276360","imdb_id":"tt0386180","world_art_id":null,"type":"serial","add":"2020-04-05 09:59:08","orig_title":"Drawn Together","year":"2004-10-27","translations":["Полное дублирование"],"seasons_count":3,"episodes_count":36,"episodes":14,"update":"2020-04-08 13:31:00","iframe_src":"//83.svetacdn.in/PfJ50H0ZBPg3/tv-series/7094"},{"id":7039,"title":"Час Волкова","kp_id":"417852","imdb_id":"tt4055172","world_art_id":null,"type":"serial","add":"2020-04-01 10:32:33","orig_title":"Chas Volkova","year":"2007-10-03","translations":["Оригинальная дорожка"],"seasons_count":5,"episodes_count":138,"episodes":32,"update":"2020-04-09 11:48:51","iframe_src":"//83.svetacdn.in/PfJ50H0ZBPg3/tv-series/7039"},{"id":6754,"title":"Корни","kp_id":"1278738","imdb_id":null,"world_art_id":null,"type":"serial","add":"2020-03-02 14:02:15","orig_title":"Корни","year":"2020-03-02","translations":["Оригинальная дорожка"],"seasons_count":1,"episodes_count":21,"episodes":21,"update":"2020-04-08 19:52:08","iframe_src":"//83.svetacdn.in/PfJ50H0ZBPg3/tv-series/6754"},{"id":6318,"title":"Ласточкино гнездо","kp_id":"591824","imdb_id":"tt3286686","world_art_id":null,"type":"serial","add":"2020-01-11 16:23:59","orig_title":"Ласточкино гнездо","year":"2012-01-09","translations":["Оригинальная дорожка"],"seasons_count":1,"episodes_count":12,"episodes":12,"update":"2020-04-08 19:34:32","iframe_src":"//83.svetacdn.in/PfJ50H0ZBPg3/tv-series/6318"},{"id":6192,"title":"Благотворительный базар","kp_id":"1197908","imdb_id":"tt9050352","world_art_id":null,"type":"serial","add":"2019-12-31 12:02:16","orig_title":"Le Bazar de la Charité","year":"2019-11-11","translations":["Профессиональный (многоголосый закадровый) (BaibaKo)","Любительский (многоголосый закадровый) (WestFilm)","Профессиональный (двухголосый закадровый) (ViruseProject)"],"seasons_count":1,"episodes_count":8,"episodes":8,"update":"2020-04-09 08:51:55","iframe_src":"//83.svetacdn.in/PfJ50H0ZBPg3/tv-series/6192"},{"id":4947,"title":"Правосудие","kp_id":"500600","imdb_id":"tt1489428","world_art_id":null,"type":"serial","add":"2019-07-25 20:21:36","orig_title":"Justified","year":"2010-03-16","translations":["Профессиональный (многоголосый закадровый) (Fox Crime)","Профессиональный (многоголосый закадровый) (Jaskier)"],"seasons_count":6,"episodes_count":78,"episodes":13,"update":"2020-04-08 13:56:04","iframe_src":"//83.svetacdn.in/PfJ50H0ZBPg3/tv-series/4947"},{"id":17055,"title":"Убийцы","kp_id":"1048633","imdb_id":"tt6901252","world_art_id":null,"type":"movie","add":"2018-06-05 22:09:22","orig_title":"Tueurs","year":"2017-09-05","translations":["Любительский (многоголосый закадровый) (@MUZOBOZ@)","Профессиональный (многоголосый закадровый) (Первый канал | ОРТ)"],"quality":"bd","translation":"Любительский (многоголосый закадровый) (@MUZOBOZ@)","update":"2021-03-01 09:01:52","iframe_src":"//83.svetacdn.in/PfJ50H0ZBPg3/movie/17055"},{"id":2715,"title":"Фауда","kp_id":"893155","imdb_id":"tt4565380","world_art_id":null,"type":"serial","add":"2018-06-03 09:08:04","orig_title":"Fauda","year":"2015-02-15","translations":["Любительский (многоголосый закадровый) (ColdFilm)","Любительский (многоголосый закадровый) (GreenРай Studio)","Любительский (двухголосый закадровый) (RusFilm)","Профессиональный (многоголосый закадровый) (BaibaKo)","Любительский (многоголосый закадровый) (Octopus)","Любительский (многоголосый закадровый) (WestFilm)"],"seasons_count":3,"episodes_count":36,"episodes":12,"update":"2020-04-09 12:59:00","iframe_src":"//83.svetacdn.in/PfJ50H0ZBPg3/tv-series/2715"}],"current_page":252,"first_page_url":"https://videocdn.tv/api/short?limit=100&api_token=RgFQdUIR2dRmwv8iYa5SnFNgnw3vpjKj&cache3252=3252&page=1","from":25101,"last_page":636,"last_page_url":"https://videocdn.tv/api/short?limit=100&api_token=RgFQdUIR2dRmwv8iYa5SnFNgnw3vpjKj&cache3252=3252&page=636","next_page_url":"https://videocdn.tv/api/short?limit=100&api_token=RgFQdUIR2dRmwv8iYa5SnFNgnw3vpjKj&cache3252=3252&page=253","path":"https://videocdn.tv/api/short","per_page":100,"prev_page_url":"https://videocdn.tv/api/short?limit=100&api_token=RgFQdUIR2dRmwv8iYa5SnFNgnw3vpjKj&cache3252=3252&page=251","to":25140,"total":63545}