{"result":true,"data":[{"id":51255,"title":"Шваль","kp_id":null,"imdb_id":"tt10351040","world_art_id":null,"type":"movie","add":"2021-06-17 08:59:17","orig_title":"Trash","year":"2019-05-01","translations":["Любительский (многоголосый закадровый) (Синема УС)"],"quality":"webdl","translation":"Любительский (многоголосый закадровый) (Синема УС)","update":"2021-06-18 08:45:50","iframe_src":"//5091.svetacdn.in/si4jsFRrtgrT/movie/51255"},{"id":51253,"title":"Всего лишь сон","kp_id":"1240506","imdb_id":"tt8778296","world_art_id":null,"type":"movie","add":"2021-06-17 08:55:10","orig_title":"Just Another Dream","year":"2021-06-15","translations":["Любительский (многоголосый закадровый) (Синема УС)"],"quality":"webdl","translation":"Любительский (многоголосый закадровый) (Синема УС)","update":"2021-06-18 08:43:17","iframe_src":"//5091.svetacdn.in/si4jsFRrtgrT/movie/51253"},{"id":51252,"title":"Непростая любовь","kp_id":"1232261","imdb_id":"tt9630868","world_art_id":null,"type":"movie","add":"2021-06-17 08:52:22","orig_title":"No Ordinary Love","year":"2019-05-19","translations":["Любительский (многоголосый закадровый) (Синема УС)"],"quality":"webdl","translation":"Любительский (многоголосый закадровый) (Синема УС)","update":"2021-06-18 08:45:26","iframe_src":"//5091.svetacdn.in/si4jsFRrtgrT/movie/51252"},{"id":51251,"title":"Цена безопасности","kp_id":"1354035","imdb_id":"tt11892916","world_art_id":null,"type":"movie","add":"2021-06-17 08:51:19","orig_title":"Security","year":"2021-06-07","translations":["Любительский (многоголосый закадровый) (@MUZOBOZ@)"],"quality":"webdl","translation":"Любительский (многоголосый закадровый) (@MUZOBOZ@)","update":"2021-06-18 08:44:04","iframe_src":"//5091.svetacdn.in/si4jsFRrtgrT/movie/51251"},{"id":51250,"title":"Тени и эхо","kp_id":"1390151","imdb_id":"tt11448496","world_art_id":null,"type":"movie","add":"2021-06-17 08:49:48","orig_title":"Shadows and Echoes","year":"2019-04-07","translations":["Любительский (двухголосый закадровый) (Колобок)"],"quality":"webdl","translation":"Любительский (двухголосый закадровый) (Колобок)","update":"2021-06-18 08:44:18","iframe_src":"//5091.svetacdn.in/si4jsFRrtgrT/movie/51250"},{"id":51249,"title":"Зачем мы дышим","kp_id":"1214711","imdb_id":"tt9290138","world_art_id":null,"type":"movie","add":"2021-06-17 08:48:50","orig_title":"Why We Breathe","year":"2020-12-16","translations":["Любительский (многоголосый закадровый) (Синема УС)"],"quality":"webdl","translation":"Любительский (многоголосый закадровый) (Синема УС)","update":"2021-06-18 08:46:05","iframe_src":"//5091.svetacdn.in/si4jsFRrtgrT/movie/51249"},{"id":51248,"title":"Демон с того света","kp_id":"1406725","imdb_id":"tt11285882","world_art_id":null,"type":"movie","add":"2021-06-17 08:42:26","orig_title":"Zhi Zun xian sheng","year":"2019-07-01","translations":["Любительский (двухголосый закадровый) (Колобок)"],"quality":"webdl","translation":"Любительский (двухголосый закадровый) (Колобок)","update":"2021-06-18 08:45:14","iframe_src":"//5091.svetacdn.in/si4jsFRrtgrT/movie/51248"},{"id":51247,"title":"Что-то скрывается в тени","kp_id":null,"imdb_id":"tt14741844","world_art_id":null,"type":"movie","add":"2021-06-17 08:41:00","orig_title":"There's Something in the Shadows","year":"2021-05-31","translations":["Любительский (многоголосый закадровый) (Синема УС)"],"quality":"webdl","translation":"Любительский (многоголосый закадровый) (Синема УС)","update":"2021-06-18 08:45:01","iframe_src":"//5091.svetacdn.in/si4jsFRrtgrT/movie/51247"},{"id":51246,"title":"Без шума","kp_id":"1060823","imdb_id":"tt6682438","world_art_id":null,"type":"movie","add":"2021-06-17 08:39:00","orig_title":"Szép csendben","year":"2019-10-13","translations":["Любительский (многоголосый закадровый) (Синема УС)"],"quality":"webdl","translation":"Любительский (многоголосый закадровый) (Синема УС)","update":"2021-06-18 08:44:42","iframe_src":"//5091.svetacdn.in/si4jsFRrtgrT/movie/51246"},{"id":51245,"title":"Мускулкар","kp_id":null,"imdb_id":"tt7680690","world_art_id":null,"type":"movie","add":"2021-06-17 08:37:30","orig_title":"Musclecar","year":"2017-11-01","translations":["Любительский (многоголосый закадровый) (Синема УС)"],"quality":"webdl","translation":"Любительский (многоголосый закадровый) (Синема УС)","update":"2021-06-18 08:43:46","iframe_src":"//5091.svetacdn.in/si4jsFRrtgrT/movie/51245"},{"id":51244,"title":"Протечка","kp_id":"1393699","imdb_id":"tt9145448","world_art_id":null,"type":"movie","add":"2021-06-17 08:36:06","orig_title":"Leakage","year":"2019-02-14","translations":["Любительский (многоголосый закадровый) (Синема УС)"],"quality":"webdl","translation":"Любительский (многоголосый закадровый) (Синема УС)","update":"2021-06-18 08:43:32","iframe_src":"//5091.svetacdn.in/si4jsFRrtgrT/movie/51244"},{"id":51243,"title":"В ночь на Хэллуин","kp_id":"1276523","imdb_id":"tt10520218","world_art_id":null,"type":"movie","add":"2021-06-17 08:35:06","orig_title":"Halloween Night","year":"2020-03-13","translations":["Любительский (многоголосый закадровый) (Синема УС)"],"quality":"webdl","translation":"Любительский (многоголосый закадровый) (Синема УС)","update":"2021-06-18 08:42:49","iframe_src":"//5091.svetacdn.in/si4jsFRrtgrT/movie/51243"},{"id":51242,"title":"Двенадцать баллов","kp_id":"1250797","imdb_id":"tt10066522","world_art_id":null,"type":"movie","add":"2021-06-17 08:32:57","orig_title":"Douze Points","year":"2019-05-19","translations":["Любительский (многоголосый закадровый) (Синема УС)"],"quality":"webdl","translation":"Любительский (многоголосый закадровый) (Синема УС)","update":"2021-06-18 08:42:04","iframe_src":"//5091.svetacdn.in/si4jsFRrtgrT/movie/51242"},{"id":51232,"title":"Тёмная звезда","kp_id":"31729","imdb_id":"tt0069945","world_art_id":null,"type":"movie","add":"2021-06-16 12:23:08","orig_title":"Dark Star","year":"1975-01-16","translations":["Original (English)","Любительский (одноголосый закадровый)","Профессиональный (двухголосый закадровый)","Авторский (одноголосый закадровый) (Визгунов Сергей)"],"quality":"bd","translation":"Original (English)","update":"2021-06-18 13:14:10","iframe_src":"//5091.svetacdn.in/si4jsFRrtgrT/movie/51232"},{"id":8374,"title":"Легенда о принце Валианте","kp_id":"102717","imdb_id":"tt0101171","world_art_id":null,"type":"serial","add":"2020-08-05 12:07:43","orig_title":"The Legend of Prince Valiant","year":"1991-09-03","translations":["Полное дублирование"],"seasons_count":2,"episodes_count":65,"episodes":39,"update":"2020-08-07 13:50:24","iframe_src":"//5091.svetacdn.in/si4jsFRrtgrT/tv-series/8374"},{"id":8373,"title":"Лагерь WWE","kp_id":"974223","imdb_id":"tt3312822","world_art_id":null,"type":"serial","add":"2020-08-05 12:03:44","orig_title":"Camp WWE","year":"2016-05-01","translations":["Профессиональный (многоголосый закадровый) (ViruseProject)"],"seasons_count":1,"episodes_count":5,"episodes":5,"update":"2020-08-06 21:30:22","iframe_src":"//5091.svetacdn.in/si4jsFRrtgrT/tv-series/8373"},{"id":8370,"title":"Всё, что нам нужно...","kp_id":"596079","imdb_id":"tt5263118","world_art_id":null,"type":"serial","add":"2020-08-04 20:34:07","orig_title":"Vsyo, chto nam nuzhno","year":"2012-01-02","translations":["Оригинальная дорожка"],"seasons_count":1,"episodes_count":4,"episodes":4,"update":"2020-08-05 21:13:36","iframe_src":"//5091.svetacdn.in/si4jsFRrtgrT/tv-series/8370"},{"id":8367,"title":"Большой барьерный риф с Дэвидом Аттенборо","kp_id":"982445","imdb_id":"tt5329344","world_art_id":null,"type":"serial","add":"2020-08-04 16:11:15","orig_title":"Great Barrier Reef with David Attenborough","year":"2015-12-30","translations":["Любительский (одноголосый закадровый)"],"seasons_count":1,"episodes_count":3,"episodes":3,"update":"2020-08-06 17:42:03","iframe_src":"//5091.svetacdn.in/si4jsFRrtgrT/tv-series/8367"},{"id":8366,"title":"Свидание с войной","kp_id":"972894","imdb_id":null,"world_art_id":null,"type":"serial","add":"2020-08-04 16:08:03","orig_title":"Свидание с войной","year":"2016-05-02","translations":["Оригинальная дорожка"],"seasons_count":1,"episodes_count":4,"episodes":4,"update":"2020-08-06 17:39:49","iframe_src":"//5091.svetacdn.in/si4jsFRrtgrT/tv-series/8366"},{"id":8365,"title":"Рай и Ад: Север и Юг. Книга 3","kp_id":"229265","imdb_id":"tt0108823","world_art_id":null,"type":"serial","add":"2020-08-04 16:00:01","orig_title":"Heaven & Hell: North & South, Book III","year":"1994-02-27","translations":["Любительский (одноголосый закадровый)"],"seasons_count":1,"episodes_count":3,"episodes":3,"update":"2020-08-06 17:35:27","iframe_src":"//5091.svetacdn.in/si4jsFRrtgrT/tv-series/8365"},{"id":8364,"title":"Молодая Екатерина","kp_id":"102830","imdb_id":"tt0103311","world_art_id":null,"type":"serial","add":"2020-08-04 15:57:34","orig_title":"Young Catherine","year":"1991-02-17","translations":["Профессиональный (многоголосый закадровый)"],"seasons_count":1,"episodes_count":2,"episodes":2,"update":"2020-08-06 17:34:22","iframe_src":"//5091.svetacdn.in/si4jsFRrtgrT/tv-series/8364"},{"id":8363,"title":"Холокост","kp_id":"257343","imdb_id":"tt0077025","world_art_id":null,"type":"serial","add":"2020-08-04 15:53:54","orig_title":"Holocaust","year":"1978-04-16","translations":["Профессиональный (многоголосый закадровый)"],"seasons_count":1,"episodes_count":5,"episodes":5,"update":"2020-08-06 17:33:47","iframe_src":"//5091.svetacdn.in/si4jsFRrtgrT/tv-series/8363"},{"id":8362,"title":"Ливерпуль: Плоть и кровь","kp_id":"707156","imdb_id":"tt2289518","world_art_id":null,"type":"serial","add":"2020-08-04 15:44:18","orig_title":"Being: Liverpool","year":"2012-09-16","translations":["Профессиональный (одноголосый закадровый)","Original (English)"],"seasons_count":1,"episodes_count":6,"episodes":6,"update":"2020-08-06 17:30:11","iframe_src":"//5091.svetacdn.in/si4jsFRrtgrT/tv-series/8362"},{"id":8361,"title":"1066","kp_id":"508158","imdb_id":"tt1329539","world_art_id":null,"type":"serial","add":"2020-08-04 15:41:06","orig_title":"1066","year":"2009-05-18","translations":["Профессиональный (двухголосый закадровый) (SDI Media)"],"seasons_count":1,"episodes_count":3,"episodes":3,"update":"2020-08-06 17:26:13","iframe_src":"//5091.svetacdn.in/si4jsFRrtgrT/tv-series/8361"},{"id":8260,"title":"Рактанчал","kp_id":"1381229","imdb_id":"tt12347286","world_art_id":null,"type":"serial","add":"2020-07-27 11:41:22","orig_title":"Raktanchal","year":"2020-05-28","translations":["Любительский (многоголосый закадровый) (Octopus)"],"seasons_count":1,"episodes_count":9,"episodes":9,"update":"2020-08-06 14:37:10","iframe_src":"//5091.svetacdn.in/si4jsFRrtgrT/tv-series/8260"},{"id":8245,"title":"Дикая кошка","kp_id":"405444","imdb_id":"tt0327759","world_art_id":null,"type":"serial","add":"2020-07-24 20:30:38","orig_title":"Gata salvaje","year":"2002-01-01","translations":["Профессиональный (многоголосый закадровый)"],"seasons_count":1,"episodes_count":231,"episodes":231,"update":"2020-08-06 21:26:26","iframe_src":"//5091.svetacdn.in/si4jsFRrtgrT/tv-series/8245"},{"id":8231,"title":"Мануэла","kp_id":"407017","imdb_id":"tt0224914","world_art_id":null,"type":"serial","add":"2020-07-21 20:34:40","orig_title":"Manuela","year":"1995-01-02","translations":["Профессиональный (многоголосый закадровый)"],"seasons_count":1,"episodes_count":226,"episodes":226,"update":"2020-08-05 21:40:17","iframe_src":"//5091.svetacdn.in/si4jsFRrtgrT/tv-series/8231"},{"id":7968,"title":"Чуть свет — в Кэндлфорд","kp_id":"474837","imdb_id":"tt1077744","world_art_id":null,"type":"serial","add":"2020-06-22 06:31:01","orig_title":"Lark Rise to Candleford","year":"2008-01-13","translations":["Профессиональный (многоголосый закадровый) (Культура)","Профессиональный (многоголосый закадровый) (FocusX)","Любительский (одноголосый закадровый)"],"seasons_count":4,"episodes_count":37,"episodes":6,"update":"2020-08-07 07:22:48","iframe_src":"//5091.svetacdn.in/si4jsFRrtgrT/tv-series/7968"},{"id":4758,"title":"Когда они нас увидят","kp_id":"1174230","imdb_id":"tt7137906","world_art_id":null,"type":"serial","add":"2019-06-27 10:58:34","orig_title":"When They See Us","year":"2019-05-31","translations":["Профессиональный (многоголосый закадровый) (NewStudio)","Профессиональный (многоголосый закадровый) (HDrezka Studio)","Профессиональный (многоголосый закадровый) (TVShows)"],"seasons_count":1,"episodes_count":4,"episodes":4,"update":"2020-08-07 07:42:21","iframe_src":"//5091.svetacdn.in/si4jsFRrtgrT/tv-series/4758"},{"id":4645,"title":"Городские истории","kp_id":"1150413","imdb_id":"tt7087260","world_art_id":null,"type":"serial","add":"2019-06-10 07:09:25","orig_title":"Tales of the City","year":"2019-06-07","translations":["Профессиональный (одноголосый закадровый)","Профессиональный (многоголосый закадровый) (HDrezka Studio)","Профессиональный (многоголосый закадровый) (TVShows)"],"seasons_count":1,"episodes_count":10,"episodes":10,"update":"2020-08-07 15:49:11","iframe_src":"//5091.svetacdn.in/si4jsFRrtgrT/tv-series/4645"},{"id":4170,"title":"Шоа","kp_id":"149936","imdb_id":"tt0090015","world_art_id":null,"type":"serial","add":"2019-02-26 21:59:16","orig_title":"Shoah","year":"1985-04-30","translations":["Профессиональный (двухголосый закадровый)","Профессиональный (многоголосый закадровый) (Лексикон)"],"seasons_count":1,"episodes_count":2,"episodes":2,"update":"2020-08-06 17:39:11","iframe_src":"//5091.svetacdn.in/si4jsFRrtgrT/tv-series/4170"},{"id":3696,"title":"Убей меня, исцели меня","kp_id":"885737","imdb_id":"tt4339192","world_art_id":null,"type":"serial","add":"2018-12-14 09:31:05","orig_title":"Kilmi, hilmi","year":"2015-01-07","translations":["Любительский (двухголосый закадровый) (GREEN TEA)","Профессиональный (двухголосый закадровый) (Нарышкин)"],"seasons_count":1,"episodes_count":20,"episodes":20,"update":"2020-08-07 11:59:29","iframe_src":"//5091.svetacdn.in/si4jsFRrtgrT/tv-series/3696"},{"id":3693,"title":"Ментовские войны 6","kp_id":"606937","imdb_id":"tt4423228","world_art_id":null,"type":"serial","add":"2018-12-14 08:52:47","orig_title":"Mentovskie voyny - 6","year":"2012-02-06","translations":["Оригинальная дорожка"],"seasons_count":1,"episodes_count":16,"episodes":16,"update":"2020-08-07 07:37:30","iframe_src":"//5091.svetacdn.in/si4jsFRrtgrT/tv-series/3693"},{"id":3167,"title":"Незнакомцы","kp_id":"1189945","imdb_id":"tt7551216","world_art_id":null,"type":"serial","add":"2018-09-14 09:56:16","orig_title":"Strangers","year":"2018-09-10","translations":["Профессиональный (многоголосый закадровый) (IdeaFilm)","Профессиональный (многоголосый закадровый) (HDrezka Studio)"],"seasons_count":1,"episodes_count":8,"episodes":8,"update":"2020-08-07 13:19:59","iframe_src":"//5091.svetacdn.in/si4jsFRrtgrT/tv-series/3167"},{"id":13804,"title":"Сканер-полицейский 2","kp_id":"4633","imdb_id":"tt0114344","world_art_id":null,"type":"movie","add":"2017-10-10 07:47:15","orig_title":"Scanner Cop II","year":"1995-01-25","translations":["Профессиональный (многоголосый закадровый)","Профессиональный (многоголосый закадровый)","Авторский (одноголосый закадровый) (Карцев Пётр)","Original (English)","Профессиональный (двухголосый закадровый) (РенТВ)"],"quality":"dvdrip","translation":"Профессиональный (многоголосый закадровый)","update":"2021-06-18 12:31:46","iframe_src":"//5091.svetacdn.in/si4jsFRrtgrT/movie/13804"},{"id":11078,"title":"Малыш Галахад","kp_id":"13599","imdb_id":"tt0056138","world_art_id":null,"type":"movie","add":"2017-04-18 17:08:05","orig_title":"Kid Galahad","year":"1962-08-11","translations":["Профессиональный (двухголосый закадровый) (НТВ)","Авторский (одноголосый закадровый) (Визгунов Сергей)","Original (English)","Профессиональный (двухголосый закадровый) (НТВ)"],"quality":"bd","translation":"Профессиональный (двухголосый закадровый) (НТВ)","update":"2021-06-18 13:25:43","iframe_src":"//5091.svetacdn.in/si4jsFRrtgrT/movie/11078"},{"id":5366,"title":"Турнир на выживание","kp_id":"276600","imdb_id":"tt0471041","world_art_id":null,"type":"movie","add":"2016-09-20 08:52:06","orig_title":"The Tournament","year":"2009-08-19","translations":["Профессиональный (многоголосый закадровый)","Профессиональный (многоголосый закадровый) (Киномания)","Авторский (одноголосый закадровый) (Гаврилов Андрей)","Авторский (одноголосый закадровый) (Немахов Юрий)","Original (English)","Профессиональный (многоголосый закадровый) (Lizard Cinema)"],"quality":"bd","translation":"Профессиональный (многоголосый закадровый)","update":"2021-06-18 13:15:56","iframe_src":"//5091.svetacdn.in/si4jsFRrtgrT/movie/5366"},{"id":3679,"title":"Взрослая неожиданность","kp_id":"87841","imdb_id":"tt0430922","world_art_id":null,"type":"movie","add":"2016-07-05 05:59:52","orig_title":"Role Models","year":"2008-10-22","translations":["Полное дублирование","Полное дублирование","Original (English)","Профессиональный (двухголосый закадровый)"],"quality":"bd","translation":"Полное дублирование","update":"2021-06-18 13:20:56","iframe_src":"//5091.svetacdn.in/si4jsFRrtgrT/movie/3679"},{"id":3176,"title":"Чужие среди нас","kp_id":"12340","imdb_id":"tt0096256","world_art_id":null,"type":"movie","add":"2016-06-16 07:05:48","orig_title":"They Live","year":"1988-11-04","translations":["Профессиональный (многоголосый закадровый)","Авторский (одноголосый закадровый) (Котов Вячеслав)","Авторский (одноголосый закадровый) (Дохалов Вартан)","Авторский (одноголосый закадровый) (Горчаков Василий)","Авторский (одноголосый закадровый) (Живов Юрий)","Профессиональный (многоголосый закадровый) (CP Digital)","Original (English)"],"quality":"bd","translation":"Профессиональный (многоголосый закадровый)","update":"2021-06-18 12:33:48","iframe_src":"//5091.svetacdn.in/si4jsFRrtgrT/movie/3176"},{"id":2456,"title":"Город порока","kp_id":"462787","imdb_id":"tt1235522","world_art_id":null,"type":"movie","add":"2016-05-23 11:19:31","orig_title":"Broken City","year":"2013-01-18","translations":["Профессиональный (многоголосый закадровый)","Полное дублирование","Авторский (одноголосый закадровый) (Гаевский Евгений)","Авторский (одноголосый закадровый) (Немахов Юрий)","Original (English)","Профессиональный (многоголосый закадровый)"],"quality":"bd","translation":"Профессиональный (многоголосый закадровый)","update":"2021-06-18 13:31:05","iframe_src":"//5091.svetacdn.in/si4jsFRrtgrT/movie/2456"}],"current_page":223,"first_page_url":"https://videocdn.tv/api/short?limit=100&api_token=X6EwAUfE5M9xbo7y0Bp0aPf3uXxG2KLL&cache3223=3223&page=1","from":22201,"last_page":669,"last_page_url":"https://videocdn.tv/api/short?limit=100&api_token=X6EwAUfE5M9xbo7y0Bp0aPf3uXxG2KLL&cache3223=3223&page=669","next_page_url":"https://videocdn.tv/api/short?limit=100&api_token=X6EwAUfE5M9xbo7y0Bp0aPf3uXxG2KLL&cache3223=3223&page=224","path":"https://videocdn.tv/api/short","per_page":100,"prev_page_url":"https://videocdn.tv/api/short?limit=100&api_token=X6EwAUfE5M9xbo7y0Bp0aPf3uXxG2KLL&cache3223=3223&page=222","to":22240,"total":66897}